[
  {
    "j28VNcUW": "1000000",
    "Cdv07KEU": "1",
    "TPR79fyI": "0"
  },
  {
    "j28VNcUW": "1000000",
    "Cdv07KEU": "2",
    "TPR79fyI": "50000"
  },
  {
    "j28VNcUW": "1000000",
    "Cdv07KEU": "3",
    "TPR79fyI": "150000"
  },
  {
    "j28VNcUW": "1000000",
    "Cdv07KEU": "4",
    "TPR79fyI": "250000"
  },
  {
    "j28VNcUW": "1000000",
    "Cdv07KEU": "5",
    "TPR79fyI": "400000"
  },
  {
    "j28VNcUW": "1000000",
    "Cdv07KEU": "6",
    "TPR79fyI": "550000"
  },
  {
    "j28VNcUW": "1000000",
    "Cdv07KEU": "7",
    "TPR79fyI": "700000"
  }
]