[
  {
    "IvuccUuD": "100",
    "LikAxb70": "",
    "b5VveUd8": "arena_rule_01.png",
    "hjAy9St3": "2",
    "2Smu5Mtq": "",
    "qp37xTDh": ""
  },
  {
    "IvuccUuD": "200",
    "LikAxb70": "",
    "b5VveUd8": "arena_rule_02.png",
    "hjAy9St3": "3",
    "2Smu5Mtq": "",
    "qp37xTDh": ""
  },
  {
    "IvuccUuD": "300",
    "LikAxb70": "",
    "b5VveUd8": "arena_rule_03.png",
    "hjAy9St3": "5",
    "2Smu5Mtq": "1,2,3,4,5,6,-50,0,0,0",
    "qp37xTDh": ""
  },
  {
    "IvuccUuD": "400",
    "LikAxb70": "",
    "b5VveUd8": "arena_rule_04.png",
    "hjAy9St3": "4",
    "2Smu5Mtq": "1,20,2,20,3,20,4,20,5,20",
    "qp37xTDh": ""
  },
  {
    "IvuccUuD": "500",
    "LikAxb70": "",
    "b5VveUd8": "arena_rule_05.png",
    "hjAy9St3": "5",
    "2Smu5Mtq": "1,0,0,0,0,0,100,100,100,50",
    "qp37xTDh": ""
  },
  {
    "IvuccUuD": "600",
    "LikAxb70": "",
    "b5VveUd8": "arena_rule_06.png",
    "hjAy9St3": "5",
    "2Smu5Mtq": "2,0,0,0,0,0,100,100,100,50",
    "qp37xTDh": ""
  },
  {
    "IvuccUuD": "700",
    "LikAxb70": "",
    "b5VveUd8": "arena_rule_07.png",
    "hjAy9St3": "5",
    "2Smu5Mtq": "3,0,0,0,0,0,100,100,100,50",
    "qp37xTDh": ""
  },
  {
    "IvuccUuD": "800",
    "LikAxb70": "",
    "b5VveUd8": "arena_rule_08.png",
    "hjAy9St3": "5",
    "2Smu5Mtq": "4,0,0,0,0,0,100,100,100,50",
    "qp37xTDh": ""
  },
  {
    "IvuccUuD": "900",
    "LikAxb70": "",
    "b5VveUd8": "arena_rule_09.png",
    "hjAy9St3": "5",
    "2Smu5Mtq": "5,0,0,0,0,0,100,100,100,50",
    "qp37xTDh": ""
  },
  {
    "IvuccUuD": "1000",
    "LikAxb70": "",
    "b5VveUd8": "arena_rule_10.png",
    "hjAy9St3": "5",
    "2Smu5Mtq": "6,0,0,0,0,0,100,100,100,50",
    "qp37xTDh": ""
  },
  {
    "IvuccUuD": "1100",
    "LikAxb70": "",
    "b5VveUd8": "arena_rule_11.png",
    "hjAy9St3": "6",
    "2Smu5Mtq": "1,-1,-1,100,100,100,50",
    "qp37xTDh": ""
  },
  {
    "IvuccUuD": "1200",
    "LikAxb70": "",
    "b5VveUd8": "arena_rule_12.png",
    "hjAy9St3": "6",
    "2Smu5Mtq": "2,-1,-1,100,100,100,50",
    "qp37xTDh": ""
  },
  {
    "IvuccUuD": "1300",
    "LikAxb70": "",
    "b5VveUd8": "arena_rule_13.png",
    "hjAy9St3": "6",
    "2Smu5Mtq": "0,-1,-1,100,100,100,50",
    "qp37xTDh": ""
  },
  {
    "IvuccUuD": "1400",
    "LikAxb70": "",
    "b5VveUd8": "arena_rule_14.png",
    "hjAy9St3": "7",
    "2Smu5Mtq": "",
    "qp37xTDh": ""
  },
  {
    "IvuccUuD": "1500",
    "LikAxb70": "",
    "b5VveUd8": "arena_rule_15.png",
    "hjAy9St3": "8",
    "2Smu5Mtq": "",
    "qp37xTDh": ""
  },
  {
    "IvuccUuD": "1600",
    "LikAxb70": "",
    "b5VveUd8": "arena_rule_16.png",
    "hjAy9St3": "9",
    "2Smu5Mtq": "",
    "qp37xTDh": ""
  }
]