[
  {
    "5pkWU4yH": "1001",
    "RVVgyuor": "",
    "XuJL4pc5": "100",
    "xP9oi5Z2": "1",
    "M2cv6dum": "su_skill_icon_01_01.png"
  },
  {
    "5pkWU4yH": "1002",
    "RVVgyuor": "",
    "XuJL4pc5": "200",
    "xP9oi5Z2": "1",
    "M2cv6dum": "su_skill_icon_01_02.png"
  },
  {
    "5pkWU4yH": "1003",
    "RVVgyuor": "",
    "XuJL4pc5": "300",
    "xP9oi5Z2": "1",
    "M2cv6dum": "su_skill_icon_01_03.png"
  },
  {
    "5pkWU4yH": "1004",
    "RVVgyuor": "",
    "XuJL4pc5": "400",
    "xP9oi5Z2": "1",
    "M2cv6dum": "su_skill_icon_01_04.png"
  },
  {
    "5pkWU4yH": "1005",
    "RVVgyuor": "",
    "XuJL4pc5": "500",
    "xP9oi5Z2": "11",
    "M2cv6dum": "su_skill_icon_11_01.png"
  },
  {
    "5pkWU4yH": "1007",
    "RVVgyuor": "",
    "XuJL4pc5": "600",
    "xP9oi5Z2": "13",
    "M2cv6dum": "su_skill_icon_13_01.png"
  },
  {
    "5pkWU4yH": "1008",
    "RVVgyuor": "",
    "XuJL4pc5": "700",
    "xP9oi5Z2": "3",
    "M2cv6dum": "su_skill_icon_03_07.png"
  },
  {
    "5pkWU4yH": "1009",
    "RVVgyuor": "",
    "XuJL4pc5": "800",
    "xP9oi5Z2": "5",
    "M2cv6dum": "su_skill_icon_05_07.png"
  },
  {
    "5pkWU4yH": "1010",
    "RVVgyuor": "",
    "XuJL4pc5": "550",
    "xP9oi5Z2": "11",
    "M2cv6dum": "su_skill_icon_11_02.png"
  },
  {
    "5pkWU4yH": "1011",
    "RVVgyuor": "",
    "XuJL4pc5": "650",
    "xP9oi5Z2": "13",
    "M2cv6dum": "su_skill_icon_13_18.png"
  },
  {
    "5pkWU4yH": "1012",
    "RVVgyuor": "",
    "XuJL4pc5": "750",
    "xP9oi5Z2": "6",
    "M2cv6dum": "su_skill_icon_06_07.png"
  },
  {
    "5pkWU4yH": "1013",
    "RVVgyuor": "",
    "XuJL4pc5": "250",
    "xP9oi5Z2": "1",
    "M2cv6dum": "su_skill_icon_01_09.png"
  },
  {
    "5pkWU4yH": "1014",
    "RVVgyuor": "",
    "XuJL4pc5": "350",
    "xP9oi5Z2": "1",
    "M2cv6dum": "su_skill_icon_01_10.png"
  },
  {
    "5pkWU4yH": "1015",
    "RVVgyuor": "",
    "XuJL4pc5": "760",
    "xP9oi5Z2": "6",
    "M2cv6dum": "su_skill_icon_06_06.png"
  },
  {
    "5pkWU4yH": "1016",
    "RVVgyuor": "",
    "XuJL4pc5": "450",
    "xP9oi5Z2": "7",
    "M2cv6dum": "su_skill_icon_07_01.png"
  },
  {
    "5pkWU4yH": "1017",
    "RVVgyuor": "",
    "XuJL4pc5": "260",
    "xP9oi5Z2": "1",
    "M2cv6dum": "su_skill_icon_14_01.png"
  },
  {
    "5pkWU4yH": "1018",
    "RVVgyuor": "",
    "XuJL4pc5": "850",
    "xP9oi5Z2": "14",
    "M2cv6dum": "su_skill_icon_15_01.png"
  },
  {
    "5pkWU4yH": "1019",
    "RVVgyuor": "",
    "XuJL4pc5": "900",
    "xP9oi5Z2": "14",
    "M2cv6dum": "su_skill_icon_16_01.png"
  }
]