[
  {
    "meg8fhr1": "1",
    "gLUNSs24": "MST_HELP_SUBTOPIC_100_1_NAME",
    "v9dyS8fi": "100"
  },
  {
    "meg8fhr1": "2",
    "gLUNSs24": "MST_HELP_SUBTOPIC_100_2_NAME",
    "v9dyS8fi": "100"
  },
  {
    "meg8fhr1": "3",
    "gLUNSs24": "MST_HELP_SUBTOPIC_100_3_NAME",
    "v9dyS8fi": "100"
  },
  {
    "meg8fhr1": "4",
    "gLUNSs24": "MST_HELP_SUBTOPIC_100_4_NAME",
    "v9dyS8fi": "100"
  },
  {
    "meg8fhr1": "5",
    "gLUNSs24": "MST_HELP_SUBTOPIC_100_5_NAME",
    "v9dyS8fi": "100"
  },
  {
    "meg8fhr1": "6",
    "gLUNSs24": "MST_HELP_SUBTOPIC_100_6_NAME",
    "v9dyS8fi": "100"
  },
  {
    "meg8fhr1": "7",
    "gLUNSs24": "MST_HELP_SUBTOPIC_100_7_NAME",
    "v9dyS8fi": "100"
  },
  {
    "meg8fhr1": "8",
    "gLUNSs24": "MST_HELP_SUBTOPIC_100_8_NAME",
    "v9dyS8fi": "100"
  },
  {
    "meg8fhr1": "9",
    "gLUNSs24": "MST_HELP_SUBTOPIC_100_9_NAME",
    "v9dyS8fi": "100"
  },
  {
    "meg8fhr1": "10",
    "gLUNSs24": "MST_HELP_SUBTOPIC_100_10_NAME",
    "v9dyS8fi": "100"
  },
  {
    "meg8fhr1": "11",
    "gLUNSs24": "MST_HELP_SUBTOPIC_100_11_NAME",
    "v9dyS8fi": "100"
  },
  {
    "meg8fhr1": "12",
    "gLUNSs24": "MST_HELP_SUBTOPIC_100_12_NAME",
    "v9dyS8fi": "100"
  },
  {
    "meg8fhr1": "13",
    "gLUNSs24": "MST_HELP_SUBTOPIC_100_13_NAME",
    "v9dyS8fi": "100"
  },
  {
    "meg8fhr1": "14",
    "gLUNSs24": "MST_HELP_SUBTOPIC_100_14_NAME",
    "v9dyS8fi": "100"
  },
  {
    "meg8fhr1": "15",
    "gLUNSs24": "MST_HELP_SUBTOPIC_100_15_NAME",
    "v9dyS8fi": "100"
  },
  {
    "meg8fhr1": "16",
    "gLUNSs24": "MST_HELP_SUBTOPIC_200_1_NAME",
    "v9dyS8fi": "200"
  },
  {
    "meg8fhr1": "17",
    "gLUNSs24": "MST_HELP_SUBTOPIC_200_2_NAME",
    "v9dyS8fi": "200"
  },
  {
    "meg8fhr1": "18",
    "gLUNSs24": "MST_HELP_SUBTOPIC_200_3_NAME",
    "v9dyS8fi": "200"
  },
  {
    "meg8fhr1": "19",
    "gLUNSs24": "MST_HELP_SUBTOPIC_200_4_NAME",
    "v9dyS8fi": "200"
  },
  {
    "meg8fhr1": "20",
    "gLUNSs24": "MST_HELP_SUBTOPIC_300_1_NAME",
    "v9dyS8fi": "300"
  },
  {
    "meg8fhr1": "21",
    "gLUNSs24": "MST_HELP_SUBTOPIC_300_2_NAME",
    "v9dyS8fi": "300"
  },
  {
    "meg8fhr1": "22",
    "gLUNSs24": "MST_HELP_SUBTOPIC_300_3_NAME",
    "v9dyS8fi": "300"
  },
  {
    "meg8fhr1": "23",
    "gLUNSs24": "MST_HELP_SUBTOPIC_400_1_NAME",
    "v9dyS8fi": "400"
  },
  {
    "meg8fhr1": "24",
    "gLUNSs24": "MST_HELP_SUBTOPIC_400_2_NAME",
    "v9dyS8fi": "400"
  },
  {
    "meg8fhr1": "25",
    "gLUNSs24": "MST_HELP_SUBTOPIC_400_3_NAME",
    "v9dyS8fi": "400"
  },
  {
    "meg8fhr1": "26",
    "gLUNSs24": "MST_HELP_SUBTOPIC_400_4_NAME",
    "v9dyS8fi": "400"
  },
  {
    "meg8fhr1": "27",
    "gLUNSs24": "MST_HELP_SUBTOPIC_400_5_NAME",
    "v9dyS8fi": "400"
  },
  {
    "meg8fhr1": "28",
    "gLUNSs24": "MST_HELP_SUBTOPIC_400_6_NAME",
    "v9dyS8fi": "400"
  },
  {
    "meg8fhr1": "29",
    "gLUNSs24": "MST_HELP_SUBTOPIC_500_1_NAME",
    "v9dyS8fi": "500"
  },
  {
    "meg8fhr1": "30",
    "gLUNSs24": "MST_HELP_SUBTOPIC_600_1_NAME",
    "v9dyS8fi": "600"
  },
  {
    "meg8fhr1": "31",
    "gLUNSs24": "MST_HELP_SUBTOPIC_600_2_NAME",
    "v9dyS8fi": "600"
  },
  {
    "meg8fhr1": "32",
    "gLUNSs24": "MST_HELP_SUBTOPIC_600_3_NAME",
    "v9dyS8fi": "600"
  },
  {
    "meg8fhr1": "33",
    "gLUNSs24": "MST_HELP_SUBTOPIC_600_4_NAME",
    "v9dyS8fi": "600"
  },
  {
    "meg8fhr1": "34",
    "gLUNSs24": "MST_HELP_SUBTOPIC_600_5_NAME",
    "v9dyS8fi": "600"
  },
  {
    "meg8fhr1": "35",
    "gLUNSs24": "MST_HELP_SUBTOPIC_600_6_NAME",
    "v9dyS8fi": "600"
  },
  {
    "meg8fhr1": "36",
    "gLUNSs24": "MST_HELP_SUBTOPIC_600_7_NAME",
    "v9dyS8fi": "600"
  },
  {
    "meg8fhr1": "37",
    "gLUNSs24": "MST_HELP_SUBTOPIC_600_17_NAME",
    "v9dyS8fi": "600"
  },
  {
    "meg8fhr1": "38",
    "gLUNSs24": "MST_HELP_SUBTOPIC_600_8_NAME",
    "v9dyS8fi": "600"
  },
  {
    "meg8fhr1": "39",
    "gLUNSs24": "MST_HELP_SUBTOPIC_600_9_NAME",
    "v9dyS8fi": "600"
  },
  {
    "meg8fhr1": "40",
    "gLUNSs24": "MST_HELP_SUBTOPIC_600_10_NAME",
    "v9dyS8fi": "600"
  },
  {
    "meg8fhr1": "41",
    "gLUNSs24": "MST_HELP_SUBTOPIC_600_11_NAME",
    "v9dyS8fi": "600"
  },
  {
    "meg8fhr1": "42",
    "gLUNSs24": "MST_HELP_SUBTOPIC_600_12_NAME",
    "v9dyS8fi": "600"
  },
  {
    "meg8fhr1": "43",
    "gLUNSs24": "MST_HELP_SUBTOPIC_600_13_NAME",
    "v9dyS8fi": "600"
  },
  {
    "meg8fhr1": "44",
    "gLUNSs24": "MST_HELP_SUBTOPIC_600_16_NAME",
    "v9dyS8fi": "600"
  },
  {
    "meg8fhr1": "45",
    "gLUNSs24": "MST_HELP_SUBTOPIC_600_14_NAME",
    "v9dyS8fi": "600"
  },
  {
    "meg8fhr1": "46",
    "gLUNSs24": "MST_HELP_SUBTOPIC_600_15_NAME",
    "v9dyS8fi": "600"
  },
  {
    "meg8fhr1": "47",
    "gLUNSs24": "MST_HELP_SUBTOPIC_700_1_NAME",
    "v9dyS8fi": "700"
  },
  {
    "meg8fhr1": "48",
    "gLUNSs24": "MST_HELP_SUBTOPIC_700_2_NAME",
    "v9dyS8fi": "700"
  },
  {
    "meg8fhr1": "49",
    "gLUNSs24": "MST_HELP_SUBTOPIC_700_3_NAME",
    "v9dyS8fi": "700"
  },
  {
    "meg8fhr1": "50",
    "gLUNSs24": "MST_HELP_SUBTOPIC_700_4_NAME",
    "v9dyS8fi": "700"
  },
  {
    "meg8fhr1": "51",
    "gLUNSs24": "MST_HELP_SUBTOPIC_700_5_NAME",
    "v9dyS8fi": "700"
  },
  {
    "meg8fhr1": "52",
    "gLUNSs24": "MST_HELP_SUBTOPIC_700_6_NAME",
    "v9dyS8fi": "700"
  },
  {
    "meg8fhr1": "53",
    "gLUNSs24": "MST_HELP_SUBTOPIC_800_1_NAME",
    "v9dyS8fi": "800"
  },
  {
    "meg8fhr1": "54",
    "gLUNSs24": "MST_HELP_SUBTOPIC_800_2_NAME",
    "v9dyS8fi": "800"
  },
  {
    "meg8fhr1": "55",
    "gLUNSs24": "MST_HELP_SUBTOPIC_800_3_NAME",
    "v9dyS8fi": "800"
  },
  {
    "meg8fhr1": "56",
    "gLUNSs24": "MST_HELP_SUBTOPIC_800_6_NAME",
    "v9dyS8fi": "800"
  },
  {
    "meg8fhr1": "57",
    "gLUNSs24": "MST_HELP_SUBTOPIC_800_7_NAME",
    "v9dyS8fi": "800"
  },
  {
    "meg8fhr1": "58",
    "gLUNSs24": "MST_HELP_SUBTOPIC_800_4_NAME",
    "v9dyS8fi": "800"
  },
  {
    "meg8fhr1": "59",
    "gLUNSs24": "MST_HELP_SUBTOPIC_800_5_NAME",
    "v9dyS8fi": "800"
  },
  {
    "meg8fhr1": "60",
    "gLUNSs24": "MST_HELP_SUBTOPIC_850_1_NAME",
    "v9dyS8fi": "850"
  },
  {
    "meg8fhr1": "61",
    "gLUNSs24": "MST_HELP_SUBTOPIC_850_2_NAME",
    "v9dyS8fi": "850"
  },
  {
    "meg8fhr1": "62",
    "gLUNSs24": "MST_HELP_SUBTOPIC_850_3_NAME",
    "v9dyS8fi": "850"
  },
  {
    "meg8fhr1": "63",
    "gLUNSs24": "MST_HELP_SUBTOPIC_850_4_NAME",
    "v9dyS8fi": "850"
  },
  {
    "meg8fhr1": "64",
    "gLUNSs24": "MST_HELP_SUBTOPIC_850_5_NAME",
    "v9dyS8fi": "850"
  },
  {
    "meg8fhr1": "65",
    "gLUNSs24": "MST_HELP_SUBTOPIC_850_6_NAME",
    "v9dyS8fi": "850"
  },
  {
    "meg8fhr1": "66",
    "gLUNSs24": "MST_HELP_SUBTOPIC_850_7_NAME",
    "v9dyS8fi": "850"
  },
  {
    "meg8fhr1": "67",
    "gLUNSs24": "MST_HELP_SUBTOPIC_900_1_NAME",
    "v9dyS8fi": "900"
  },
  {
    "meg8fhr1": "68",
    "gLUNSs24": "MST_HELP_SUBTOPIC_900_2_NAME",
    "v9dyS8fi": "900"
  },
  {
    "meg8fhr1": "69",
    "gLUNSs24": "MST_HELP_SUBTOPIC_900_3_NAME",
    "v9dyS8fi": "900"
  },
  {
    "meg8fhr1": "70",
    "gLUNSs24": "MST_HELP_SUBTOPIC_900_4_NAME",
    "v9dyS8fi": "900"
  },
  {
    "meg8fhr1": "71",
    "gLUNSs24": "MST_HELP_SUBTOPIC_900_5_NAME",
    "v9dyS8fi": "900"
  },
  {
    "meg8fhr1": "72",
    "gLUNSs24": "MST_HELP_SUBTOPIC_910_1_NAME",
    "v9dyS8fi": "910"
  },
  {
    "meg8fhr1": "73",
    "gLUNSs24": "MST_HELP_SUBTOPIC_910_2_NAME",
    "v9dyS8fi": "910"
  },
  {
    "meg8fhr1": "74",
    "gLUNSs24": "MST_HELP_SUBTOPIC_910_3_NAME",
    "v9dyS8fi": "910"
  },
  {
    "meg8fhr1": "75",
    "gLUNSs24": "MST_HELP_SUBTOPIC_910_4_NAME",
    "v9dyS8fi": "910"
  },
  {
    "meg8fhr1": "76",
    "gLUNSs24": "MST_HELP_SUBTOPIC_1000_1_NAME",
    "v9dyS8fi": "1000"
  },
  {
    "meg8fhr1": "77",
    "gLUNSs24": "MST_HELP_SUBTOPIC_1000_2_NAME",
    "v9dyS8fi": "1000"
  },
  {
    "meg8fhr1": "78",
    "gLUNSs24": "MST_HELP_SUBTOPIC_1000_3_NAME",
    "v9dyS8fi": "1000"
  },
  {
    "meg8fhr1": "79",
    "gLUNSs24": "MST_HELP_SUBTOPIC_1000_4_NAME",
    "v9dyS8fi": "1000"
  },
  {
    "meg8fhr1": "80",
    "gLUNSs24": "MST_HELP_SUBTOPIC_1000_5_NAME",
    "v9dyS8fi": "1000"
  },
  {
    "meg8fhr1": "81",
    "gLUNSs24": "MST_HELP_SUBTOPIC_1000_8_NAME",
    "v9dyS8fi": "1000"
  },
  {
    "meg8fhr1": "82",
    "gLUNSs24": "MST_HELP_SUBTOPIC_1000_9_NAME",
    "v9dyS8fi": "1000"
  },
  {
    "meg8fhr1": "83",
    "gLUNSs24": "MST_HELP_SUBTOPIC_1000_6_NAME",
    "v9dyS8fi": "1000"
  },
  {
    "meg8fhr1": "84",
    "gLUNSs24": "MST_HELP_SUBTOPIC_1000_7_NAME",
    "v9dyS8fi": "1000"
  },
  {
    "meg8fhr1": "85",
    "gLUNSs24": "MST_HELP_SUBTOPIC_1000_8_NAME",
    "v9dyS8fi": "1000"
  },
  {
    "meg8fhr1": "86",
    "gLUNSs24": "MST_HELP_SUBTOPIC_1000_9_NAME",
    "v9dyS8fi": "1000"
  },
  {
    "meg8fhr1": "87",
    "gLUNSs24": "MST_HELP_SUBTOPIC_1000_10_NAME",
    "v9dyS8fi": "1000"
  },
  {
    "meg8fhr1": "88",
    "gLUNSs24": "MST_HELP_SUBTOPIC_1100_1_NAME",
    "v9dyS8fi": "1100"
  },
  {
    "meg8fhr1": "89",
    "gLUNSs24": "MST_HELP_SUBTOPIC_1100_2_NAME",
    "v9dyS8fi": "1100"
  },
  {
    "meg8fhr1": "90",
    "gLUNSs24": "MST_HELP_SUBTOPIC_1100_3_NAME",
    "v9dyS8fi": "1100"
  },
  {
    "meg8fhr1": "91",
    "gLUNSs24": "MST_HELP_SUBTOPIC_10000_1_NAME",
    "v9dyS8fi": "10000"
  },
  {
    "meg8fhr1": "93",
    "gLUNSs24": "MST_HELP_SUBTOPIC_1200_1_NAME",
    "v9dyS8fi": "1200"
  },
  {
    "meg8fhr1": "94",
    "gLUNSs24": "MST_HELP_SUBTOPIC_1200_2_NAME",
    "v9dyS8fi": "1200"
  },
  {
    "meg8fhr1": "95",
    "gLUNSs24": "MST_HELP_SUBTOPIC_1200_13_NAME",
    "v9dyS8fi": "1200"
  },
  {
    "meg8fhr1": "96",
    "gLUNSs24": "MST_HELP_SUBTOPIC_1200_3_NAME",
    "v9dyS8fi": "1200"
  },
  {
    "meg8fhr1": "97",
    "gLUNSs24": "MST_HELP_SUBTOPIC_1200_4_NAME",
    "v9dyS8fi": "1200"
  },
  {
    "meg8fhr1": "98",
    "gLUNSs24": "MST_HELP_SUBTOPIC_1200_5_NAME",
    "v9dyS8fi": "1200"
  },
  {
    "meg8fhr1": "99",
    "gLUNSs24": "MST_HELP_SUBTOPIC_1200_6_NAME",
    "v9dyS8fi": "1200"
  },
  {
    "meg8fhr1": "100",
    "gLUNSs24": "MST_HELP_SUBTOPIC_1200_7_NAME",
    "v9dyS8fi": "1200"
  },
  {
    "meg8fhr1": "101",
    "gLUNSs24": "MST_HELP_SUBTOPIC_1200_8_NAME",
    "v9dyS8fi": "1200"
  },
  {
    "meg8fhr1": "102",
    "gLUNSs24": "MST_HELP_SUBTOPIC_1200_9_NAME",
    "v9dyS8fi": "1200"
  },
  {
    "meg8fhr1": "103",
    "gLUNSs24": "MST_HELP_SUBTOPIC_1200_10_NAME",
    "v9dyS8fi": "1200"
  },
  {
    "meg8fhr1": "104",
    "gLUNSs24": "MST_HELP_SUBTOPIC_1200_11_NAME",
    "v9dyS8fi": "1200"
  },
  {
    "meg8fhr1": "105",
    "gLUNSs24": "MST_HELP_SUBTOPIC_1200_12_NAME",
    "v9dyS8fi": "1200"
  },
  {
    "meg8fhr1": "106",
    "gLUNSs24": "MST_HELP_SUBTOPIC_1200_14_NAME",
    "v9dyS8fi": "1200"
  },
  {
    "meg8fhr1": "107",
    "gLUNSs24": "MST_HELP_SUBTOPIC_1200_15_NAME",
    "v9dyS8fi": "1200"
  },
  {
    "meg8fhr1": "108",
    "gLUNSs24": "MST_HELP_SUBTOPIC_1300_1_NAME",
    "v9dyS8fi": "1300"
  },
  {
    "meg8fhr1": "109",
    "gLUNSs24": "MST_HELP_SUBTOPIC_1400_1_NAME",
    "v9dyS8fi": "1400"
  },
  {
    "meg8fhr1": "115",
    "gLUNSs24": "MST_HELP_SUBTOPIC_1700_1_NAME",
    "v9dyS8fi": "1700"
  },
  {
    "meg8fhr1": "116",
    "gLUNSs24": "MST_HELP_SUBTOPIC_1700_2_NAME",
    "v9dyS8fi": "1700"
  },
  {
    "meg8fhr1": "117",
    "gLUNSs24": "MST_HELP_SUBTOPIC_1700_3_NAME",
    "v9dyS8fi": "1700"
  },
  {
    "meg8fhr1": "118",
    "gLUNSs24": "MST_HELP_SUBTOPIC_1700_4_NAME",
    "v9dyS8fi": "1700"
  },
  {
    "meg8fhr1": "119",
    "gLUNSs24": "MST_HELP_SUBTOPIC_1700_5_NAME",
    "v9dyS8fi": "1700"
  },
  {
    "meg8fhr1": "120",
    "gLUNSs24": "MST_HELP_SUBTOPIC_1700_6_NAME",
    "v9dyS8fi": "1700"
  },
  {
    "meg8fhr1": "121",
    "gLUNSs24": "MST_HELP_SUBTOPIC_1700_7_NAME",
    "v9dyS8fi": "1700"
  },
  {
    "meg8fhr1": "122",
    "gLUNSs24": "MST_HELP_SUBTOPIC_1700_8_NAME",
    "v9dyS8fi": "1700"
  },
  {
    "meg8fhr1": "123",
    "gLUNSs24": "MST_HELP_SUBTOPIC_1700_9_NAME",
    "v9dyS8fi": "1700"
  },
  {
    "meg8fhr1": "124",
    "gLUNSs24": "MST_HELP_SUBTOPIC_800000_1_NAME",
    "v9dyS8fi": "800000"
  },
  {
    "meg8fhr1": "125",
    "gLUNSs24": "MST_HELP_SUBTOPIC_800000_2_NAME",
    "v9dyS8fi": "800000"
  },
  {
    "meg8fhr1": "126",
    "gLUNSs24": "MST_HELP_SUBTOPIC_800000_3_NAME",
    "v9dyS8fi": "800000"
  },
  {
    "meg8fhr1": "127",
    "gLUNSs24": "MST_HELP_SUBTOPIC_900000_1_NAME",
    "v9dyS8fi": "900000"
  },
  {
    "meg8fhr1": "128",
    "gLUNSs24": "MST_HELP_SUBTOPIC_900000_2_NAME",
    "v9dyS8fi": "900000"
  },
  {
    "meg8fhr1": "129",
    "gLUNSs24": "MST_HELP_SUBTOPIC_900000_3_NAME",
    "v9dyS8fi": "900000"
  },
  {
    "meg8fhr1": "130",
    "gLUNSs24": "MST_HELP_SUBTOPIC_888000_1_NAME",
    "v9dyS8fi": "888000"
  },
  {
    "meg8fhr1": "131",
    "gLUNSs24": "MST_HELP_SUBTOPIC_888000_2_NAME",
    "v9dyS8fi": "888000"
  },
  {
    "meg8fhr1": "132",
    "gLUNSs24": "MST_HELP_SUBTOPIC_888000_3_NAME",
    "v9dyS8fi": "888000"
  },
  {
    "meg8fhr1": "133",
    "gLUNSs24": "MST_HELP_SUBTOPIC_888000_4_NAME",
    "v9dyS8fi": "888000"
  },
  {
    "meg8fhr1": "134",
    "gLUNSs24": "MST_HELP_SUBTOPIC_888000_5_NAME",
    "v9dyS8fi": "888000"
  },
  {
    "meg8fhr1": "135",
    "gLUNSs24": "MST_HELP_SUBTOPIC_888000_6_NAME",
    "v9dyS8fi": "888000"
  },
  {
    "meg8fhr1": "136",
    "gLUNSs24": "MST_HELP_SUBTOPIC_888000_7_NAME",
    "v9dyS8fi": "888000"
  },
  {
    "meg8fhr1": "238",
    "gLUNSs24": "MST_HELP_SUBTOPIC_80001_1_NAME",
    "v9dyS8fi": "80001"
  },
  {
    "meg8fhr1": "239",
    "gLUNSs24": "MST_HELP_SUBTOPIC_80001_2_NAME",
    "v9dyS8fi": "80001"
  },
  {
    "meg8fhr1": "240",
    "gLUNSs24": "MST_HELP_SUBTOPIC_80001_3_NAME",
    "v9dyS8fi": "80001"
  },
  {
    "meg8fhr1": "241",
    "gLUNSs24": "MST_HELP_SUBTOPIC_80001_4_NAME",
    "v9dyS8fi": "80001"
  },
  {
    "meg8fhr1": "242",
    "gLUNSs24": "MST_HELP_SUBTOPIC_80001_5_NAME",
    "v9dyS8fi": "80001"
  },
  {
    "meg8fhr1": "243",
    "gLUNSs24": "MST_HELP_SUBTOPIC_80001_6_NAME",
    "v9dyS8fi": "80001"
  },
  {
    "meg8fhr1": "300",
    "gLUNSs24": "MST_HELP_SUBTOPIC_3000_1_NAME",
    "v9dyS8fi": "3000"
  },
  {
    "meg8fhr1": "301",
    "gLUNSs24": "MST_HELP_SUBTOPIC_3000_2_NAME",
    "v9dyS8fi": "3000"
  },
  {
    "meg8fhr1": "302",
    "gLUNSs24": "MST_HELP_SUBTOPIC_3100_1_NAME",
    "v9dyS8fi": "3100"
  },
  {
    "meg8fhr1": "303",
    "gLUNSs24": "MST_HELP_SUBTOPIC_3100_2_NAME",
    "v9dyS8fi": "3100"
  },
  {
    "meg8fhr1": "304",
    "gLUNSs24": "MST_HELP_SUBTOPIC_3100_3_NAME",
    "v9dyS8fi": "3100"
  },
  {
    "meg8fhr1": "305",
    "gLUNSs24": "MST_HELP_SUBTOPIC_3100_4_NAME",
    "v9dyS8fi": "3100"
  },
  {
    "meg8fhr1": "306",
    "gLUNSs24": "MST_HELP_SUBTOPIC_3100_5_NAME",
    "v9dyS8fi": "3100"
  },
  {
    "meg8fhr1": "307",
    "gLUNSs24": "MST_HELP_SUBTOPIC_3100_6_NAME",
    "v9dyS8fi": "3100"
  },
  {
    "meg8fhr1": "308",
    "gLUNSs24": "MST_HELP_SUBTOPIC_3100_7_NAME",
    "v9dyS8fi": "3100"
  },
  {
    "meg8fhr1": "309",
    "gLUNSs24": "MST_HELP_SUBTOPIC_3100_8_NAME",
    "v9dyS8fi": "3100"
  },
  {
    "meg8fhr1": "310",
    "gLUNSs24": "MST_HELP_SUBTOPIC_3100_9_NAME",
    "v9dyS8fi": "3100"
  },
  {
    "meg8fhr1": "311",
    "gLUNSs24": "MST_HELP_SUBTOPIC_3100_10_NAME",
    "v9dyS8fi": "3100"
  },
  {
    "meg8fhr1": "312",
    "gLUNSs24": "MST_HELP_SUBTOPIC_3100_11_NAME",
    "v9dyS8fi": "3100"
  },
  {
    "meg8fhr1": "313",
    "gLUNSs24": "MST_HELP_SUBTOPIC_3200_1_NAME",
    "v9dyS8fi": "3200"
  },
  {
    "meg8fhr1": "314",
    "gLUNSs24": "MST_HELP_SUBTOPIC_3200_2_NAME",
    "v9dyS8fi": "3200"
  },
  {
    "meg8fhr1": "315",
    "gLUNSs24": "MST_HELP_SUBTOPIC_1110_1_NAME",
    "v9dyS8fi": "1110"
  },
  {
    "meg8fhr1": "316",
    "gLUNSs24": "MST_HELP_SUBTOPIC_1110_2_NAME",
    "v9dyS8fi": "1110"
  },
  {
    "meg8fhr1": "317",
    "gLUNSs24": "MST_HELP_SUBTOPIC_1110_3_NAME",
    "v9dyS8fi": "1110"
  },
  {
    "meg8fhr1": "318",
    "gLUNSs24": "MST_HELP_SUBTOPIC_1110_4_NAME",
    "v9dyS8fi": "1110"
  },
  {
    "meg8fhr1": "319",
    "gLUNSs24": "MST_HELP_SUBTOPIC_1110_5_NAME",
    "v9dyS8fi": "1110"
  },
  {
    "meg8fhr1": "320",
    "gLUNSs24": "MST_HELP_SUBTOPIC_1110_6_NAME",
    "v9dyS8fi": "1110"
  },
  {
    "meg8fhr1": "321",
    "gLUNSs24": "MST_HELP_SUBTOPIC_1110_7_NAME",
    "v9dyS8fi": "1110"
  },
  {
    "meg8fhr1": "322",
    "gLUNSs24": "MST_HELP_SUBTOPIC_1110_8_NAME",
    "v9dyS8fi": "1110"
  },
  {
    "meg8fhr1": "8001",
    "gLUNSs24": "Guild Raid Battles",
    "v9dyS8fi": "80002"
  },
  {
    "meg8fhr1": "8002",
    "gLUNSs24": "Phases of Battle",
    "v9dyS8fi": "80002"
  },
  {
    "meg8fhr1": "8003",
    "gLUNSs24": "Guardians",
    "v9dyS8fi": "80002"
  },
  {
    "meg8fhr1": "8004",
    "gLUNSs24": "Outpost Dungeons",
    "v9dyS8fi": "80002"
  },
  {
    "meg8fhr1": "8005",
    "gLUNSs24": "Boss Guardian Dungeon",
    "v9dyS8fi": "80002"
  },
  {
    "meg8fhr1": "8006",
    "gLUNSs24": "Camp",
    "v9dyS8fi": "80002"
  },
  {
    "meg8fhr1": "8007",
    "gLUNSs24": "Teleportation Portals",
    "v9dyS8fi": "80002"
  },
  {
    "meg8fhr1": "8008",
    "gLUNSs24": "Action Points",
    "v9dyS8fi": "80002"
  },
  {
    "meg8fhr1": "8009",
    "gLUNSs24": "Battle Conquest Points",
    "v9dyS8fi": "80002"
  },
  {
    "meg8fhr1": "8010",
    "gLUNSs24": "Rewards",
    "v9dyS8fi": "80002"
  },
  {
    "meg8fhr1": "8011",
    "gLUNSs24": "Rooms",
    "v9dyS8fi": "80003"
  },
  {
    "meg8fhr1": "8012",
    "gLUNSs24": "Team Guardians",
    "v9dyS8fi": "80003"
  },
  {
    "meg8fhr1": "8013",
    "gLUNSs24": "Team Guardians’ Skills",
    "v9dyS8fi": "80003"
  },
  {
    "meg8fhr1": "88000",
    "gLUNSs24": "Event Bazaar",
    "v9dyS8fi": "88000"
  },
  {
    "meg8fhr1": "88001",
    "gLUNSs24": "Event Tokens",
    "v9dyS8fi": "88000"
  },
  {
    "meg8fhr1": "88002",
    "gLUNSs24": "Bonus Units",
    "v9dyS8fi": "88000"
  },
  {
    "meg8fhr1": "100001",
    "gLUNSs24": "DBB Bonding",
    "v9dyS8fi": "100000"
  },
  {
    "meg8fhr1": "100002",
    "gLUNSs24": "DBB Activation",
    "v9dyS8fi": "100000"
  },
  {
    "meg8fhr1": "100003",
    "gLUNSs24": "DBB Bond Leveling",
    "v9dyS8fi": "100000"
  },
  {
    "meg8fhr1": "800001",
    "gLUNSs24": "Omni+ Boosts",
    "v9dyS8fi": "90000"
  },
  {
    "meg8fhr1": "800002",
    "gLUNSs24": "Elemental Paradigms",
    "v9dyS8fi": "90000"
  }
]