[
  {
    "6HmU8ZWb": "1",
    "s35idar9": "NM_RAID_WORLD_NAVE_COMMENT",
    "ZC0msu2L": "参加するワールドを選んでください。<br>フレンド検索を利用すれば<br>現在プレイ中のフレンドのルームに<br>直接参加することもできますよ♪"
  },
  {
    "6HmU8ZWb": "2",
    "s35idar9": "NM_RAID_ROOMMAKE_NAVE_COMMENT",
    "ZC0msu2L": "ルームを自分で作成するか<br>他の人が用意したルームを探すか<br>選択してください。<br>自動入室を選ぶと、<br>空いているルームへ自動的に<br>参加する形となります。"
  },
  {
    "6HmU8ZWb": "3",
    "s35idar9": "NM_RAID_ROOMSEARCH_NAVE_COMMENT",
    "ZC0msu2L": "参加したいルームの条件を<br>設定してください。<br>条件を設定後に検索を開始すると<br>条件に合ったルームが選択できます。"
  },
  {
    "6HmU8ZWb": "4",
    "s35idar9": "NM_RAID_ITEM_NAVE_COMMENT",
    "ZC0msu2L": "レイドでは通常アイテムの<br>編成とは別にアイテム編成枠が<br>あります。設定し忘れに<br>注意して下さい。"
  },
  {
    "6HmU8ZWb": "5",
    "s35idar9": "NM_RAID_ITEM_NAVE_COMMENT_FLELD",
    "ZC0msu2L": "クエスト中手に入れた<br>素材はクエストクリアー時に<br>自動的に倉庫に入ります。"
  },
  {
    "6HmU8ZWb": "6",
    "s35idar9": "NM_RAID_ROOM_MAKE_NAVI_PLAYSTYLE",
    "ZC0msu2L": "プレイスタイルを選択してください。<br><br>どんなスタイルが好きですか？<br>自分に合ったスタイルを選べば<br>任務もやり易いかもしれませんよ。"
  },
  {
    "6HmU8ZWb": "7",
    "s35idar9": "NM_RAID_ROOM_MAKE_NAVI_TARGET",
    "ZC0msu2L": "ターゲットを選択してください。<br><br>目標が同じ方がやる気も出ますよね！<br>あなたと同じ目標を持ったルームを<br>探してみてください。"
  },
  {
    "6HmU8ZWb": "8",
    "s35idar9": "NM_RAID_ROOM_MAKE_NAVI_RC",
    "ZC0msu2L": "レイドクラスを選択してください。<br><br>自分より高いクラスは選べませんが<br>低いクラスは選択可能です。<br>召喚師同士、助け合いながら<br>チャレンジしてくださいね♪"
  },
  {
    "6HmU8ZWb": "9",
    "s35idar9": "NM_RAID_ROOM_MAKE_NAVI_AUTOOFF",
    "ZC0msu2L": "自動入室の受け入れ設定を選択してください。<br><br>他の召喚師の自動入室を拒否する場合はOFFを選択してください。"
  },
  {
    "6HmU8ZWb": "10",
    "s35idar9": "NM_RAID_ROOM_MAKE_NAVI_PASSWORD",
    "ZC0msu2L": "4ケタの数字でパスワードを<br>設定することができます。<br>パスワードを設定すると<br>入室する際にパスワードの入力が<br>必要になります。"
  },
  {
    "6HmU8ZWb": "11",
    "s35idar9": "NM_RAID_ROOM_MAKE_NAVI_MESSAGE",
    "ZC0msu2L": "一言コメントが設定できます。<br><br>あなたの任務に対する思いを<br>他の方に伝えるのもありですよ♪"
  },
  {
    "6HmU8ZWb": "12",
    "s35idar9": "NM_RAID_QUEST_TOP_NAVI",
    "ZC0msu2L": "クエストを選んでください。<br>色々な任務があるので<br>目的や実力に合わせて<br>選択してくださいね。"
  },
  {
    "6HmU8ZWb": "13",
    "s35idar9": "NM_RAID_QUEST_TOP_NAVI_MEMBER",
    "ZC0msu2L": "選べるクエストが確認できます。<br>選択はルームマスターのみ<br>行うことができますので<br>ここでは選択できません。"
  },
  {
    "6HmU8ZWb": "14",
    "s35idar9": "NM_RAID_QUESTLIST_NAVI",
    "ZC0msu2L": "参加するクエストの<br>レイドクラスを選んでください。<br>★の数が多いほど難しいので<br>慎重に選んでくださいね。"
  },
  {
    "6HmU8ZWb": "15",
    "s35idar9": "NM_RAID_QUESTLIST_NAVI__MEMBER",
    "ZC0msu2L": "どのクラスのクエストを<br>確認しますか？<br>見たいクラスを選んでください。"
  },
  {
    "6HmU8ZWb": "16",
    "s35idar9": "NM_RAID_WORLD_NAVE_COMMENT_STOP",
    "ZC0msu2L": "期間限定先行公開は終了しました！<br><br>現在レイドバトルは休止中です。<br>レイドバトルの本公開をお待ちくださいね♪<br>"
  },
  {
    "6HmU8ZWb": "17",
    "s35idar9": "NM_TRIAL_NOT_MISSION",
    "ZC0msu2L": "新しい試練はまだ準備中だよ！<br>キミなんかじゃ絶対に勝てない強力な擬似ユニットを用意してるから修行でもしておくんだね♪"
  },
  {
    "6HmU8ZWb": "18",
    "s35idar9": "NM_TRIAL_MISSION_DESC_2000000",
    "ZC0msu2L": "ボクが作った特別な擬似ユニットに勝てるかな？今回の試練の相手はキミもよ〜く知ってるあいつだよ！<br>キミはどこまで耐えられるかな？"
  },
  {
    "6HmU8ZWb": "19",
    "s35idar9": "NM_TRIAL_MISSION_DESC_2000001",
    "ZC0msu2L": "ふーん、思ったよりやるじゃないか。<br>でも、今度の相手にも勝てると思ったら<br>大間違いだよ！　キミじゃあ、最初の<br>一撃も耐えられないかもね♪"
  },
  {
    "6HmU8ZWb": "20",
    "s35idar9": "NM_TRIAL_MISSION_DESC_2000002",
    "ZC0msu2L": "今回の擬似ユニットは<br>これまでとはすっごく違う素材だよ！<br>戦い始めたらきっとキミは<br>すっごく驚くと思うな♪"
  },
  {
    "6HmU8ZWb": "21",
    "s35idar9": "NM_TRIAL_MISSION_DESC_2000002_365",
    "ZC0msu2L": "うーん。<br>今のキミじゃまだ挑戦させられないな。<br>セントラミアの調査を終わらせてから<br>こっちに挑戦しにきてよ。"
  },
  {
    "6HmU8ZWb": "22",
    "s35idar9": "NM_RAID_ROOM_MAKE_NAVI_PLAYSTYLE_RC",
    "ZC0msu2L": "プレイスタイルとレイドクラスを<br>選択してください。<br>自分より高いクラスは選べませんが<br>低いクラスは選択可能です。<br>召喚師同士、助け合いながら<br>チャレンジしてくださいね♪"
  },
  {
    "6HmU8ZWb": "23",
    "s35idar9": "NM_RAID_ROOM_MAKE_NAVI_AUTOOFF_PASS",
    "ZC0msu2L": "自動入室の受け入れ設定とパスワードの有無を選択してください。<br>他の召喚師の自動入室を拒否する場合はOFFを選択してください。<br>自動入室をOFFにするとパスワードを<br>設定できます。<br>パスワードを設定すると<br>入室する際にパスワードの入力が<br>必要になります。"
  },
  {
    "6HmU8ZWb": "24",
    "s35idar9": "NM_RAID_ROOM_MAKE_NAVI_KICK",
    "ZC0msu2L": "強制退出と途中参加の有無を<br>選択してください。<br>他の召喚師の強制退出、途中参加が<br>可能なルームを作成する場合は、<br>ONにしてください。"
  },
  {
    "6HmU8ZWb": "25",
    "s35idar9": "NM_TRIAL_MISSION_DESC_2000003",
    "ZC0msu2L": "すごいやる気充分な表情だね。<br />気に入らないな……。<br />まあ、いいさ！<br />いつまで余裕でいられるか楽しみだよ♪"
  },
  {
    "6HmU8ZWb": "26",
    "s35idar9": "NM_TRIAL_MISSION_DESC_2000003_666",
    "ZC0msu2L": "その程度の活躍でキミを認めるとでも<br />思っているのかい？<br />調子に乗らないでほしいな。<br />早く次の堕神も倒してきなよ。"
  },
  {
    "6HmU8ZWb": "27",
    "s35idar9": "NM_RAID_ROOM_MAKE_NAVI_LV_QUEST",
    "ZC0msu2L": "最低レベルとクエストを選択してください。<br>自分より高いレベルは選べません。<br>クエストは自分がクリア済みの<br>クエストのみ設定できます。"
  },
  {
    "6HmU8ZWb": "28",
    "s35idar9": "NM_TRIAL_MISSION_DESC_2000004",
    "ZC0msu2L": "キミ、ちょっと疲れてないかい？<br />今日の相手はそんなキミにピッタリさ♪<br />彼の情報を入手する時のボクのイライラ<br />キミにもたっぷり味わわせてあげるよ！"
  },
  {
    "6HmU8ZWb": "29",
    "s35idar9": "NM_TRIAL_MISSION_DESC_2000005",
    "ZC0msu2L": "相手の予想はできてるだろ？<br />だったらグズグズしてないで<br />早く準備しなよ！<br />今度は負けないからね！"
  },
  {
    "6HmU8ZWb": "30",
    "s35idar9": "NM_TRIAL_MISSION_DESC_2000005_1066",
    "ZC0msu2L": "その程度の活躍でキミを認めるとでも<br />思っているのかい？<br />調子に乗らないでほしいな。<br />早く次の堕神も倒してきなよ。"
  },
  {
    "6HmU8ZWb": "31",
    "s35idar9": "NM_TRIAL_MISSION_DESC_2000006",
    "ZC0msu2L": "今回はキミと戦う気満々の<br />擬似ユニットが準備してるよ！<br />アリーナの“鬼神”の猛攻に<br />どこまで耐えられるかな？"
  },
  {
    "6HmU8ZWb": "32",
    "s35idar9": "NM_TRIAL_MISSION_DESC_2000007",
    "ZC0msu2L": "今回の相手はキミも予想してたかな？<br />あの特殊能力を再現するのには<br />かなり苦労したよ。<br />まあ、思う存分、楽しんできてよ。"
  },
  {
    "6HmU8ZWb": "33",
    "s35idar9": "NM_TRIAL_MISSION_DESC_2000007_1366",
    "ZC0msu2L": "その程度の活躍でキミを認めるとでも<br />思っているのかい？<br />調子に乗らないでほしいな。<br />早く次の堕神も倒してきなよ。"
  },
  {
    "6HmU8ZWb": "34",
    "s35idar9": "NM_TRIAL_MISSION_DESC_2000008",
    "ZC0msu2L": "今回はキミの知ってる顔が、<br />次々と登場するよ。<br />以前とは色々と変えてあるから、<br />ぜひキミに楽しんでほしいな。"
  },
  {
    "6HmU8ZWb": "35",
    "s35idar9": "NM_TRIAL_MISSION_DESC_2000009",
    "ZC0msu2L": "キミは色々な過去の英雄たちを召喚しているけど、彼にはかなわないだろうね。</br>なにせ今回の相手は英雄を倒した騎士だからね……。"
  },
  {
    "6HmU8ZWb": "36",
    "s35idar9": "NM_TRIAL_MISSION_DESC_2000009_1577",
    "ZC0msu2L": "キミは今、ここに来ている場合じゃ</br>ないんじゃないかな？</br>倒すべき敵を倒したらまた来なよ。</br>ボクは逃げないからさ。"
  },
  {
    "6HmU8ZWb": "37",
    "s35idar9": "NM_TRIAL_MISSION_DESC_2000009",
    "ZC0msu2L": "キミは色々な過去の英雄たちを召喚しているけど、</br>彼にはかなわないだろうね。</br>なにせ今回の相手は英雄を倒した騎士だからね……。"
  },
  {
    "6HmU8ZWb": "39",
    "s35idar9": "NM_TRIAL_MISSION_DESC_2000010",
    "ZC0msu2L": "今回は召喚院や神族などではなく、</br>別の組織に属していた人物を用意し</br>てみたよ。まあ、キミと因縁浅から</br>ぬ人物なのは変わらないけどね。"
  },
  {
    "6HmU8ZWb": "40",
    "s35idar9": "NM_TRIAL_MISSION_DESC_2000011",
    "ZC0msu2L": "次の試練を希望するんだよね？</br>本当はもう少し研究したかったんだけど仕方がない。見せてあげるよ。</br>これがボクの研究成果だ！"
  },
  {
    "6HmU8ZWb": "41",
    "s35idar9": "NM_TRIAL_MISSION_DESC_2000012",
    "ZC0msu2L": "今回も特別な相手を用意させてもらったよ。ここではまだ登場していなかったけど、キミがよく知っている人物…と言えば予想がつくかな？"
  },
  {
    "6HmU8ZWb": "42",
    "s35idar9": "NM_TRIAL_MISSION_DESC_2000013",
    "ZC0msu2L": "今回の相手は、キミがよく知っている老人２人さ。まあ、誰かはわかってると思うけど、若者以上に元気な人たちだから油断禁物だよ。"
  },
  {
    "6HmU8ZWb": "43",
    "s35idar9": "NM_TRIAL_MISSION_DESC_2000014",
    "ZC0msu2L": "今回の試練はキミのよく知っている相手だ。この戦いがどうなるか、僕にも展開は読めない。あの女神様には色々と未知の部分が多いからね。"
  },
  {
    "6HmU8ZWb": "44",
    "s35idar9": "NM_TRIAL_MISSION_DESC_2000015",
    "ZC0msu2L": "今回はボクから挑戦状を出させてもらうよ。これまでの研究成果をぜひ見てほしいな。どんな相手かは行ってからのお楽しみだよ。"
  },
  {
    "6HmU8ZWb": "45",
    "s35idar9": "NM_TRIAL_MISSION_DESC_2000015",
    "ZC0msu2L": "今回はボクから挑戦状を出させてもらうよ。これまでの研究成果をぜひ見てほしいな。どんな相手かは行ってからのお楽しみだよ。"
  },
  {
    "6HmU8ZWb": "46",
    "s35idar9": "NM_MULTI_TOP_NAVE_COMMENT",
    "ZC0msu2L": "魔神討伐にようこそ<br>魔神討伐隊に入るもよし<br>ソロで討伐に臨むもよし<br>とにかく、どんどん実績を<br>積んでいくことね。"
  },
  {
    "6HmU8ZWb": "47",
    "s35idar9": "NM_MULTI_TOP_NGCOMMENT_TEAM",
    "ZC0msu2L": "あら、どこの魔討隊にも所属していないの？<br>カルやセリアたちの部隊が新隊員を募集しているから特別な「護冠魔神討伐隊」に所属する事も出来るわ。"
  },
  {
    "6HmU8ZWb": "48",
    "s35idar9": "NM_MULTI_TOP_NGCOMMENT_INFO",
    "ZC0msu2L": "この機能は実装前よ。"
  },
  {
    "6HmU8ZWb": "49",
    "s35idar9": "NM_MULTI_TOP_NGCOMMENT_TALK",
    "ZC0msu2L": "この機能は実装前よ。"
  },
  {
    "6HmU8ZWb": "50",
    "s35idar9": "NM_MULTI_ROOM_MAKE",
    "ZC0msu2L": "チームへの招待をマスターであるあなた限定にするか<br>メンバーからも可能にするかを決めてちょうだい。"
  },
  {
    "6HmU8ZWb": "51",
    "s35idar9": "NM_MULTI_TOP_NAVE_STOP",
    "ZC0msu2L": "魔神の脅威は減ったわ。<br>おかげで魔神討伐隊も<br>活動休止中なの。<br>また力が必要になったら<br>声を掛けるわね。"
  },
  {
    "6HmU8ZWb": "200",
    "s35idar9": "NM_NEW_TRIAL_NOT_MISSION",
    "ZC0msu2L": "新しい闘舞はまだ準備中だよ！<br>キミなんかじゃ絶対に勝てない強力な擬似ユニットを用意してるから修行でもしておくんだね♪"
  },
  {
    "6HmU8ZWb": "201",
    "s35idar9": "NM_TRIAL_DUNGEON_SELECT",
    "ZC0msu2L": "やあ、よくきたね</br>今日はどっちの部屋に</br>挑戦するんだい？"
  },
  {
    "6HmU8ZWb": "202",
    "s35idar9": "NM_TRIAL_MISSION_DESC_2100000",
    "ZC0msu2L": "さあ、闘舞の間での戦いの始まりだよ。最初に登場するのは、アリーナで大暴れしているあの人さ。相変わらずキミとの因縁は深いようだしね。"
  },
  {
    "6HmU8ZWb": "203",
    "s35idar9": "NM_TRIAL_MISSION_DESC_2100001",
    "ZC0msu2L": "次の試練の相手は、キミもよく知る<br>あの神々さ。かなり強烈な調整をしてるから、楽しみにしていて欲しいな。"
  },
  {
    "6HmU8ZWb": "204",
    "s35idar9": "NM_TRIAL_MISSION_DESC_2100002",
    "ZC0msu2L": "次の試練の相手は、キミもよく知る<br>あの神々さ。かなり強烈な調整をしてるから、楽しみにしていて欲しいな。"
  },
  {
    "6HmU8ZWb": "205",
    "s35idar9": "NM_TRIAL_MISSION_DESC_2100003",
    "ZC0msu2L": "ここまで抜けてきたってことは、<br>闘舞の間の理解は済んだのかな？<br>さあ、次はこの二神さ！<br>一筋縄ではいかないよ！"
  },
  {
    "6HmU8ZWb": "206",
    "s35idar9": "NM_TRIAL_MISSION_DESC_2100004",
    "ZC0msu2L": "ここまで抜けてきたってことは、<br>闘舞の間の理解は済んだのかな？<br>さあ、次はこの二神さ！<br>一筋縄ではいかないよ！"
  },
  {
    "6HmU8ZWb": "207",
    "s35idar9": "NM_TRIAL_MISSION_DESC_2100005",
    "ZC0msu2L": "ついにここまでたどり着いたね。<br>四堕神を倒してきた君ならば、<br>この先に何が待ち構えているか、<br>もう分かっているよね？"
  },
  {
    "6HmU8ZWb": "208",
    "s35idar9": "NM_TRIAL_MISSION_DESC_2100006",
    "ZC0msu2L": "今回の相手は謎多きあの大神さ。<br />このボクでさえ、把握しきれてない<br />存在だから、予測できない戦いにな<br />るだろう。覚悟しておくんだね。"
  },
  {
    "6HmU8ZWb": "209",
    "s35idar9": "NM_TRIAL_MISSION_DESC_2100007",
    "ZC0msu2L": "ついにあの大神が登場だよ。いまだ<br />かつて無いほどの激しい戦いになる<br />のは間違いないだろう。持てる力の<br />すべてを使って戦うことだね。"
  },
  {
    "6HmU8ZWb": "210",
    "s35idar9": "NM_TRIAL_MISSION_DESC_2100008",
    "ZC0msu2L": "ついにあの大神が登場だよ。いまだ<br />かつて無いほどの激しい戦いになる<br />のは間違いないだろう。持てる力の<br />すべてを使って戦うことだね。"
  },
  {
    "6HmU8ZWb": "1000",
    "s35idar9": "NM_FRONTIER_HUNTER_CLOSED",
    "ZC0msu2L": "先輩、どうされました？<br>次回の探索任務でしたら、<br><next_frohun_startdate>からの開始を予定していますので、しばらくお待ちくださいね。それとも先輩、私に会いにこられたんですか♪"
  }
]