[
  {
    "f1LKBoM9": "1",
    "b5VveUd8": "",
    "qp37xTDh": "ユニット編成画面では、クエストでの冒険やアリーナで戦うためのパーティを編成することができます。<br><br>パーティは最大５名のユニットで構成されます。<br><br>選択ユニットの総コストが現在のコスト上限を越えることはできません。<br>コスト上限はプレイヤーのレベルに応じて増加します。",
    "v9dyS8fi": "100",
    "meg8fhr1": "1"
  },
  {
    "f1LKBoM9": "2",
    "b5VveUd8": "",
    "qp37xTDh": "ユニットに他のユニットを合成し、ユニットのレベルを上げて強化することができます。<br><br>強化合成にはゼルと合成素材にするユニットが必要です。<br>合成素材とされたユニットは消失します。<br><br>同じ属性のユニットを素材にすると取得経験値にボーナスが得られます。<br><br>素材になったユニットがスフィアを装備していた場合は、自動的に装備が外れます。",
    "v9dyS8fi": "100",
    "meg8fhr1": "2"
  },
  {
    "f1LKBoM9": "3",
    "b5VveUd8": "",
    "qp37xTDh": "強化合成の際、同系統のブレイブバーストを持つユニットを合成素材にすると、ブレイブバーストのレベルがアップすることがあります（攻撃、回復など）。<br>ブレイブバーストレベルがアップすると、ブレイブバーストの能力が上昇します。",
    "v9dyS8fi": "100",
    "meg8fhr1": "3"
  },
  {
    "f1LKBoM9": "4",
    "b5VveUd8": "",
    "qp37xTDh": "ユニットの中には進化可能なものがあります。ユニットを進化させるとより強力なユニットが誕生します。<br>ユニットを進化させるには以下の条件を満たしている必要があります。<br><br>・進化ユニットのレベルがMAXである。<br>・進化に必要な素材ユニットを所有している。<br>・進化合成に必要なゼルを所有している。<br><br>また、ユニットの幻創進化を行う際には従来の進化条件に加えて、以下の条件も満たしている必要があります。<br><br>・幻創進化に必要なカルマを所有している<br><br>ユニットを進化させると、進化前のブレイブバーストレベルの一部が進化後のユニットに引き継がれます。<br>進化前と進化後のブレイブバーストレベルの対応は以下の通りとなります。<br><br>【進化前⇒進化後】<br>BBLv1⇒BBLv1<br>BBLv2⇒BBLv1<br>BBLv3⇒BBLv1<br>BBLv4⇒BBLv2<br>BBLv5⇒BBLv2<br>BBLv6⇒BBLv3<br>BBLv7⇒BBLv3<br>BBLv8⇒BBLv4<br>BBLv9⇒BBLv4<br>BBLv10 SBBLv1⇒BBLv5<br>BBLv10 SBBLv2⇒BBLv5<br>BBLv10 SBBLv3⇒BBLv6<br>BBLv10 SBBLv4⇒BBLv6<br>BBLv10 SBBLv5⇒BBLv7<br>BBLv10 SBBLv6⇒BBLv7<br>BBLv10 SBBLv7⇒BBLv8<br>BBLv10 SBBLv8⇒BBLv8<br>BBLv10 SBBLv9⇒BBLv9<br>BBLv10 SBBLv10⇒BBLv10 SBBLv1",
    "v9dyS8fi": "100",
    "meg8fhr1": "4"
  },
  {
    "f1LKBoM9": "5",
    "b5VveUd8": "",
    "qp37xTDh": "ユニットの中にはリーダースキルを持つものがいます。リーダースキルの効果を発動するには、リーダースキルを持つユニットをリーダーに設定する必要があります。<br><br>また、フレンドを助っ人として使用した場合、フレンドユニットのリーダースキルも発動するようになります。",
    "v9dyS8fi": "100",
    "meg8fhr1": "5"
  },
  {
    "f1LKBoM9": "6",
    "b5VveUd8": "",
    "qp37xTDh": "ユニットは、ユニットごとにタイプを持っています。<br>ユニットのタイプは、レベルアップ時の成長の仕方に影響を及ぼします。<br><br>ロード：バランス型<br>アニマ：HP重視型<br>ブレイカー：攻撃重視型<br>ガーディアン：防御重視型<br>オラクル：回復重視型<br><br>タイプは、ユニット詳細画面で確認することができます。同じユニットであっても、タイプによって、最終的な能力に違いが発生します。",
    "v9dyS8fi": "100",
    "meg8fhr1": "6"
  },
  {
    "f1LKBoM9": "7",
    "b5VveUd8": "",
    "qp37xTDh": "レアリティが６以上のユニットは、スーパーブレイブバーストを覚えることができます。<br><br>スーパーブレイブバーストはレアリティ６のユニットのブレイブバーストレベルが10になると習得します。",
    "v9dyS8fi": "100",
    "meg8fhr1": "7"
  },
  {
    "f1LKBoM9": "8",
    "b5VveUd8": "",
    "qp37xTDh": "「スフィアフロッグ」というユニットを素材にして強化合成を行うと、ベースユニットのスフィア枠が追加されます。<br>追加できるスフィア枠は１ユニットにつき１つのみで、同じユニットに２体以上のスフィアフロッグを合成することはできません。<br><br>スフィア枠を追加したユニットは、進化後もスフィア枠の追加状態が引き継がれますが、合成素材として他のユニットへ合成した場合、ベースユニットのスフィア枠は変化しません。",
    "v9dyS8fi": "100",
    "meg8fhr1": "8"
  },
  {
    "f1LKBoM9": "9",
    "b5VveUd8": "",
    "qp37xTDh": "「幼魔」は強化合成の際に素材にすることで、ベースユニットの能力を上昇させる特殊なユニットです。<br>強化合成時に以下の能力が上昇します。<br><br>・力の幼魔パクパク：攻撃+20<br>・守の幼魔ガンジュ：防御+20<br>・癒の幼魔フワール：回復+20<br>・体の幼魔モーリン：ＨＰ+50<br>※上昇値の合計は、ユニット詳細画面の各能力の右側に表示されます。<br><br>なお、各能力の限界上昇値はユニットごとに設定されており、それを超えた強化合成は行えません。<br>能力を強化したユニットは進化後も能力上昇値が引き継がれますが、素材として他のユニットへ合成した場合、ベースユニットの能力上昇値は変化しません。",
    "v9dyS8fi": "100",
    "meg8fhr1": "9"
  },
  {
    "f1LKBoM9": "10",
    "b5VveUd8": "",
    "qp37xTDh": "レアリティが７以上のユニットはアルティメットブレイブバーストを覚えることができます。<br><br>アルティメットブレイブバーストは、レアリティが７以上のユニットのスーパーブレイブバーストレベルが１０になると習得します。<br>また、アルティメットブレイブバーストにレベルはなく、習得した時点で最大となります。",
    "v9dyS8fi": "100",
    "meg8fhr1": "10"
  },
  {
    "f1LKBoM9": "11",
    "b5VveUd8": "",
    "qp37xTDh": "レアリティが7以上のユニットはエクストラスキルを覚えることができます。<br>エクストラスキルには効果の発動に条件があるものが存在します。<br>また、リーダースキルとは違い、習得したユニットをパーティのリーダーに設定していなくても、効果を発動することができます。<br><br>エクストラスキルはレアリティが７以上のユニットのスーパーブレイブバーストレベルが１０になると習得します。<br><br>【効果範囲について】<br><br>特に記載がない場合、スキルの効果範囲はそのユニット自身のみとなります。<br><br>また、特殊ユニット<color=255:165:0>「天賦の石版守エルギフ」</color>の合成により修得したエクストラスキルについても同様となります。<br><br>※「エルギフ」について、詳しくは「石版守」の項目をご確認ください。",
    "v9dyS8fi": "100",
    "meg8fhr1": "11"
  },
  {
    "f1LKBoM9": "12",
    "b5VveUd8": "",
    "qp37xTDh": "<color=255:165:0>「天賦の石版守エルギフ」</color>は強化合成の際に素材にすることで、ベースユニットに新たなエクストラスキルを付加する特殊なユニットです。<br><br>エルギフの石版は様々なエクストラスキルを持ち、そのスキル名と効果内容はエルギフのユニット詳細画面で確認できます。<br><br>また、エルギフのUnit No.の右側に表示されている紫色の<color=224:102:255>★</color>は、エクストラスキルのレアリティを表しています。<br><br>エルギフの合成により付加される<color=224:102:255>エクストラスキル</color>は、強化・進化・売却ユニットを除くすべての一般ユニットに覚えさせることができます。<br><br>またこれは、★7ユニットが覚える<color=255:130:171>エクストラスキル</color>とは別のものとして扱われます。<br><br>ゲーム内では、★7ユニットが覚える<color=255:130:171>エクストラスキルは桃色</color>、エルギフによる<color=224:102:255>エクストラスキルは紫色</color>で区別されます。<br><br>覚えたエクストラスキルは、ユニット詳細画面のラベルを長押し、または右下にある切り替えボタンで確認できます。<br><br><br>【進化と強化による引き継ぎ】<br><br>エルギフの合成によりエクストラスキルを修得したユニットを進化させた場合、そのスキルは進化後も引き継がれます。<br><br>しかし、素材として別のユニットへ強化合成した場合、そのエクストラスキルは消失しベースユニットにも引き継がれません。<br><br><br>【エクストラスキルの上書きと抽出】<br><br>エルギフの合成によりエクストラスキルを修得したユニットをベースとし、別のエルギフを強化合成した場合、エクストラスキルは上書きされ元のスキルは消失します。<br><br>また、エクストラスキルを持つユニットへ<color=255:69:0>「虚無の石版守エムギフ」</color>を強化合成することでそのスキルを抽出することができます。<br><br>この時、エムギフは抽出したエクストラスキルを持つエルギフに変化し、プレゼントボックスへ送られます。<br><br><br>※スキル抽出の合成時、エムギフは消失します。<br><br>※★7ユニットが覚える<color=255:130:171>エクストラスキル</color>を抽出することはできません。",
    "v9dyS8fi": "100",
    "meg8fhr1": "12"
  },
  {
    "f1LKBoM9": "13",
    "b5VveUd8": "",
    "qp37xTDh": "一部のユニットには、別パターンのイラスト（静止画）が存在し、表示を任意で切り替えることができます。<br><br>該当のユニットを複数所持している場合、どのパターンを表示するかを個別に設定することができます。<br><br><br>【表示の切り替え方法】<br><br>表示切り替え可能なユニットのみ、ユニット詳細画面の右上に「表示切替ボタン」が表示され、ボタンを押すごとに別パターンのイラストへ切り替えることができます。<br><br>また、ユニット図鑑にある全身画像の表示画面にも「表示切替ボタン」が表示され、同様に切り替えができます。<br><br><br>※ドットキャラクターの画像は変化しません。",
    "v9dyS8fi": "100",
    "meg8fhr1": "13"
  },
  {
    "f1LKBoM9": "14",
    "b5VveUd8": "",
    "qp37xTDh": "幻創進化したユニットのＬｖを最大（１５０）にし、スーパーブレイブバーストレベルを１０まで上げることで特性強化が行えるようになります。<br><br>特性強化では、習得ポイント（ＳＰ）を消費してユニットごとに用意された特性強化項目の中から好きな物を解放することができます。<br>特性強化項目にはユニットのステータスを上昇させたりＢＢやＳＢＢの効果を強化したりとさまざまな物がありますが、中には解放条件が設定されている物もあります。<br>特に記載がない場合、特性強化の効果範囲はそのユニット自身のみとなります。<br>また、１体のユニットで取得できるＳＰの上限は１００ポイントとなり、基本的には全ての特性強化項目を解放することはできません。<br><br>特性強化項目を選択し直したい時には、ダイヤを消費することで特性強化の解放状況をリセットすることができます。<br>リセット前に消費していたＳＰは全て未使用の状態に戻り、再度消費して特性強化項目を解放していくことができます。<br><br>自分のパーティや戦略に合わせて、自由にユニットをカスタマイズしましょう。<br><br>※ＳＰの取得方法など詳しくは別項「習得ポイント（ＳＰ）について」をご確認ください。",
    "v9dyS8fi": "100",
    "meg8fhr1": "14"
  },
  {
    "f1LKBoM9": "15",
    "b5VveUd8": "",
    "qp37xTDh": "習得ポイント（ＳＰ）は幻創進化ユニットが特性強化を行う際に必要となるポイントです。<br>ＳＰは特性強化が解放された時点で既に１０ポイント所持しています。それ以降はＢＢレベルアップと同様に強化合成で入手することができます。<br>１体のユニットが取得できるＳＰの上限は１００ポイントとなり、取得上限を超えて入手することはできません。<br><br>また、強化合成の素材にはＳＰを必ず入手できる物や、ＳＰが入手できない物もあります。<br>詳細は下記の通りとなります。<br><br><color=255:165:0>【一定の確率でＳＰが入手できる素材】</color><br>■一般ユニット　１ｐｔ<br><br><color=255:165:0>【ＳＰが必ず入手できる素材】</color><br>■ブレイブバースト強化用ユニット<br>・バーストフロッグ　　１ｐｔ<br>・バーストエンペラー　５ｐｔ<br>・ローソンフロッグ　　２ｐｔ<br><br>■同系統のユニット　５ｐｔ<br><color=255:255:0>※同系統ユニットとは、ユニット進化を行う際に進化元・進化先となるユニットのことを指します。</color><br><br>■スフィア枠追加用ユニット<br>・スフィアフロッグ　１０ｐｔ<br>※スフィア枠が２個の状態に限ります。<br><br><color=255:165:0>【ＳＰが入手できない素材】</color><br>■進化用ユニット<br>・各属性の妖精<br>・各属性の精霊<br>・各属性の石像<br>・各属性のツボ<br>・各属性の巨神<br>・各属性の機神<br>・奇跡の巨神<br>・ミミック<br>・バットミミック<br>・ドラゴンミミック<br>・メタルミミック<br><br>■経験値用の強化ユニット<br>・各属性のメタルゴースト<br>・各属性のメタルキング<br>・各属性のメタルゴッド<br>・各属性のクリスタルゴッド<br><br>■売却用ユニット<br>・ジュエルゴースト<br>・ジュエルキング<br>・ジュエルゴッド<br>・ゴールデンゴッド<br><br>■幼魔ユニット<br>・力の幼魔パクパク<br>・守の幼魔ガンジュ<br>・癒の幼魔フワール<br>・体の幼魔モーリン<br>・全の幼魔アルトン<br><br>■石版守ユニット<br>・天賦の石版守エルギフ<br>・虚無の石版守エムギフ",
    "v9dyS8fi": "100",
    "meg8fhr1": "15"
  },
  {
    "f1LKBoM9": "16",
    "b5VveUd8": "",
    "qp37xTDh": "アイテム編成では、クエストに持っていくアイテムを設定することができます。<br><br>クエストに持っていけるアイテムは最大５種類で、アイテムによって持っていける個数が異なります。<br><br>アイテムは生成するだけではクエスト中に使用することはできません。<br>アイテム編成は、クエストに出発する直前の画面からも設定可能です。",
    "v9dyS8fi": "200",
    "meg8fhr1": "16"
  },
  {
    "f1LKBoM9": "17",
    "b5VveUd8": "",
    "qp37xTDh": "スフィアはユニットの能力を強化する装備品です。能力アップや状態異常への耐性、その他さまざまな効果をもったスフィアがあります。<br><br>１ユニットが装備できるスフィアは基本１つですが、スフィア枠の追加を行うと、最大２つまで装備することができます。<br><br>スフィアを装備したユニットを売却したり合成・進化素材として使った場合は、自動的に装備が外れます。",
    "v9dyS8fi": "200",
    "meg8fhr1": "17"
  },
  {
    "f1LKBoM9": "18",
    "b5VveUd8": "",
    "qp37xTDh": "スフィアには、効果に応じた１４種類のタイプがあります。<br>同じタイプのスフィアを、同時に２つ装備することはできません。<br><br>【スフィアのタイプと該当スフィア例】<br>・<color=255:165:0>ステータス強化系</color><br>　名剣ブライブライド、千子村正<br><br>・<color=255:165:0>クリティカル系</color><br>　覇斧マリュデフス、死と闇の斧アグリス<br><br>・<color=255:165:0>ドロップ系</color><br>　技宝バトルブースター、盗賊の腕輪<br><br>・<color=255:165:0>異常付与系</color><br>　毒の短剣『ポズ』、魔銃メク・アス<br><br>・<color=255:165:0>異常耐性系</color><br>　毒光ポズグラス、脆光パリオン<br><br>・<color=255:165:0>ＢＢゲージ系</color><br>　星剣イオメティス、魔晶石の欠片<br><br>・<color=255:165:0>ＨＰ回復系</color><br>　祝福の旗幟、闇衣ダークエデュア<br><br>・<color=255:165:0>被ターゲット系</color><br>　透明のマント、般若の面<br><br>・<color=255:165:0>ダメージ反射系</color><br>　鏡兜ヴァンベルク<br><br>・<color=255:165:0>ダメージ軽減系</color><br>　魔装メライドデウス<br><br>・<color=255:165:0>スパーク系</color><br>　王光の花<br><br>・<color=255:165:0>防御貫通系</color><br>　魔槍ゲイ・ボルグ<br><br>・<color=255:165:0>攻撃強化系</color><br>　創世の石板<br><br>・<color=255:165:0>特殊系</color><br>　幻導機・サイヴォルド<br>",
    "v9dyS8fi": "200",
    "meg8fhr1": "18"
  },
  {
    "f1LKBoM9": "19",
    "b5VveUd8": "",
    "qp37xTDh": "ブーストアイテムは使用することで獲得経験値量やレイドの素材ドロップ率を上げることができる、サポートアイテムです。<br><br>ブーストアイテムの種類によって、使用できる場所や使用法が異なります。<br>同系統のブーストアイテムは一度に１種類しか使用できません。<br><br>【ブーストアイテムの使い方】<br><br>・<color=255:165:0>クエストで使用するアイテム</color><br>経験の証など。<br>クエストや狭間の各ダンジョンで使用するブーストアイテムは、クエストに出発する直前の画面で装備して冒険に出ることで、使用できます。<br><br>装備したブーストアイテムの自動装備を選択すると、冒険に出る際に所持アイテムを自動で使用します。<br>所持数が０になっても、またアイテムを入手すれば、自動使用されます。<br><br>フロンティアハンターやフロンティアゲート、グランドクエスト、召喚術研究所の各試練ではブーストアイテムは使用できません。<br><br>・<color=255:165:0>レイドバトルで使用するアイテム</color><br>幸運の証など。<br>レイドバトルで使用するタイプのブーストアイテムは、レイドに出発する直前のアイテム編成画面で装備して、出撃します。<br>マップ上で、下部に表示されているアイテムアイコンからアイテムメニューを開き、アイテムの使用を選択します。バトル中はブーストアイテムを使用できません。<br>アイテムの効果は、レイドバトルをクリアした場合のクエスト報酬で適用されます。",
    "v9dyS8fi": "200",
    "meg8fhr1": "19"
  },
  {
    "f1LKBoM9": "20",
    "b5VveUd8": "",
    "qp37xTDh": "他のプレイヤーとフレンド登録すると、お互いに様々なメリットを得ることができます。<br><br>・フレンドを助っ人に選ぶと、フレンドユニットのリーダースキルが発動。<br>・フレンドを助っ人として雇用すると絆ptを多く入手。<br>・お互いにギフトをプレゼント可能。<br><br>フレンド申請はクエストクリア後や、プレイヤーIDの検索などで申請を行うことができます。<br>また、フレンド＞フレンド検索＞リストから探すから自分のレベルに近いプレイヤーに申請することもできます。<br><br>フレンドの最大人数はプレイヤーのレベルに応じて増加し、50以上はショップ＞フレンド枠拡張からダイヤを使用することで最大枠を拡張することができます。",
    "v9dyS8fi": "300",
    "meg8fhr1": "20"
  },
  {
    "f1LKBoM9": "21",
    "b5VveUd8": "",
    "qp37xTDh": "フレンド同士で１日１回、ギフトを贈ることができます。<br><br>ギフトではアイテムやゼル・カルマ・絆ptなどから一つを選択して贈るか、フレンドが「今欲しいギフト」に登録しているギフト（復数登録時は左の物を優先）を一括で贈ることができます。<br>ギフトで贈るアイテムは、プレイヤーの所持品等から消費されることはありません。フレンドが欲しがっているアイテムをどんどん贈り合いましょう。<br><br>ギフトは200件までしか保持できません。新たに贈られると、古いものから順に破棄されます。こまめにチェックして受け取りましょう。",
    "v9dyS8fi": "300",
    "meg8fhr1": "21"
  },
  {
    "f1LKBoM9": "22",
    "b5VveUd8": "",
    "qp37xTDh": "現在自分が欲しいと思っているアイテムを「今欲しいギフト」に登録することができます。<br><br>ギフトを贈る際に「希望ギフト」を選択すると、フレンドが「今欲しいギフト」に登録しているギフトを自動で贈ることができます（複数登録時は左の物を優先）。<br>※フレンドが「今欲しいギフト」を登録していない場合は、絆ポイントが自動で贈られます。<br><br>個別に送りたい場合は、ギフトを選択後、「欲しがっているフレンド」にチェックを入れることで「今欲しいギフト」に登録しているフレンドだけを表示することができます。<br><br>フレンドが欲しいアイテムを登録していた場合は、進んでそのアイテムを贈りましょう。",
    "v9dyS8fi": "300",
    "meg8fhr1": "22"
  },
  {
    "f1LKBoM9": "23",
    "b5VveUd8": "",
    "qp37xTDh": "クエストは、エリア＞ダンジョン＞クエストの順で選択することで進めます。<br><br>ダンジョン内のクエストを全てクリアすると、ダンジョンクリアとなり、新たなダンジョンが出現します。また、エリア内のダンジョンを全てクリアすると、エリアコンプリートとなり、配信中の次のエリアがある場合、新たなエリアが出現します。エリアは順次追加配信されていきます。<br><br>エリアは左右にフリックを行うことで切り替えが行えます。",
    "v9dyS8fi": "400",
    "meg8fhr1": "23"
  },
  {
    "f1LKBoM9": "24",
    "b5VveUd8": "",
    "qp37xTDh": "クエストに出発するには、体力を消費します。クエストごとに必要な消費体力は異なります。体力は時間が経過すると徐々に回復していきます。<br><br>クエストをクリアするとEXPが貯まり、一定数値になるとプレイヤーレベルがアップします。<br>プレイヤーレベルがアップすると、体力やパーティ編成コスト、フレンド上限数などが増加していきます。<br><br>また、レベルアップ時には体力が全回復します。",
    "v9dyS8fi": "400",
    "meg8fhr1": "24"
  },
  {
    "f1LKBoM9": "25",
    "b5VveUd8": "",
    "qp37xTDh": "クエストに出発する際、バトルに参加する助っ人を１体選ぶことができます。<br>助っ人として参加してもらったユニット<br>は、一定時間助っ人リストに表示されなくなります。<br><br>フレンドのユニットを助っ人にした場合は<br>そのユニットのリーダースキル効果を追加で得ることができます。",
    "v9dyS8fi": "400",
    "meg8fhr1": "25"
  },
  {
    "f1LKBoM9": "26",
    "b5VveUd8": "",
    "qp37xTDh": "フレンドに使用してもらう助っ人を3枠まで指定できます。<br><br>MENU＞設定＞パーティ選択から「パーティ枠を指定」を選択し、助っ人として登録したいパーティ番号を選択します。<br>選択したパーティのリーダーが助っ人として表示されます。<br><br>違うパーティでも同じユニットをリーダーとしていた場合、同じ助っ人として表示され複数表示されません。<br>※ユニット名が同じ場合でも、違うユニットの場合は複数表示されます。",
    "v9dyS8fi": "400",
    "meg8fhr1": "26"
  },
  {
    "f1LKBoM9": "27",
    "b5VveUd8": "",
    "qp37xTDh": "クエスト出撃前に周回設定をＯＮにすることで、同じクエストへ繰り返し自動で出撃することができます。<br>自動周回は通常クエストとゲートの狭間にあるクエストでのみ行うことができます。<br>また、自動周回を行うにはそのクエストを一度クリアしている必要があります。<br><br>クエストの周回は設定した周回回数に達するか特定の条件で自動的に終了しますが、バトル中に「周回終了」ボタンをタップして、手動で終了させることもできます。<br><br>■周回が終了する条件<br>・設定した周回回数に到達<br>・アイテムまたはユニットの所持上限オーバー<br>・クエストの開放期間終了<br>・必要体力不足<br>・全滅<br><br>※設定を変更することで、体力不足時と全滅時には自動でダイヤを消費して周回を続けることもできます。<br>※詳しい設定方法は別項「クエストの周回設定について」をご確認ください。<br><br>自動周回中には、ブレイブフロンティアのアプリを起動しておく必要があります。<br>端末がスリープ状態であったり、アプリが最小化されていると周回が停止しますのでご注意ください。",
    "v9dyS8fi": "400",
    "meg8fhr1": "27"
  },
  {
    "f1LKBoM9": "28",
    "b5VveUd8": "",
    "qp37xTDh": "周回設定では以下の項目を自由に設定することができます。<br>設定の内容によっては自動でダイヤが消費されますので、変更の際には十分ご注意ください。<br>また、周回設定は周回の終了時にリセットされます。<br><br>■周回数設定<br>最大１００回までクエストの繰り返し回数を設定することができます。<br>設定した回数分クエストに出撃すると周回が終了します。<br><br>■消費ダイヤ数設定<br>周回中に使用するダイヤの個数上限を設定することができます。<br>ただし、現在所持しているダイヤの個数以上に設定することはできません。<br><br>■自動体力回復設定<br>ＯＮにすると、体力がなくなった際に自動的にダイヤを消費して体力を回復し周回を続けます。<br>体力の回復が必要な状態で指定した消費ダイヤ数の上限に達していた場合は周回が終了します。<br><br>■自動コンティニュー設定<br>ＯＮにすると、全滅時に自動でダイヤを消費してコンティニューを行い、周回を続けます。<br>コンティニューが必要な状態で指定した消費ダイヤ数の上限に達していた場合は周回が終了します。<br><br>■ゲームオーバー時再出撃設定<br>ＯＮにすると、全滅時に自動で同じクエストへの再出撃を行います。<br>自動コンティニュー設定がＯＮになっている場合は、コンティニューが優先されます<br><br>■ユニット詳細表示設定<br>ＯＮにすると、新ユニットを入手した際の詳細画面が表示されます。<br>その際には自動周回は詳細画面で一時停止しますが、画面をタップして詳細画面を終了することで周回が再開されます。<br><br>■助っ人設定<br>ＯＮにすると、周回中に助っ人をランダムで選択します。<br>助っ人に選択できるフレンドがいる場合には、フレンドから優先して選択されます。<br>また、助っ人に選択できるフレンドがいなくなった場合には、フレンドではないユーザーからランダムで助っ人を選択して周回を続けます。<br>ＯＦＦの場合は、助っ人なしで再出撃します。<br>※助っ人としてゲストユニットが設定されているクエストの場合は、設定に関わらずゲストユニットで固定となります。<br><br>■助っ人フィルター設定<br>ＯＮにすると再出撃時、フィルターが適用されたフレンドからのみ助っ人を選択します。<br>ＯＦＦの場合は、フィルターが適用されません。",
    "v9dyS8fi": "400",
    "meg8fhr1": "28"
  },
  {
    "f1LKBoM9": "29",
    "b5VveUd8": "",
    "qp37xTDh": "ゲートの狭間では、特別なダンジョンに挑戦できます。<br><br>通常では入手困難なユニットや、ゼル・カルマ・素材が沢山入手できるダンジョンなど、攻略をより楽しくするクエストがたくさん登場します。",
    "v9dyS8fi": "500",
    "meg8fhr1": "29"
  },
  {
    "f1LKBoM9": "30",
    "b5VveUd8": "",
    "qp37xTDh": "バトルでは、中央下部のユニットのウィンドウをタッチすると、対応するユニットが敵に攻撃を行います。<br><br>全ての味方ユニットの攻撃が終わると、敵の攻撃ターンとなります。",
    "v9dyS8fi": "600",
    "meg8fhr1": "30"
  },
  {
    "f1LKBoM9": "31",
    "b5VveUd8": "",
    "qp37xTDh": "攻撃したい敵をタッチすると、選択した敵の上にターゲットマークが出現され、攻撃対象が固定されます。<br><br>敵を選択している場合、敵の現在HPゲージや弱点属性が中央部に表示されます。<br><br>なお、ターゲットマークがついている場合は、敵を倒しても自動でターゲットが切り替わらなくなります。これは「オーバーキル」を狙う際にとても重要になります。",
    "v9dyS8fi": "600",
    "meg8fhr1": "31"
  },
  {
    "f1LKBoM9": "32",
    "b5VveUd8": "",
    "qp37xTDh": "ブレイブバースト(BB)とは、ユニットがそれぞれもっている特殊スキルのことです。<br><br>ブレイブバーストは、戦闘中に敵を攻撃することで出現する「バトルクリスタル」がユニットに吸収され、ブレイブバーストゲージがいっぱいになると発動可能な状態となります。<br><br>ブレイブバーストが発動可能になったら、ユニットウィンドウに指を当て、そのまま指を斜め上方にスライドさせることで発動します。<br><br>長押しした状態で待機すると、ブレイブバーストの効果を確認することができます。その際、指を動かさずに離すことでブレイブバーストの使用や通常攻撃の実行をキャンセルすることもできます。<br><br>スーパーブレイブバーストを習得しているユニットは、ブレイブバーストゲージを２本分溜めることでスーパーブレイブバーストを発動することができます。<br><br>スーパーブレイブバーストを習得している状態でも、通常のブレイブバーストはゲージが１本以上溜まれば発動できます。<br><br>ブレイブバーストやスーパーブレイブバーストを使用すると、溜まっていたゲージは全て消費されます。",
    "v9dyS8fi": "600",
    "meg8fhr1": "32"
  },
  {
    "f1LKBoM9": "33",
    "b5VveUd8": "",
    "qp37xTDh": "ユニットウィンドウに指を当て、そのまま指を下方にスライドさせると、そのユニットをガード状態にすることができます。<br><br>ガードをすると、敵から受けるダメージを大幅に軽減することができますが、そのターンは、通常攻撃やブレイブバーストを行うことはできません。",
    "v9dyS8fi": "600",
    "meg8fhr1": "33"
  },
  {
    "f1LKBoM9": "34",
    "b5VveUd8": "",
    "qp37xTDh": "敵を攻撃するとバトルクリスタル(BC)とハートクリスタル(HC)をドロップします。ドロップしたクリスタルは、ターン終了時にランダムで各ユニットに吸収されます。<br><br>クリスタルを取得すると以下のような効果があります。<br>・バトルクリスタルはユニットのブレイブバーストゲージを上昇させます。<br>・ハートクリスタルはユニットのHPを一定量回復させます。",
    "v9dyS8fi": "600",
    "meg8fhr1": "34"
  },
  {
    "f1LKBoM9": "35",
    "b5VveUd8": "",
    "qp37xTDh": "バトル中、下部に表示されているアイテムアイコンにタッチし、対象となるユニットを選択することでアイテムを使用することができます。<br><br>アイテムの使用はターンの開始時のみ行うことができます。誰か一人でも行動してしまうと、そのターンはアイテムを使用することができなくなります。<br><br>バトルで使用できるアイテムは事前にアイテム編成で設定したアイテムのみです。<br>クエストを実行する前に忘れずにアイテム編成を行いましょう。",
    "v9dyS8fi": "600",
    "meg8fhr1": "35"
  },
  {
    "f1LKBoM9": "36",
    "b5VveUd8": "",
    "qp37xTDh": "スパークは、攻撃時、複数のユニットが同じタイミングで敵にダメージを与えた時に発生します。<br><br>スパークが発動すると、通常よりも大きなダメージを与えることができます。<br><br>また、一部ユニットのブレイブバースト等により、確率でスパーククリティカルが発生する効果を付与できます。<br>スパーククリティカルが発生した場合は、通常のスパークダメージよりも高いダメージを与えることができます。<br><br>ユニットの攻撃順番やタッチするタイミングを工夫し、より多くのスパークを発生させて敵を倒しましょう。",
    "v9dyS8fi": "600",
    "meg8fhr1": "36"
  },
  {
    "f1LKBoM9": "37",
    "b5VveUd8": "",
    "qp37xTDh": "幻創進化した同じ属性のユニット同士で攻撃がスパークすると、クロススパークが発生することがあります。<br>バトル中にクロススパークが発生すると、パーティ内の全てのユニットに共鳴効果が発動します。<br>共鳴効果は発動から２ターンが経過することで終了します。<br><br>共鳴効果の発動中には、以下の効果が得られます。<br><br><color=255:165:0>■同属性ユニットのステータス上昇</color><br>クロススパークした幻創進化ユニットと同じ属性のユニットの攻撃力、防御力、回復力が上昇します。<br>ステータス上昇効果は、パーティ内にクロススパークしたユニットと同じ属性のユニットが多いほど高い効果が得られます。<br><br><color=255:165:0>■ＯＤゲージ上昇量の増加</color><br>クロススパークした幻創進化ユニットと同じ属性のユニットの各種行動で上昇するＯＤゲージ量が増加します。<br>ＯＤゲージ上昇量の増加は、パーティ内にクロススパークしたユニットと同じ属性のユニットが多いほど高い効果が得られます。<br><br><color=255:165:0>■有利属性からのダメージ軽減</color><br>クロススパークしたユニットの有利属性からのダメージが軽減されます。<br>例えば、炎属性の幻創進化ユニット同士でクロススパークした際には、パーティ全体への樹属性ユニットからのダメージが軽減されます。",
    "v9dyS8fi": "600",
    "meg8fhr1": "37"
  },
  {
    "f1LKBoM9": "38",
    "b5VveUd8": "",
    "qp37xTDh": "HPが０となった敵に、さらに連続して攻撃を加えることで「オーバーキル」が発生します。<br><br>オーバーキルを行うと高確率でバトルクリスタルがドロップします。素早くバトルクリスタルを集めたい時に非常に有効です。<br><br>オーバーキルはターゲットを行うことで狙いやすくなります。",
    "v9dyS8fi": "600",
    "meg8fhr1": "38"
  },
  {
    "f1LKBoM9": "39",
    "b5VveUd8": "",
    "qp37xTDh": "敵を倒すとまれに宝箱が出現します。バトル終了後、宝箱をタッチすると中のアイテムを獲得できます。<br><br>ただし、宝箱は凶悪なモンスターが化けている場合がありますので注意しましょう。<br><br>宝箱を開きたくない場合は「先へ進む」をタッチすることでスルーすることができます。",
    "v9dyS8fi": "600",
    "meg8fhr1": "39"
  },
  {
    "f1LKBoM9": "40",
    "b5VveUd8": "",
    "qp37xTDh": "ユニットはそれぞれ属性をもっており、他属性との有利不利の関係があります。<br><br>[ 炎・水・樹・雷 ]<br>これら４つの属性は以下の関係です。<br>・炎は樹に強く、水に弱い。<br>・樹は雷に強く、炎に弱い。<br>・雷は水に強く、樹に弱い。<br>・水は炎に強く、雷に弱い。<br><br>強い方が弱い方を攻撃した場合は通常よりも大きなダメージを与え、逆の場合は与えるダメージは通常よりも小さくなります。<br><br>[ 光・闇 ]<br>光と闇は相克し、光が闇に攻撃した場合も闇が光に攻撃した場合も、通常よりも大きなダメージを与え合います。",
    "v9dyS8fi": "600",
    "meg8fhr1": "40"
  },
  {
    "f1LKBoM9": "41",
    "b5VveUd8": "",
    "qp37xTDh": "バトル中の状態異常には以下のものがあります。<br><br>・毒　：毎ターンＨＰが減少します。<br>・弱体：防御力が減少します。<br>・怪我：攻撃力が減少します。<br>・病気：味方と敵で効果が異なります。<br>　【味方が病気にかかった場合】<br>　回復力が減少します。<br>　【敵が病気にかかった場合】<br>　状態異常にかかりやすくなり、<br>　弱点属性からのダメージが増加します。<br>・麻痺：一定ターン行動不能になります。<br>・呪い：ＢＢゲージがたまらなくなり、ブレイブバーストが使用不能になります。",
    "v9dyS8fi": "600",
    "meg8fhr1": "41"
  },
  {
    "f1LKBoM9": "42",
    "b5VveUd8": "",
    "qp37xTDh": "バトル中、ユニットに付与された様々な効果（状態変化）は、頭上のアイコンにより示唆されます。<br><br>複数の状態変化が付与されている場合は、数秒ずつ切り替え表示します。<br><br>多数の効果が重複して確認し辛い場合は、ユニットを長押することで画面下部にウィンドウを表示し、効果継続中のアイコンを一覧で確認することができます。<br><br>アイコン一覧の表示は、ターンの開始時のみ行うことができます。（アイテムの使用と同様です。）<br><br>アイコン一覧は敵・味方のすべてのユニットについて表示可能で、一覧を表示中に別のユニットをタップして切り替えることができます。<br><br>また、ウィンドウ内を左右にスワイプ、または左右の矢印をタップすると敵・味方グループ内で順番に切り替えます。<br><br>各アイコンの内容については、バトル中の[MENU]→[ヘルプ]→[状態変化について]をご確認ください。",
    "v9dyS8fi": "600",
    "meg8fhr1": "42"
  },
  {
    "f1LKBoM9": "43",
    "b5VveUd8": "",
    "qp37xTDh": "バトル中、ゲームの動作が遅い場合は、設定のバトル演出より、各種エフェクト等の表示設定をオフにすると解消される場合があります。",
    "v9dyS8fi": "600",
    "meg8fhr1": "43"
  },
  {
    "f1LKBoM9": "44",
    "b5VveUd8": "",
    "qp37xTDh": "バトル中画面に表示される「AUTO」ボタンでバトルが自動で進行するAUTOモードになります。<br>再度、「AUTO」ボタンをタップすることでAUTOモードが解除されます。<br><br>「MENU」内「設定」の「バトル設定」でAUTOバトル中の以下の項目の設定が変更できます。<br><br>・AUTOボタン表示<br>・AUTO時ブレイブバースト使用<br>・AUTO時スーパーブレイブバースト使用<br>・AUTO時宝箱の自動オープン",
    "v9dyS8fi": "600",
    "meg8fhr1": "44"
  },
  {
    "f1LKBoM9": "45",
    "b5VveUd8": "",
    "qp37xTDh": "アルティメットブレイブバーストを習得しているユニットは、オーバードライブを発動することでアルティメットブレイブバーストを使用できます。<br><br>ブレイブバースト、スーパーブレイブバーストとアルティメットブレイブバーストの効果は、一部重複せずに上書きされるものがあります。<br><br>※ユニットのオーバードライブ発動については、「オーバードライブについて」をご確認下さい。",
    "v9dyS8fi": "600",
    "meg8fhr1": "45"
  },
  {
    "f1LKBoM9": "46",
    "b5VveUd8": "",
    "qp37xTDh": "オーバードライブは、アルティメットブレイブバーストを習得したユニットのみが発動できます。<br>パーティ内にアルティメットブレイブバーストを習得したユニットが複数いる場合でも、同時にオーバードライブを発動することはできません。<br><br>オーバードライブ中のユニットは以下の状態になります。<br><br>・攻撃力、防御力、回復力が大幅に上昇<br>・アルティメットブレイブバーストを使用できる<br>・ブレイブバースト、スーパーブレイブバーストが使用できなくなる<br><br>オーバードライブは、アルティメットブレイブバーストを発動するか、4ターンが経過することで解除されます。<br><br>■オーバードライブの発動方法<br>アルティメットブレイブバーストを習得しているユニットがパーティ内にいると、バトル画面にオーバードライブゲージが出現します。<br><br>オーバードライブゲージは以下の方法で溜めることができます。<br><br>・ターン経過<br>・通常攻撃<br>・ブレイブバーストを発動<br>・弱点属性での攻撃<br><br>オーバードライブゲージが最大まで溜まったら、アルティメットブレイブバーストを習得しているユニットウインドウに指を当て、そのまま左へスライドすることでオーバードライブを発動することができます。",
    "v9dyS8fi": "600",
    "meg8fhr1": "46"
  },
  {
    "f1LKBoM9": "47",
    "b5VveUd8": "",
    "qp37xTDh": "冒険者の村には畑、山、森、川の４つの収集ポイントがあります。<br><br>それぞれの地形で、光が立ち上っている時にその地形をタッチすると、様々なアイテムを採取することができます。<br><br>ただし、１回採取すると次は３時間経過しないと再採取できません。",
    "v9dyS8fi": "700",
    "meg8fhr1": "47"
  },
  {
    "f1LKBoM9": "48",
    "b5VveUd8": "",
    "qp37xTDh": "カルマを使用し、各収集ポイントや施設の強化を行うことができます。<br><br>収集ポイントを強化すると、その場所から入手できるアイテムの種類や収集回数が増加します。<br><br>調合屋やスフィア屋を強化すると、生成できるアイテムの種類が増加します。",
    "v9dyS8fi": "700",
    "meg8fhr1": "48"
  },
  {
    "f1LKBoM9": "49",
    "b5VveUd8": "",
    "qp37xTDh": "戦闘で使用する消費アイテムを調合することができます。<br><br>アイテムを調合するためには、調合に必要な素材アイテムを所持していなければなりません。<br><br>調合するアイテムの種類を増やすには、設備強化で調合屋のレベルを上げる必要があります。",
    "v9dyS8fi": "700",
    "meg8fhr1": "49"
  },
  {
    "f1LKBoM9": "50",
    "b5VveUd8": "",
    "qp37xTDh": "装備することでユニットの能力を強化するスフィアを生成することができます。<br><br>スフィアを生成するためには、スフィア生成に必要な素材アイテムとカルマを所持していなければなりません。<br><br>生成するスフィアの種類を増やすには、設備強化でスフィア屋のレベルを上げる必要があります。",
    "v9dyS8fi": "700",
    "meg8fhr1": "50"
  },
  {
    "f1LKBoM9": "51",
    "b5VveUd8": "",
    "qp37xTDh": "装備することで召喚師ユニットのリーダースキル効果を変更できるＬＳスフィアを生成することができます。<br><br>ＬＳスフィアを生成するためには、ＬＳスフィア生成に必要な素材アイテムとカルマを所持していなければなりません。<br><br>生成するスフィアの種類を増やすには、生成に必要となる素材アイテムを入手する必要があります。",
    "v9dyS8fi": "700",
    "meg8fhr1": "51"
  },
  {
    "f1LKBoM9": "52",
    "b5VveUd8": "",
    "qp37xTDh": "ブレイブフロンティアに登場するBGMを聴くことができます。BGMを解放するにはゼルが必要となります。<br><br>BGMのラインナップを増やすには様々なクエストをクリアする必要があります。",
    "v9dyS8fi": "700",
    "meg8fhr1": "52"
  },
  {
    "f1LKBoM9": "53",
    "b5VveUd8": "",
    "qp37xTDh": "アリーナはプレイヤー同士でバトルを行い腕試しをする闘技場です。<br><br>バトルを行うには「アリーナオーブ」を1つ消費します。<br>「アリーナオーブ」は１時間に１つ回復します。<br><br>アリーナバトルに勝利すると、召喚位というランクが上昇し、様々な報酬を獲得することができます。",
    "v9dyS8fi": "800",
    "meg8fhr1": "53"
  },
  {
    "f1LKBoM9": "54",
    "b5VveUd8": "",
    "qp37xTDh": "アリーナバトルでは、ユニットはすべて自動的に攻撃を行います。プレイヤーが操作することはできません。<br><br>制限時間内に、相手チームのユニットを全滅させた方が勝利となります。<br><br>制限時間内にどちらかが全滅しない場合、以下の条件順序によって勝利チームが決定します。<br>・生存ユニット数が多いチーム<br>・残りHP合計が多いチーム<br>・与えた総ダメージ量が多いチーム",
    "v9dyS8fi": "800",
    "meg8fhr1": "54"
  },
  {
    "f1LKBoM9": "55",
    "b5VveUd8": "",
    "qp37xTDh": "アリーナバトルポイント(ABP)は、アリーナバトルで勝利すると上昇し、敗北すると減少します。<br><br>また、自分よりもABPが上位のプレイヤーに勝利することでより多くのABPを獲得できます。逆に、ABPが下位の相手に敗北するとより多くのABPを失うことになりますので、注意しましょう。<br><br>ABPの増減はプレイヤーがバトルを挑んだ時にのみ変動します。他プレイヤーから攻撃されて敗北した場合はABPは変動しません。<br>（防衛の勝敗記録は残ります）",
    "v9dyS8fi": "800",
    "meg8fhr1": "55"
  },
  {
    "f1LKBoM9": "56",
    "b5VveUd8": "",
    "qp37xTDh": "アリーナバトル中の行動や勝利時の状況、連勝数に応じて、獲得ABPにボーナスポイントが加算されます。<br><br>■勝利時の状況によるボーナス<br><br>逆転勝利：自分のユニットが敵ユニットよりも少ない状態から勝利<br>パーフェクト勝利：自分のユニットが全員DOWNしていない状態で勝利<br>※パーフェクト勝利時、自分のユニットのHPやBBゲージが最大の場合、より多くのボーナスポイントが加算されます。<br><br>■バトル中の行動によるボーナス<br><br>・弱点属性撃破：相手の弱点属性の攻撃で撃破（炎属性で樹属性を撃破、など）<br>・BB使用：バトル中自分のユニットがBBを使用<br>・マルチキル：１ターンで複数体の敵ユニットを撃破<br>※マルチキルボーナスは、１ターンの最大撃破数に応じて加算されます。<br>１ターンで２体の敵ユニットを撃破し、次のターンに３体撃破した場合、３体撃破分のポイントが加算されます。<br><br>■連勝数によるボーナス<br><br>アリーナバトルでの連勝数に応じて、ボーナスポイントが加算されます。<br><br>３連勝時からボーナスポイントが発生し、１０連勝時に最大値になります。<br>１０連勝以降は勝利する毎に同じ値が加算されます。",
    "v9dyS8fi": "800",
    "meg8fhr1": "56"
  },
  {
    "f1LKBoM9": "57",
    "b5VveUd8": "",
    "qp37xTDh": "アリーナバトル開始前に「ランダムルールあり」にチェックを入れると、一定確率で特別ルールのバトルが発生します。<br>特別ルール発生時に勝利すると、ABPにボーナスポイントが加算されます。<br>※「ランダムルールあり」にチェックを入れても、特別ルールが必ず発生するわけではありません。<br><br>特別ルールには様々な種類があり、以下のいずれかが発生します。<br>※特別ルールは敵味方両方に等しく適用されます。<br><br>・BBゲージ０スタート<br>・BB使用不可<br>・攻撃力半分<br>・状態異常発生<br>・炎属性パワーアップ<br>・水属性パワーアップ<br>・樹属性パワーアップ<br>・雷属性パワーアップ<br>・光属性パワーアップ<br>・闇属性パワーアップ<br>・男性パワーアップ<br>・女性パワーアップ<br>・性別不明パワーアップ<br>・リーダースキル無効<br>・スフィア効果無効",
    "v9dyS8fi": "800",
    "meg8fhr1": "57"
  },
  {
    "f1LKBoM9": "58",
    "b5VveUd8": "",
    "qp37xTDh": "アリーナバトルポイントを一定量貯めることで「召喚位」がランクアップします。<br><br>初めてランクアップした際には「特別な報酬」が用意されているので、ランクアップを目指して、積極的にアリーナバトルをしていきましょう。<br><br>敗北を重ねてABPが0になっている状態で更に敗北すると、ランクが下がってしまいます。注意しましょう。",
    "v9dyS8fi": "800",
    "meg8fhr1": "58"
  },
  {
    "f1LKBoM9": "59",
    "b5VveUd8": "",
    "qp37xTDh": "アリーナバトルの最中にアプリが終了すると、強制的に敗北となります。",
    "v9dyS8fi": "800",
    "meg8fhr1": "59"
  },
  {
    "f1LKBoM9": "60",
    "b5VveUd8": "",
    "qp37xTDh": "コロシアムは、アリーナで腕を磨いたプレイヤー同士でバトルを行い腕試しをする闘技場です。<br><br>コロシアムバトルはコロシアムチケットを消費して行います。<br>バトル開始前には、１回のバトルで消費するチケットの枚数を指定することができ、たくさん消費するほど獲得できるＣＢＰが増加します。<br>コロシアムチケットはアリーナでバトルを行うことで入手するか、もしくはダイヤを消費することで補充できます。<br>コロシアムチケットは99枚まで保持することができます。",
    "v9dyS8fi": "850",
    "meg8fhr1": "60"
  },
  {
    "f1LKBoM9": "61",
    "b5VveUd8": "",
    "qp37xTDh": "コロシアムでは１回の勝負で、先攻、後攻でそれぞれバトルを行います。<br>２回のバトルの結果、勝利数が多いプレイヤーの勝利となります。<br>勝利数が同数の場合は、複数の項目で判定を行い勝敗を決定します。<br>判定の結果が同点であった場合、勝負を仕掛けた側の勝利として計算されます。<br>また、各バトルの開始時にはランダムルールが発動することがあります。<br><br>※コロシアムのバトルでは、敵味方ともに条件を満たしたＥＸスキルは全て発動します。",
    "v9dyS8fi": "850",
    "meg8fhr1": "61"
  },
  {
    "f1LKBoM9": "62",
    "b5VveUd8": "",
    "qp37xTDh": "コロシアムでは先攻用パーティ、後攻用パーティそれぞれに陣形と補助効果を設定することができます。<br>陣形同士には相性があり、相手の陣形に対して不利な陣形を選択していた場合、陣形効果が発動せず、さらにＢＢゲージが無い状態でバトルがスタートします。<br><br>陣形同士の相性は以下の通りとなります。<br><br>「パワーストライク」は「テトラウォール」に有利<br>「孤岳天武の陣」は「五芒堅鎖の陣」に有利<br>「レイドバンガード」は「カイザーシールド」に有利<br><br>「テトラウォール」は「孤岳天武の陣」に有利<br>「五芒堅鎖の陣」は「レイドバンガード」に有利<br>「カイザーシールド」は「パワーストライク」に有利<br><br>※上記以外の組み合わせでは引き分けとなり、お互いに同じ条件でバトルがスタートします。<br><br>自分の戦略や相手の陣形を予想し、有効な陣形を選択しましょう。<br><br>また、補助効果には有利不利はなく、バトル中、常に発動します。",
    "v9dyS8fi": "850",
    "meg8fhr1": "62"
  },
  {
    "f1LKBoM9": "63",
    "b5VveUd8": "",
    "qp37xTDh": "コロシアムでは、初めに自分の手持ちからバトルに使用したいユニットを７体まで選択することができます。<br>７体の中から最大で５体を選び先攻用と後攻用のパーティをそれぞれ編成します。<br>また、パーティ内の配置によって「前衛」「中心」「後衛」のポジションが決定されます。<br><br>配置によるポジションの対応は以下の通りとなります。<br><br>Ａ　　　Ｃ<br>　　Ｂ<br>Ａ　　　Ｃ<br><br>Ａ＝前衛ユニット<br>Ｂ＝中心ユニット<br>Ｃ＝後衛ユニット<br><br>陣形の中には、特定のポジションのユニットにのみ効果を発動する物もあります。<br>選択した陣形に合わせて、ユニットの配置を行いましょう。",
    "v9dyS8fi": "850",
    "meg8fhr1": "63"
  },
  {
    "f1LKBoM9": "64",
    "b5VveUd8": "",
    "qp37xTDh": "コロシアムバトルを行うことでコロシアムバトルポイント(ＣＢＰ)を獲得することができます。<br>獲得したＣＢＰは、ランキングの集計に反映されるほか、消費することでコロシアム報酬を入手することができます。<br>ランキングは、獲得ＣＢＰ量で集計されるため、報酬獲得のために消費しても影響はありません。<br><br>コロシアムの報酬は複数のステージに分かれています。<br>各ステージの始めに、開封する宝箱を選択することができます。<br>ＣＢＰを消費することで宝箱の中の好きな報酬を獲得できますが、全ての報酬を獲得するまで別の宝箱を開封することはできません。<br><br>ステージ内の全ての宝箱を獲得すると、次のステージへ進むことができます。<br>また、全てのステージの報酬を獲得すると繰り返し報酬を獲得できるステージに進みます。<br>報酬ステージが新たに追加されると、再び先のステージに進みます。<br><br>「一括交換ボタン」ではステージ内の報酬を交換可能なだけ交換します。<br>最上段の報酬から交換を行い、交換できない報酬があった場合、交換が止まります。<br><br>なお、ＣＢＰは99999ptまで保持することができます。",
    "v9dyS8fi": "850",
    "meg8fhr1": "64"
  },
  {
    "f1LKBoM9": "65",
    "b5VveUd8": "",
    "qp37xTDh": "コロシアムでは、一定確率で特別ルールのバトルが発生します。<br><br>特別ルールには様々な種類があり、以下のいずれかが発生します。<br>※特別ルールは敵味方両方に等しく適用されます。<br><br>・BB使用不可<br>・攻撃力半分<br>・状態異常発生<br>・炎属性パワーアップ<br>・水属性パワーアップ<br>・樹属性パワーアップ<br>・雷属性パワーアップ<br>・光属性パワーアップ<br>・闇属性パワーアップ<br>・男性パワーアップ<br>・女性パワーアップ<br>・性別不明パワーアップ<br>・リーダースキル無効<br>・スフィア効果無効<br>・エクストラスキル無効",
    "v9dyS8fi": "850",
    "meg8fhr1": "65"
  },
  {
    "f1LKBoM9": "66",
    "b5VveUd8": "",
    "qp37xTDh": "コロシアムには複数のクラスがあり、自分の好きなクラスを選んで参加することができます。<br>クラスの中には、使用できるユニットのコストなど様々な制限が設定された物もあります。<br>また、参加するクラスはいつでも変更することができます。<br><br>自分の持っているユニットや使用したいパーティに合わせて、参加するクラスを選択しましょう。",
    "v9dyS8fi": "850",
    "meg8fhr1": "66"
  },
  {
    "f1LKBoM9": "67",
    "b5VveUd8": "",
    "qp37xTDh": "コロシアムでは、一定期間内に獲得したＣＢＰに応じてランキングが決定されます。<br>ランキングは各クラスごとに集計され、異なるクラスで獲得したＣＢＰは反映されません。<br>また、期間終了時にランキングはリセットされます。<br>ランキングの上位に入賞することで、ボーナスＣＢＰを獲得することができます。<br>※上位入賞のボーナスＣＢＰはランキングの集計には反映されません。<br><br>コロシアムバトルに勝利して、ランキング上位を目指しましょう。",
    "v9dyS8fi": "850",
    "meg8fhr1": "67"
  },
  {
    "f1LKBoM9": "68",
    "b5VveUd8": "",
    "qp37xTDh": "未開拓の地を探索し、探索結果に応じてさまざまな報酬を得ることができます。<br>フロンティアハンターは定期的に開放されその期間内に開拓局の各クエスト毎に得た評価報酬に応じてハンターランクが上昇します。",
    "v9dyS8fi": "900",
    "meg8fhr1": "68"
  },
  {
    "f1LKBoM9": "69",
    "b5VveUd8": "",
    "qp37xTDh": "開拓局にて挑戦するクエストでは、普段使用しているアイテムを持ち込めない代わりに、アクラス召喚院より、特別なアイテムが支給されます。<br>支給されたアイテムはクエスト終了時に回収されますので、惜しまず使用していきましょう。",
    "v9dyS8fi": "900",
    "meg8fhr1": "69"
  },
  {
    "f1LKBoM9": "70",
    "b5VveUd8": "",
    "qp37xTDh": "ハンターランク(HR)は、開拓局の各クエスト毎に得た評価報酬に応じて上昇します。<br>HRが上昇した際は、特別な報酬が獲得できます。<br>※報酬受取期間内に、開拓局にて報酬の受取を行うようにしてください。<br>報酬受取期間内に報酬を受け取らない場合は今回の報酬が受け取れなくなってしまうのでご注意ください。",
    "v9dyS8fi": "900",
    "meg8fhr1": "70"
  },
  {
    "f1LKBoM9": "71",
    "b5VveUd8": "",
    "qp37xTDh": "挑戦するには「ハンターオーブ」を1つ消費します。<br>「ハンターオーブ」は３時間に１つ回復します。<br>「ハンターオーブ」の所持数が無い場合に「参加する」を選択するとダイヤを１個使用して全回復することができます。",
    "v9dyS8fi": "900",
    "meg8fhr1": "71"
  },
  {
    "f1LKBoM9": "72",
    "b5VveUd8": "",
    "qp37xTDh": "開拓局のクエストにて得た評価ptに応じて探索貢献度が上昇していきます。<br>より困難なクエストに挑戦することで、多くの探索貢献度が得られます。",
    "v9dyS8fi": "900",
    "meg8fhr1": "72"
  },
  {
    "f1LKBoM9": "73",
    "b5VveUd8": "",
    "qp37xTDh": "帝都ランドールの中にある、アクラス召喚院開拓局から挑戦することができます。<br>フロンティアゲートでは、クリアしたクエスト数や評価ポイント、獲得した修練度に応じてさまざまな報酬を入手することができます。<br><br>フロンティアゲートへは消費アイテムを持ち込むことができません。<br>また、フロンティアゲートは一つのクエストをクリアするごとに「続行」「中断」「終了」を選択することができます。",
    "v9dyS8fi": "900",
    "meg8fhr1": "73"
  },
  {
    "f1LKBoM9": "74",
    "b5VveUd8": "",
    "qp37xTDh": "フロンティアゲートでは、５回のバトルをクリアする毎に、「続行」「中断」「終了」を選択することができます。<br><br>・続行<br>ＨＰやＢＢゲージ、ODゲージなどパーティの状態を引き継いだまま挑戦を続けることができます。<br><br>・中断<br>現在の進行状況を保存し、次回の挑戦時に中断した箇所から再開することができます。<br><br>・終了<br>終了を選択すると、その時点でのクリア数や獲得した評価ポイントに応じた報酬を受け取ることができます。<br>ただし、次回の挑戦は始めからになります。<br><br>５バトル終了時の自分のパーティの状況に合わせ、終了か続行かを判断しましょう。",
    "v9dyS8fi": "900",
    "meg8fhr1": "74"
  },
  {
    "f1LKBoM9": "75",
    "b5VveUd8": "",
    "qp37xTDh": "前回プレイ時に残した中断データは１８０日以上経過すると自動的に削除されます。<br>予めご了承ください。",
    "v9dyS8fi": "900",
    "meg8fhr1": "75"
  },
  {
    "f1LKBoM9": "76",
    "b5VveUd8": "",
    "qp37xTDh": "挑戦開始時にフレンドか、自分の所持しているユニットを助っ人として選択することができます。<br>一度選択した助っ人は挑戦が終了するまで変更できません。",
    "v9dyS8fi": "900",
    "meg8fhr1": "76"
  },
  {
    "f1LKBoM9": "77",
    "b5VveUd8": "",
    "qp37xTDh": "挑戦開始前に一つだけ補助効果を選択でき、クエストクリアごとに補助効果を変更することができます。<br>発動できる補助効果は１つのみとなり、新しい補助効果を選択した場合は、それ以前に選択していた効果は発動しなくなります。<br><br>補助効果には、ユニットの能力を上昇させたり、アイテムセットを使用できたり、さまざまな効果があります。",
    "v9dyS8fi": "900",
    "meg8fhr1": "77"
  },
  {
    "f1LKBoM9": "78",
    "b5VveUd8": "",
    "qp37xTDh": "ゲートの狭間にて登場する「メタルパレード」や「ジュエルパレード」を解放するための「キー」を受け取る場所です。",
    "v9dyS8fi": "1000",
    "meg8fhr1": "78"
  },
  {
    "f1LKBoM9": "79",
    "b5VveUd8": "",
    "qp37xTDh": "管理局にて配布されているキーは、ゲートの狭間に登場する「メタルパレード」や「ジュエルパレード」を解放するために使用します。<br>解放にはそれぞれ別のキーが必要となり、毎週決められた曜日に配布されますので、忘れずに受取に来ましょう。<br><br>■配布日時<br>メタルキー<br>毎週：月火木金<br><br>ジュエルキー<br>毎週：水<br><br>※それぞれのキーは当日の5時に配布されます。<br>※それぞれのキーは最大50個までストックでき、それ以上は受け取ることができません。",
    "v9dyS8fi": "1000",
    "meg8fhr1": "79"
  },
  {
    "f1LKBoM9": "80",
    "b5VveUd8": "",
    "qp37xTDh": "ブレイブメダルを3枚使用してスロットが回せます。<br>スロットを回すと、揃った絵柄に応じて様々な景品を獲得することができます。<br><br>ブレイブメダルはレイドバトルのクエストをクリアすることで貰えます。<br><br>ブレイブメダルは9999枚保持することができます。",
    "v9dyS8fi": "1000",
    "meg8fhr1": "80"
  },
  {
    "f1LKBoM9": "81",
    "b5VveUd8": "",
    "qp37xTDh": "ミニゲームでは、息抜きとトレーニングを兼ねた訓練ができます。<br>挑戦回数に上限はありません。<br><br>スマッシュショットは、的を見極め素早く撃破すること、スピードラッシュは、条件に当てはまるカードを瞬時に判断し次々出すことが高得点を獲得するポイントです。<br>（スピードラッシュでは、9→1、1→9とカードを選択することができます。）",
    "v9dyS8fi": "1000",
    "meg8fhr1": "81"
  },
  {
    "f1LKBoM9": "82",
    "b5VveUd8": "",
    "qp37xTDh": "ミッションでは、様々な条件を達成したりこれまでの冒険の実績に応じて、功績ポイントを入手することができます。<br><br>入手した功績ポイントは、交換所で様々なアイテムやユニットと交換することができます。<br><br>功績ポイントには所持できる上限が決まっており、上限を超えたポイントを入手することはできません。<br><br>功績ポイントは３つの方法で入手することができます。<br>・チャレンジ<br>・レコード<br>・納入",
    "v9dyS8fi": "1000",
    "meg8fhr1": "82"
  },
  {
    "f1LKBoM9": "83",
    "b5VveUd8": "",
    "qp37xTDh": "チャレンジでは、召喚院から出された様々な課題を選択し挑戦することができます。<br>中には期間内に達成できないと失敗になってしまうチャレンジもあります。<br><br>一度に挑戦できるチャレンジには上限があり、上限を超えて開始することはできません。<br><br>挑戦できるチャレンジの内容は定期的に入れ替わりますので、こまめにアクラス召喚院管理局を確認するようにしましょう。",
    "v9dyS8fi": "1000",
    "meg8fhr1": "83"
  },
  {
    "f1LKBoM9": "84",
    "b5VveUd8": "",
    "qp37xTDh": "チャレンジを特定回数クリアするとスペシャルチャレンジが出現します。<br>スペシャルチャレンジはランダムに表示された複数の中から、1つのみ受注できます。<br>選択されなかった残りのスペシャルチャレンジは消えてしまうため、難易度や報酬などを参考にお選びください。<br><br>選択せずに「チャレンジを破棄する」ボタンを押した場合、何も受注しないままスペシャルミッションはすべて消えてしまいます。破棄した場合、ふたたび特定回数クリアしなければスペシャルミッションは出現しません。<br>スペシャルチャレンジ選択画面で「戻る」ボタンを押した場合、「チャレンジ」にもう一度入ると選択肢が再度表示されます。<br>スペシャルチャレンジを受注、もしくは破棄しない限り通常チャレンジリストは表示されません。<br><br>スペシャルチャレンジ受注中は新しいスペシャルチャレンジは出現しません。<br>新しいスペシャルチャレンジに挑戦したい場合は、受注しているスペシャルチャレンジをクリアするか中止し、再度通常チャレンジを特定回数クリアしてください。<br>中止したスペシャルチャレンジはリストから消え、再出現するまで挑戦はできません。<br><br>スペシャルチャレンジの受注数は通常チャレンジの同時受注可能数とは別扱いとなりますので、通常チャレンジを最大まで受注した状態でもスペシャルチャレンジの受注が可能です。",
    "v9dyS8fi": "1000",
    "meg8fhr1": "84"
  },
  {
    "f1LKBoM9": "85",
    "b5VveUd8": "",
    "qp37xTDh": "特別チャレンジである「チェーンチャレンジ」は、チェーンで繋がれた複数のチャレンジを順番にクリアしていく特殊なチャレンジとなります。<br>各チャレンジごとに報酬が設定されている場合は、個々のチャレンジをクリアするごとに報酬を受け取ることができます。<br><br>進行中のチェーンチャレンジを達成して、報酬がある場合はそれを受け取ると、自動的に次のチャレンジが進行中の状態になります。<br><br>一度受注したチェーンチャレンジは、最後のチャレンジをクリアするか、途中で中止するまで、受注状態が続きます。<br>途中で中止したチェーンチャレンジは、受注可能期間中であれば、再度挑戦することができます。再度挑戦する際は、報酬受け取り済みのチャレンジは完了状態となり、その次のチャレンジから新しく挑戦することになります。<br><br>チェーンで繋がれたチャレンジの中には、チャレンジ内容や報酬が「？？？」状態のものもあります。これらはその1つ前のチャレンジをクリアすれば、内容が表示されます。<br><br>チェーンチャレンジは、最後のチャレンジをクリアしたタイミングで、スペシャルチャレンジまでの回数が1加算されます。",
    "v9dyS8fi": "1000",
    "meg8fhr1": "85"
  },
  {
    "f1LKBoM9": "86",
    "b5VveUd8": "",
    "qp37xTDh": "レコードでは、プレイヤーのこれまでの活躍に応じて功績ポイントを入手することができます。<br><br>レコードは様々な条件を満たせば自動的に達成となります。<br><br>「スペシャル」では、高いポイントを入手できますが、挑戦する課題を選択する必要があります。<br>「スペシャル」は、挑戦できる課題が更新されたり追加されることがありますので、こまめにアクラス召喚院管理局を確認してみましょう。",
    "v9dyS8fi": "1000",
    "meg8fhr1": "86"
  },
  {
    "f1LKBoM9": "87",
    "b5VveUd8": "",
    "qp37xTDh": "納入では、所持しているユニットやスフィア、ゼル、カルマを納入することで功績ポイントを入手することができます。<br>１日に納入で入手できるポイントには上限があり、上限を超えて納入することはできません。<br><br>ユニットの納入では、レベルやレアリティが高いユニットを納入するほど、多くの功績ポイントを入手できます。<br>※★2以下のユニット、強化、進化、売却用ユニットは納入の対象外です。<br><br>スフィアの納入では、レアリティの高いスフィアを納入するほど、多くの功績ポイントを入手できます。",
    "v9dyS8fi": "1000",
    "meg8fhr1": "87"
  },
  {
    "f1LKBoM9": "88",
    "b5VveUd8": "",
    "qp37xTDh": "交換所では、入手した功績ポイントを様々なアイテムやユニットと交換できます。<br><br>交換所のユニットやアイテムには、それぞれ交換可能な期間と個数が設定されています。<br>中には一定期間が経過することで、再び交換可能になる物もあります。<br><br>交換所の内容は定期的に入れ替わり、期間限定で貴重なアイテムやユニットが出現することもありますので、こまめに交換所を確認してみましょう。",
    "v9dyS8fi": "1000",
    "meg8fhr1": "88"
  },
  {
    "f1LKBoM9": "89",
    "b5VveUd8": "",
    "qp37xTDh": "通常のバトルとは違い、試練クエストは最大で３パーティを１回のクエストで使用することができます。<br><br>設定したパーティが全滅するごとに次のパーティが召喚され、全てのパーティが全滅する前に敵を倒すとクリアとなります。<br><br>このクエストではダイヤを使用してパーティを復活させることはできません。",
    "v9dyS8fi": "1100",
    "meg8fhr1": "89"
  },
  {
    "f1LKBoM9": "90",
    "b5VveUd8": "",
    "qp37xTDh": "パーティのコスト上限は３パーティの合計で、通常のコストの２倍まで使用することができます。<br><br>バトルではパーティ編成で設定した順番の通りにパーティが召喚されます。<br><br>３つのパーティには必ずリーダーが必要です。<br>誰もユニットを選択していないパーティは召喚されません。",
    "v9dyS8fi": "1100",
    "meg8fhr1": "90"
  },
  {
    "f1LKBoM9": "91",
    "b5VveUd8": "",
    "qp37xTDh": "助っ人は各パーティごとに１体ずつ選択できます。<br><br>試練クエストではフレンド以外を助っ人に選択することはできません。<br><br>フレンドのリーダースキルは各パーティごとに発動します。",
    "v9dyS8fi": "1100",
    "meg8fhr1": "91"
  },
  {
    "f1LKBoM9": "92",
    "b5VveUd8": "",
    "qp37xTDh": "召喚術研究所でノエルからの試練をある程度クリアした召喚師が挑戦できるバトルコンテンツです。<br><br>これまでの試練は「試練の間」と呼ばれるようになり、「闘舞の間」が解放されると入り口が別になります。<br><br>「闘舞の間」では「試練の間」のバトルとは異なり、バトルごとに指定された参加枠分のユニット数で戦いに挑むこととなり、バトル中にユニットを入れ替えながら戦います。<br><br>このクエストではダイヤを使用してパーティを復活させることはできません。",
    "v9dyS8fi": "1110",
    "meg8fhr1": "92"
  },
  {
    "f1LKBoM9": "93",
    "b5VveUd8": "",
    "qp37xTDh": "「闘舞の間」では召喚ユニットを入れ替えながら戦えます。<br><br>入れ替えたユニットは再度入れ替えを行うまで一定ターンの経過が必要となります。<br><br>控えユニットを含めて全ユニットがＤＥＡＤ状態になるか、バトルユニット全滅時に控えユニットが全て再入れ替えターン待ちの状態だとゲームオーバーとなります。<br><br>ＤＥＡＤ状態のユニットをユニット控えに戻すと、その闘舞バトル中は再召喚できなくなりますので、注意しましょう。<br><br>リーダースキルは最初にバトルユニットに設定していたリーダーユニットと助っ人ユニットのものが発動しますが、特定のタイミングでリーダースキル・助っ人のリーダースキルを変更することもできます。",
    "v9dyS8fi": "1110",
    "meg8fhr1": "93"
  },
  {
    "f1LKBoM9": "94",
    "b5VveUd8": "",
    "qp37xTDh": "パーティ設定画面でバトルユニットに設定した召喚ユニットは、バトル開始時から戦いに参加することになります。",
    "v9dyS8fi": "1110",
    "meg8fhr1": "94"
  },
  {
    "f1LKBoM9": "95",
    "b5VveUd8": "",
    "qp37xTDh": "ユニット控えとは、入れ替え画面でバトルユニットと入れ替えできるユニットです。<br><br>ユニット控えに配置されている召喚ユニットは、ターン経過ごとにＨＰとＢＢゲージが少しずつ回復していきます。",
    "v9dyS8fi": "1110",
    "meg8fhr1": "95"
  },
  {
    "f1LKBoM9": "96",
    "b5VveUd8": "",
    "qp37xTDh": "助っ人控えとは、入れ替え画面でバトルユニットの助っ人ユニットと入れ替えできるユニットです。<br><br>助っ人の召喚ユニット同士でないと入れ替えできないので注意しましょう。",
    "v9dyS8fi": "1110",
    "meg8fhr1": "96"
  },
  {
    "f1LKBoM9": "97",
    "b5VveUd8": "",
    "qp37xTDh": "バトル中に、画面左上にある「ＣＨＡＮＧＥボタン」を押すことでユニット入れ替え画面が開きます。<br><br>入れ替えたいユニット同士を選択することで、入れ替えを行うことができます。<br><br>自分の召喚ユニット同士、もしくは助っ人の召喚ユニット同士でないと入れ替えることはできません。<br><br>バトルユニットを控えに戻すことにより、状態異常や強化効果などの状態変化が一部の効果を除き、全て解除されます。<br><br>※効果が解除されない効果<br>・ＢＢなどによる最大ＨＰ上昇効果<br><br>また、ユニット入れ替えを行うと、しばらくの間再入れ替えが行えなくなります。<br><br>ユニット入れ替え画面に入れ替え可能になるまでの残りターン数が表示されます。",
    "v9dyS8fi": "1110",
    "meg8fhr1": "97"
  },
  {
    "f1LKBoM9": "98",
    "b5VveUd8": "",
    "qp37xTDh": "パーティのコスト上限は全バトルユニットと控えユニットの合計で、通常のコストの２倍まで使用することができます。<br><br>バトルではバトルユニット枠に設定したユニットが最初に召喚されます。",
    "v9dyS8fi": "1110",
    "meg8fhr1": "98"
  },
  {
    "f1LKBoM9": "99",
    "b5VveUd8": "",
    "qp37xTDh": "助っ人は挑戦する闘舞ごとに選択可能な数が変わります。<br><br>試練クエストと同じくフレンド以外を助っ人に選択することはできません。<br><br>フレンドのリーダースキルはバトルユニットに最初に設定されていたユニットのものが発動し、控えと入れ替えを行っても変化しません。<br><br>特定のタイミングでフレンドのリーダースキル変更ができますので、よく考えてリーダースキルを切り替えましょう。",
    "v9dyS8fi": "1110",
    "meg8fhr1": "99"
  },
  {
    "f1LKBoM9": "100",
    "b5VveUd8": "",
    "qp37xTDh": "ホーム画面の中央右側にある宝箱アイコンにタッチすると、プレゼントの受取り画面となります。<br><br>プレゼントは受け取らずに30日以上経過すると削除されます。こまめにチェックして受け取るようにしましょう。",
    "v9dyS8fi": "10000",
    "meg8fhr1": "100"
  },
  {
    "f1LKBoM9": "101",
    "b5VveUd8": "",
    "qp37xTDh": "機種変更等を行う際、現在プレイしているデータで引き続きブレイブフロンティアをプレイされる場合は「データ引き継ぎ」を行ってください。<br><br>引き継ぎの手続きは「メニュー」の「設定」から、データ引き継ぎ項目の「発行」をタッチして行います。<br><br>引き継ぎコード発行後、新しい携帯端末で「ブレイブフロンティア」を起動し、タイトル画面、または設定画面よりデータ引き継ぎを行うことができます。<br><br>※引き継ぎコード発行後は、お早めにデータ引き継ぎを行なってください。<br>※引き継ぎコード発行後は、引き継ぎを行うまでご使用中の端末でブレイブフロン<br>ティアをプレイすることができます。",
    "v9dyS8fi": "10000",
    "meg8fhr1": "101"
  },
  {
    "f1LKBoM9": "102",
    "b5VveUd8": "",
    "qp37xTDh": "レイドバトルでは、最大４人のチームでクエストをクリアするために協力して戦います。<br>各クエストのクリア条件は、ボスを討伐する、複数のターゲットを討伐するなど、クエストによって違いがあります。<br>レイドバトルには制限時間があり、制限時間内にクリア条件を達成できない場合強制的に失敗となります。",
    "v9dyS8fi": "1200",
    "meg8fhr1": "102"
  },
  {
    "f1LKBoM9": "103",
    "b5VveUd8": "",
    "qp37xTDh": "レイドバトルに参加するためにはルームに入る必要があります。<br>１つのルームには最低１名、最大で４名まで参加することができます。<br><br>ルームを作成したプレイヤーはルームマスターとなります。<br>ルームマスターはプレイするクエストを選択することができます。<br><br>ルームの強制退出機能がONの場合、ルームマスターはメンバーを強制退出させることもできます。<br>また、ルームの途中参加をONにした場合、そのルーム内ではクエストへの途中参加が可能になります。<br>途中参加が可能な時間はクエストが始まってから15分間のみとなります。",
    "v9dyS8fi": "1200",
    "meg8fhr1": "103"
  },
  {
    "f1LKBoM9": "104",
    "b5VveUd8": "",
    "qp37xTDh": "クイックスタートとは、クエストとフレンドの選択のみで出撃できるモードです。<br>専用のルームで、クイックスタートの利用者とのみマッチングされ、<br>通常のルームに参加する事やルーム検索から参加される事はありません。<br><br>出撃後、選択したクエストのルームに空きがある場合はそのルームに参加し、ない場合は新規でクエストを開始します。<br><br>クエスト終了後ルームは自動的に解散されレイドTOP画面に戻ります。",
    "v9dyS8fi": "1200",
    "meg8fhr1": "104"
  },
  {
    "f1LKBoM9": "105",
    "b5VveUd8": "",
    "qp37xTDh": "レイドクラス(RC)は、特定のクエストをクリアすると上昇します。<br>RCが上昇した際は、特別な報酬が獲得できます。<br>RCが上昇すると、高難易度のクエストに参加できるようになります。<br>自分のRCよりも高いクラスのクエストには参加することができません。<br><br>なお、同一RC内のクエストでも出現条件が設定されているものがあり、該当条件を満たしていない場合はそのクエストへ出撃することはできません。<br>",
    "v9dyS8fi": "1200",
    "meg8fhr1": "105"
  },
  {
    "f1LKBoM9": "106",
    "b5VveUd8": "",
    "qp37xTDh": "レイドバトルに挑戦するには「レイドオーブ」を１つ消費します。「レイドオーブ」は１時間に１つ回復します。",
    "v9dyS8fi": "1200",
    "meg8fhr1": "106"
  },
  {
    "f1LKBoM9": "107",
    "b5VveUd8": "",
    "qp37xTDh": "各プレイヤーはクエスト開始時にライフを３つ所持しています。<br>レイドバトル中にパーティが全滅すると、ライフが１つ減少し、パーティはキャンプに強制移動させられ、ユニットが全回復します。<br><br>ライフが0になった際に「回復する」を選択するとダイヤを1個使用してライフを1つ回復することができ、「ギブアップ」を選択するとプレイ中のクエストは失敗となります。<br>なお、複数人でレイドバトルをプレイしている場合は、失敗となるのはライフが0となりギブアップしたプレイヤーのみであり、残るプレイヤーにてクエストは継続されます。",
    "v9dyS8fi": "1200",
    "meg8fhr1": "107"
  },
  {
    "f1LKBoM9": "108",
    "b5VveUd8": "",
    "qp37xTDh": "キャンプでは「休息」を行うことができます。<br>「休息」を行うと、ユニットのHPが回復します。DEAD状態のユニットもしばらくすると復活します。",
    "v9dyS8fi": "1200",
    "meg8fhr1": "108"
  },
  {
    "f1LKBoM9": "109",
    "b5VveUd8": "",
    "qp37xTDh": "ボスと戦うためにはマップ上で、ボスが存在するポイントまで移動する必要があります。<br>ボスがマップ上のどの場所にいるかが、見えるタイプのクエストと、見えないタイプのクエストが存在します。<br><br>ボスが見えないタイプのクエストの場合でも、レイド専用アイテムの「探知薬」をマップ上で使用することにより、ボスの位置を表示することができます。<br><br>また、ボスは一定時間が経過すると、マップを移動することがあります。その場合戦闘中でもボスは離脱して移動を行います。",
    "v9dyS8fi": "1200",
    "meg8fhr1": "109"
  },
  {
    "f1LKBoM9": "110",
    "b5VveUd8": "",
    "qp37xTDh": "ボスの中には複数の部位を持つものが存在します。<br><br>部位ごとにそれぞれ属性があり、多種多様な攻撃を仕掛けてきます。<br>ボスは本体を破壊することにより討伐され部位を破壊しても討伐はされません。<br>しかし、ボスの部位を破壊することにより貴重な素材を獲得できる可能性が広がります。<br><br>全体攻撃時には、既に破壊された部位の分もBCが排出され続けます。",
    "v9dyS8fi": "1200",
    "meg8fhr1": "110"
  },
  {
    "f1LKBoM9": "111",
    "b5VveUd8": "",
    "qp37xTDh": "レイドバトルでは、マップ中の各ポイントにおいて、採取をすることが可能です。<br>採取で入手できるアイテムは、主にレイドバトル専用アイテムの調合に使用できる素材ですが、稀にスフィア生成や交換に必要な貴重な素材が手に入ることもあります。",
    "v9dyS8fi": "1200",
    "meg8fhr1": "111"
  },
  {
    "f1LKBoM9": "112",
    "b5VveUd8": "",
    "qp37xTDh": "貢献度とは、クエスト攻略にどれだけ貢献できたかを、最終的な総合評価として★で表示します。討伐に関する貢献以外に、レイド専用アイテムを使用することでも評価が増加します。<br><br>■討伐による評価<br><br>【ボス討伐クエストの場合】<br>（例：エデルマ討伐、<br>　　　堕神ヴァンルーシ等討伐、など）<br><br>・100 × (ボスに自分が与えたダメージ<br>÷ クエスト参加者の総ダメージ)<br>× 参加人数<br><br>【同種ボス複数討伐クエストの場合】<br>（例：メドロノモス討伐、<br>　　　グラノモス等討伐、など）<br><br>・100 × (自分の討伐数<br>÷ 必要な討伐数) × 参加人数<br><br>■アイテム使用による評価<br><br>・アイテム使用数 × 5<br>※最大5回使用分（25）まで加算されます。<br>※対象となるアイテムは、蛍光弾、<br>神香晶、攻化晶、防化晶となります。<br><br>■総合評価<br><br>上記の討伐による評価とアイテム使用による評価を合算した数値に応じて、以下の総合評価が表示されます。<br><br>★★★★★　400以上<br>★★★★　　300〜399<br>★★★　　　200〜299<br>★★　　　　101〜199<br>★　　　　　　0〜100<br>",
    "v9dyS8fi": "1200",
    "meg8fhr1": "112"
  },
  {
    "f1LKBoM9": "113",
    "b5VveUd8": "",
    "qp37xTDh": "総合評価に表示される★の数により報酬ボーナスが発生します。<br><br>■報酬ゼル・カルマ・メダルに関するボーナス<br>★★★★★　1.30倍<br>★★★★　　1.20倍<br>★★★　　　1.10倍<br>★★　　　　1.05倍<br>★　　　　　1.00倍（通常）<br><br><br>■素材の出現確率に関するボーナス<br>★★★★★　3.00倍<br>★★★★　　2.50倍<br>★★★　　　2.00倍<br>★★　　　　1.50倍<br>★　　　　　1.00倍（通常）",
    "v9dyS8fi": "1200",
    "meg8fhr1": "113"
  },
  {
    "f1LKBoM9": "114",
    "b5VveUd8": "",
    "qp37xTDh": "クエストクリア時の参加人数によって「協力ボーナス」が発生します。<br>※協力ボーナスは貢献度ボーナスにさらに掛け合わされます。<br><br>■報酬ゼル・カルマ・メダルに関するボーナス<br>4人　1.15倍<br>3人　1.10倍<br>2人　1.05倍<br>1人　1.00倍（通常）<br><br>■素材の出現確率に関するボーナス<br>4人　1.50倍<br>3人　1.25倍<br>2人　1.10倍<br>1人　1.00倍（通常）",
    "v9dyS8fi": "1200",
    "meg8fhr1": "114"
  },
  {
    "f1LKBoM9": "115",
    "b5VveUd8": "",
    "qp37xTDh": "同じクエストでフレンドと同時にプレイした場合に、フレンドの人数によって報酬ボーナスが発生します。<br>※協力ボーナス、貢献度ボーナスにさらに掛け合わされます。<br><br>■報酬ゼル・カルマ・メダルに関するボーナス<br>3人　1.15倍<br>2人　1.10倍<br>1人　1.05倍<br><br>■素材の出現確率に関するボーナス<br>3人　2.00倍<br>2人　1.50倍<br>1人　1.20倍",
    "v9dyS8fi": "1200",
    "meg8fhr1": "115"
  },
  {
    "f1LKBoM9": "116",
    "b5VveUd8": "",
    "qp37xTDh": "対象のユーザーをブラックリスト登録する事によって、レイド中に同じルームに入れなくなり、クイックスタートでマッチングされなくなります。<br>※既に同じルーム内にいる場合や、レイドバトル中の場合はルームを出るまで効果はありません。<br><br>■ブラックリストの登録<br>ルーム内の「情報を見る」、又はレイドバトル中の「チーム」から任意のユーザーを選択し、「ブラックリスト登録」から登録可能です。<br><br>■ブラックリストの解除<br>ワールド選択画面内の「ブラックリスト」から、任意のユーザーを選択し解除する事が可能です。",
    "v9dyS8fi": "1200",
    "meg8fhr1": "116"
  },
  {
    "f1LKBoM9": "117",
    "b5VveUd8": "",
    "qp37xTDh": "レイドバトルで得た素材を使い、村とは異なるスフィアを生成することができます。<br><br>スフィアを生成するためには、スフィア生成に必要な素材アイテムとカルマを所持していなければなりません。<br><br>生成するスフィアの種類を増やすには、レイドバトルで得る素材が鍵となります。<br>素材を得ることにより、様々なスフィアが解放されていきます。",
    "v9dyS8fi": "1300",
    "meg8fhr1": "117"
  },
  {
    "f1LKBoM9": "118",
    "b5VveUd8": "",
    "qp37xTDh": "戦闘で使用するレイド専用消費アイテムを調合することができます。<br><br>アイテムを調合するためには、調合に必要な素材アイテムを所持していなければなりません。",
    "v9dyS8fi": "1400",
    "meg8fhr1": "118"
  },
  {
    "f1LKBoM9": "119",
    "b5VveUd8": "",
    "qp37xTDh": "グランドクエストとは、複数パーティで挑戦する大規模クエストです。<br>プレイヤーの行動によってストーリーは分岐し、異なったエンディングを迎えます。<br><br>また、クエストによりクリア条件や敗北条件が設定されている場合がありますので<br>「クエスト」ボタンよりご確認ください。",
    "v9dyS8fi": "1700",
    "meg8fhr1": "119"
  },
  {
    "f1LKBoM9": "120",
    "b5VveUd8": "",
    "qp37xTDh": "グランドクエストでは各クエストごとに出撃パーティ数が決められています。<br>必要なパーティ数を編成できない場合は冒険に出ることができません。<br><br>また、クエストごとに総コストが設定されており、総コスト内で全パーティを編成する必要があります。",
    "v9dyS8fi": "1700",
    "meg8fhr1": "120"
  },
  {
    "f1LKBoM9": "121",
    "b5VveUd8": "",
    "qp37xTDh": "グランドクエストではフレンドを助っ人として各パーティに１体ずつ選択できます。<br>フレンド以外を助っ人に選択することはできません。<br>フレンドのリーダースキルは各パーティごとに発動します。<br><br>なお、フレンド枠にGUESTユニットが固定されている場合や、RESERVED表示がある場合はそのパーティにはフレンドを選択することはできません。",
    "v9dyS8fi": "1700",
    "meg8fhr1": "121"
  },
  {
    "f1LKBoM9": "122",
    "b5VveUd8": "",
    "qp37xTDh": "クエスト中に特定の行動を取りクリアすることで達成率が上昇します。<br>一度上昇した達成率は減少しません。<br><br>「達成状況」ボタンを押すと、これまでに達成した項目を確認することができます。<br>達成率が１００％になることでもらえる特別な報酬もあります。",
    "v9dyS8fi": "1700",
    "meg8fhr1": "122"
  },
  {
    "f1LKBoM9": "123",
    "b5VveUd8": "",
    "qp37xTDh": "中断機能を使用することで、クエストを中断しホーム画面へ戻ることが可能です。<br><br>「中断」ボタンを押し「はい」を選択することでクエストデータを保存し、ホーム画面へと戻ります。<br>クエストの中断データが存在する場合、<br>「ホーム」→「クエスト」→「グランド」と遷移した際に中断クエストの再開確認画面が表示されますので「はい」を押すことでクエストを再開できます。<br>中断しているクエストとは別のクエストを新しく開始する場合は、中断データの削除が必要となります。<br><br>クエストを中断している間も利用できるコンテンツは制限なく、通常クエストやレイドバトル、アリーナや召喚など自由にプレイ可能です。<br>※クエストの中断中にユニットの強化などを行っても、中断中のクエストデータには反映されません。<br><br>なお、中断データは最新のものが一つのみ保存されます。<br>次に中断を行うと古いデータは上書きされてしまいますのでご注意ください。",
    "v9dyS8fi": "1700",
    "meg8fhr1": "123"
  },
  {
    "f1LKBoM9": "124",
    "b5VveUd8": "",
    "qp37xTDh": "グランドクエストではクエストクリアまでの行動によりクリア報酬が変化します。<br><br>報酬には一度のみ受取可能なもの、何度でも繰り返し受け取れるものが存在します。",
    "v9dyS8fi": "1700",
    "meg8fhr1": "124"
  },
  {
    "f1LKBoM9": "125",
    "b5VveUd8": "",
    "qp37xTDh": "マップ上にはボスアイコンや強敵であるエネミーアイコンが存在します。そのポイントに移動すると戦闘となります。<br><br>イベントアイコンが表示されたポイントでは、特定の条件を満たすことでイベントが発生します。<br><br>各ポイント間を繋ぐルートが扉アイコンで封鎖されている場合、その先のポイントへは移動できません。特定の条件を満たすことで開放されます。",
    "v9dyS8fi": "1700",
    "meg8fhr1": "125"
  },
  {
    "f1LKBoM9": "126",
    "b5VveUd8": "",
    "qp37xTDh": "現在選択されているパーティ（アクティブパーティ）には金色のパーティアイコンが表示されます。<br>これは画面右下の「PARTY」ボタンを押すことでパーティ１から順に切り替えることが可能です。<br><br>移動したいポイントをタップすることでそのポイントへ移動可能なパーティが移動します。ポイントの文字がグレーで表示されているポイントへは移動できません。<br><br>各ポイント間を繋ぐルートによっては、特定のパーティのみ進める場合があります。<br>進めないパーティがアクティブパーティとなっている場合は、各ポイント間を繋ぐルートが半透明で表示されます。「PARTY」ボタンで他のパーティに切り替え、黄色い点線で表示されるパーティのみ通過可能となります。",
    "v9dyS8fi": "1700",
    "meg8fhr1": "126"
  },
  {
    "f1LKBoM9": "127",
    "b5VveUd8": "",
    "qp37xTDh": "グランドクエストで一度閲覧したシナリオは、帝都図書館で再度ご覧いただけます。<br>帝都図書館へは、「ホーム」→「帝都ランドール」から「帝都図書館」を選択してください。<br><br>なお、図書館へのシナリオ登録は、クエストをクリアした際にそのクエストで閲覧したシナリオのみが登録されます。<br>閲覧後にクエストを中断した状態や、<br>閲覧後ゲームオーバーとなった場合、<br>ギブアップした場合は図書館へは登録されませんのでご注意ください。",
    "v9dyS8fi": "1700",
    "meg8fhr1": "127"
  },
  {
    "f1LKBoM9": "128",
    "b5VveUd8": "",
    "qp37xTDh": "召喚師ホームとは、シナリオ第二部をクリアすることで解放される新たなホーム画面です。<br><br>新たなシナリオクエストの他、<br>召喚師メニューが追加されています。<br><br>召喚師メニューでは能力強化や武器の変更等、自分に合った召喚師へとカスタマイズできます。<br><br>※詳細については「召喚師について」をご参照ください。",
    "v9dyS8fi": "3000",
    "meg8fhr1": "128"
  },
  {
    "f1LKBoM9": "129",
    "b5VveUd8": "",
    "qp37xTDh": "召喚師ホームの召喚術研究所では、召喚師の育成を手助けする特別なダンジョンや、召喚師ユニットで挑む高難易度クエストに挑戦することができます。<br><br>召喚術研究所内のクエストでは助っ人を連れてクエストに挑んでも、召練ポイントを得ることはできません。",
    "v9dyS8fi": "3000",
    "meg8fhr1": "129"
  },
  {
    "f1LKBoM9": "130",
    "b5VveUd8": "",
    "qp37xTDh": "召喚師訓練場では、召喚師の経験値やＳＰをたくさん入手できる特別なダンジョンに挑戦できます。<br><br>挑戦するには召練ポイントが必要になります。<br><br>※稀に経験値を多く獲得できるモンスターが出現します。",
    "v9dyS8fi": "3000",
    "meg8fhr1": "130"
  },
  {
    "f1LKBoM9": "131",
    "b5VveUd8": "",
    "qp37xTDh": "バトルルームでは、召喚師ユニット・召喚ユニット最大４体・助っ人ユニットの１パーティでバトルに挑戦します。<br><br>挑戦するには体力が必要になります。<br><br>バトルルーム内のクエストに限り、召喚ユニットは最大で４体まで召喚可能となりますが、召喚術レベルのステータス制限は受けますので、注意しましょう。<br><br>このクエストではダイヤを使用してパーティを復活させることはできません。",
    "v9dyS8fi": "3000",
    "meg8fhr1": "131"
  },
  {
    "f1LKBoM9": "132",
    "b5VveUd8": "",
    "qp37xTDh": "召喚師メニューでは、召喚師の容姿や属性の変更、武器変更、能力強化等を行うことができます。<br><br>※各項目の詳細な説明についてはそれぞれの項目をご参照ください。<br><br>なお、召喚師メニューは第三部の序盤クエストをクリアすることで解放されます。",
    "v9dyS8fi": "3100",
    "meg8fhr1": "132"
  },
  {
    "f1LKBoM9": "133",
    "b5VveUd8": "",
    "qp37xTDh": "第三部開始時点では召喚ユニットを<br>パーティに編成することができません。<br><br>ある程度シナリオを進めることで召喚可能になり、今後のシナリオ追加で徐々に召喚可能な枠が開放されていく予定です。",
    "v9dyS8fi": "3100",
    "meg8fhr1": "133"
  },
  {
    "f1LKBoM9": "134",
    "b5VveUd8": "",
    "qp37xTDh": "召喚師レベルとは第三部における主人公である召喚師自身のレベルです。<br><br>経験値は第三部のクエスト報酬で入手することができます。<br><br>また、召喚師レベルが上がると主人公（召喚師）のステータスが上昇し、「召喚師ＳＰ」を取得できます。<br><br>「召喚師SP」は召喚師の能力強化を行うのに必要となります。<br><br>※詳細については「能力強化」をご参照ください。",
    "v9dyS8fi": "3100",
    "meg8fhr1": "134"
  },
  {
    "f1LKBoM9": "135",
    "b5VveUd8": "",
    "qp37xTDh": "各属性毎に召喚術レベルがあり、レベルを上げることで各属性の召喚ユニットに対する能力制限等を緩和できます。<br><br>なお、現在選択中の属性にのみ経験値が入りますので、任意の召喚術レベルを上げるには属性を切り替える必要があります。<br><br>※召喚術レベルによる制限は、召喚師・ゲストユニット・助っ人ユニットには影響しません<br><br>・ステータス補正…召喚ユニットのＨＰ・攻撃・防御・回復の数値の補正値です。<br>スフィアや幼魔によって増加した後の数値に補正がかかります。<br><br>・ＢＢゲージ補正…召喚ユニットのブレイブバーストゲージ増加量の補正値です。<br><br>・ＢＢ…ブレイブバーストの使用可能なレベル数を表示しています。<br><br>・ＳＢＢ（★６以上）…スーパーブレイブバーストの使用可否と使用可能なレベル数を表示しています。<br><br>・ＥＸＳ（★６以下）…エクストラスキルの効果が発動するかを表示しています。<br><br>・ＵＢＢ・ＥＸＳ（★７以上）…エクストラスキルの発動と、アルティメットブレイブバーストの使用可否を表示しています。エルギフで追加したエクストラスキルの発動も同様です。<br><br>・特性強化（幻創進化のみ）…幻創進化ユニットの特性強化で取得した効果が発動するかを表示しています。",
    "v9dyS8fi": "3100",
    "meg8fhr1": "135"
  },
  {
    "f1LKBoM9": "136",
    "b5VveUd8": "",
    "qp37xTDh": "召喚師は武器を装備することで見た目が変化し、攻撃方法やブレイブバーストにも影響を与えます。<br><br>また、「強化合成」にて武器レベルを上げることで以下のように各項目を強化することができます。<br>・武器のステータスが上昇<br>・ブレイブバーストのレベル上昇、<br>　スーパーブレイブバースト等の解放<br>・ＥＸスキルの取得<br>・武器スキルがより強力な内容に変化<br><br>武器の経験値はクエストクリア時の報酬、及び「強化合成」にて入手可能で、ブレイブバースト等により敵を倒した場合はより多く入手できます。<br><br>なお、レベル毎に覚えられるスキルは武器アイコン下部の「詳細」を選ぶことで表示される「武器詳細画面」で確認できます。<br>",
    "v9dyS8fi": "3100",
    "meg8fhr1": "136"
  },
  {
    "f1LKBoM9": "137",
    "b5VveUd8": "",
    "qp37xTDh": "召喚師専用のスフィアです。<br><br>装備中はＬＳスフィアの効果がそのまま召喚師ユニットのリーダースキルとして適用されます。<br><br>ＬＳスフィアは村に新設されるＬＳスフィア屋で生成することができます。<br><br>※ＬＳスフィア屋はシナリオを進めることで解放されます。",
    "v9dyS8fi": "3100",
    "meg8fhr1": "137"
  },
  {
    "f1LKBoM9": "138",
    "b5VveUd8": "",
    "qp37xTDh": "強化したい能力を選び、「召喚師ＳＰ」を消費して取得することで各ステータスを強化することができます。<br>※取得すれば効果は永続となります。<br><br>各項目ごとにレベルがあり、レベルが上がるほど効果は大きくなりますが、必要なＳＰも増えていきます。<br>「召喚師ＳＰ」はバトルで敵を倒すと確率で入手できる他、召喚師の「強化合成」でも入手できます。",
    "v9dyS8fi": "3100",
    "meg8fhr1": "138"
  },
  {
    "f1LKBoM9": "139",
    "b5VveUd8": "",
    "qp37xTDh": "武器のレベルを一定値まで上げることで<br>「ＥＸスキル」を取得できます。<br><br>取得可能になるレベルは武器ごとに異なり<br>「召喚師メニュー」の「ＥＸスキル」画面でいつでも装備を切り替えることができます。",
    "v9dyS8fi": "3100",
    "meg8fhr1": "139"
  },
  {
    "f1LKBoM9": "140",
    "b5VveUd8": "",
    "qp37xTDh": "召喚師の「強化合成」には以下の２種類があります。<br><br>・武器の強化合成<br>メタルレコード種ユニットを合成することで経験値を獲得できレベルが上昇します。<br><br>※同じ属性のユニットを素材にした場合の取得経験値ボーナスは適用されませんのでご注意ください。<br><br>「召喚師ＳＰ」増加合成<br>・バーストフロッグ　　１ｐｔ<br>・バーストエンペラー　５ｐｔ<br>・ローソンフロッグ　　２ｐｔ<br>・スフィアフロッグ　　１０ｐｔ<br><br>なお、上記「強化合成」にはゼルが必要となり、合成素材とされたユニットは消失します。",
    "v9dyS8fi": "3100",
    "meg8fhr1": "140"
  },
  {
    "f1LKBoM9": "141",
    "b5VveUd8": "",
    "qp37xTDh": "召喚師の見た目は召喚師のステータス画面からいつでも変更可能です。<br><br>変更できる箇所は性別・髪型・属性の３箇所で、性別の変更にはダイヤが１個必要となりますのでご注意ください。<br><br>髪型の変更は見た目にしか影響しないので<br>好みの髪型を選び自分だけの召喚師ユニットを作成しましょう。<br><br>また、属性の変更はバトルに大きく関わります。<br><br>クリアできないバトルがある場合は<br>敵に合わせて積極的に属性を<br>変えてみましょう。",
    "v9dyS8fi": "3100",
    "meg8fhr1": "141"
  },
  {
    "f1LKBoM9": "142",
    "b5VveUd8": "",
    "qp37xTDh": "第三部のクエストで助っ人をバトルに連れていく、または自分のユニットが助っ人として使用される事で入手できるポイントです。<br><br>※第三部では絆ポイントを<br>　入手できません。<br><br>召練ポイントは召喚師ホーム画面にある<br>「召喚術研究所」で使用します。",
    "v9dyS8fi": "3100",
    "meg8fhr1": "142"
  },
  {
    "f1LKBoM9": "143",
    "b5VveUd8": "",
    "qp37xTDh": "召喚師は「召喚師ホーム」内のクエストやバトルルームでのみ使用することができましたが、解放条件を満たすことで通常ホームのクエストや試練などのコンテンツに連れて行けるようになります。<br><br>ただし、通常ホームでは召喚師経験値、召喚術経験値、武器経験値、ＳＰ、召練ポイントは入手できません。<br>また、「強化合成」のベースユニットとすることができません。",
    "v9dyS8fi": "3110",
    "meg8fhr1": "143"
  },
  {
    "f1LKBoM9": "144",
    "b5VveUd8": "",
    "qp37xTDh": "「召喚師ホーム」のクエストから、「セントクリーク」をクリアすることで通常ホームで召喚師を使用できるようになります。",
    "v9dyS8fi": "3110",
    "meg8fhr1": "144"
  },
  {
    "f1LKBoM9": "145",
    "b5VveUd8": "",
    "qp37xTDh": "通常ホームにおける召喚師のステータスなどは、「召喚師ホーム」での設定がそのまま適用されます。<br>※召喚師の設定を変更したい場合は、「召喚師ホーム」の「召喚師メニュー」で行う必要があります。<br><br>■召喚師メニューでの変更項目<br>・ＬＳスフィアの変更<br>・ＥＸスキルの変更<br>・武器の変更<br>・能力強化の解放<br><br>なお、通常ホームにおける召喚師の下記項目は固定となります。<br><br>■通常ホームでの固定項目<br>・タイプ：ロード<br>・レアリティ：幻創<br>・コスト：４０<br>・お気に入り：デフォルトでお気に入り状態となり、解除できません",
    "v9dyS8fi": "3110",
    "meg8fhr1": "145"
  },
  {
    "f1LKBoM9": "146",
    "b5VveUd8": "",
    "qp37xTDh": "通常ホームにおける召喚師は、下記基準で各フィルターの対象となります。<br><br>・属性：召喚師ホームでの設定に準拠<br>・レアリティ：「幻創」に含まれます<br>・ユニット種別：一般<br>・Ｌｖ：「ＬｖＭＡＸ」、「ＬｖＭＡＸ以外」どちらでも表示されます<br>・幼魔合成：いずれの項目を選択しても表示されます<br>・スフィア装備、スフィア枠開放状況：いずれの項目を選択しても表示されます<br>・ＢＢタイプ：装備している武器に準拠<br>・ＳＢＢ、ＵＢＢ覚醒状況：装備している武器の状況に準拠<br>・ＥＸスキル修得状況：ＯＮ、ＯＦＦどちらでも表示されます<br>・特性強化済：ＯＮ、ＯＦＦどちらでも表示されます<br>・性別：召喚師ホームでの設定に準拠<br>・ユニットタイプ：「ロード」に含まれます<br>・お気に入り：「お気に入り」に含まれます<br>・パーティ使用状況：通常ホームでの使用状況に準拠",
    "v9dyS8fi": "3110",
    "meg8fhr1": "146"
  },
  {
    "f1LKBoM9": "147",
    "b5VveUd8": "",
    "qp37xTDh": "解放条件を満たすことで、通常ホーム内の下記コンテンツに召喚師を連れて行けるようになります。<br><br>■使用可能コンテンツ<br>・クエスト、ゲートの狭間<br>・フロンティアゲート<br>・フロンティアハンター<br>・試練の間<br>・闘舞の間<br><br>また、下記コンテンツには連れていくことができません。<br><br>■使用不可コンテンツ<br>・アリーナ<br>・コロシアム<br>・レイドバトル<br>・マルチバトル<br>・グランドクエスト",
    "v9dyS8fi": "3110",
    "meg8fhr1": "147"
  },
  {
    "f1LKBoM9": "148",
    "b5VveUd8": "",
    "qp37xTDh": "フレンドが召喚師をリーダーに設定している場合、召喚師を使用できない下記コンテンツではフレンド選択画面に表示されません。<br><br>・レイドバトル<br>・グランドクエスト",
    "v9dyS8fi": "3110",
    "meg8fhr1": "148"
  },
  {
    "f1LKBoM9": "149",
    "b5VveUd8": "",
    "qp37xTDh": "召喚師ホーム画面から<br>ショップ＞アイテム購入で、<br>アイテムショップ画面に入れます。<br><br>ショップではダイヤを消費してアイテムを購入することができます。",
    "v9dyS8fi": "3200",
    "meg8fhr1": "149"
  },
  {
    "f1LKBoM9": "150",
    "b5VveUd8": "",
    "qp37xTDh": "第三部のクエストでのみ使用できる<br>ブーストアイテムです。<br>（既存のブーストアイテムは<br>　第三部では使用できません。）<br><br>装備アイテムタイプのものは、<br>クエストに出発する直前の画面で<br>「ブーストアイテム」を選択し、<br>装備したいアイテムを選んで装備状態に<br>しておくことで、クエスト出撃時に<br>ブーストアイテムを１つ消費しますが<br>クエストクリア時に入手できる<br>召喚師レベルの経験値・武器レベルの<br>経験値・入手できる召喚師ＳＰが<br>増加します。<br><br>使用アイテムタイプのものは、<br>クエストに出発する直前の画面で<br>「ブーストアイテム」を選択し、<br>使用したいブーストアイテムを<br>消費することで、一定時間入手できる<br>召喚師レベルの経験値・武器レベルの<br>経験値・入手できる召喚師ＳＰが<br>増加します。<br><br>同系統のブーストアイテムは一度に<br>１種類しか使用できません。また、<br>使用タイプのブーストアイテム効果中は<br>装備タイプのブーストアイテムを<br>装備することができません。",
    "v9dyS8fi": "3200",
    "meg8fhr1": "150"
  }
]