[
  {
    "j28VNcUW": "2000",
    "0iAIR2LP": "炎を喰らう者",
    "7x3pPB2C": "1",
    "H9sx5D08": "1",
    "qY49LBjw": "1800",
    "KR6JacN8": "4",
    "HSRhkf70": "",
    "UJTR1h5r": "0",
    "Najhr8m6": "8000",
    "HTVh8a65": "2000",
    "b5yeVr61": "1:0",
    "qp37xTDh": "【アクラス召喚院からの依頼】<br>魔神討伐隊付き連絡員のエリーゼです。<br>魔神討伐にまだ慣れていない召喚師向けに<br>簡単な任務を用意しました。<br>まずは手慣らしとして<br>モイズ草原を徘徊する<br>炎喰龍を討伐してください。<br>簡単な任務ですが<br>油断は禁物ですよ！",
    "WDUyI85C": "<color=242:215:145>目的</color>　炎喰龍エデルマ討伐",
    "21VKZo0E": "raid_room_shadow_boss_01",
    "yTPw0BD7": "raid_room_quest_flame.png",
    "2ty57Bcv": "bf050_raid02_fld.mp3",
    "N4XVE1uA": "0,0"
  },
  {
    "j28VNcUW": "2001",
    "0iAIR2LP": "20年越しの仇討ち",
    "7x3pPB2C": "1",
    "H9sx5D08": "7",
    "qY49LBjw": "1800",
    "KR6JacN8": "4",
    "HSRhkf70": "",
    "UJTR1h5r": "0",
    "Najhr8m6": "8000",
    "HTVh8a65": "2000",
    "b5yeVr61": "1:0",
    "qp37xTDh": "【老いた医師からの依頼】<br>わしのかみさんはな、召喚師だったんじゃ。<br>いい年して魔討隊なんぞに加わって、<br>そりゃあもう大活躍しておったわ……<br>じゃがな、20年前、堅氷獣にやられちまった。<br>その魔物がな、まだ生きておる。<br>わしゃあ悔しくて悔しくて……<br>どうか仇を討ってくれい！<br>ちなみにかみさんは生きとるぞ！",
    "WDUyI85C": "<color=242:215:145>目的</color>　氷堅獣ダルモギア討伐",
    "21VKZo0E": "raid_room_shadow_boss_03",
    "yTPw0BD7": "raid_room_quest_flame.png",
    "2ty57Bcv": "bf050_raid02_fld.mp3",
    "N4XVE1uA": "0,0"
  },
  {
    "j28VNcUW": "2002",
    "0iAIR2LP": "牙を剥く森の調査",
    "7x3pPB2C": "1",
    "H9sx5D08": "10",
    "qY49LBjw": "1800",
    "KR6JacN8": "4",
    "HSRhkf70": "",
    "UJTR1h5r": "0",
    "Najhr8m6": "8000",
    "HTVh8a65": "2000",
    "b5yeVr61": "1:0",
    "qp37xTDh": "【若い植物学者からの依頼】<br>私は召喚師さんが持ち帰るグランガイアの植物を<br>研究してエルガイアとの違いを研究しています。<br>あちらとこちらの違いを私なりのアプローチで<br>解明したいと考えているのですが……<br>近頃凄い樹木が見つかったと聞いて<br>少し興奮気味なんです。<br>どうか大妖樹メル・メルを倒し、<br>詳しい話をお聞かせください！",
    "WDUyI85C": "<color=242:215:145>目的</color>　大妖樹メル・メル討伐",
    "21VKZo0E": "raid_room_shadow_boss_04",
    "yTPw0BD7": "raid_room_quest_flame.png",
    "2ty57Bcv": "bf050_raid02_fld.mp3",
    "N4XVE1uA": "0,0"
  },
  {
    "j28VNcUW": "2003",
    "0iAIR2LP": "地中の徘徊者",
    "7x3pPB2C": "1",
    "H9sx5D08": "2",
    "qY49LBjw": "1800",
    "KR6JacN8": "4",
    "HSRhkf70": "",
    "UJTR1h5r": "0",
    "Najhr8m6": "8000",
    "HTVh8a65": "2100",
    "b5yeVr61": "1:0",
    "qp37xTDh": "【精悍な商売人からの依頼】<br>俺は召喚師としての才能があんまり無くてよ、<br>しょうがねえから向こうに物資を<br>運ぶ仕事をしてるんだが…どうしていつも<br>俺の輸送ルートにグラノモスが出やがるんだ！！<br>しかもいつも決まって大群だ！<br>危なくて荷物を運べやしねー！<br>全部倒してくれとは言わない！<br>５匹だ！５匹だけでいい！",
    "WDUyI85C": "<color=242:215:145>目的</color>　グラノモス討伐",
    "21VKZo0E": "raid_room_shadow_small_enemy_01",
    "yTPw0BD7": "raid_room_quest_flame.png",
    "2ty57Bcv": "bf050_raid02_fld.mp3",
    "N4XVE1uA": "0,0"
  },
  {
    "j28VNcUW": "2004",
    "0iAIR2LP": "燃え盛る舌",
    "7x3pPB2C": "1",
    "H9sx5D08": "5",
    "qY49LBjw": "1800",
    "KR6JacN8": "4",
    "HSRhkf70": "2000,2001,2002",
    "UJTR1h5r": "0",
    "Najhr8m6": "10000",
    "HTVh8a65": "2200",
    "b5yeVr61": "1:0",
    "qp37xTDh": "【ビッグになりたい料理人からの依頼】<br>オッス、あんた伝説の料理人を知ってるかい？<br>なんでも、すげぇ魔物を食材にしてたって話だ。<br>憧れちゃうねぇ！ってことで本題だ。<br>炎喰龍って知ってるかい？<br>あいつの舌をステーキにしたら<br>きっとオレも超有名に<br>なれるんじゃないかなー？<br>つうことで、調達よろしくな！",
    "WDUyI85C": "<color=242:215:145>目的</color>　炎喰龍エデルマ討伐",
    "21VKZo0E": "raid_room_shadow_boss_01",
    "yTPw0BD7": "raid_room_quest_flame.png",
    "2ty57Bcv": "bf050_raid02_fld.mp3",
    "N4XVE1uA": "0,0"
  },
  {
    "j28VNcUW": "2005",
    "0iAIR2LP": "堅牢なる氷殻",
    "7x3pPB2C": "1",
    "H9sx5D08": "11",
    "qY49LBjw": "1800",
    "KR6JacN8": "4",
    "HSRhkf70": "2000,2001,2002",
    "UJTR1h5r": "0",
    "Najhr8m6": "10000",
    "HTVh8a65": "2200",
    "b5yeVr61": "1:0",
    "qp37xTDh": "【軽いノリの召喚師からの依頼】<br>氷堅獣ダルモギアって知ってる？<br>名前の通りものすげー堅いんだけどさ、<br>この間見ちゃったんだよね、<br>湿地でのんびり水草食べてるとこ。<br>なんか可愛いなと思ったんだけど、<br>俺に気付くなり突進してきてさぁ。<br>命からがら逃げてきたってわけ。<br>あ、これ、そいつの討伐依頼ッス。",
    "WDUyI85C": "<color=242:215:145>目的</color>　氷堅獣ダルモギア討伐",
    "21VKZo0E": "raid_room_shadow_boss_03",
    "yTPw0BD7": "raid_room_quest_flame.png",
    "2ty57Bcv": "bf050_raid02_fld.mp3",
    "N4XVE1uA": "0,0"
  },
  {
    "j28VNcUW": "2006",
    "0iAIR2LP": "12年前の仇討ち",
    "7x3pPB2C": "1",
    "H9sx5D08": "8",
    "qY49LBjw": "1800",
    "KR6JacN8": "4",
    "HSRhkf70": "2000,2001,2002",
    "UJTR1h5r": "0",
    "Najhr8m6": "10000",
    "HTVh8a65": "2200",
    "b5yeVr61": "1:0",
    "qp37xTDh": "【老いた医師からの依頼】<br>わしのかみさんはな、召喚師だったんじゃ。<br>もう年だってのに魔討隊なんぞに加わって、<br>若い連中をどやしつけておったわ……<br>じゃがな、12年前、大妖樹にやられちまった。<br>ここまで言えばわかるじゃろ？<br>どうか仇を討ってくれい！<br>もちろんかみさんは<br>今も元気じゃぞ。",
    "WDUyI85C": "<color=242:215:145>目的</color>　大妖樹メル・メル討伐",
    "21VKZo0E": "raid_room_shadow_boss_04",
    "yTPw0BD7": "raid_room_quest_flame.png",
    "2ty57Bcv": "bf050_raid02_fld.mp3",
    "N4XVE1uA": "0,0"
  },
  {
    "j28VNcUW": "2007",
    "0iAIR2LP": "宵闇の支配者",
    "7x3pPB2C": "1",
    "H9sx5D08": "5",
    "qY49LBjw": "1800",
    "KR6JacN8": "4",
    "HSRhkf70": "2004,2005,2006",
    "UJTR1h5r": "1",
    "Najhr8m6": "15000",
    "HTVh8a65": "2500",
    "b5yeVr61": "1:1",
    "qp37xTDh": "【アクラス召喚院からの依頼】<br>魔神討伐隊付き連絡員のエリーゼです。<br>ジランド火山に強力な魔神が出現しました！<br>被害が他の地域まで拡大する前に、<br>速やかに魔神の討伐をお願いします。<br>危険な任務となりますが、<br>この魔神を倒した暁には<br>きっと実力を認められるに<br>違いありません！",
    "WDUyI85C": "<color=242:215:145>目的</color>　闇司神レデュハーク討伐",
    "21VKZo0E": "raid_room_shadow_boss_06",
    "yTPw0BD7": "raid_room_quest_flame_red.png",
    "2ty57Bcv": "bf050_raid02_fld.mp3",
    "N4XVE1uA": "raid_01_1.txt,0"
  },
  {
    "j28VNcUW": "2008",
    "0iAIR2LP": "メダルラッシュLv1",
    "7x3pPB2C": "1",
    "H9sx5D08": "102",
    "qY49LBjw": "1800",
    "KR6JacN8": "4",
    "HSRhkf70": "",
    "UJTR1h5r": "0",
    "Najhr8m6": "15000",
    "HTVh8a65": "2500",
    "b5yeVr61": "1:5",
    "qp37xTDh": "【召喚術研究所からの依頼】<br>魔神討伐隊付き連絡員のエリーゼです。<br>召喚術研究所から依頼がきています。<br>メダンチという魔物の生態を調査したいので、<br>討伐を依頼したいとのことです。<br>今回は報酬のブレイブメダルが<br>特別にたっぷり用意されているので<br>張り切って行ってみましょう！<br>しっかり稼いでくださいね♪",
    "WDUyI85C": "<color=242:215:145>目的</color>　メダンチ討伐",
    "21VKZo0E": "raid_room_shadow_boss_13",
    "yTPw0BD7": "raid_room_quest_flame.png",
    "2ty57Bcv": "bf050_raid02_fld.mp3",
    "N4XVE1uA": "0,0"
  },
  {
    "j28VNcUW": "2009",
    "0iAIR2LP": "御使強襲",
    "7x3pPB2C": "1",
    "H9sx5D08": "105",
    "qY49LBjw": "1800",
    "KR6JacN8": "4",
    "HSRhkf70": "",
    "UJTR1h5r": "0",
    "Najhr8m6": "8000",
    "HTVh8a65": "2000",
    "b5yeVr61": "1:1",
    "qp37xTDh": "【アクラス召喚院からの依頼】<br>緊急事態です。ゲートの狭間から御使と呼ばれる<br>異界の魔物が出現し、雪原を徘徊しています。<br>この異界の魔物が本格的に活動を開始した場合、<br>グランガイアにどのような影響を与えるのか<br>予測不能です。<br>また、情報不足のため、<br>強さについても不明となります。<br>どうか慎重に対応してください。",
    "WDUyI85C": "<color=242:215:145>目的</color>　フルメタルハガー討伐",
    "21VKZo0E": "raid_room_shadow_boss_14",
    "yTPw0BD7": "raid_room_quest_flame_green.png",
    "2ty57Bcv": "Seiken_RoM_07.mp3",
    "N4XVE1uA": "0,0"
  },
  {
    "j28VNcUW": "2010",
    "0iAIR2LP": "破壊の剛腕",
    "7x3pPB2C": "1",
    "H9sx5D08": "108",
    "qY49LBjw": "1800",
    "KR6JacN8": "4",
    "HSRhkf70": "",
    "UJTR1h5r": "0",
    "Najhr8m6": "8000",
    "HTVh8a65": "2000",
    "b5yeVr61": "1:1",
    "qp37xTDh": "【アクラス召喚院からの依頼】<br>魔神討伐隊付き連絡員のエリーゼより<br>召喚師各位に向けての緊急連絡です。<br>異界に通じるゲートの開放が確認され、<br>未知の魔物の出現が観測されました。<br>グランガイアの生態系に<br>深刻な影響を及ぼす前に、<br>この魔物の討伐を<br>お願いします。",
    "WDUyI85C": "<color=242:215:145>目的</color>　デスファクトリー討伐",
    "21VKZo0E": "raid_room_shadow_boss_15",
    "yTPw0BD7": "raid_room_quest_flame_green.png",
    "2ty57Bcv": "logres_map.mp3",
    "N4XVE1uA": "0,0"
  },
  {
    "j28VNcUW": "2011",
    "0iAIR2LP": "現れた狂戦士",
    "7x3pPB2C": "1",
    "H9sx5D08": "111",
    "qY49LBjw": "1800",
    "KR6JacN8": "4",
    "HSRhkf70": "",
    "UJTR1h5r": "0",
    "Najhr8m6": "8000",
    "HTVh8a65": "2000",
    "b5yeVr61": "1:1",
    "qp37xTDh": "【アクラス召喚院からの依頼】<br>魔神討伐隊付き連絡員のエリーゼです。<br>異界より１人の男性がこちらの世界にやって来た<br>らしいのですが、接触を試みた調査員は一方的に<br>戦いを挑まれ、撃退されたとのことです。<br>至急現地に向かい、<br>その男性を止めてください。<br>異界の方との戦いですので、<br>十分気をつけてくださいね！",
    "WDUyI85C": "<color=242:215:145>目的</color>　バルバトス討伐",
    "21VKZo0E": "raid_room_shadow_boss_27",
    "yTPw0BD7": "raid_room_quest_flame_green.png",
    "2ty57Bcv": "ToD2_B1.mp3",
    "N4XVE1uA": "0,0"
  },
  {
    "j28VNcUW": "2012",
    "0iAIR2LP": "究極龍の出現",
    "7x3pPB2C": "1",
    "H9sx5D08": "114",
    "qY49LBjw": "1800",
    "KR6JacN8": "4",
    "HSRhkf70": "",
    "UJTR1h5r": "0",
    "Najhr8m6": "8000",
    "HTVh8a65": "2000",
    "b5yeVr61": "1:1",
    "qp37xTDh": "【アクラス召喚院からの依頼】<br>魔神討伐隊付き連絡員のエリーゼです。<br>突如、異界より漆黒の翼を持つ龍がエルガイアに<br>現れ、暴れていると報告を受けました。<br>調査を試みた職員も早々に撃退されています。<br>至急現地に赴いて、<br>龍の暴動を止めてください。<br>異界の龍との戦いになりますので、<br>気を付けてくださいね！",
    "WDUyI85C": "<color=242:215:145>目的</color>　究極龍ビシャモン討伐",
    "21VKZo0E": "raid_room_shadow_boss_34",
    "yTPw0BD7": "raid_room_quest_flame_green.png",
    "2ty57Bcv": "kuriyuni_Field.mp3",
    "N4XVE1uA": "0,0"
  },
  {
    "j28VNcUW": "3000",
    "0iAIR2LP": "雪下の放浪者",
    "7x3pPB2C": "2",
    "H9sx5D08": "8",
    "qY49LBjw": "1800",
    "KR6JacN8": "4",
    "HSRhkf70": "",
    "UJTR1h5r": "0",
    "Najhr8m6": "20000",
    "HTVh8a65": "3000",
    "b5yeVr61": "1:2",
    "qp37xTDh": "【精悍な商売人からの依頼】<br>また出やがった！メドロノモスの大群だ！<br>あいつら俺を付けねらってるんじゃないのか！？<br>ただでさえキツイ雪道がアレじゃあ<br>とてもじゃないが通れやしねー！<br>アレを俺1人で片付けて<br>物資を運ぶだなんて、<br>どう考えても不可能だ。<br>５匹だけでいい、手伝ってくれ！",
    "WDUyI85C": "<color=242:215:145>目的</color>　メドロノモス討伐",
    "21VKZo0E": "raid_room_shadow_small_enemy_02",
    "yTPw0BD7": "raid_room_quest_flame.png",
    "2ty57Bcv": "bf050_raid02_fld.mp3",
    "N4XVE1uA": "0,0"
  },
  {
    "j28VNcUW": "3001",
    "0iAIR2LP": "政争の駒にされた依頼",
    "7x3pPB2C": "2",
    "H9sx5D08": "2",
    "qY49LBjw": "1800",
    "KR6JacN8": "4",
    "HSRhkf70": "",
    "UJTR1h5r": "0",
    "Najhr8m6": "20000",
    "HTVh8a65": "3000",
    "b5yeVr61": "1:2",
    "qp37xTDh": "【根回しの得意な貴族からの依頼】<br>私はとある国の貴族で、召喚師ではないのだが、<br>召喚院にぜひとも貢献したいと思っていてね。<br>危険な魔物の討伐にかかる費用の一部を<br>私が提供することにしたのだ。<br>とはいえ、<br>普通に寄付してもつまらんので<br>代わりに依頼を用意してみた。<br>では、お手並み拝見といこうか。",
    "WDUyI85C": "<color=242:215:145>目的</color>　崩雷獣ブルゼヴィア討伐",
    "21VKZo0E": "raid_room_shadow_boss_05",
    "yTPw0BD7": "raid_room_quest_flame.png",
    "2ty57Bcv": "bf050_raid02_fld.mp3",
    "N4XVE1uA": "0,0"
  },
  {
    "j28VNcUW": "3002",
    "0iAIR2LP": "一角の暴れ龍",
    "7x3pPB2C": "2",
    "H9sx5D08": "11",
    "qY49LBjw": "1800",
    "KR6JacN8": "4",
    "HSRhkf70": "",
    "UJTR1h5r": "0",
    "Najhr8m6": "20000",
    "HTVh8a65": "3000",
    "b5yeVr61": "1:2",
    "qp37xTDh": "【若い植物学者からの依頼】<br>私は召喚師さんが持ち帰るグランガイアの植物を<br>研究してエルガイアとの違いを研究しています。<br>今回は植物の魔物の調査依頼ではありません。<br>私の専門ではないのですが、輝暴龍という魔物、<br>その背中はまるで木のようだという<br>噂を聞いて少し興奮気味なんです。<br>どうか輝暴龍の背中を調べて、<br>詳しい話をお聞かせください！",
    "WDUyI85C": "<color=242:215:145>目的</color>　輝暴龍ラグナレクス討伐",
    "21VKZo0E": "raid_room_shadow_boss_08",
    "yTPw0BD7": "raid_room_quest_flame.png",
    "2ty57Bcv": "bf050_raid02_fld.mp3",
    "N4XVE1uA": "0,0"
  },
  {
    "j28VNcUW": "3003",
    "0iAIR2LP": "挟撃！地中からの急襲",
    "7x3pPB2C": "2",
    "H9sx5D08": "8",
    "qY49LBjw": "1800",
    "KR6JacN8": "4",
    "HSRhkf70": "3000",
    "UJTR1h5r": "0",
    "Najhr8m6": "21000",
    "HTVh8a65": "3100",
    "b5yeVr61": "1:2",
    "qp37xTDh": "【精悍な商売人からの依頼】<br>やってられるか！またアイツらに襲われた！<br>グラノモスとメドロノモスが同時にって、<br>いったい何なんだよ、俺の体から<br>アイツらが好きな匂いでも出てるのか！？<br>なー、頼むよ、俺もう嫌なんだよ、<br>下から突き上げられるの……<br>これで最後の依頼にするからさ。",
    "WDUyI85C": "<color=242:215:145>目的</color>　グラノモス等討伐",
    "21VKZo0E": "raid_room_shadow_small_enemy_01",
    "yTPw0BD7": "raid_room_quest_flame.png",
    "2ty57Bcv": "bf050_raid02_fld.mp3",
    "N4XVE1uA": "0,0"
  },
  {
    "j28VNcUW": "3004",
    "0iAIR2LP": "駆け抜ける巨大な影",
    "7x3pPB2C": "2",
    "H9sx5D08": "2",
    "qY49LBjw": "1800",
    "KR6JacN8": "4",
    "HSRhkf70": "3001",
    "UJTR1h5r": "0",
    "Najhr8m6": "21000",
    "HTVh8a65": "3100",
    "b5yeVr61": "1:2",
    "qp37xTDh": "【顔色の悪い召喚師からの依頼】<br>どうしよう……。本当に困った……。<br>誰も信じてくれないが俺は本当に見たんだ！<br>競うように草原を駆ける炎喰龍と崩雷獣をな！<br>アレは縄張り争いとかそういうのじゃない！<br>もし探索中に遭遇したらと思うと<br>不安で不安で夜も眠れないんだ！<br>頼む！俺の眠りを取り戻してくれ！",
    "WDUyI85C": "<color=242:215:145>目的</color>　炎喰龍エデルマ等討伐",
    "21VKZo0E": "raid_room_shadow_boss_01",
    "yTPw0BD7": "raid_room_quest_flame.png",
    "2ty57Bcv": "bf050_raid02_fld.mp3",
    "N4XVE1uA": "0,0"
  },
  {
    "j28VNcUW": "3005",
    "0iAIR2LP": "魔物の共生関係の調査",
    "7x3pPB2C": "2",
    "H9sx5D08": "12",
    "qY49LBjw": "1800",
    "KR6JacN8": "4",
    "HSRhkf70": "3001",
    "UJTR1h5r": "0",
    "Najhr8m6": "22500",
    "HTVh8a65": "3200",
    "b5yeVr61": "1:2",
    "qp37xTDh": "【若い植物学者からの依頼】<br>私は召喚師さんが持ち帰るグランガイアの植物を<br>研究してエルガイアとの違いを研究しています。<br>大発見の報告がありました！氷堅獣と大妖樹に<br>共生関係があるかもしれないという話なんです！<br>この話を聞いて私、<br>少し興奮気味なんです。<br>自分で調査できたらいいのに……。",
    "WDUyI85C": "<color=242:215:145>目的</color>　氷堅獣ダルモギア等討伐",
    "21VKZo0E": "raid_room_shadow_boss_03",
    "yTPw0BD7": "raid_room_quest_flame.png",
    "2ty57Bcv": "bf050_raid02_fld.mp3",
    "N4XVE1uA": "0,0"
  },
  {
    "j28VNcUW": "3006",
    "0iAIR2LP": "異質な魔神の出現",
    "7x3pPB2C": "2",
    "H9sx5D08": "12",
    "qY49LBjw": "1800",
    "KR6JacN8": "4",
    "HSRhkf70": "3001,3002",
    "UJTR1h5r": "0",
    "Najhr8m6": "22500",
    "HTVh8a65": "3200",
    "b5yeVr61": "1:3",
    "qp37xTDh": "【学者肌の召喚師からの依頼】<br>湿地の調査中に見慣れない魔神に襲われた。<br>あの姿はまるで異界の機械のようだった。<br>神々は異界のものを嫌う傾向にあると<br>思っていたのだが、もしかしたら認識を<br>改める必要があるのだろうか？<br>もっと詳しく調べたかったが、<br>生憎怪我で動けない。<br>どうか代わりに調査を頼みたい。",
    "WDUyI85C": "<color=242:215:145>目的</color>　堕神ヴァン・ルーシ討伐",
    "21VKZo0E": "raid_room_shadow_boss_11",
    "yTPw0BD7": "raid_room_quest_flame.png",
    "2ty57Bcv": "bf050_raid02_fld.mp3",
    "N4XVE1uA": "0,0"
  },
  {
    "j28VNcUW": "3007",
    "0iAIR2LP": "誘う魔神",
    "7x3pPB2C": "2",
    "H9sx5D08": "6",
    "qY49LBjw": "1800",
    "KR6JacN8": "4",
    "HSRhkf70": "3001,3002",
    "UJTR1h5r": "0",
    "Najhr8m6": "22500",
    "HTVh8a65": "3200",
    "b5yeVr61": "1:3",
    "qp37xTDh": "【幼い風貌の召喚師からの依頼】<br>うう、まだ震えが止まらないよぉ。<br>火山でさぁ、魔神にね、遭っちゃったんだけど、<br>なんていうか、魔討隊の人たちはすごいね。<br>私、怖くて震えて動けなかったよ。<br>あの魔神、わざと私を生きて<br>帰したとしか思えないんだけど、<br>誰かを誘き寄せる罠かな？<br>依頼出したの失敗だったかな？",
    "WDUyI85C": "<color=242:215:145>目的</color>　邪神ヴァン・ナーダ討伐",
    "21VKZo0E": "raid_room_shadow_boss_12",
    "yTPw0BD7": "raid_room_quest_flame.png",
    "2ty57Bcv": "bf050_raid02_fld.mp3",
    "N4XVE1uA": "0,0"
  },
  {
    "j28VNcUW": "3008",
    "0iAIR2LP": "8年前の屈辱",
    "7x3pPB2C": "2",
    "H9sx5D08": "6",
    "qY49LBjw": "1800",
    "KR6JacN8": "4",
    "HSRhkf70": "3001",
    "UJTR1h5r": "0",
    "Najhr8m6": "22500",
    "HTVh8a65": "3200",
    "b5yeVr61": "1:3",
    "qp37xTDh": "【老いた医師からの依頼】<br>わしのかみさんはな、召喚師だったんじゃ。<br>ばーさんのくせに魔討隊なんぞに加わって、<br>若い連中より張り切っておったわ……<br>じゃがな、ある日崩雷獣にやられちまった。<br>ん？12年前？何の話じゃ？<br>ここまで言えばわかるじゃろ？<br>どうか仇を討ってくれい！<br>かみさんもきっとそう思っとる！",
    "WDUyI85C": "<color=242:215:145>目的</color>　崩雷獣ブルゼヴィア討伐",
    "21VKZo0E": "raid_room_shadow_boss_05",
    "yTPw0BD7": "raid_room_quest_flame.png",
    "2ty57Bcv": "bf050_raid02_fld.mp3",
    "N4XVE1uA": "0,0"
  },
  {
    "j28VNcUW": "3009",
    "0iAIR2LP": "復讐要請",
    "7x3pPB2C": "2",
    "H9sx5D08": "3",
    "qY49LBjw": "1800",
    "KR6JacN8": "4",
    "HSRhkf70": "3002",
    "UJTR1h5r": "0",
    "Najhr8m6": "23000",
    "HTVh8a65": "3200",
    "b5yeVr61": "1:3",
    "qp37xTDh": "【顔を隠した女召喚師からの依頼】<br>あはは……あの時のラグナレクス。<br>ついに見つけた……うふふ。<br>キミにお願いするわ。あの輝暴龍を殺して。<br>そう、可能な限り無残に、苦しむようにね。<br>ふ、ふふ、できればこの手で<br>復讐してやりたいところだけど。<br>……私の美貌を奪った報い、<br>必ず受けさせてやるのよ。",
    "WDUyI85C": "<color=242:215:145>目的</color>　輝暴龍ラグナレクス討伐",
    "21VKZo0E": "raid_room_shadow_boss_08",
    "yTPw0BD7": "raid_room_quest_flame.png",
    "2ty57Bcv": "bf050_raid02_fld.mp3",
    "N4XVE1uA": "0,0"
  },
  {
    "j28VNcUW": "3010",
    "0iAIR2LP": "手柄はくれてやる",
    "7x3pPB2C": "2",
    "H9sx5D08": "9",
    "qY49LBjw": "1800",
    "KR6JacN8": "4",
    "HSRhkf70": "3006,3007",
    "UJTR1h5r": "0",
    "Najhr8m6": "23000",
    "HTVh8a65": "3200",
    "b5yeVr61": "1:3",
    "qp37xTDh": "【瀕死の召喚師からの依頼】<br>この依頼が他の魔討隊に届く頃には、<br>致命傷を負った俺の命はもう無いかもしれない。<br>ヤツは闇を纏っていた。突然周囲が暗くなり、<br>わけも分からないまま俺たちはやられた。<br>以前交戦した時とは<br>まるで別の魔神だ。<br>きっと怒っているんだろうな、<br>俺たちは神を傷付け過ぎた……",
    "WDUyI85C": "<color=242:215:145>目的</color>　闇司神レデュハーク討伐",
    "21VKZo0E": "raid_room_shadow_boss_06",
    "yTPw0BD7": "raid_room_quest_flame.png",
    "2ty57Bcv": "bf050_raid02_fld.mp3",
    "N4XVE1uA": "0,0"
  },
  {
    "j28VNcUW": "3011",
    "0iAIR2LP": "人を憎む妃神の猛威",
    "7x3pPB2C": "2",
    "H9sx5D08": "6",
    "qY49LBjw": "1800",
    "KR6JacN8": "4",
    "HSRhkf70": "3010",
    "UJTR1h5r": "1",
    "Najhr8m6": "25000",
    "HTVh8a65": "3500",
    "b5yeVr61": "1:3",
    "qp37xTDh": "【アクラス召喚院からの依頼】<br>魔神討伐隊付き連絡員のエリーゼです。<br>ジランド火山に危険な魔神が出現しました！<br>並の召喚師の手に負える相手ではないため、<br>討伐は実力を認められた方にのみお願いします。<br>非常に危険な任務となりますが、<br>この魔神を倒さなければ<br>調査に悪影響が出かねません。<br>どうか討伐をお願いします！",
    "WDUyI85C": "<color=242:215:145>目的</color>　覇妃霊メリオン討伐",
    "21VKZo0E": "raid_room_shadow_boss_02",
    "yTPw0BD7": "raid_room_quest_flame_red.png",
    "2ty57Bcv": "bf050_raid02_fld.mp3",
    "N4XVE1uA": "raid_02_1.txt,0"
  },
  {
    "j28VNcUW": "3012",
    "0iAIR2LP": "秘密の場所を教えるぜ",
    "7x3pPB2C": "2",
    "H9sx5D08": "101",
    "qY49LBjw": "1800",
    "KR6JacN8": "4",
    "HSRhkf70": "3000,3001,3002,3003,3004,3005,3006,3007,3008,3009,3010,3011",
    "UJTR1h5r": "0",
    "Najhr8m6": "20000",
    "HTVh8a65": "3000",
    "b5yeVr61": "1:1",
    "qp37xTDh": "【悪ぶった召喚師からの依頼】<br>本当は誰にも場所を教えたくないんだけどよ、<br>草原に素材が沢山採れる穴場があるんだよ。<br>俺ぁいつもそこで稼いでるんだけどよー、<br>凄ぇ木のバケモノが住み着いちまってよ、<br>近寄れなくなっちまったんだよ。<br>他人に知られるのはシャクだがよ、<br>このままじゃ俺、困るんだよ。<br>なぁ、バケモノの退治頼んだぜ。",
    "WDUyI85C": "<color=242:215:145>目的</color>　大妖樹メル・メル討伐",
    "21VKZo0E": "raid_room_shadow_boss_04",
    "yTPw0BD7": "raid_room_quest_flame.png",
    "2ty57Bcv": "bf050_raid02_fld.mp3",
    "N4XVE1uA": "0,0"
  },
  {
    "j28VNcUW": "3013",
    "0iAIR2LP": "メダルラッシュLv2",
    "7x3pPB2C": "2",
    "H9sx5D08": "103",
    "qY49LBjw": "1800",
    "KR6JacN8": "4",
    "HSRhkf70": "",
    "UJTR1h5r": "0",
    "Najhr8m6": "25000",
    "HTVh8a65": "3500",
    "b5yeVr61": "1:10",
    "qp37xTDh": "【召喚術研究所からの依頼】<br>魔神討伐隊付き連絡員のエリーゼです。<br>メダンチという変わった魔物の討伐依頼が<br>召喚術研究所から出ています。<br>この魔物の調査が今後の研究に重要らしく、<br>報酬としてブレイブメダルが<br>特別にたっぷり用意されています！<br>研究の助けにもなりますし、<br>いっぱい稼いじゃいましょう♪",
    "WDUyI85C": "<color=242:215:145>目的</color>　メダンチ討伐",
    "21VKZo0E": "raid_room_shadow_boss_13",
    "yTPw0BD7": "raid_room_quest_flame.png",
    "2ty57Bcv": "bf050_raid02_fld.mp3",
    "N4XVE1uA": "0,0"
  },
  {
    "j28VNcUW": "3014",
    "0iAIR2LP": "異次元での戦い",
    "7x3pPB2C": "2",
    "H9sx5D08": "106",
    "qY49LBjw": "1800",
    "KR6JacN8": "4",
    "HSRhkf70": "",
    "UJTR1h5r": "0",
    "Najhr8m6": "20000",
    "HTVh8a65": "3000",
    "b5yeVr61": "1:3",
    "qp37xTDh": "【アクラス召喚院からの依頼】<br>魔神討伐隊付き連絡員のエリーゼです。<br>異界から御使と呼ばれる驚異的な魔物が出現、<br>現在雪原地帯を北上しているとのことです。<br>御使を討伐する戦士たちがこちらへ来られるか<br>不明なため、この敵を召喚院の手で<br>討伐しなくてはなりません。<br>未知の敵との戦いとなりますので<br>十分な準備をお願いします。",
    "WDUyI85C": "<color=242:215:145>目的</color>　フルメタルハガー討伐",
    "21VKZo0E": "raid_room_shadow_boss_14",
    "yTPw0BD7": "raid_room_quest_flame_green.png",
    "2ty57Bcv": "Seiken_RoM_07.mp3",
    "N4XVE1uA": "0,0"
  },
  {
    "j28VNcUW": "3015",
    "0iAIR2LP": "異能の兵器",
    "7x3pPB2C": "2",
    "H9sx5D08": "109",
    "qY49LBjw": "1800",
    "KR6JacN8": "4",
    "HSRhkf70": "",
    "UJTR1h5r": "0",
    "Najhr8m6": "20000",
    "HTVh8a65": "3000",
    "b5yeVr61": "1:3",
    "qp37xTDh": "【アクラス召喚院からの依頼】<br>魔神討伐隊付き連絡員のエリーゼです。<br>異界の魔導人形と思われる魔物が、<br>ゲートより現れグランガイアを徘徊しています。<br>異界の魔物のもたらす被害を未然に防ぐため、<br>速やかな対処が必要です。<br>この依頼を受けた召喚師は<br>速やかに現地へ向かい、<br>これを撃破してください。",
    "WDUyI85C": "<color=242:215:145>目的</color>　デスファクトリー討伐",
    "21VKZo0E": "raid_room_shadow_boss_15",
    "yTPw0BD7": "raid_room_quest_flame_green.png",
    "2ty57Bcv": "logres_map.mp3",
    "N4XVE1uA": "0,0"
  },
  {
    "j28VNcUW": "4000",
    "0iAIR2LP": "もっと燃え盛る舌",
    "7x3pPB2C": "3",
    "H9sx5D08": "6",
    "qY49LBjw": "1800",
    "KR6JacN8": "4",
    "HSRhkf70": "",
    "UJTR1h5r": "0",
    "Najhr8m6": "30000",
    "HTVh8a65": "4000",
    "b5yeVr61": "1:4",
    "qp37xTDh": "【ビッグになりたい料理人からの依頼】<br>オッス、オレだ、伝説に残る予定の料理人だ。<br>前回のステーキはヤバイ出来だったぜ！<br>どれだけ火力を上げても焼けなくてなぁ…。<br>で、だ、目標を変えることにしたぜ！<br>炎纏竜だ、炎纏竜の舌を頼む！<br>今度はシチューにするから<br>できたらご馳走するぜ！<br>あ、宣伝もしてくれよな！",
    "WDUyI85C": "<color=242:215:145>目的</color>　炎纏竜クララダラス討伐",
    "21VKZo0E": "raid_room_shadow_boss_07",
    "yTPw0BD7": "raid_room_quest_flame.png",
    "2ty57Bcv": "bf050_raid02_fld.mp3",
    "N4XVE1uA": "0,0"
  },
  {
    "j28VNcUW": "4001",
    "0iAIR2LP": "特別公開授業",
    "7x3pPB2C": "3",
    "H9sx5D08": "3",
    "qY49LBjw": "1800",
    "KR6JacN8": "4",
    "HSRhkf70": "4000",
    "UJTR1h5r": "0",
    "Najhr8m6": "30000",
    "HTVh8a65": "4000",
    "b5yeVr61": "1:4",
    "qp37xTDh": "【アクラス召喚院からの依頼】<br>これは防衛局からの依頼じゃよ。<br>正規軍が調査中のモイズ草原が騒がしくてのう。<br>ひよっこには厳しい内容じゃから、<br>ここでお主らの出番というわけじゃ。<br>フォフォフォ。",
    "WDUyI85C": "<color=242:215:145>目的</color>　炎喰龍エデルマ等討伐",
    "21VKZo0E": "raid_room_shadow_boss_01",
    "yTPw0BD7": "raid_room_quest_flame.png",
    "2ty57Bcv": "bf050_raid02_fld.mp3",
    "N4XVE1uA": "0,0"
  },
  {
    "j28VNcUW": "4002",
    "0iAIR2LP": "彼を救ってください！",
    "7x3pPB2C": "3",
    "H9sx5D08": "12",
    "qY49LBjw": "1800",
    "KR6JacN8": "4",
    "HSRhkf70": "4000",
    "UJTR1h5r": "0",
    "Najhr8m6": "31000",
    "HTVh8a65": "4100",
    "b5yeVr61": "1:4",
    "qp37xTDh": "【真面目な召喚師からの依頼】<br>私、見たんです。また、彼が襲われているのを。<br>いつも物資を運んでくれる精悍なあの人ですよ。<br>私、助けようとしたんですけど、<br>彼、大丈夫だから先に行けって…。<br>でも、やっぱり気になって…。<br>場所はセドリア湿地です、<br>あの人を救ってください！",
    "WDUyI85C": "<color=242:215:145>目的</color>　グラノモス等討伐",
    "21VKZo0E": "raid_room_shadow_small_enemy_01",
    "yTPw0BD7": "raid_room_quest_flame.png",
    "2ty57Bcv": "bf050_raid02_fld.mp3",
    "N4XVE1uA": "0,0"
  },
  {
    "j28VNcUW": "4003",
    "0iAIR2LP": "魔神の罠",
    "7x3pPB2C": "3",
    "H9sx5D08": "3",
    "qY49LBjw": "1800",
    "KR6JacN8": "4",
    "HSRhkf70": "4001",
    "UJTR1h5r": "0",
    "Najhr8m6": "31000",
    "HTVh8a65": "4100",
    "b5yeVr61": "1:4",
    "qp37xTDh": "【幼い風貌の召喚師からの依頼】<br>この前魔神討伐の依頼を出したんだけど、<br>気になってあの魔神を探してみたんだ。<br>怖いもの見たさっていうか…。<br>そうしたら、そっくりな魔神が<br>もう1体現れたんだ！<br>今度はすぐ逃げて、<br>討伐依頼を出しておくね！",
    "WDUyI85C": "<color=242:215:145>目的</color>　堕神ヴァン・ルーシ等討伐",
    "21VKZo0E": "raid_room_shadow_boss_11",
    "yTPw0BD7": "raid_room_quest_flame.png",
    "2ty57Bcv": "bf050_raid02_fld.mp3",
    "N4XVE1uA": "raid_03_1_1.txt,0"
  },
  {
    "j28VNcUW": "4004",
    "0iAIR2LP": "あの日から5年",
    "7x3pPB2C": "3",
    "H9sx5D08": "9",
    "qY49LBjw": "1800",
    "KR6JacN8": "4",
    "HSRhkf70": "4003",
    "UJTR1h5r": "0",
    "Najhr8m6": "32500",
    "HTVh8a65": "4200",
    "b5yeVr61": "1:4",
    "qp37xTDh": "【老いた医師からの依頼】<br>わしのかみさんはな、召喚師だったんじゃ。<br>もう60になるというのに強くてのう。<br>じゃがな、忘れもしない5年前のある日、<br>雪原の輝暴龍にやられちまった。<br>ん？8年前？何の話じゃ？<br>ここまで言えばわかるじゃろ？<br>どうか仇を討ってくれい！<br>ちなみにかみさんは昼寝中じゃ。",
    "WDUyI85C": "<color=242:215:145>目的</color>　輝暴龍ラグナレクス討伐",
    "21VKZo0E": "raid_room_shadow_boss_08",
    "yTPw0BD7": "raid_room_quest_flame.png",
    "2ty57Bcv": "bf050_raid02_fld.mp3",
    "N4XVE1uA": "raid_03_1_2.txt,0"
  },
  {
    "j28VNcUW": "4005",
    "0iAIR2LP": "火口の死闘",
    "7x3pPB2C": "3",
    "H9sx5D08": "6",
    "qY49LBjw": "1800",
    "KR6JacN8": "4",
    "HSRhkf70": "4003",
    "UJTR1h5r": "0",
    "Najhr8m6": "32500",
    "HTVh8a65": "4200",
    "b5yeVr61": "1:4",
    "qp37xTDh": "【連邦出向職員からの依頼】<br>私の友人がジランド火山で消息を絶ちました。<br>火山は現在、魔神の出現が確認されていますが、<br>彼女ならそれを退けることも可能なはずです。<br>しかし、万が一という可能性もあるため<br>速やかにこれを撃破し、<br>彼女の捜索をお願いいたします。<br>私の……大切な友人なので。<br>……それでは御武運を。",
    "WDUyI85C": "<color=242:215:145>目的</color>　闇司神レデュハーク討伐",
    "21VKZo0E": "raid_room_shadow_boss_06",
    "yTPw0BD7": "raid_room_quest_flame.png",
    "2ty57Bcv": "bf050_raid02_fld.mp3",
    "N4XVE1uA": "0,0"
  },
  {
    "j28VNcUW": "4006",
    "0iAIR2LP": "儂の息子を返せ！",
    "7x3pPB2C": "3",
    "H9sx5D08": "9",
    "qY49LBjw": "1800",
    "KR6JacN8": "4",
    "HSRhkf70": "4003",
    "UJTR1h5r": "0",
    "Najhr8m6": "32500",
    "HTVh8a65": "4200",
    "b5yeVr61": "1:5",
    "qp37xTDh": "【鋭い目つきの老婆からの依頼】<br>儂の息子は勇敢な勇敢な召喚師じゃった…。<br>それはもう、1人で魔神に挑み掛かるほどにな。<br>どうかお願いじゃ、殺された馬鹿息子に代わって<br>あの魔神を討伐してくだされ。<br>奴が死んだと聞くまでは、<br>儂は絶対に死ねん！<br>憎くて憎くて仕方が無いんじゃ。<br>必ず仕留めてくだされ…。",
    "WDUyI85C": "<color=242:215:145>目的</color>　覇妃霊メリオン討伐",
    "21VKZo0E": "raid_room_shadow_boss_02",
    "yTPw0BD7": "raid_room_quest_flame.png",
    "2ty57Bcv": "bf050_raid02_fld.mp3",
    "N4XVE1uA": "0,0"
  },
  {
    "j28VNcUW": "4007",
    "0iAIR2LP": "煉獄への誘い",
    "7x3pPB2C": "3",
    "H9sx5D08": "9",
    "qY49LBjw": "1800",
    "KR6JacN8": "4",
    "HSRhkf70": "4006",
    "UJTR1h5r": "0",
    "Najhr8m6": "33000",
    "HTVh8a65": "4200",
    "b5yeVr61": "1:5",
    "qp37xTDh": "【アクラス召喚院からの依頼】<br>魔神討伐隊付き連絡員のエリーゼです。<br>ミュール雪原にナルダ・デリアが出現しました！<br>他の魔神と比べても非常に危険な相手ですので、<br>速やかに討伐をお願いします。<br>どうか自信のある方だけが<br>討伐に挑んでください。<br>1人で戦いに行くような<br>無茶は厳禁ですからね！",
    "WDUyI85C": "<color=242:215:145>目的</color>　煉神ナルダ・デリア討伐",
    "21VKZo0E": "raid_room_shadow_boss_09",
    "yTPw0BD7": "raid_room_quest_flame.png",
    "2ty57Bcv": "bf050_raid02_fld.mp3",
    "N4XVE1uA": "raid_03_2_1.txt,0"
  },
  {
    "j28VNcUW": "4008",
    "0iAIR2LP": "湿地を焦がす吐息",
    "7x3pPB2C": "3",
    "H9sx5D08": "12",
    "qY49LBjw": "1800",
    "KR6JacN8": "4",
    "HSRhkf70": "4007",
    "UJTR1h5r": "0",
    "Najhr8m6": "33000",
    "HTVh8a65": "4200",
    "b5yeVr61": "1:5",
    "qp37xTDh": "【アクラス召喚院からの依頼】<br>これは防衛局からの依頼じゃよ。正規軍の一部を<br>セドリア湿地の調査に当たらせているんじゃが、<br>そこに炎纏竜が現れおってのー。<br>ひよっこどもには荷が勝ちすぎておるゆえ、<br>お主らに討伐を頼みたい。<br>フォフォフォ、油断せんことじゃ、<br>普通の炎纏竜より<br>ちぃとばかし強そうじゃぞ。",
    "WDUyI85C": "<color=242:215:145>目的</color>　炎纏竜クララダラス討伐",
    "21VKZo0E": "raid_room_shadow_boss_07",
    "yTPw0BD7": "raid_room_quest_flame.png",
    "2ty57Bcv": "bf050_raid02_fld.mp3",
    "N4XVE1uA": "raid_03_2_2.txt,0"
  },
  {
    "j28VNcUW": "4009",
    "0iAIR2LP": "絶対絶命、魔神ニ柱",
    "7x3pPB2C": "3",
    "H9sx5D08": "3",
    "qY49LBjw": "1800",
    "KR6JacN8": "4",
    "HSRhkf70": "4007",
    "UJTR1h5r": "0",
    "Najhr8m6": "34000",
    "HTVh8a65": "4400",
    "b5yeVr61": "1:5",
    "qp37xTDh": "【落ち着きの無い召喚師からの依頼】<br>大変だ！大変なんだよ！ヤバイって！<br>魔神同士がさ！つるんでやがんの！<br>メリなんとかとレデュなんとかがビビッときて、<br>グワーッときてババッとなって<br>あっという間にズガン！だ。<br>あんなん勝てっこないって！<br>いいか、絶対行くなよ？",
    "WDUyI85C": "<color=242:215:145>目的</color>　闇司神レデュハーク等討伐",
    "21VKZo0E": "raid_room_shadow_boss_06",
    "yTPw0BD7": "raid_room_quest_flame.png",
    "2ty57Bcv": "bf050_raid02_fld.mp3",
    "N4XVE1uA": "0,0"
  },
  {
    "j28VNcUW": "4010",
    "0iAIR2LP": "煉獄ここに極まる",
    "7x3pPB2C": "3",
    "H9sx5D08": "12",
    "qY49LBjw": "1800",
    "KR6JacN8": "4",
    "HSRhkf70": "4009",
    "UJTR1h5r": "0",
    "Najhr8m6": "34000",
    "HTVh8a65": "4400",
    "b5yeVr61": "1:5",
    "qp37xTDh": "【落ち着きの無い召喚師からの依頼】<br>ビックリだよ！パネェよ！たまげるって！<br>魔神がさ！炎纏竜と輝暴龍をさ！手懐けてんの！<br>炎纏竜がガーッときて、輝暴龍がズドンときて、<br>ナルダなんとかががボワッときてグワッてなって<br>あっという間にドカーン！だ。<br>いいか、絶対近付くなよ？",
    "WDUyI85C": "<color=242:215:145>目的</color>　炎纏竜クララダラス等討伐",
    "21VKZo0E": "raid_room_shadow_boss_07",
    "yTPw0BD7": "raid_room_quest_flame.png",
    "2ty57Bcv": "bf050_raid02_fld.mp3",
    "N4XVE1uA": "0,0"
  },
  {
    "j28VNcUW": "4011",
    "0iAIR2LP": "破壊の神と呼ばれる者",
    "7x3pPB2C": "3",
    "H9sx5D08": "6",
    "qY49LBjw": "1800",
    "KR6JacN8": "4",
    "HSRhkf70": "4010",
    "UJTR1h5r": "1",
    "Najhr8m6": "50000",
    "HTVh8a65": "5000",
    "b5yeVr61": "1:6",
    "qp37xTDh": "【アクラス召喚院からの依頼】<br>た、大変です！一大事です！あ、コホン。<br>魔神討伐隊付き連絡員のエリーゼです。<br>ジランド火山に破壊神ミストゾーグが<br>出現したという報告がありました！<br>あの魔神を放置すれば<br>周辺地域の召喚師全員が<br>危険に晒されてしまいます。<br>どうか、討伐をお願いします！",
    "WDUyI85C": "<color=242:215:145>目的</color>　破壊神ミストゾーグ討伐",
    "21VKZo0E": "raid_room_shadow_boss_10",
    "yTPw0BD7": "raid_room_quest_flame_red.png",
    "2ty57Bcv": "bf050_raid02_fld.mp3",
    "N4XVE1uA": "raid_03_3_1.txt,0"
  },
  {
    "j28VNcUW": "4012",
    "0iAIR2LP": "メダルラッシュLv3",
    "7x3pPB2C": "3",
    "H9sx5D08": "104",
    "qY49LBjw": "1800",
    "KR6JacN8": "4",
    "HSRhkf70": "",
    "UJTR1h5r": "0",
    "Najhr8m6": "50000",
    "HTVh8a65": "5000",
    "b5yeVr61": "1:18",
    "qp37xTDh": "【召喚術研究所からの依頼】<br>魔神討伐隊付き連絡員のエリーゼです。<br>召喚術研究所からメダンチ討伐依頼が出ました。<br>なんでも、この魔物の調査をすることで、<br>研究を更なる段階に進められるらしいです。<br>とにかく研究所の期待がすごくて、<br>報酬のブレイブメダルが<br>それはもう大奮発なんです！<br>ガンガン稼いじゃいましょう♪",
    "WDUyI85C": "<color=242:215:145>目的</color>　メダンチ討伐",
    "21VKZo0E": "raid_room_shadow_boss_13",
    "yTPw0BD7": "raid_room_quest_flame.png",
    "2ty57Bcv": "bf050_raid02_fld.mp3",
    "N4XVE1uA": "0,0"
  },
  {
    "j28VNcUW": "4013",
    "0iAIR2LP": "鋼鉄の鋏",
    "7x3pPB2C": "3",
    "H9sx5D08": "107",
    "qY49LBjw": "1800",
    "KR6JacN8": "4",
    "HSRhkf70": "",
    "UJTR1h5r": "0",
    "Najhr8m6": "30000",
    "HTVh8a65": "4000",
    "b5yeVr61": "1:6",
    "qp37xTDh": "【アクラス召喚院からの依頼】<br>魔神討伐隊付き連絡員のエリーゼです。<br>ゲートを介して異界と接続している影響か、<br>御使と呼ばれる異界の魔物がこちら側に<br>顕現しているという情報が入りました。<br>異界の民からの情報によると、<br>御使の存在は世界のバランスを<br>崩してしまう恐れがあります。<br>速やかな撃破をお願いします。",
    "WDUyI85C": "<color=242:215:145>目的</color>　フルメタルハガー討伐",
    "21VKZo0E": "raid_room_shadow_boss_14",
    "yTPw0BD7": "raid_room_quest_flame_green.png",
    "2ty57Bcv": "Seiken_RoM_07.mp3",
    "N4XVE1uA": "0,0"
  },
  {
    "j28VNcUW": "4014",
    "0iAIR2LP": "破壊を生む者",
    "7x3pPB2C": "3",
    "H9sx5D08": "110",
    "qY49LBjw": "1800",
    "KR6JacN8": "4",
    "HSRhkf70": "",
    "UJTR1h5r": "0",
    "Najhr8m6": "30000",
    "HTVh8a65": "4000",
    "b5yeVr61": "1:6",
    "qp37xTDh": "【アクラス召喚院からの依頼】<br>魔神討伐隊付き連絡員のエリーゼです。<br>異界の地より危険なゴーレム型の魔物が<br>グランガイアへ侵入したことを確認しました。<br>情報によると、敵は異界の地においても<br>危険度の高い魔物であり、<br>討伐にあたっては、<br>慎重な行動を要する<br>とのことです。",
    "WDUyI85C": "<color=242:215:145>目的</color>　デスファクトリー討伐",
    "21VKZo0E": "raid_room_shadow_boss_15",
    "yTPw0BD7": "raid_room_quest_flame_green.png",
    "2ty57Bcv": "logres_map.mp3",
    "N4XVE1uA": "0,0"
  },
  {
    "j28VNcUW": "4015",
    "0iAIR2LP": "咆哮する狂戦士",
    "7x3pPB2C": "3",
    "H9sx5D08": "112",
    "qY49LBjw": "1800",
    "KR6JacN8": "4",
    "HSRhkf70": "",
    "UJTR1h5r": "0",
    "Najhr8m6": "30000",
    "HTVh8a65": "4000",
    "b5yeVr61": "1:6",
    "qp37xTDh": "【アクラス召喚院からの依頼】<br>魔神討伐隊付き連絡員のエリーゼです。<br>先頃、異界より現れた狂戦士バルバトスですが、<br>召喚師を見つけては、無差別に襲うようになり、<br>被害が拡大しています。<br>そこで、狂戦士バルバトスの討伐を<br>お願いします。<br>恐ろしい相手ですので、<br>慎重に戦ってくださいね。",
    "WDUyI85C": "<color=242:215:145>目的</color>　バルバトス討伐",
    "21VKZo0E": "raid_room_shadow_boss_27",
    "yTPw0BD7": "raid_room_quest_flame_green.png",
    "2ty57Bcv": "ToD2_B1.mp3",
    "N4XVE1uA": "0,0"
  },
  {
    "j28VNcUW": "4016",
    "0iAIR2LP": "究極龍の暴動",
    "7x3pPB2C": "3",
    "H9sx5D08": "115",
    "qY49LBjw": "1800",
    "KR6JacN8": "4",
    "HSRhkf70": "",
    "UJTR1h5r": "0",
    "Najhr8m6": "30000",
    "HTVh8a65": "4000",
    "b5yeVr61": "1:6",
    "qp37xTDh": "【アクラス召喚院からの依頼】<br>魔神討伐隊付き連絡員のエリーゼです。<br>異界より出現した究極龍ビシャモンですが、召喚<br>師たちの攻撃に刺激されたのか、暴動がさらに激<br>化しているとの報告を次々と受けています。<br>被害も拡大していますので、<br>一刻も早く暴動を止めてください。<br>相手は異界の龍です……。<br>くれぐれも慎重に戦ってくださいね！",
    "WDUyI85C": "<color=242:215:145>目的</color>　究極龍ビシャモン討伐",
    "21VKZo0E": "raid_room_shadow_boss_34",
    "yTPw0BD7": "raid_room_quest_flame_green.png",
    "2ty57Bcv": "kuriyuni_Field.mp3",
    "N4XVE1uA": "0,0"
  },
  {
    "j28VNcUW": "5000",
    "0iAIR2LP": "猛き雷の果てに",
    "7x3pPB2C": "4",
    "H9sx5D08": "12",
    "qY49LBjw": "1800",
    "KR6JacN8": "4",
    "HSRhkf70": "",
    "UJTR1h5r": "0",
    "Najhr8m6": "55000",
    "HTVh8a65": "5500",
    "b5yeVr61": "1:7",
    "qp37xTDh": "【古株の召喚師からの依頼】<br>新米のお守りを頼まれちまったせいで<br>受けてた依頼が進みやしねー！<br>ということで、俺の代わりに剛雷獣討伐を<br>引き受けてくれる召喚師を探してる。<br>それなりに腕の立つ奴で、<br>誰か適任者を知らないか？<br>俺の知り合いはみんな、<br>出払っちまってるもんでね。",
    "WDUyI85C": "<color=242:215:145>目的</color>　剛雷獣ゴルヴォーグ討伐",
    "21VKZo0E": "raid_room_shadow_boss_16",
    "yTPw0BD7": "raid_room_quest_flame.png",
    "2ty57Bcv": "bf050_raid02_fld.mp3",
    "N4XVE1uA": "0,0"
  },
  {
    "j28VNcUW": "5001",
    "0iAIR2LP": "現れた瀑焔神！",
    "7x3pPB2C": "4",
    "H9sx5D08": "3",
    "qY49LBjw": "1800",
    "KR6JacN8": "4",
    "HSRhkf70": "5000",
    "UJTR1h5r": "0",
    "Najhr8m6": "55000",
    "HTVh8a65": "5500",
    "b5yeVr61": "1:7",
    "qp37xTDh": "【アクラス召喚院からの依頼】<br>魔神討伐隊付き連絡員のエリーゼです。<br>モイズ草原で甚大な被害を出している、<br>非常に危険な魔神の討伐依頼が来ています。<br>討伐対象は瀑焔神ユグレイア……。<br>これまでに戦ってきた魔神より<br>遥かに強力な相手のようです。<br>どうか心して挑んでください。<br>無茶してはダメですよ。",
    "WDUyI85C": "<color=242:215:145>目的</color>　瀑焔神ユグレイア討伐",
    "21VKZo0E": "raid_room_shadow_boss_17",
    "yTPw0BD7": "raid_room_quest_flame.png",
    "2ty57Bcv": "bf050_raid02_fld.mp3",
    "N4XVE1uA": "raid_04_1_1.txt,0"
  },
  {
    "j28VNcUW": "5002",
    "0iAIR2LP": "挟撃！迎撃！魔神二柱",
    "7x3pPB2C": "4",
    "H9sx5D08": "6",
    "qY49LBjw": "1800",
    "KR6JacN8": "4",
    "HSRhkf70": "5001",
    "UJTR1h5r": "0",
    "Najhr8m6": "56000",
    "HTVh8a65": "5600",
    "b5yeVr61": "1:7",
    "qp37xTDh": "【軽いノリの召喚師からの依頼】<br>あんた、魔神二柱相手に戦えるってホント？<br>いや、疑うわけじゃないんだけどさ、<br>俺の知ってる魔神は流石にムリかなーって。<br>でも、あんたなら、やれるかもって<br>思うんだけどさ、やってみない？<br>お！？やっちゃう！？<br>場所は火山だからヨロシク！",
    "WDUyI85C": "<color=242:215:145>目的</color>　堕神ヴァン・ルーシ等討伐",
    "21VKZo0E": "raid_room_shadow_boss_11",
    "yTPw0BD7": "raid_room_quest_flame.png",
    "2ty57Bcv": "bf050_raid02_fld.mp3",
    "N4XVE1uA": "raid_04_1_2.txt,0"
  },
  {
    "j28VNcUW": "5003",
    "0iAIR2LP": "グラノモスパーティー",
    "7x3pPB2C": "4",
    "H9sx5D08": "6",
    "qY49LBjw": "1800",
    "KR6JacN8": "4",
    "HSRhkf70": "5002",
    "UJTR1h5r": "0",
    "Najhr8m6": "56000",
    "HTVh8a65": "5600",
    "b5yeVr61": "1:7",
    "qp37xTDh": "【精悍な商売人からの依頼】<br>あー、なんかもう、詳しく言う必要も<br>無いかもしれないが、また頼まれてくれ。<br>あんたらのお陰でしばらく落ち着いてたんだが、<br>まぁた、わらわら出てきやがったんだ！<br>グラノモスがな！<br>なんだかもう、俺のことを<br>狙ってるんじゃないかと、<br>そう思えてきたぜ……。",
    "WDUyI85C": "<color=242:215:145>目的</color>　グラノモス討伐",
    "21VKZo0E": "raid_room_shadow_small_enemy_01",
    "yTPw0BD7": "raid_room_quest_flame.png",
    "2ty57Bcv": "bf050_raid02_fld.mp3",
    "N4XVE1uA": "0,0"
  },
  {
    "j28VNcUW": "5004",
    "0iAIR2LP": "雪峰に響き渡る咆哮",
    "7x3pPB2C": "4",
    "H9sx5D08": "9",
    "qY49LBjw": "1800",
    "KR6JacN8": "4",
    "HSRhkf70": "5003",
    "UJTR1h5r": "0",
    "Najhr8m6": "57000",
    "HTVh8a65": "5700",
    "b5yeVr61": "1:7",
    "qp37xTDh": "【学者肌の召喚師からの依頼】<br>雪原の調査中に見慣れない魔神に襲われた。<br>その姿はまるで燃え盛る地獄の番犬……。<br>雪のような毛皮と対照的な業炎を目にして、<br>私は思わず立ち尽くしてしまった。<br>美しさと、恐ろしさ、<br>私はどちらに反応して<br>動けなくなったのだろう？<br>君も体験してみるといい。",
    "WDUyI85C": "<color=242:215:145>目的</color>　白閻獣バルメディア討伐",
    "21VKZo0E": "raid_room_shadow_boss_18",
    "yTPw0BD7": "raid_room_quest_flame.png",
    "2ty57Bcv": "bf050_raid02_fld.mp3",
    "N4XVE1uA": "raid_04_2_1.txt,0"
  },
  {
    "j28VNcUW": "5005",
    "0iAIR2LP": "煉獄よりの使者",
    "7x3pPB2C": "4",
    "H9sx5D08": "12",
    "qY49LBjw": "1800",
    "KR6JacN8": "4",
    "HSRhkf70": "5004",
    "UJTR1h5r": "0",
    "Najhr8m6": "57000",
    "HTVh8a65": "5700",
    "b5yeVr61": "1:7",
    "qp37xTDh": "【青ざめた顔の召喚師からの依頼】<br>煉神ナルダ・デリアの討伐に行ったんだが……。<br>はっきり言って、俺は今ものすごく後悔してる。<br>俺程度の召喚師じゃ、全く刃が立たなくてな、<br>数分間持ちこたえるのが精一杯だったよ。<br>生きて帰ることができた<br>俺の使命は、奴の討伐を<br>俺より強い召喚師に<br>託すことだと思う。",
    "WDUyI85C": "<color=242:215:145>目的</color>　煉神ナルダ・デリア討伐",
    "21VKZo0E": "raid_room_shadow_boss_09",
    "yTPw0BD7": "raid_room_quest_flame.png",
    "2ty57Bcv": "bf050_raid02_fld.mp3",
    "N4XVE1uA": "raid_04_2_2.txt,0"
  },
  {
    "j28VNcUW": "5006",
    "0iAIR2LP": "実在する悪夢",
    "7x3pPB2C": "4",
    "H9sx5D08": "6",
    "qY49LBjw": "1800",
    "KR6JacN8": "4",
    "HSRhkf70": "5005",
    "UJTR1h5r": "0",
    "Najhr8m6": "58000",
    "HTVh8a65": "5800",
    "b5yeVr61": "1:8",
    "qp37xTDh": "【顔色の悪い青年からの依頼】<br>なんてことだ……。悪夢のような体験だ……。<br>誰も信じてくれないが俺は実際に見たんだ！<br>火山に誰も見たことの無い魔物が現れたのをな！<br>アレは絶対見間違いなんかじゃない！<br>新種の魔物に襲われたんだ！<br>もしまた遭遇したらと思うと<br>不安で不安で夜も眠れない……。<br>頼む！俺の眠りを取り戻してくれ！",
    "WDUyI85C": "<color=242:215:145>目的</color>　合魔獣グルドギア討伐",
    "21VKZo0E": "raid_room_shadow_boss_20",
    "yTPw0BD7": "raid_room_quest_flame.png",
    "2ty57Bcv": "bf050_raid02_fld.mp3",
    "N4XVE1uA": "0,0"
  },
  {
    "j28VNcUW": "5007",
    "0iAIR2LP": "死地からの手紙",
    "7x3pPB2C": "4",
    "H9sx5D08": "9",
    "qY49LBjw": "1800",
    "KR6JacN8": "4",
    "HSRhkf70": "5006",
    "UJTR1h5r": "0",
    "Najhr8m6": "58000",
    "HTVh8a65": "5800",
    "b5yeVr61": "1:8",
    "qp37xTDh": "【瀕死の召喚師からの依頼】<br>この依頼が他の魔討隊に届く頃には、<br>今度こそ俺の命は失われているかもしれない。<br>どうやら白闇獣と破壊神に挟撃されたようだ。<br>ただでさえ強力な魔神が２体だ、<br>俺の救出は諦めてくれていい、<br>その代わりに、必ず、<br>必ず奴らを倒してくれ……。",
    "WDUyI85C": "<color=242:215:145>目的</color>　破壊神ミストゾーグ等討伐",
    "21VKZo0E": "raid_room_shadow_boss_10",
    "yTPw0BD7": "raid_room_quest_flame.png",
    "2ty57Bcv": "bf050_raid02_fld.mp3",
    "N4XVE1uA": "0,0"
  },
  {
    "j28VNcUW": "5008",
    "0iAIR2LP": "本体を叩け！",
    "7x3pPB2C": "4",
    "H9sx5D08": "3",
    "qY49LBjw": "1800",
    "KR6JacN8": "4",
    "HSRhkf70": "5007",
    "UJTR1h5r": "1",
    "Najhr8m6": "60000",
    "HTVh8a65": "6000",
    "b5yeVr61": "1:9",
    "qp37xTDh": "【アクラス召喚院からの依頼】<br>魔神討伐隊付き連絡員のエリーゼです。<br>取り急ぎ緊急の依頼を行わせていただきます。<br>ユグレイアの本体が姿を現し、モイズ草原にて<br>召喚師を襲っているという情報が入りました。<br>この依頼を受けた魔討隊は<br>速やかに討伐に向かってください。<br>……ここが正念場ですよ、<br>どうかご無事で！",
    "WDUyI85C": "<color=242:215:145>目的</color>  瀑焔極神ユグレイア討伐",
    "21VKZo0E": "raid_room_shadow_boss_17",
    "yTPw0BD7": "raid_room_quest_flame_red.png",
    "2ty57Bcv": "bf050_raid02_fld.mp3",
    "N4XVE1uA": "raid_04_3_1.txt,0"
  },
  {
    "j28VNcUW": "5010",
    "0iAIR2LP": "メダルラッシュLv4",
    "7x3pPB2C": "4",
    "H9sx5D08": "104",
    "qY49LBjw": "1800",
    "KR6JacN8": "4",
    "HSRhkf70": "",
    "UJTR1h5r": "0",
    "Najhr8m6": "60000",
    "HTVh8a65": "6000",
    "b5yeVr61": "1:28",
    "qp37xTDh": "【召喚術研究所からの依頼】<br>魔神討伐隊付き連絡員のエリーゼです。<br>お待ちかねのメダンチ討伐依頼ですよ！<br>メダンチの調査はとても重要だそうで、<br>報酬のブレイブメダルの多さからも<br>研究所の意気込みが<br>ヒシヒシと伝わってきますね！<br>思いっきり稼いでくださいね♪",
    "WDUyI85C": "<color=242:215:145>目的</color>　メダンチ討伐",
    "21VKZo0E": "raid_room_shadow_boss_13",
    "yTPw0BD7": "raid_room_quest_flame.png",
    "2ty57Bcv": "bf050_raid02_fld.mp3",
    "N4XVE1uA": "0,0"
  },
  {
    "j28VNcUW": "6000",
    "0iAIR2LP": "沼が森になった話",
    "7x3pPB2C": "5",
    "H9sx5D08": "12",
    "qY49LBjw": "1800",
    "KR6JacN8": "4",
    "HSRhkf70": "",
    "UJTR1h5r": "0",
    "Najhr8m6": "65000",
    "HTVh8a65": "6500",
    "b5yeVr61": "1:9",
    "qp37xTDh": "【若い植物学者からの依頼】<br>今回は湿地が一夜にして森に変わったという<br>怪現象の調査をお願いしたいと思います。<br>これはきっと、植物型の魔物が<br>大集結しているに違いありません！<br>調査を行い話をお聞かせください！",
    "WDUyI85C": "<color=242:215:145>目的</color>　大妖樹メル・メル討伐",
    "21VKZo0E": "raid_room_shadow_boss_04",
    "yTPw0BD7": "raid_room_quest_flame.png",
    "2ty57Bcv": "bf050_raid02_fld.mp3",
    "N4XVE1uA": "0,0"
  },
  {
    "j28VNcUW": "6001",
    "0iAIR2LP": "暁に浮かぶ竜の影",
    "7x3pPB2C": "5",
    "H9sx5D08": "6",
    "qY49LBjw": "1800",
    "KR6JacN8": "4",
    "HSRhkf70": "6000",
    "UJTR1h5r": "0",
    "Najhr8m6": "65000",
    "HTVh8a65": "6500",
    "b5yeVr61": "1:9",
    "qp37xTDh": "【アクラス召喚院からの依頼】<br>これは防衛局からの内密の依頼じゃ。<br>強力な魔神を倒した跡地が魔物たちの<br>縄張り争いの場となってしまったんじゃが、<br>最終的に勝ち残ったのが厄介な相手でのう。<br>色々事情があって正規軍ではなく<br>お主らに討伐を頼みたい。<br>不安が広まるといかんので、<br>あまり吹聴せんようにな。",
    "WDUyI85C": "<color=242:215:145>目的</color>　黒邪龍ジライエン討伐",
    "21VKZo0E": "raid_room_shadow_boss_19",
    "yTPw0BD7": "raid_room_quest_flame.png",
    "2ty57Bcv": "bf050_raid02_fld.mp3",
    "N4XVE1uA": "raid_05_1_1.txt,0"
  },
  {
    "j28VNcUW": "6002",
    "0iAIR2LP": "増し続ける脅威",
    "7x3pPB2C": "5",
    "H9sx5D08": "3",
    "qY49LBjw": "1800",
    "KR6JacN8": "4",
    "HSRhkf70": "6001",
    "UJTR1h5r": "0",
    "Najhr8m6": "66000",
    "HTVh8a65": "6600",
    "b5yeVr61": "1:9",
    "qp37xTDh": "【アクラス召喚院からの依頼】<br>魔神討伐隊付き連絡員のエリーゼです。<br>これは剛雷獣と炎纏竜の討伐依頼なのですが、<br>これまで確認されていた個体とは比べ物に<br>ならないほどの強さが確認されています。<br>どうか、大したことの無い相手と<br>侮らずに、準備万端整えての<br>出撃をお願いします。",
    "WDUyI85C": "<color=242:215:145>目的</color>  剛雷獣ゴルヴォーグ等討伐",
    "21VKZo0E": "raid_room_shadow_boss_16",
    "yTPw0BD7": "raid_room_quest_flame.png",
    "2ty57Bcv": "bf050_raid02_fld.mp3",
    "N4XVE1uA": "raid_05_1_2.txt,0"
  },
  {
    "j28VNcUW": "6003",
    "0iAIR2LP": "プロのけじめ",
    "7x3pPB2C": "5",
    "H9sx5D08": "9",
    "qY49LBjw": "1800",
    "KR6JacN8": "4",
    "HSRhkf70": "6002",
    "UJTR1h5r": "0",
    "Najhr8m6": "66000",
    "HTVh8a65": "6600",
    "b5yeVr61": "1:9",
    "qp37xTDh": "【療養中の召喚師からの依頼】<br>まずは私の尻拭いをさせてしまうことを詫びる。<br>これは私が討ち漏らした魔獣の討伐依頼だ。<br>私の隊は先日、雪原で３頭の魔獣と遭遇し、<br>１頭は仕留めたのだが、<br>残り２頭に挟撃されてしまい……。<br>頼む。まともに動けない我々に<br>代わって魔獣の脅威を払ってくれ！",
    "WDUyI85C": "<color=242:215:145>目的</color>  合魔獣グルドギア等討伐",
    "21VKZo0E": "raid_room_shadow_boss_20",
    "yTPw0BD7": "raid_room_quest_flame.png",
    "2ty57Bcv": "bf050_raid02_fld.mp3",
    "N4XVE1uA": "0,0"
  },
  {
    "j28VNcUW": "6004",
    "0iAIR2LP": "汚名返上",
    "7x3pPB2C": "5",
    "H9sx5D08": "13",
    "qY49LBjw": "1800",
    "KR6JacN8": "4",
    "HSRhkf70": "6003",
    "UJTR1h5r": "0",
    "Najhr8m6": "67000",
    "HTVh8a65": "6700",
    "b5yeVr61": "1:9",
    "qp37xTDh": "【アクラス召喚院からの依頼】<br>これは防衛局からの特別な依頼だ。<br>例の魔神を討伐した召喚師たちに回してくれ。<br>というのも、もう１体新たな魔神が現れ、<br>互いに連携する動きが見られてな。<br>確実に討伐するためには、<br>せめて瀑焔極神に慣れている者に<br>頼みたいというわけだ。",
    "WDUyI85C": "<color=242:215:145>目的</color>  瀑焔極神ユグレイア等討伐",
    "21VKZo0E": "raid_room_shadow_boss_17",
    "yTPw0BD7": "raid_room_quest_flame.png",
    "2ty57Bcv": "bf050_raid02_fld.mp3",
    "N4XVE1uA": "raid_05_2_1.txt,0"
  },
  {
    "j28VNcUW": "6005",
    "0iAIR2LP": "湿地の謎を追え",
    "7x3pPB2C": "5",
    "H9sx5D08": "12",
    "qY49LBjw": "1800",
    "KR6JacN8": "4",
    "HSRhkf70": "6004",
    "UJTR1h5r": "0",
    "Najhr8m6": "67000",
    "HTVh8a65": "6700",
    "b5yeVr61": "1:9",
    "qp37xTDh": "【堅苦しい研究員からの依頼】<br>初めて依頼を出させていただきます。<br>要点はセドリア湿地の調査でございます。<br>あの湿原には幾度か目撃されているものの、<br>情報の無い未知の何者かが存在いたします。<br>つまり、その何者かを発見し、<br>生態を調べ、サンプルを持ち帰る。<br>これが依頼の内容でございます。<br>どうかご協力お願いいたします。",
    "WDUyI85C": "<color=242:215:145>目的</color>  怪樹クイーンシプラ討伐",
    "21VKZo0E": "raid_room_shadow_boss_22",
    "yTPw0BD7": "raid_room_quest_flame.png",
    "2ty57Bcv": "bf050_raid02_fld.mp3",
    "N4XVE1uA": "raid_05_2_2.txt,0"
  },
  {
    "j28VNcUW": "6006",
    "0iAIR2LP": "運命を変える戦い",
    "7x3pPB2C": "5",
    "H9sx5D08": "3",
    "qY49LBjw": "1800",
    "KR6JacN8": "4",
    "HSRhkf70": "6005",
    "UJTR1h5r": "0",
    "Najhr8m6": "68000",
    "HTVh8a65": "6800",
    "b5yeVr61": "1:9",
    "qp37xTDh": "【陰気な占い師からの依頼】<br>あなた、よくない相が出ているわ。<br>このままでは些細な事故でお陀仏よ。<br>でもね、私が良いことを教えてあげるわ。<br>そう、それは運命を変える方法なの。<br>危険な草原が見えるわ。<br>そこでの戦いに打ち勝てば……<br>運気は開かれる。絶対に。",
    "WDUyI85C": "<color=242:215:145>目的</color>　黒邪龍ジライエン等討伐",
    "21VKZo0E": "raid_room_shadow_boss_19",
    "yTPw0BD7": "raid_room_quest_flame.png",
    "2ty57Bcv": "bf050_raid02_fld.mp3",
    "N4XVE1uA": "0,0"
  },
  {
    "j28VNcUW": "6007",
    "0iAIR2LP": "雪原への出撃準備",
    "7x3pPB2C": "5",
    "H9sx5D08": "9",
    "qY49LBjw": "1800",
    "KR6JacN8": "4",
    "HSRhkf70": "6006",
    "UJTR1h5r": "0",
    "Najhr8m6": "68000",
    "HTVh8a65": "6800",
    "b5yeVr61": "1:9",
    "qp37xTDh": "【老いた医師からの依頼】<br>わしのかみさんはな、召喚師だったんじゃ。<br>引退したのはいいんじゃが、まだまだいけると<br>言って聞かなくて困っておるところなんじゃ。<br>雪原には危険な魔神が出没中じゃというに……<br>ん？5年前？何の話じゃ？<br>ここまで言えばわかるじゃろ？<br>魔神を先に討伐しておいてくれ！<br>ちなみにかみさんは特訓中じゃ。",
    "WDUyI85C": "<color=242:215:145>目的</color>　蒼惶龍エストレイト討伐",
    "21VKZo0E": "raid_room_shadow_boss_23",
    "yTPw0BD7": "raid_room_quest_flame.png",
    "2ty57Bcv": "bf050_raid02_fld.mp3",
    "N4XVE1uA": "0,0"
  },
  {
    "j28VNcUW": "6008",
    "0iAIR2LP": "魔神迎撃作戦",
    "7x3pPB2C": "5",
    "H9sx5D08": "13",
    "qY49LBjw": "1800",
    "KR6JacN8": "4",
    "HSRhkf70": "6007",
    "UJTR1h5r": "0",
    "Najhr8m6": "69000",
    "HTVh8a65": "6900",
    "b5yeVr61": "1:9",
    "qp37xTDh": "【アクラス召喚院からの依頼】<br>魔神討伐隊付き連絡員のエリーゼです。<br>ご存知の通り、現在大規模な魔神の侵攻が<br>確認されており、非常に危険な状況です。<br>これは特に危険度が高いと想定される魔神、<br>暗禍狂神アルケムの討伐依頼です。<br>他の隊が敵を分断する予定ですが、<br>どうか万全の態勢を整えて、<br>持ち場に向かってください。",
    "WDUyI85C": "<color=242:215:145>目的</color>　暗禍狂神アルケム討伐",
    "21VKZo0E": "raid_room_shadow_boss_24",
    "yTPw0BD7": "raid_room_quest_flame.png",
    "2ty57Bcv": "bf050_raid02_fld.mp3",
    "N4XVE1uA": "raid_05_3_1.txt,raid_05_3_2.txt"
  },
  {
    "j28VNcUW": "6009",
    "0iAIR2LP": "悪夢再び",
    "7x3pPB2C": "5",
    "H9sx5D08": "14",
    "qY49LBjw": "1800",
    "KR6JacN8": "4",
    "HSRhkf70": "2003,3000,3003,3004,3005,3008,3009,4002,4004,4005,4008,6008",
    "UJTR1h5r": "0",
    "Najhr8m6": "70000",
    "HTVh8a65": "7000",
    "b5yeVr61": "1:10",
    "qp37xTDh": "【アクラス召喚院からの依頼】<br>魔神討伐隊付き連絡員のエリーゼです。<br>再び大量の魔神が侵攻してきました！<br>現在、オーン様は別任務で不在のため<br>今回は暗禍狂神アルケムだけでなく<br>他の魔神も同時に倒してください。<br>非常に危険な任務なので<br>無理だけはしないでくださいね……",
    "WDUyI85C": "<color=242:215:145>目的</color>　暗禍狂神アルケム等討伐",
    "21VKZo0E": "raid_room_shadow_boss_24",
    "yTPw0BD7": "raid_room_quest_flame.png",
    "2ty57Bcv": "bf050_raid02_fld.mp3",
    "N4XVE1uA": "0,0"
  },
  {
    "j28VNcUW": "6010",
    "0iAIR2LP": "立ちふさがる武神",
    "7x3pPB2C": "5",
    "H9sx5D08": "13",
    "qY49LBjw": "1800",
    "KR6JacN8": "1",
    "HSRhkf70": "6008",
    "UJTR1h5r": "1",
    "Najhr8m6": "60000",
    "HTVh8a65": "6000",
    "b5yeVr61": "1:5",
    "qp37xTDh": "【アクラス召喚院からの依頼】<br>魔神討伐隊付き連絡員のエリーゼです。<br>今回の任務地はイシュグリアとなります。<br>一部の方のみへの極秘任務なので<br>絶対に口外しないでくださいね。<br>もちろんノアにもですよ……。<br>イシュグリア入口に魔神が<br>立ちふさがり続けているようです。<br>こちらの対応をお願いします。<br><color=255:0:0>※一人専用クエスト</color>　",
    "WDUyI85C": "<color=242:215:145>目的</color>　闘魔武神シュスイ討伐",
    "21VKZo0E": "raid_room_shadow_boss_25",
    "yTPw0BD7": "raid_room_quest_flame_red.png",
    "2ty57Bcv": "bf050_raid02_fld.mp3",
    "N4XVE1uA": "0,0"
  },
  {
    "j28VNcUW": "6011",
    "0iAIR2LP": "ジランド火山を覆う影",
    "7x3pPB2C": "5",
    "H9sx5D08": "6",
    "qY49LBjw": "1800",
    "KR6JacN8": "4",
    "HSRhkf70": "6010",
    "UJTR1h5r": "0",
    "Najhr8m6": "70000",
    "HTVh8a65": "7000",
    "b5yeVr61": "1:10",
    "qp37xTDh": "【質実剛健な召喚師からの依頼】<br>緊急事態だ、現地から直接依頼を送る。<br>イシュグリアの魔神に気を取られてる間に<br>元から居た連中の集結を許してしまったようだ。<br>至急援軍を送られたし、今のうちに叩くぞ！",
    "WDUyI85C": "<color=242:215:145>目的</color>　煉神ナルダ・デリア等討伐",
    "21VKZo0E": "raid_room_shadow_boss_09",
    "yTPw0BD7": "raid_room_quest_flame.png",
    "2ty57Bcv": "bf050_raid02_fld.mp3",
    "N4XVE1uA": "0,0"
  },
  {
    "j28VNcUW": "6012",
    "0iAIR2LP": "敵と氷に囲まれて",
    "7x3pPB2C": "5",
    "H9sx5D08": "9",
    "qY49LBjw": "1800",
    "KR6JacN8": "4",
    "HSRhkf70": "6010",
    "UJTR1h5r": "0",
    "Najhr8m6": "70000",
    "HTVh8a65": "7000",
    "b5yeVr61": "1:10",
    "qp37xTDh": "【負傷した熟練召喚師からの依頼】<br>救難依頼とは俺もヤキが回ったもんだぜ。<br>挟撃を避けようとして崖から落っこっちまった。<br>普段から経験の浅い連中に雪原での戦いは<br>足元に気を付けるよう言っててこのザマだ。<br>敵は確認できただけで4体、<br>陽動を掛けて各個撃破が基本だな。<br>できれば俺が凍え死ぬ前に<br>片を付けてくれると助かるぜ。",
    "WDUyI85C": "<color=242:215:145>目的</color>  瀑焔極神ユグレイア等討伐",
    "21VKZo0E": "raid_room_shadow_boss_17",
    "yTPw0BD7": "raid_room_quest_flame.png",
    "2ty57Bcv": "bf050_raid02_fld.mp3",
    "N4XVE1uA": "0,0"
  },
  {
    "j28VNcUW": "6020",
    "0iAIR2LP": "猛襲する狂戦士",
    "7x3pPB2C": "5",
    "H9sx5D08": "113",
    "qY49LBjw": "1800",
    "KR6JacN8": "4",
    "HSRhkf70": "",
    "UJTR1h5r": "0",
    "Najhr8m6": "65000",
    "HTVh8a65": "6500",
    "b5yeVr61": "1:9",
    "qp37xTDh": "【アクラス召喚院からの依頼】<br>魔神討伐隊付き連絡員のエリーゼです。<br>き、緊急依頼です！！<br>狂戦士バルバトスが召喚院の存在を知り、ランド<br>ールにやって来ようとしているらしいです！<br>もちろんそんなことになったら、<br>大変なことになってしまいます！！<br>そうなる前に、狂戦士バルバトスを<br>至急討伐してください！！",
    "WDUyI85C": "<color=242:215:145>目的</color>　バルバトス討伐",
    "21VKZo0E": "raid_room_shadow_boss_27",
    "yTPw0BD7": "raid_room_quest_flame_green.png",
    "2ty57Bcv": "ToD2_B1.mp3",
    "N4XVE1uA": "0,0"
  },
  {
    "j28VNcUW": "6021",
    "0iAIR2LP": "究極龍の擾乱",
    "7x3pPB2C": "5",
    "H9sx5D08": "116",
    "qY49LBjw": "1800",
    "KR6JacN8": "4",
    "HSRhkf70": "",
    "UJTR1h5r": "0",
    "Najhr8m6": "65000",
    "HTVh8a65": "6500",
    "b5yeVr61": "1:9",
    "qp37xTDh": "【アクラス召喚院からの依頼】<br>魔神討伐隊付き連絡員のエリーゼです。<br>き、緊急依頼です！<br>究極龍ビシャモンが帝都ランドールに<br>近づきつつあるとのことです。<br>あんな凶悪な龍が、ランドールで<br>暴れたりしたら……。<br>最悪の事態が起こる前に<br>早急に討伐をお願いします！！",
    "WDUyI85C": "<color=242:215:145>目的</color>　究極龍ビシャモン討伐",
    "21VKZo0E": "raid_room_shadow_boss_34",
    "yTPw0BD7": "raid_room_quest_flame_green.png",
    "2ty57Bcv": "kuriyuni_Field.mp3",
    "N4XVE1uA": "0,0"
  },
  {
    "j28VNcUW": "7000",
    "0iAIR2LP": "武神が与えし試練",
    "7x3pPB2C": "6",
    "H9sx5D08": "14",
    "qY49LBjw": "1800",
    "KR6JacN8": "4",
    "HSRhkf70": "",
    "UJTR1h5r": "0",
    "Najhr8m6": "75000",
    "HTVh8a65": "7500",
    "b5yeVr61": "1:10",
    "qp37xTDh": "【アクラス召喚院からの依頼】<br>魔神討伐隊付き連絡員のエリーゼです。<br>先ほど倒した魔神が「我と闘う資格はあるな。<br>いいだろう。我の本気を見せてやろう」と<br>待ち構えているようです。<br>今後の現地での調査のためにも<br>こちらの対応をお願いします。<br>すごくしつこい魔神のようなので<br>注意してくださいね！",
    "WDUyI85C": "<color=242:215:145>目的</color>　闘魔武神シュスイ討伐",
    "21VKZo0E": "raid_room_shadow_boss_25",
    "yTPw0BD7": "raid_room_quest_flame.png",
    "2ty57Bcv": "bf050_raid02_fld.mp3",
    "N4XVE1uA": "0,0"
  },
  {
    "j28VNcUW": "7001",
    "0iAIR2LP": "迫り来る雷鎧の脅威",
    "7x3pPB2C": "6",
    "H9sx5D08": "14",
    "qY49LBjw": "1800",
    "KR6JacN8": "4",
    "HSRhkf70": "",
    "UJTR1h5r": "0",
    "Najhr8m6": "75000",
    "HTVh8a65": "7500",
    "b5yeVr61": "1:10",
    "qp37xTDh": "【アクラス召喚院からの依頼】<br>魔神討伐隊付き連絡員のエリーゼです。<br>不思議な機械が高速で駆け抜ける様が確認されま<br>した。召喚院からは緊急討伐命令が出ています。<br>どうやら非常に危険な存在のようですね。<br>無理はせず危険を感じたらすぐに<br>撤退してくださいね！<br>きっと長くその場所にいることは<br>ないと思いますから……。",
    "WDUyI85C": "<color=242:215:145>目的</color>　業滅雷鎧ベイオルグ討伐",
    "21VKZo0E": "raid_room_shadow_boss_26",
    "yTPw0BD7": "raid_room_quest_flame.png",
    "2ty57Bcv": "bf050_raid02_fld.mp3",
    "N4XVE1uA": "0,0"
  },
  {
    "j28VNcUW": "7002",
    "0iAIR2LP": "竜覇の挑戦状",
    "7x3pPB2C": "6",
    "H9sx5D08": "14",
    "qY49LBjw": "1800",
    "KR6JacN8": "4",
    "HSRhkf70": "",
    "UJTR1h5r": "0",
    "Najhr8m6": "75000",
    "HTVh8a65": "7500",
    "b5yeVr61": "1:10",
    "qp37xTDh": "【アクラス召喚院からの依頼】<br>魔神討伐隊付き連絡員のエリーゼです。<br>探索中の召喚師から、竜の頭を持つ魔神より<br>伝言を受けたという報告がありました。<br>「ダーム山岳にてバリュオン様が待っている。<br>お前の力を試すためにな」<br>恐ろしい力を持つ魔神のようです。<br>もし行かれる方は<br>十分に注意してください。",
    "WDUyI85C": "<color=242:215:145>目的</color>　煌竜覇神バリュオン討伐",
    "21VKZo0E": "raid_room_shadow_boss_28",
    "yTPw0BD7": "raid_room_quest_flame.png",
    "2ty57Bcv": "bf050_raid02_fld.mp3",
    "N4XVE1uA": "0,0"
  },
  {
    "j28VNcUW": "7003",
    "0iAIR2LP": "依頼中にあった怖い話",
    "7x3pPB2C": "6",
    "H9sx5D08": "14",
    "qY49LBjw": "1800",
    "KR6JacN8": "4",
    "HSRhkf70": "",
    "UJTR1h5r": "0",
    "Najhr8m6": "75000",
    "HTVh8a65": "7500",
    "b5yeVr61": "1:10",
    "qp37xTDh": "【顔面蒼白な召喚師】<br>この前、依頼を受けた時の話なんですけどね。<br>目的の魔獣がすんなり倒せたわけですよ。<br>それで、ふと見ると、女の子がいるんですよ。<br>場違いな所に女の子がいるなって。でも…<br>考えたらおかしいじゃないですか。<br>そうしたらその魔神が言うんです。<br>「あの人を呼んできてよ。<br>違うボクが遊びに来たよ」って。",
    "WDUyI85C": "<color=242:215:145>目的</color>　禍魔刻神アム＝ユノス討伐",
    "21VKZo0E": "raid_room_shadow_boss_29",
    "yTPw0BD7": "raid_room_quest_flame.png",
    "2ty57Bcv": "bf050_raid02_fld.mp3",
    "N4XVE1uA": "0,0"
  },
  {
    "j28VNcUW": "7004",
    "0iAIR2LP": "迫り来る樹壁",
    "7x3pPB2C": "6",
    "H9sx5D08": "14",
    "qY49LBjw": "1800",
    "KR6JacN8": "4",
    "HSRhkf70": "",
    "UJTR1h5r": "0",
    "Najhr8m6": "75000",
    "HTVh8a65": "7500",
    "b5yeVr61": "1:10",
    "qp37xTDh": "【アクラス召喚院からの依頼】<br>き、緊急事態です！この依頼を見た召喚師は<br>すぐに調査拠点の防衛に出向いてください！<br>魔神が操る巨大な樹木が重なり合い壁となって<br>調査拠点に迫ってきています！<br>魔神は異界の技術を操っており、<br>現場は非常に危険な状態です！<br>準備出来次第急行し、力を合わせて<br>魔神の侵攻を阻止してください！",
    "WDUyI85C": "<color=242:215:145>目的</color>　魔蟲樹神モルデリム討伐",
    "21VKZo0E": "raid_room_shadow_boss_30",
    "yTPw0BD7": "raid_room_quest_flame.png",
    "2ty57Bcv": "bf050_raid02_fld.mp3",
    "N4XVE1uA": "0,0"
  },
  {
    "j28VNcUW": "7005",
    "0iAIR2LP": "主無き依頼",
    "7x3pPB2C": "6",
    "H9sx5D08": "14",
    "qY49LBjw": "1800",
    "KR6JacN8": "4",
    "HSRhkf70": "",
    "UJTR1h5r": "0",
    "Najhr8m6": "75000",
    "HTVh8a65": "7500",
    "b5yeVr61": "1:10",
    "qp37xTDh": "【アクラス召喚院からの依頼】<br>魔神討伐隊付き連絡員のエリーゼです。<br>イシュグリアを調査中の召喚師から<br>至急の救援依頼が届いています。<br>腕の立つ召喚師を１人でも多く現地に<br>招集してほしいとのことですが…。<br>おかしいですね、具体的なことが<br>何一つ書かれていないんです。<br>なんだか不審な依頼ですね…。",
    "WDUyI85C": "<color=242:215:145>目的</color>　闇魔仙神モーラ討伐",
    "21VKZo0E": "raid_room_shadow_boss_31",
    "yTPw0BD7": "raid_room_quest_flame.png",
    "2ty57Bcv": "bf050_raid02_fld.mp3",
    "N4XVE1uA": "0,0"
  },
  {
    "j28VNcUW": "7006",
    "0iAIR2LP": "報復の罠",
    "7x3pPB2C": "6",
    "H9sx5D08": "14",
    "qY49LBjw": "1800",
    "KR6JacN8": "4",
    "HSRhkf70": "",
    "UJTR1h5r": "0",
    "Najhr8m6": "75000",
    "HTVh8a65": "7500",
    "b5yeVr61": "1:10",
    "qp37xTDh": "【熟練の召喚師からの依頼】<br>俺の後輩が冒険の最中に消息不明になった。<br>手がかりが少なすぎて捜索が困難な状況だ。<br>悪いが手の空いてる奴は協力してほしい。<br>ただ、気になることがあるんで注意してくれ。<br>あいつ、いなくなる前に妙なことを<br>言っていたらしいんだ。<br>「神徒様が呼んでいる」ってな。<br>嫌な予感がしやがるぜ。",
    "WDUyI85C": "<color=242:215:145>目的</color>　腐堕狂神メロード討伐",
    "21VKZo0E": "raid_room_shadow_boss_32",
    "yTPw0BD7": "raid_room_quest_flame.png",
    "2ty57Bcv": "bf050_raid02_fld.mp3",
    "N4XVE1uA": "0,0"
  },
  {
    "j28VNcUW": "7007",
    "0iAIR2LP": "未踏破領域の封印",
    "7x3pPB2C": "6",
    "H9sx5D08": "14",
    "qY49LBjw": "1800",
    "KR6JacN8": "4",
    "HSRhkf70": "",
    "UJTR1h5r": "0",
    "Najhr8m6": "75000",
    "HTVh8a65": "7500",
    "b5yeVr61": "1:10",
    "qp37xTDh": "【アクラス召喚院からの依頼】<br>魔神討伐隊付き連絡員のエリーゼです。<br>イシュグリアには我々が足を踏み入れていない<br>地域がまだまだ多く存在しています。<br>そうした地域に調査隊を派遣しているのですが<br>封印により立ち入れない<br>遺跡らしき構造物を発見しました。<br>どうか封印を施している魔神の<br>討伐をよろしくお願いします。",
    "WDUyI85C": "<color=242:215:145>目的</color>　封魔導神カロン討伐",
    "21VKZo0E": "raid_room_shadow_boss_33",
    "yTPw0BD7": "raid_room_quest_flame.png",
    "2ty57Bcv": "bf050_raid02_fld.mp3",
    "N4XVE1uA": "0,0"
  },
  {
    "j28VNcUW": "7008",
    "0iAIR2LP": "修羅界地上に顕現",
    "7x3pPB2C": "6",
    "H9sx5D08": "14",
    "qY49LBjw": "1800",
    "KR6JacN8": "4",
    "HSRhkf70": "",
    "UJTR1h5r": "0",
    "Najhr8m6": "80000",
    "HTVh8a65": "8000",
    "b5yeVr61": "1:11",
    "qp37xTDh": "【アクラス召喚院からの依頼】<br>魔神討伐隊付き連絡員のエリーゼです。<br>最悪の事態です！イシュグリアの魔神たちが<br>山岳地帯で互いに遭遇戦を繰り広げています。<br>グランガイアが焦土と化してしまう前に<br>魔神の各個撃破をお願いします！",
    "WDUyI85C": "<color=242:215:145>目的</color>　闘魔武神シュスイ等討伐",
    "21VKZo0E": "raid_room_shadow_boss_25",
    "yTPw0BD7": "raid_room_quest_flame.png",
    "2ty57Bcv": "bf050_raid02_fld.mp3",
    "N4XVE1uA": "0,0"
  },
  {
    "j28VNcUW": "7009",
    "0iAIR2LP": "相容れぬ者の激突",
    "7x3pPB2C": "6",
    "H9sx5D08": "14",
    "qY49LBjw": "1800",
    "KR6JacN8": "4",
    "HSRhkf70": "",
    "UJTR1h5r": "0",
    "Najhr8m6": "80000",
    "HTVh8a65": "8000",
    "b5yeVr61": "1:11",
    "qp37xTDh": "【アクラス召喚院からの依頼】<br>非常事態につき非公式の依頼を出す。<br>イシュグリアの魔神が山岳地帯で鉢合わせた。<br>連中は互いに派手にやりあっているようだが、<br>放置すればグランガイアの生態系は壊滅する。<br>一刻も早く戦闘に介入し、<br>一体ずつ確実に仕留めろ。",
    "WDUyI85C": "<color=242:215:145>目的</color>　業滅雷鎧ベイオルグ等討伐",
    "21VKZo0E": "raid_room_shadow_boss_26",
    "yTPw0BD7": "raid_room_quest_flame.png",
    "2ty57Bcv": "bf050_raid02_fld.mp3",
    "N4XVE1uA": "0,0"
  },
  {
    "j28VNcUW": "7010",
    "0iAIR2LP": "神出鬼没の三つ巴",
    "7x3pPB2C": "6",
    "H9sx5D08": "14",
    "qY49LBjw": "1800",
    "KR6JacN8": "4",
    "HSRhkf70": "",
    "UJTR1h5r": "0",
    "Najhr8m6": "80000",
    "HTVh8a65": "8000",
    "b5yeVr61": "1:11",
    "qp37xTDh": "【アクラス召喚院からの依頼】<br>依頼漏れを防ぐためワシからも出しておくぞ。<br>イシュグリアの連中がダーム山岳で暴れておる。<br>互いに潰し合ってくれれば楽でいいんじゃが、<br>グランガイアまで滅茶苦茶にされてはかなわん。<br>隙を見て討伐してくれ、頼んだぞ。",
    "WDUyI85C": "<color=242:215:145>目的</color>　禍魔刻神アム＝ユノス等討伐",
    "21VKZo0E": "raid_room_shadow_boss_29",
    "yTPw0BD7": "raid_room_quest_flame.png",
    "2ty57Bcv": "bf050_raid02_fld.mp3",
    "N4XVE1uA": "0,0"
  }
]