[
  {
    "j28VNcUW": "5000000",
    "24biyLHp": "1",
    "H9sx5D08": "1",
    "0u1nvMeS": "99",
    "e0XmDu4q": "・ドラゴンの討伐",
    "0xFHwMf7": "・パーティの全滅<br>・カルの戦闘不能",
    "yTPw0BD7": "grand_quest_000.png",
    "M2cv6dum": "grand_quest_000_thum.png",
    "gFq59B6X": "2",
    "oPsmRC18": "100,1,5,1,0",
    "Mw3F0V8C": "6,1",
    "yWiB93z0": "200",
    "ziex06DY": "0",
    "17JnyicA": "0",
    "W1EkCyc3": "0",
    "2ty57Bcv": "bf050_raid02_fld.mp3"
  },
  {
    "j28VNcUW": "5000001",
    "24biyLHp": "2",
    "H9sx5D08": "2",
    "0u1nvMeS": "99",
    "e0XmDu4q": "・調査任務の達成",
    "0xFHwMf7": "・パーティの全滅<br>・ルジーナの戦闘不能<br>・パリスの戦闘不能",
    "yTPw0BD7": "grand_quest_001.png",
    "M2cv6dum": "grand_quest_001_thum.png",
    "gFq59B6X": "3",
    "oPsmRC18": "200,1,5,1,0:201,2,5,1,0",
    "Mw3F0V8C": "1,6,11",
    "yWiB93z0": "300",
    "ziex06DY": "0",
    "17JnyicA": "0",
    "W1EkCyc3": "0",
    "2ty57Bcv": "bf050_raid02_fld.mp3"
  },
  {
    "j28VNcUW": "5000002",
    "24biyLHp": "3",
    "H9sx5D08": "3",
    "0u1nvMeS": "99",
    "e0XmDu4q": "・グレアムの討伐",
    "0xFHwMf7": "・パーティの全滅<br>・カルの戦闘不能<br>・セリアの戦闘不能",
    "yTPw0BD7": "grand_quest_002.png",
    "M2cv6dum": "grand_quest_002_thum.png",
    "gFq59B6X": "3",
    "oPsmRC18": "300,1,5,1,0:301,2,5,1,0",
    "Mw3F0V8C": "1,2,3",
    "yWiB93z0": "300",
    "ziex06DY": "0",
    "17JnyicA": "0",
    "W1EkCyc3": "0",
    "2ty57Bcv": "bf050_raid02_fld.mp3"
  },
  {
    "j28VNcUW": "5000003",
    "24biyLHp": "3",
    "H9sx5D08": "4",
    "0u1nvMeS": "99",
    "e0XmDu4q": "・魔神の討伐",
    "0xFHwMf7": "・パーティの全滅<br>・セリアの戦闘不能<br>・GUESTの戦闘不能",
    "yTPw0BD7": "grand_quest_003.png",
    "M2cv6dum": "grand_quest_003_thum.png",
    "gFq59B6X": "1",
    "oPsmRC18": "-1,0,3,1,0:-1,0,4,1,0:0,0,2,1,0:0,0,5,1,0",
    "Mw3F0V8C": "1",
    "yWiB93z0": "0",
    "ziex06DY": "54",
    "17JnyicA": "0",
    "W1EkCyc3": "0",
    "2ty57Bcv": "bf050_raid02_fld.mp3"
  },
  {
    "j28VNcUW": "5000004",
    "24biyLHp": "4",
    "H9sx5D08": "5",
    "0u1nvMeS": "99",
    "e0XmDu4q": "・魔神の討伐",
    "0xFHwMf7": "・パーティの全滅<br>・グラデンスの戦闘不能",
    "yTPw0BD7": "grand_quest_004.png",
    "M2cv6dum": "grand_quest_004_thum.png",
    "gFq59B6X": "4",
    "oPsmRC18": "500,3,5,1,0",
    "Mw3F0V8C": "1,1,1,1",
    "yWiB93z0": "300",
    "ziex06DY": "0",
    "17JnyicA": "0",
    "W1EkCyc3": "0",
    "2ty57Bcv": "bf050_raid02_fld.mp3"
  },
  {
    "j28VNcUW": "5000005",
    "24biyLHp": "2",
    "H9sx5D08": "6",
    "0u1nvMeS": "99",
    "e0XmDu4q": "・調査任務の達成",
    "0xFHwMf7": "・パーティの全滅<br>・リムの戦闘不能",
    "yTPw0BD7": "grand_quest_005.png",
    "M2cv6dum": "grand_quest_005_thum.png",
    "gFq59B6X": "1",
    "oPsmRC18": "600,0,5,1,0",
    "Mw3F0V8C": "1",
    "yWiB93z0": "90",
    "ziex06DY": "0",
    "17JnyicA": "0",
    "W1EkCyc3": "0",
    "2ty57Bcv": "bf050_raid02_fld.mp3"
  },
  {
    "j28VNcUW": "5000006",
    "24biyLHp": "3",
    "H9sx5D08": "7",
    "0u1nvMeS": "99",
    "e0XmDu4q": "・魔神の討伐",
    "0xFHwMf7": "・パーティの全滅<br>・パリスの戦闘不能",
    "yTPw0BD7": "grand_quest_006.png",
    "M2cv6dum": "grand_quest_006_thum.png",
    "gFq59B6X": "2",
    "oPsmRC18": "700,1,5,1,0",
    "Mw3F0V8C": "1,1",
    "yWiB93z0": "160",
    "ziex06DY": "0",
    "17JnyicA": "0",
    "W1EkCyc3": "0",
    "2ty57Bcv": "bf050_raid02_fld.mp3"
  },
  {
    "j28VNcUW": "5000007",
    "24biyLHp": "3",
    "H9sx5D08": "8",
    "0u1nvMeS": "99",
    "e0XmDu4q": "・魔神の討伐",
    "0xFHwMf7": "・パーティの全滅<br>・ルジーナの戦闘不能<br>・カルの戦闘不能",
    "yTPw0BD7": "grand_quest_007.png",
    "M2cv6dum": "grand_quest_007_thum.png",
    "gFq59B6X": "3",
    "oPsmRC18": "800,0,5,1,0:802,2,5,1,0",
    "Mw3F0V8C": "1,1,8",
    "yWiB93z0": "300",
    "ziex06DY": "0",
    "17JnyicA": "0",
    "W1EkCyc3": "0",
    "2ty57Bcv": "bf050_raid02_fld.mp3"
  },
  {
    "j28VNcUW": "5000008",
    "24biyLHp": "1",
    "H9sx5D08": "9",
    "0u1nvMeS": "99",
    "e0XmDu4q": "・カルデスの討伐",
    "0xFHwMf7": "・パーティの全滅",
    "yTPw0BD7": "grand_quest_008.png",
    "M2cv6dum": "grand_quest_008_thum.png",
    "gFq59B6X": "3",
    "oPsmRC18": "900,0,0,0,0:0,0,1,1,0:0,0,2,1,0:903,0,5,1,0",
    "Mw3F0V8C": "1,1,1",
    "yWiB93z0": "240",
    "ziex06DY": "0",
    "17JnyicA": "0",
    "W1EkCyc3": "0",
    "2ty57Bcv": "bf050_raid02_fld.mp3"
  },
  {
    "j28VNcUW": "5000009",
    "24biyLHp": "4",
    "H9sx5D08": "10",
    "0u1nvMeS": "99",
    "e0XmDu4q": "・カルデスの討伐",
    "0xFHwMf7": "・パーティの全滅",
    "yTPw0BD7": "grand_quest_009.png",
    "M2cv6dum": "grand_quest_009_thum.png",
    "gFq59B6X": "2",
    "oPsmRC18": "1001,0,0,0,0:0,0,1,1,0:0,0,2,1,0:0,0,5,1,0",
    "Mw3F0V8C": "1,2",
    "yWiB93z0": "140",
    "ziex06DY": "0",
    "17JnyicA": "0",
    "W1EkCyc3": "0",
    "2ty57Bcv": "bf050_raid02_fld.mp3"
  },
  {
    "j28VNcUW": "5000010",
    "24biyLHp": "4",
    "H9sx5D08": "11",
    "0u1nvMeS": "99",
    "e0XmDu4q": "・メルキオの討伐",
    "0xFHwMf7": "・パーティの全滅",
    "yTPw0BD7": "grand_quest_010.png",
    "M2cv6dum": "grand_quest_010_thum.png",
    "gFq59B6X": "2",
    "oPsmRC18": "1100,0,5,1,0:1101,1,5,1,0",
    "Mw3F0V8C": "1,2",
    "yWiB93z0": "200",
    "ziex06DY": "0",
    "17JnyicA": "0",
    "W1EkCyc3": "0",
    "2ty57Bcv": "bf050_raid02_fld.mp3"
  },
  {
    "j28VNcUW": "5000011",
    "24biyLHp": "3",
    "H9sx5D08": "13",
    "0u1nvMeS": "99",
    "e0XmDu4q": "・エリーゼ達の救出",
    "0xFHwMf7": "・パーティの全滅",
    "yTPw0BD7": "grand_quest_012.png",
    "M2cv6dum": "grand_quest_012_thum.png",
    "gFq59B6X": "2",
    "oPsmRC18": "1200,0,5,1,0:1201,1,0,0,0:1202,1,5,1,0:1203,1,1,1,0:-1,1,3,1,0:-1,1,4,1,0",
    "Mw3F0V8C": "5,1",
    "yWiB93z0": "120",
    "ziex06DY": "0",
    "17JnyicA": "0",
    "W1EkCyc3": "0",
    "2ty57Bcv": "bf050_raid02_fld.mp3"
  },
  {
    "j28VNcUW": "5000012",
    "24biyLHp": "4",
    "H9sx5D08": "14",
    "0u1nvMeS": "99",
    "e0XmDu4q": "・魔神の討伐",
    "0xFHwMf7": "・パーティの全滅",
    "yTPw0BD7": "grand_quest_013.png",
    "M2cv6dum": "grand_quest_013_thum.png",
    "gFq59B6X": "3",
    "oPsmRC18": "1300,1,1,1,0:1301,1,2,1,0:1302,0,5,1,0:1303,0,1,1,0:1304,1,5,1,0:1305,0,2,1,0",
    "Mw3F0V8C": "1,1,1",
    "yWiB93z0": "250",
    "ziex06DY": "0",
    "17JnyicA": "0",
    "W1EkCyc3": "0",
    "2ty57Bcv": "bf050_raid02_fld.mp3"
  },
  {
    "j28VNcUW": "5000013",
    "24biyLHp": "4",
    "H9sx5D08": "17",
    "0u1nvMeS": "99",
    "e0XmDu4q": "・イシュグリア調査の完了",
    "0xFHwMf7": "・パーティの全滅<br>・GUESTの戦闘不能",
    "yTPw0BD7": "grand_quest_016.png",
    "M2cv6dum": "grand_quest_016_thum.png",
    "gFq59B6X": "2",
    "oPsmRC18": "5300,0,0,0,0:0,0,5,1,0:5304,1,0,0,0:5303,1,1,1,0:5305,1,2,1,0:5301,1,3,1,0:5307,1,4,1,0:5302,1,5,1,0",
    "Mw3F0V8C": "1,7",
    "yWiB93z0": "100",
    "ziex06DY": "0",
    "17JnyicA": "0",
    "W1EkCyc3": "0",
    "2ty57Bcv": "bf050_raid02_fld.mp3"
  },
  {
    "j28VNcUW": "5000014",
    "24biyLHp": "2",
    "H9sx5D08": "19",
    "0u1nvMeS": "99",
    "e0XmDu4q": "・セラの事情調査",
    "0xFHwMf7": "・パーティの全滅<br>・GUESTの戦闘不能",
    "yTPw0BD7": "grand_quest_018.png",
    "M2cv6dum": "grand_quest_018_thum.png",
    "gFq59B6X": "1",
    "oPsmRC18": "5500,0,0,0,0:5501,99,5,1,0",
    "Mw3F0V8C": "1",
    "yWiB93z0": "100",
    "ziex06DY": "0",
    "17JnyicA": "0",
    "W1EkCyc3": "0",
    "2ty57Bcv": "bf032_town.mp3"
  },
  {
    "j28VNcUW": "5000015",
    "24biyLHp": "4",
    "H9sx5D08": "20",
    "0u1nvMeS": "99",
    "e0XmDu4q": "・約束の地へ到達",
    "0xFHwMf7": "・パーティの全滅",
    "yTPw0BD7": "grand_quest_019.png",
    "M2cv6dum": "grand_quest_019_thum.png",
    "gFq59B6X": "2",
    "oPsmRC18": "5600,1,0,0,0:5601,1,1,1,0:5602,1,5,1,0:5604,1,3,1,0:5605,1,2,1,0:0,1,4,1,0:0,0,5,1,0",
    "Mw3F0V8C": "2,1,15",
    "yWiB93z0": "100",
    "ziex06DY": "0",
    "17JnyicA": "1",
    "W1EkCyc3": "0",
    "2ty57Bcv": "bf021_map_wasteland.mp3"
  },
  {
    "j28VNcUW": "5000016",
    "24biyLHp": "4",
    "H9sx5D08": "21",
    "0u1nvMeS": "99",
    "e0XmDu4q": "・神軍との戦争を生き延びる",
    "0xFHwMf7": "・パーティの全滅<br>・シリウスが戦闘不能",
    "yTPw0BD7": "grand_quest_020.png",
    "M2cv6dum": "grand_quest_020_thum.png",
    "gFq59B6X": "2",
    "oPsmRC18": "5700,1,5,1,1:0,1,4,1,0:0,0,4,1,0:0,0,5,1,0",
    "Mw3F0V8C": "1,4,11",
    "yWiB93z0": "200",
    "ziex06DY": "0",
    "17JnyicA": "1",
    "W1EkCyc3": "0",
    "2ty57Bcv": "bf050_raid02_fld.mp3"
  },
  {
    "j28VNcUW": "5200000",
    "24biyLHp": "1",
    "H9sx5D08": "50",
    "0u1nvMeS": "99",
    "e0XmDu4q": "・魔神の討伐",
    "0xFHwMf7": "・パーティの全滅",
    "yTPw0BD7": "grand_quest_011.png",
    "M2cv6dum": "grand_quest_011_thum.png",
    "gFq59B6X": "3",
    "oPsmRC18": "0,0,5,1,0:0,1,5,1,0:0,2,5,1,0:5000,0,0,0,0:5001,1,0,0,0",
    "Mw3F0V8C": "1,1,1",
    "yWiB93z0": "300",
    "ziex06DY": "0",
    "17JnyicA": "0",
    "W1EkCyc3": "0",
    "2ty57Bcv": "cc_collabo_02.mp3"
  },
  {
    "j28VNcUW": "5200001",
    "24biyLHp": "1",
    "H9sx5D08": "51",
    "0u1nvMeS": "99",
    "e0XmDu4q": "・調査任務の達成",
    "0xFHwMf7": "・パーティの全滅",
    "yTPw0BD7": "grand_quest_014.png",
    "M2cv6dum": "grand_quest_014_thum.png",
    "gFq59B6X": "2",
    "oPsmRC18": "0,0,5,1,0:0,1,5,1,0:5100,0,0,0,0:5101,1,0,0,0",
    "Mw3F0V8C": "1,6",
    "yWiB93z0": "200",
    "ziex06DY": "0",
    "17JnyicA": "0",
    "W1EkCyc3": "0",
    "2ty57Bcv": "05_senmemo_5.mp3"
  },
  {
    "j28VNcUW": "5200002",
    "24biyLHp": "1",
    "H9sx5D08": "52",
    "0u1nvMeS": "99",
    "e0XmDu4q": "・調査任務の達成",
    "0xFHwMf7": "・パーティの全滅",
    "yTPw0BD7": "grand_quest_015.png",
    "M2cv6dum": "grand_quest_015_thum.png",
    "gFq59B6X": "1",
    "oPsmRC18": "0,0,5,1,0",
    "Mw3F0V8C": "1",
    "yWiB93z0": "100",
    "ziex06DY": "0",
    "17JnyicA": "0",
    "W1EkCyc3": "0",
    "2ty57Bcv": "megami_map.mp3"
  },
  {
    "j28VNcUW": "5200003",
    "24biyLHp": "1",
    "H9sx5D08": "54",
    "0u1nvMeS": "99",
    "e0XmDu4q": "・調査任務の達成",
    "0xFHwMf7": "・パーティの全滅",
    "yTPw0BD7": "grand_quest_017.png",
    "M2cv6dum": "grand_quest_017_thum.png",
    "gFq59B6X": "1",
    "oPsmRC18": "0,0,5,1,0",
    "Mw3F0V8C": "1",
    "yWiB93z0": "100",
    "ziex06DY": "0",
    "17JnyicA": "0",
    "W1EkCyc3": "0",
    "2ty57Bcv": "tt_b01.mp3"
  }
]