[
  {
    "N1b6SUW4": "100",
    "j28VNcUW": "5000000",
    "IkmC8gG2": "4",
    "q7Nit8JW": "",
    "64hAvkZX": "1",
    "30Kw4WBa": "8",
    "TdDHf59J": "0",
    "wJsB35iH": "1",
    "37moriMq": "0",
    "I0ZNnm4b": "クエスト初クリアボーナス",
    "zwwtHlMM": "クエスト初クリア"
  },
  {
    "N1b6SUW4": "101",
    "j28VNcUW": "5000000",
    "IkmC8gG2": "1",
    "q7Nit8JW": "30",
    "64hAvkZX": "1",
    "30Kw4WBa": "7",
    "TdDHf59J": "35202",
    "wJsB35iH": "1",
    "37moriMq": "0",
    "I0ZNnm4b": "達成率30%ボーナス",
    "zwwtHlMM": "達成率30％"
  },
  {
    "N1b6SUW4": "102",
    "j28VNcUW": "5000000",
    "IkmC8gG2": "1",
    "q7Nit8JW": "70",
    "64hAvkZX": "1",
    "30Kw4WBa": "7",
    "TdDHf59J": "36000",
    "wJsB35iH": "1",
    "37moriMq": "1:0",
    "I0ZNnm4b": "達成率70%ボーナス",
    "zwwtHlMM": "達成率70％"
  },
  {
    "N1b6SUW4": "103",
    "j28VNcUW": "5000000",
    "IkmC8gG2": "1",
    "q7Nit8JW": "100",
    "64hAvkZX": "1",
    "30Kw4WBa": "6",
    "TdDHf59J": "20302",
    "wJsB35iH": "1",
    "37moriMq": "1:0",
    "I0ZNnm4b": "達成率コンプリートボーナス",
    "zwwtHlMM": "達成率コンプリート"
  },
  {
    "N1b6SUW4": "104",
    "j28VNcUW": "5000000",
    "IkmC8gG2": "2",
    "q7Nit8JW": "107",
    "64hAvkZX": "1",
    "30Kw4WBa": "3",
    "TdDHf59J": "0",
    "wJsB35iH": "5000",
    "37moriMq": "0",
    "I0ZNnm4b": "初回条件達成ボーナス",
    "zwwtHlMM": "メドロノモス討伐"
  },
  {
    "N1b6SUW4": "105",
    "j28VNcUW": "5000000",
    "IkmC8gG2": "2",
    "q7Nit8JW": "103",
    "64hAvkZX": "1",
    "30Kw4WBa": "6",
    "TdDHf59J": "40432",
    "wJsB35iH": "1",
    "37moriMq": "1:0",
    "I0ZNnm4b": "初回条件達成ボーナス",
    "zwwtHlMM": "海岸線を迂回しセリアと遭遇後ドラゴンを撃破"
  },
  {
    "N1b6SUW4": "106",
    "j28VNcUW": "5000000",
    "IkmC8gG2": "2",
    "q7Nit8JW": "102",
    "64hAvkZX": "1",
    "30Kw4WBa": "6",
    "TdDHf59J": "10452",
    "wJsB35iH": "1",
    "37moriMq": "1:0",
    "I0ZNnm4b": "初回条件達成ボーナス",
    "zwwtHlMM": "海岸線を迂回せずにドラゴンを撃破"
  },
  {
    "N1b6SUW4": "107",
    "j28VNcUW": "5000000",
    "IkmC8gG2": "2",
    "q7Nit8JW": "100",
    "64hAvkZX": "1",
    "30Kw4WBa": "6",
    "TdDHf59J": "10312",
    "wJsB35iH": "1",
    "37moriMq": "1:0",
    "I0ZNnm4b": "初回条件達成ボーナス",
    "zwwtHlMM": "ドラゴンにとどめを刺した"
  },
  {
    "N1b6SUW4": "108",
    "j28VNcUW": "5000000",
    "IkmC8gG2": "2",
    "q7Nit8JW": "10007",
    "64hAvkZX": "0",
    "30Kw4WBa": "3",
    "TdDHf59J": "0",
    "wJsB35iH": "3000",
    "37moriMq": "0",
    "I0ZNnm4b": "条件達成ボーナス",
    "zwwtHlMM": "条件達成ボーナス"
  },
  {
    "N1b6SUW4": "109",
    "j28VNcUW": "5000000",
    "IkmC8gG2": "2",
    "q7Nit8JW": "10003",
    "64hAvkZX": "0",
    "30Kw4WBa": "12",
    "TdDHf59J": "1",
    "wJsB35iH": "1",
    "37moriMq": "0",
    "I0ZNnm4b": "条件達成ボーナス",
    "zwwtHlMM": "条件達成ボーナス"
  },
  {
    "N1b6SUW4": "110",
    "j28VNcUW": "5000000",
    "IkmC8gG2": "2",
    "q7Nit8JW": "10004",
    "64hAvkZX": "0",
    "30Kw4WBa": "12",
    "TdDHf59J": "1",
    "wJsB35iH": "2",
    "37moriMq": "0",
    "I0ZNnm4b": "条件達成ボーナス",
    "zwwtHlMM": "条件達成ボーナス"
  },
  {
    "N1b6SUW4": "111",
    "j28VNcUW": "5000000",
    "IkmC8gG2": "2",
    "q7Nit8JW": "10006",
    "64hAvkZX": "0",
    "30Kw4WBa": "12",
    "TdDHf59J": "1",
    "wJsB35iH": "3",
    "37moriMq": "0",
    "I0ZNnm4b": "条件達成ボーナス",
    "zwwtHlMM": "条件達成ボーナス"
  },
  {
    "N1b6SUW4": "112",
    "j28VNcUW": "5000000",
    "IkmC8gG2": "2",
    "q7Nit8JW": "10008",
    "64hAvkZX": "0",
    "30Kw4WBa": "3",
    "TdDHf59J": "0",
    "wJsB35iH": "1000",
    "37moriMq": "0",
    "I0ZNnm4b": "宝箱獲得",
    "zwwtHlMM": "宝箱獲得"
  },
  {
    "N1b6SUW4": "113",
    "j28VNcUW": "5000000",
    "IkmC8gG2": "2",
    "q7Nit8JW": "10013",
    "64hAvkZX": "0",
    "30Kw4WBa": "4",
    "TdDHf59J": "10705",
    "wJsB35iH": "1",
    "37moriMq": "0",
    "I0ZNnm4b": "宝箱獲得",
    "zwwtHlMM": "宝箱獲得"
  },
  {
    "N1b6SUW4": "114",
    "j28VNcUW": "5000000",
    "IkmC8gG2": "2",
    "q7Nit8JW": "111",
    "64hAvkZX": "1",
    "30Kw4WBa": "7",
    "TdDHf59J": "31000",
    "wJsB35iH": "1",
    "37moriMq": "0",
    "I0ZNnm4b": "宝箱獲得",
    "zwwtHlMM": "宝箱獲得"
  },
  {
    "N1b6SUW4": "200",
    "j28VNcUW": "5000001",
    "IkmC8gG2": "4",
    "q7Nit8JW": "",
    "64hAvkZX": "1",
    "30Kw4WBa": "8",
    "TdDHf59J": "0",
    "wJsB35iH": "1",
    "37moriMq": "0",
    "I0ZNnm4b": "クエスト初クリアボーナス",
    "zwwtHlMM": "クエスト初クリア"
  },
  {
    "N1b6SUW4": "201",
    "j28VNcUW": "5000001",
    "IkmC8gG2": "1",
    "q7Nit8JW": "30",
    "64hAvkZX": "1",
    "30Kw4WBa": "6",
    "TdDHf59J": "10312",
    "wJsB35iH": "1",
    "37moriMq": "1:0",
    "I0ZNnm4b": "達成率30%ボーナス",
    "zwwtHlMM": "達成率30％"
  },
  {
    "N1b6SUW4": "202",
    "j28VNcUW": "5000001",
    "IkmC8gG2": "1",
    "q7Nit8JW": "60",
    "64hAvkZX": "1",
    "30Kw4WBa": "7",
    "TdDHf59J": "35800",
    "wJsB35iH": "1",
    "37moriMq": "0",
    "I0ZNnm4b": "達成率60%ボーナス",
    "zwwtHlMM": "達成率60％"
  },
  {
    "N1b6SUW4": "203",
    "j28VNcUW": "5000001",
    "IkmC8gG2": "1",
    "q7Nit8JW": "100",
    "64hAvkZX": "1",
    "30Kw4WBa": "7",
    "TdDHf59J": "43400",
    "wJsB35iH": "1",
    "37moriMq": "0",
    "I0ZNnm4b": "達成率コンプリートボーナス",
    "zwwtHlMM": "達成率コンプリート"
  },
  {
    "N1b6SUW4": "204",
    "j28VNcUW": "5000001",
    "IkmC8gG2": "2",
    "q7Nit8JW": "200",
    "64hAvkZX": "1",
    "30Kw4WBa": "7",
    "TdDHf59J": "36300",
    "wJsB35iH": "1",
    "37moriMq": "1:0",
    "I0ZNnm4b": "初回条件達成ボーナス",
    "zwwtHlMM": "秘宝を発見した"
  },
  {
    "N1b6SUW4": "205",
    "j28VNcUW": "5000001",
    "IkmC8gG2": "2",
    "q7Nit8JW": "201",
    "64hAvkZX": "1",
    "30Kw4WBa": "6",
    "TdDHf59J": "40432",
    "wJsB35iH": "1",
    "37moriMq": "1:0",
    "I0ZNnm4b": "初回条件達成ボーナス",
    "zwwtHlMM": "真意に到達せず主人公が護獣を撃破"
  },
  {
    "N1b6SUW4": "206",
    "j28VNcUW": "5000001",
    "IkmC8gG2": "2",
    "q7Nit8JW": "202",
    "64hAvkZX": "1",
    "30Kw4WBa": "6",
    "TdDHf59J": "10452",
    "wJsB35iH": "1",
    "37moriMq": "1:0",
    "I0ZNnm4b": "初回条件達成ボーナス",
    "zwwtHlMM": "真意に到達せずルジーナが護獣を撃破"
  },
  {
    "N1b6SUW4": "207",
    "j28VNcUW": "5000001",
    "IkmC8gG2": "2",
    "q7Nit8JW": "203",
    "64hAvkZX": "1",
    "30Kw4WBa": "6",
    "TdDHf59J": "30432",
    "wJsB35iH": "1",
    "37moriMq": "1:0",
    "I0ZNnm4b": "初回条件達成ボーナス",
    "zwwtHlMM": "真意に到達せずパリスが護獣を撃破"
  },
  {
    "N1b6SUW4": "208",
    "j28VNcUW": "5000001",
    "IkmC8gG2": "2",
    "q7Nit8JW": "204",
    "64hAvkZX": "1",
    "30Kw4WBa": "6",
    "TdDHf59J": "20442",
    "wJsB35iH": "1",
    "37moriMq": "1:0",
    "I0ZNnm4b": "初回条件達成ボーナス",
    "zwwtHlMM": "障害を乗り越え美森湖岸で標を入手"
  },
  {
    "N1b6SUW4": "209",
    "j28VNcUW": "5000001",
    "IkmC8gG2": "2",
    "q7Nit8JW": "20000",
    "64hAvkZX": "0",
    "30Kw4WBa": "12",
    "TdDHf59J": "1",
    "wJsB35iH": "4",
    "37moriMq": "0",
    "I0ZNnm4b": "条件達成ボーナス",
    "zwwtHlMM": "条件達成ボーナス"
  },
  {
    "N1b6SUW4": "210",
    "j28VNcUW": "5000001",
    "IkmC8gG2": "2",
    "q7Nit8JW": "20001",
    "64hAvkZX": "0",
    "30Kw4WBa": "12",
    "TdDHf59J": "1",
    "wJsB35iH": "2",
    "37moriMq": "0",
    "I0ZNnm4b": "条件達成ボーナス",
    "zwwtHlMM": "条件達成ボーナス"
  },
  {
    "N1b6SUW4": "211",
    "j28VNcUW": "5000001",
    "IkmC8gG2": "2",
    "q7Nit8JW": "20002",
    "64hAvkZX": "0",
    "30Kw4WBa": "12",
    "TdDHf59J": "1",
    "wJsB35iH": "2",
    "37moriMq": "0",
    "I0ZNnm4b": "条件達成ボーナス",
    "zwwtHlMM": "条件達成ボーナス"
  },
  {
    "N1b6SUW4": "212",
    "j28VNcUW": "5000001",
    "IkmC8gG2": "2",
    "q7Nit8JW": "20003",
    "64hAvkZX": "0",
    "30Kw4WBa": "12",
    "TdDHf59J": "1",
    "wJsB35iH": "2",
    "37moriMq": "0",
    "I0ZNnm4b": "条件達成ボーナス",
    "zwwtHlMM": "条件達成ボーナス"
  },
  {
    "N1b6SUW4": "213",
    "j28VNcUW": "5000001",
    "IkmC8gG2": "2",
    "q7Nit8JW": "20008",
    "64hAvkZX": "0",
    "30Kw4WBa": "12",
    "TdDHf59J": "1",
    "wJsB35iH": "1",
    "37moriMq": "0",
    "I0ZNnm4b": "条件達成ボーナス",
    "zwwtHlMM": "条件達成ボーナス"
  },
  {
    "N1b6SUW4": "214",
    "j28VNcUW": "5000001",
    "IkmC8gG2": "2",
    "q7Nit8JW": "20018",
    "64hAvkZX": "0",
    "30Kw4WBa": "3",
    "TdDHf59J": "0",
    "wJsB35iH": "1000",
    "37moriMq": "0",
    "I0ZNnm4b": "宝箱獲得",
    "zwwtHlMM": "宝箱獲得"
  },
  {
    "N1b6SUW4": "215",
    "j28VNcUW": "5000001",
    "IkmC8gG2": "2",
    "q7Nit8JW": "20019",
    "64hAvkZX": "0",
    "30Kw4WBa": "11",
    "TdDHf59J": "0",
    "wJsB35iH": "3000",
    "37moriMq": "0",
    "I0ZNnm4b": "宝箱獲得",
    "zwwtHlMM": "宝箱獲得"
  },
  {
    "N1b6SUW4": "216",
    "j28VNcUW": "5000001",
    "IkmC8gG2": "2",
    "q7Nit8JW": "20021",
    "64hAvkZX": "0",
    "30Kw4WBa": "3",
    "TdDHf59J": "0",
    "wJsB35iH": "1000",
    "37moriMq": "0",
    "I0ZNnm4b": "宝箱獲得",
    "zwwtHlMM": "宝箱獲得"
  },
  {
    "N1b6SUW4": "217",
    "j28VNcUW": "5000001",
    "IkmC8gG2": "2",
    "q7Nit8JW": "20020",
    "64hAvkZX": "0",
    "30Kw4WBa": "3",
    "TdDHf59J": "0",
    "wJsB35iH": "3000",
    "37moriMq": "0",
    "I0ZNnm4b": "宝箱獲得",
    "zwwtHlMM": "宝箱獲得"
  },
  {
    "N1b6SUW4": "300",
    "j28VNcUW": "5000002",
    "IkmC8gG2": "4",
    "q7Nit8JW": "",
    "64hAvkZX": "1",
    "30Kw4WBa": "8",
    "TdDHf59J": "0",
    "wJsB35iH": "1",
    "37moriMq": "0",
    "I0ZNnm4b": "クエスト初クリアボーナス",
    "zwwtHlMM": "クエスト初クリア"
  },
  {
    "N1b6SUW4": "301",
    "j28VNcUW": "5000002",
    "IkmC8gG2": "1",
    "q7Nit8JW": "30",
    "64hAvkZX": "1",
    "30Kw4WBa": "6",
    "TdDHf59J": "10312",
    "wJsB35iH": "2",
    "37moriMq": "1:0",
    "I0ZNnm4b": "達成率30%ボーナス",
    "zwwtHlMM": "達成率30％"
  },
  {
    "N1b6SUW4": "302",
    "j28VNcUW": "5000002",
    "IkmC8gG2": "1",
    "q7Nit8JW": "70",
    "64hAvkZX": "1",
    "30Kw4WBa": "7",
    "TdDHf59J": "37400",
    "wJsB35iH": "1",
    "37moriMq": "0",
    "I0ZNnm4b": "達成率70%ボーナス",
    "zwwtHlMM": "達成率70％"
  },
  {
    "N1b6SUW4": "303",
    "j28VNcUW": "5000002",
    "IkmC8gG2": "1",
    "q7Nit8JW": "100",
    "64hAvkZX": "1",
    "30Kw4WBa": "4",
    "TdDHf59J": "110010",
    "wJsB35iH": "1",
    "37moriMq": "0",
    "I0ZNnm4b": "達成率コンプリートボーナス",
    "zwwtHlMM": "達成率コンプリート"
  },
  {
    "N1b6SUW4": "304",
    "j28VNcUW": "5000002",
    "IkmC8gG2": "2",
    "q7Nit8JW": "300",
    "64hAvkZX": "1",
    "30Kw4WBa": "6",
    "TdDHf59J": "60603",
    "wJsB35iH": "1",
    "37moriMq": "1:1",
    "I0ZNnm4b": "初回条件達成ボーナス",
    "zwwtHlMM": "グレアムにとどめを刺した"
  },
  {
    "N1b6SUW4": "305",
    "j28VNcUW": "5000002",
    "IkmC8gG2": "2",
    "q7Nit8JW": "301",
    "64hAvkZX": "1",
    "30Kw4WBa": "7",
    "TdDHf59J": "43500",
    "wJsB35iH": "1",
    "37moriMq": "0",
    "I0ZNnm4b": "初回条件達成ボーナス",
    "zwwtHlMM": "３人でグレアムを撃破"
  },
  {
    "N1b6SUW4": "306",
    "j28VNcUW": "5000002",
    "IkmC8gG2": "2",
    "q7Nit8JW": "302",
    "64hAvkZX": "1",
    "30Kw4WBa": "6",
    "TdDHf59J": "20442",
    "wJsB35iH": "2",
    "37moriMq": "1:0",
    "I0ZNnm4b": "初回条件達成ボーナス",
    "zwwtHlMM": "主人公がグレアムを撃破"
  },
  {
    "N1b6SUW4": "307",
    "j28VNcUW": "5000002",
    "IkmC8gG2": "2",
    "q7Nit8JW": "303",
    "64hAvkZX": "1",
    "30Kw4WBa": "6",
    "TdDHf59J": "10452",
    "wJsB35iH": "2",
    "37moriMq": "1:0",
    "I0ZNnm4b": "初回条件達成ボーナス",
    "zwwtHlMM": "セリアがグレアムを撃破"
  },
  {
    "N1b6SUW4": "308",
    "j28VNcUW": "5000002",
    "IkmC8gG2": "2",
    "q7Nit8JW": "304",
    "64hAvkZX": "1",
    "30Kw4WBa": "6",
    "TdDHf59J": "30432",
    "wJsB35iH": "2",
    "37moriMq": "1:0",
    "I0ZNnm4b": "初回条件達成ボーナス",
    "zwwtHlMM": "鳴動断崖で強敵を撃破"
  },
  {
    "N1b6SUW4": "309",
    "j28VNcUW": "5000002",
    "IkmC8gG2": "2",
    "q7Nit8JW": "30007",
    "64hAvkZX": "0",
    "30Kw4WBa": "12",
    "TdDHf59J": "1",
    "wJsB35iH": "6",
    "37moriMq": "0",
    "I0ZNnm4b": "条件達成ボーナス",
    "zwwtHlMM": "条件達成ボーナス"
  },
  {
    "N1b6SUW4": "310",
    "j28VNcUW": "5000002",
    "IkmC8gG2": "2",
    "q7Nit8JW": "30005",
    "64hAvkZX": "0",
    "30Kw4WBa": "12",
    "TdDHf59J": "1",
    "wJsB35iH": "4",
    "37moriMq": "0",
    "I0ZNnm4b": "条件達成ボーナス",
    "zwwtHlMM": "条件達成ボーナス"
  },
  {
    "N1b6SUW4": "311",
    "j28VNcUW": "5000002",
    "IkmC8gG2": "2",
    "q7Nit8JW": "30004",
    "64hAvkZX": "0",
    "30Kw4WBa": "12",
    "TdDHf59J": "1",
    "wJsB35iH": "2",
    "37moriMq": "0",
    "I0ZNnm4b": "条件達成ボーナス",
    "zwwtHlMM": "条件達成ボーナス"
  },
  {
    "N1b6SUW4": "312",
    "j28VNcUW": "5000002",
    "IkmC8gG2": "2",
    "q7Nit8JW": "30053",
    "64hAvkZX": "0",
    "30Kw4WBa": "12",
    "TdDHf59J": "1",
    "wJsB35iH": "2",
    "37moriMq": "0",
    "I0ZNnm4b": "条件達成ボーナス",
    "zwwtHlMM": "条件達成ボーナス"
  },
  {
    "N1b6SUW4": "313",
    "j28VNcUW": "5000002",
    "IkmC8gG2": "2",
    "q7Nit8JW": "30018",
    "64hAvkZX": "0",
    "30Kw4WBa": "12",
    "TdDHf59J": "1",
    "wJsB35iH": "2",
    "37moriMq": "0",
    "I0ZNnm4b": "条件達成ボーナス",
    "zwwtHlMM": "条件達成ボーナス"
  },
  {
    "N1b6SUW4": "314",
    "j28VNcUW": "5000002",
    "IkmC8gG2": "2",
    "q7Nit8JW": "306",
    "64hAvkZX": "1",
    "30Kw4WBa": "7",
    "TdDHf59J": "31002",
    "wJsB35iH": "1",
    "37moriMq": "0",
    "I0ZNnm4b": "宝箱獲得",
    "zwwtHlMM": "宝箱獲得"
  },
  {
    "N1b6SUW4": "315",
    "j28VNcUW": "5000002",
    "IkmC8gG2": "2",
    "q7Nit8JW": "30022",
    "64hAvkZX": "0",
    "30Kw4WBa": "4",
    "TdDHf59J": "10625",
    "wJsB35iH": "1",
    "37moriMq": "0",
    "I0ZNnm4b": "宝箱獲得",
    "zwwtHlMM": "宝箱獲得"
  },
  {
    "N1b6SUW4": "316",
    "j28VNcUW": "5000002",
    "IkmC8gG2": "2",
    "q7Nit8JW": "30023",
    "64hAvkZX": "0",
    "30Kw4WBa": "3",
    "TdDHf59J": "0",
    "wJsB35iH": "5000",
    "37moriMq": "0",
    "I0ZNnm4b": "宝箱獲得",
    "zwwtHlMM": "宝箱獲得"
  },
  {
    "N1b6SUW4": "400",
    "j28VNcUW": "5000003",
    "IkmC8gG2": "1",
    "q7Nit8JW": "100",
    "64hAvkZX": "1",
    "30Kw4WBa": "4",
    "TdDHf59J": "110000",
    "wJsB35iH": "1",
    "37moriMq": "0",
    "I0ZNnm4b": "達成率コンプリートボーナス",
    "zwwtHlMM": "達成率コンプリート"
  },
  {
    "N1b6SUW4": "401",
    "j28VNcUW": "5000003",
    "IkmC8gG2": "1",
    "q7Nit8JW": "66",
    "64hAvkZX": "1",
    "30Kw4WBa": "7",
    "TdDHf59J": "39900",
    "wJsB35iH": "1",
    "37moriMq": "0",
    "I0ZNnm4b": "達成率66%ボーナス",
    "zwwtHlMM": "達成率66％"
  },
  {
    "N1b6SUW4": "402",
    "j28VNcUW": "5000003",
    "IkmC8gG2": "1",
    "q7Nit8JW": "33",
    "64hAvkZX": "1",
    "30Kw4WBa": "6",
    "TdDHf59J": "10312",
    "wJsB35iH": "2",
    "37moriMq": "1:0",
    "I0ZNnm4b": "達成率33%ボーナス",
    "zwwtHlMM": "達成率33％"
  },
  {
    "N1b6SUW4": "403",
    "j28VNcUW": "5000003",
    "IkmC8gG2": "2",
    "q7Nit8JW": "402",
    "64hAvkZX": "1",
    "30Kw4WBa": "6",
    "TdDHf59J": "10452",
    "wJsB35iH": "2",
    "37moriMq": "1:0",
    "I0ZNnm4b": "初回条件達成ボーナス",
    "zwwtHlMM": "ルジーナ・セリアとともに魔神を撃破"
  },
  {
    "N1b6SUW4": "404",
    "j28VNcUW": "5000003",
    "IkmC8gG2": "2",
    "q7Nit8JW": "401",
    "64hAvkZX": "1",
    "30Kw4WBa": "6",
    "TdDHf59J": "40432",
    "wJsB35iH": "2",
    "37moriMq": "1:0",
    "I0ZNnm4b": "初回条件達成ボーナス",
    "zwwtHlMM": "グラデンス・セリアとともに魔神を撃破"
  },
  {
    "N1b6SUW4": "405",
    "j28VNcUW": "5000003",
    "IkmC8gG2": "2",
    "q7Nit8JW": "400",
    "64hAvkZX": "1",
    "30Kw4WBa": "6",
    "TdDHf59J": "20442",
    "wJsB35iH": "2",
    "37moriMq": "1:0",
    "I0ZNnm4b": "初回条件達成ボーナス",
    "zwwtHlMM": "ティリス・セリアとともに魔神を撃破"
  },
  {
    "N1b6SUW4": "406",
    "j28VNcUW": "5000003",
    "IkmC8gG2": "4",
    "q7Nit8JW": "",
    "64hAvkZX": "1",
    "30Kw4WBa": "8",
    "TdDHf59J": "0",
    "wJsB35iH": "1",
    "37moriMq": "0",
    "I0ZNnm4b": "クエスト初クリアボーナス",
    "zwwtHlMM": "クエスト初クリア"
  },
  {
    "N1b6SUW4": "407",
    "j28VNcUW": "5000003",
    "IkmC8gG2": "2",
    "q7Nit8JW": "40018",
    "64hAvkZX": "0",
    "30Kw4WBa": "12",
    "TdDHf59J": "1",
    "wJsB35iH": "3",
    "37moriMq": "0",
    "I0ZNnm4b": "条件達成ボーナス",
    "zwwtHlMM": "条件達成ボーナス"
  },
  {
    "N1b6SUW4": "408",
    "j28VNcUW": "5000003",
    "IkmC8gG2": "2",
    "q7Nit8JW": "40019",
    "64hAvkZX": "0",
    "30Kw4WBa": "12",
    "TdDHf59J": "1",
    "wJsB35iH": "3",
    "37moriMq": "0",
    "I0ZNnm4b": "条件達成ボーナス",
    "zwwtHlMM": "条件達成ボーナス"
  },
  {
    "N1b6SUW4": "409",
    "j28VNcUW": "5000003",
    "IkmC8gG2": "2",
    "q7Nit8JW": "40020",
    "64hAvkZX": "0",
    "30Kw4WBa": "12",
    "TdDHf59J": "1",
    "wJsB35iH": "3",
    "37moriMq": "0",
    "I0ZNnm4b": "条件達成ボーナス",
    "zwwtHlMM": "条件達成ボーナス"
  },
  {
    "N1b6SUW4": "500",
    "j28VNcUW": "5000004",
    "IkmC8gG2": "4",
    "q7Nit8JW": "",
    "64hAvkZX": "1",
    "30Kw4WBa": "8",
    "TdDHf59J": "0",
    "wJsB35iH": "1",
    "37moriMq": "0",
    "I0ZNnm4b": "クエスト初クリアボーナス",
    "zwwtHlMM": "クエスト初クリア"
  },
  {
    "N1b6SUW4": "501",
    "j28VNcUW": "5000004",
    "IkmC8gG2": "1",
    "q7Nit8JW": "100",
    "64hAvkZX": "1",
    "30Kw4WBa": "4",
    "TdDHf59J": "110050",
    "wJsB35iH": "1",
    "37moriMq": "0",
    "I0ZNnm4b": "達成率コンプリートボーナス",
    "zwwtHlMM": "達成率コンプリート"
  },
  {
    "N1b6SUW4": "502",
    "j28VNcUW": "5000004",
    "IkmC8gG2": "1",
    "q7Nit8JW": "70",
    "64hAvkZX": "1",
    "30Kw4WBa": "6",
    "TdDHf59J": "20302",
    "wJsB35iH": "1",
    "37moriMq": "1:0",
    "I0ZNnm4b": "達成率70%ボーナス",
    "zwwtHlMM": "達成率70％"
  },
  {
    "N1b6SUW4": "503",
    "j28VNcUW": "5000004",
    "IkmC8gG2": "1",
    "q7Nit8JW": "30",
    "64hAvkZX": "1",
    "30Kw4WBa": "6",
    "TdDHf59J": "10312",
    "wJsB35iH": "2",
    "37moriMq": "1:0",
    "I0ZNnm4b": "達成率30%ボーナス",
    "zwwtHlMM": "達成率30％"
  },
  {
    "N1b6SUW4": "504",
    "j28VNcUW": "5000004",
    "IkmC8gG2": "2",
    "q7Nit8JW": "500",
    "64hAvkZX": "1",
    "30Kw4WBa": "7",
    "TdDHf59J": "45000",
    "wJsB35iH": "1",
    "37moriMq": "0",
    "I0ZNnm4b": "初回条件達成ボーナス",
    "zwwtHlMM": "マシュリードを討伐した"
  },
  {
    "N1b6SUW4": "505",
    "j28VNcUW": "5000004",
    "IkmC8gG2": "2",
    "q7Nit8JW": "501",
    "64hAvkZX": "1",
    "30Kw4WBa": "7",
    "TdDHf59J": "38601",
    "wJsB35iH": "1",
    "37moriMq": "0",
    "I0ZNnm4b": "初回条件達成ボーナス",
    "zwwtHlMM": "バルモドーラ改を討伐した"
  },
  {
    "N1b6SUW4": "506",
    "j28VNcUW": "5000004",
    "IkmC8gG2": "2",
    "q7Nit8JW": "502",
    "64hAvkZX": "1",
    "30Kw4WBa": "7",
    "TdDHf59J": "41500",
    "wJsB35iH": "1",
    "37moriMq": "0",
    "I0ZNnm4b": "初回条件達成ボーナス",
    "zwwtHlMM": "召喚師が先に影明の神殿へ到達した"
  },
  {
    "N1b6SUW4": "507",
    "j28VNcUW": "5000004",
    "IkmC8gG2": "2",
    "q7Nit8JW": "503",
    "64hAvkZX": "1",
    "30Kw4WBa": "6",
    "TdDHf59J": "10452",
    "wJsB35iH": "3",
    "37moriMq": "1:0",
    "I0ZNnm4b": "初回条件達成ボーナス",
    "zwwtHlMM": "グラデンスが炎纏竜を討伐した"
  },
  {
    "N1b6SUW4": "508",
    "j28VNcUW": "5000004",
    "IkmC8gG2": "2",
    "q7Nit8JW": "504",
    "64hAvkZX": "1",
    "30Kw4WBa": "6",
    "TdDHf59J": "20442",
    "wJsB35iH": "3",
    "37moriMq": "1:0",
    "I0ZNnm4b": "初回条件達成ボーナス",
    "zwwtHlMM": "グラデンスが輝暴龍を討伐した"
  },
  {
    "N1b6SUW4": "509",
    "j28VNcUW": "5000004",
    "IkmC8gG2": "2",
    "q7Nit8JW": "505",
    "64hAvkZX": "1",
    "30Kw4WBa": "6",
    "TdDHf59J": "30432",
    "wJsB35iH": "3",
    "37moriMq": "1:0",
    "I0ZNnm4b": "初回条件達成ボーナス",
    "zwwtHlMM": "グラデンスが大妖樹を討伐した"
  },
  {
    "N1b6SUW4": "510",
    "j28VNcUW": "5000004",
    "IkmC8gG2": "2",
    "q7Nit8JW": "506",
    "64hAvkZX": "1",
    "30Kw4WBa": "6",
    "TdDHf59J": "40432",
    "wJsB35iH": "3",
    "37moriMq": "1:0",
    "I0ZNnm4b": "初回条件達成ボーナス",
    "zwwtHlMM": "グラデンスが崩雷獣を討伐した"
  },
  {
    "N1b6SUW4": "511",
    "j28VNcUW": "5000004",
    "IkmC8gG2": "2",
    "q7Nit8JW": "50007",
    "64hAvkZX": "0",
    "30Kw4WBa": "12",
    "TdDHf59J": "1",
    "wJsB35iH": "10",
    "37moriMq": "0",
    "I0ZNnm4b": "条件達成ボーナス",
    "zwwtHlMM": "条件達成ボーナス"
  },
  {
    "N1b6SUW4": "512",
    "j28VNcUW": "5000004",
    "IkmC8gG2": "2",
    "q7Nit8JW": "50008",
    "64hAvkZX": "0",
    "30Kw4WBa": "12",
    "TdDHf59J": "1",
    "wJsB35iH": "8",
    "37moriMq": "0",
    "I0ZNnm4b": "条件達成ボーナス",
    "zwwtHlMM": "条件達成ボーナス"
  },
  {
    "N1b6SUW4": "513",
    "j28VNcUW": "5000004",
    "IkmC8gG2": "2",
    "q7Nit8JW": "50009",
    "64hAvkZX": "0",
    "30Kw4WBa": "12",
    "TdDHf59J": "1",
    "wJsB35iH": "5",
    "37moriMq": "0",
    "I0ZNnm4b": "条件達成ボーナス",
    "zwwtHlMM": "条件達成ボーナス"
  },
  {
    "N1b6SUW4": "514",
    "j28VNcUW": "5000004",
    "IkmC8gG2": "2",
    "q7Nit8JW": "507",
    "64hAvkZX": "1",
    "30Kw4WBa": "7",
    "TdDHf59J": "40100",
    "wJsB35iH": "1",
    "37moriMq": "0",
    "I0ZNnm4b": "宝箱獲得",
    "zwwtHlMM": "宝箱獲得"
  },
  {
    "N1b6SUW4": "515",
    "j28VNcUW": "5000004",
    "IkmC8gG2": "2",
    "q7Nit8JW": "50002",
    "64hAvkZX": "0",
    "30Kw4WBa": "4",
    "TdDHf59J": "11012",
    "wJsB35iH": "1",
    "37moriMq": "0",
    "I0ZNnm4b": "宝箱獲得",
    "zwwtHlMM": "宝箱獲得"
  },
  {
    "N1b6SUW4": "516",
    "j28VNcUW": "5000004",
    "IkmC8gG2": "2",
    "q7Nit8JW": "509",
    "64hAvkZX": "1",
    "30Kw4WBa": "7",
    "TdDHf59J": "40000",
    "wJsB35iH": "1",
    "37moriMq": "0",
    "I0ZNnm4b": "宝箱獲得",
    "zwwtHlMM": "宝箱獲得"
  },
  {
    "N1b6SUW4": "517",
    "j28VNcUW": "5000004",
    "IkmC8gG2": "2",
    "q7Nit8JW": "50005",
    "64hAvkZX": "0",
    "30Kw4WBa": "4",
    "TdDHf59J": "11011",
    "wJsB35iH": "1",
    "37moriMq": "0",
    "I0ZNnm4b": "宝箱獲得",
    "zwwtHlMM": "宝箱獲得"
  },
  {
    "N1b6SUW4": "600",
    "j28VNcUW": "5000005",
    "IkmC8gG2": "4",
    "q7Nit8JW": "",
    "64hAvkZX": "1",
    "30Kw4WBa": "8",
    "TdDHf59J": "0",
    "wJsB35iH": "1",
    "37moriMq": "0",
    "I0ZNnm4b": "クエスト初クリアボーナス",
    "zwwtHlMM": "クエスト初クリア"
  },
  {
    "N1b6SUW4": "601",
    "j28VNcUW": "5000005",
    "IkmC8gG2": "4",
    "q7Nit8JW": "",
    "64hAvkZX": "1",
    "30Kw4WBa": "6",
    "TdDHf59J": "30393",
    "wJsB35iH": "1",
    "37moriMq": "1:1",
    "I0ZNnm4b": "クエスト初クリアボーナス",
    "zwwtHlMM": "クエスト初クリア"
  },
  {
    "N1b6SUW4": "602",
    "j28VNcUW": "5000005",
    "IkmC8gG2": "1",
    "q7Nit8JW": "100",
    "64hAvkZX": "1",
    "30Kw4WBa": "7",
    "TdDHf59J": "45200",
    "wJsB35iH": "1",
    "37moriMq": "0",
    "I0ZNnm4b": "達成率コンプリートボーナス",
    "zwwtHlMM": "達成率コンプリート"
  },
  {
    "N1b6SUW4": "603",
    "j28VNcUW": "5000005",
    "IkmC8gG2": "1",
    "q7Nit8JW": "80",
    "64hAvkZX": "1",
    "30Kw4WBa": "6",
    "TdDHf59J": "40432",
    "wJsB35iH": "2",
    "37moriMq": "1:0",
    "I0ZNnm4b": "達成率80%ボーナス",
    "zwwtHlMM": "達成率80%"
  },
  {
    "N1b6SUW4": "604",
    "j28VNcUW": "5000005",
    "IkmC8gG2": "1",
    "q7Nit8JW": "60",
    "64hAvkZX": "1",
    "30Kw4WBa": "6",
    "TdDHf59J": "30432",
    "wJsB35iH": "2",
    "37moriMq": "1:0",
    "I0ZNnm4b": "達成率60%ボーナス",
    "zwwtHlMM": "達成率60%"
  },
  {
    "N1b6SUW4": "605",
    "j28VNcUW": "5000005",
    "IkmC8gG2": "1",
    "q7Nit8JW": "40",
    "64hAvkZX": "1",
    "30Kw4WBa": "6",
    "TdDHf59J": "20442",
    "wJsB35iH": "2",
    "37moriMq": "1:0",
    "I0ZNnm4b": "達成率40%ボーナス",
    "zwwtHlMM": "達成率40%"
  },
  {
    "N1b6SUW4": "606",
    "j28VNcUW": "5000005",
    "IkmC8gG2": "1",
    "q7Nit8JW": "20",
    "64hAvkZX": "1",
    "30Kw4WBa": "6",
    "TdDHf59J": "10452",
    "wJsB35iH": "2",
    "37moriMq": "1:0",
    "I0ZNnm4b": "達成率20%ボーナス",
    "zwwtHlMM": "達成率20%"
  },
  {
    "N1b6SUW4": "607",
    "j28VNcUW": "5000005",
    "IkmC8gG2": "2",
    "q7Nit8JW": "60001",
    "64hAvkZX": "0",
    "30Kw4WBa": "12",
    "TdDHf59J": "1",
    "wJsB35iH": "4",
    "37moriMq": "0",
    "I0ZNnm4b": "条件達成ボーナス",
    "zwwtHlMM": "条件達成ボーナス"
  },
  {
    "N1b6SUW4": "608",
    "j28VNcUW": "5000005",
    "IkmC8gG2": "2",
    "q7Nit8JW": "60007",
    "64hAvkZX": "0",
    "30Kw4WBa": "12",
    "TdDHf59J": "1",
    "wJsB35iH": "2",
    "37moriMq": "0",
    "I0ZNnm4b": "条件達成ボーナス",
    "zwwtHlMM": "条件達成ボーナス"
  },
  {
    "N1b6SUW4": "609",
    "j28VNcUW": "5000005",
    "IkmC8gG2": "2",
    "q7Nit8JW": "60010",
    "64hAvkZX": "0",
    "30Kw4WBa": "12",
    "TdDHf59J": "1",
    "wJsB35iH": "2",
    "37moriMq": "0",
    "I0ZNnm4b": "条件達成ボーナス",
    "zwwtHlMM": "条件達成ボーナス"
  },
  {
    "N1b6SUW4": "610",
    "j28VNcUW": "5000005",
    "IkmC8gG2": "2",
    "q7Nit8JW": "60013",
    "64hAvkZX": "0",
    "30Kw4WBa": "12",
    "TdDHf59J": "1",
    "wJsB35iH": "2",
    "37moriMq": "0",
    "I0ZNnm4b": "条件達成ボーナス",
    "zwwtHlMM": "条件達成ボーナス"
  },
  {
    "N1b6SUW4": "611",
    "j28VNcUW": "5000005",
    "IkmC8gG2": "2",
    "q7Nit8JW": "60016",
    "64hAvkZX": "0",
    "30Kw4WBa": "12",
    "TdDHf59J": "1",
    "wJsB35iH": "2",
    "37moriMq": "0",
    "I0ZNnm4b": "条件達成ボーナス",
    "zwwtHlMM": "条件達成ボーナス"
  },
  {
    "N1b6SUW4": "700",
    "j28VNcUW": "5000006",
    "IkmC8gG2": "4",
    "q7Nit8JW": "",
    "64hAvkZX": "1",
    "30Kw4WBa": "8",
    "TdDHf59J": "0",
    "wJsB35iH": "1",
    "37moriMq": "0",
    "I0ZNnm4b": "クエスト初クリアボーナス",
    "zwwtHlMM": "クエスト初クリア"
  },
  {
    "N1b6SUW4": "701",
    "j28VNcUW": "5000006",
    "IkmC8gG2": "1",
    "q7Nit8JW": "100",
    "64hAvkZX": "1",
    "30Kw4WBa": "4",
    "TdDHf59J": "110030",
    "wJsB35iH": "1",
    "37moriMq": "0",
    "I0ZNnm4b": "達成率コンプリートボーナス",
    "zwwtHlMM": "達成率コンプリート"
  },
  {
    "N1b6SUW4": "702",
    "j28VNcUW": "5000006",
    "IkmC8gG2": "1",
    "q7Nit8JW": "80",
    "64hAvkZX": "1",
    "30Kw4WBa": "7",
    "TdDHf59J": "45300",
    "wJsB35iH": "1",
    "37moriMq": "0",
    "I0ZNnm4b": "達成率80%ボーナス",
    "zwwtHlMM": "達成率80％"
  },
  {
    "N1b6SUW4": "703",
    "j28VNcUW": "5000006",
    "IkmC8gG2": "1",
    "q7Nit8JW": "30",
    "64hAvkZX": "1",
    "30Kw4WBa": "6",
    "TdDHf59J": "10312",
    "wJsB35iH": "2",
    "37moriMq": "1:0",
    "I0ZNnm4b": "達成率30%ボーナス",
    "zwwtHlMM": "達成率30％"
  },
  {
    "N1b6SUW4": "704",
    "j28VNcUW": "5000006",
    "IkmC8gG2": "2",
    "q7Nit8JW": "701",
    "64hAvkZX": "1",
    "30Kw4WBa": "6",
    "TdDHf59J": "50612",
    "wJsB35iH": "1",
    "37moriMq": "1:0",
    "I0ZNnm4b": "初回条件達成ボーナス",
    "zwwtHlMM": "パリスと力を合わせ魔神を討伐した"
  },
  {
    "N1b6SUW4": "705",
    "j28VNcUW": "5000006",
    "IkmC8gG2": "2",
    "q7Nit8JW": "702",
    "64hAvkZX": "1",
    "30Kw4WBa": "6",
    "TdDHf59J": "10452",
    "wJsB35iH": "3",
    "37moriMq": "1:0",
    "I0ZNnm4b": "初回条件達成ボーナス",
    "zwwtHlMM": "主人公が魔神を退けた"
  },
  {
    "N1b6SUW4": "706",
    "j28VNcUW": "5000006",
    "IkmC8gG2": "2",
    "q7Nit8JW": "703",
    "64hAvkZX": "1",
    "30Kw4WBa": "6",
    "TdDHf59J": "40432",
    "wJsB35iH": "3",
    "37moriMq": "1:0",
    "I0ZNnm4b": "初回条件達成ボーナス",
    "zwwtHlMM": "パリスが魔神を退けた"
  },
  {
    "N1b6SUW4": "707",
    "j28VNcUW": "5000006",
    "IkmC8gG2": "2",
    "q7Nit8JW": "704",
    "64hAvkZX": "1",
    "30Kw4WBa": "6",
    "TdDHf59J": "20442",
    "wJsB35iH": "3",
    "37moriMq": "1:0",
    "I0ZNnm4b": "初回条件達成ボーナス",
    "zwwtHlMM": "ＷＳＴ-１０９６ｓを討伐した"
  },
  {
    "N1b6SUW4": "708",
    "j28VNcUW": "5000006",
    "IkmC8gG2": "2",
    "q7Nit8JW": "70001",
    "64hAvkZX": "0",
    "30Kw4WBa": "12",
    "TdDHf59J": "1",
    "wJsB35iH": "8",
    "37moriMq": "0",
    "I0ZNnm4b": "条件達成ボーナス",
    "zwwtHlMM": "条件達成ボーナス"
  },
  {
    "N1b6SUW4": "709",
    "j28VNcUW": "5000006",
    "IkmC8gG2": "2",
    "q7Nit8JW": "70004",
    "64hAvkZX": "0",
    "30Kw4WBa": "12",
    "TdDHf59J": "1",
    "wJsB35iH": "5",
    "37moriMq": "0",
    "I0ZNnm4b": "条件達成ボーナス",
    "zwwtHlMM": "条件達成ボーナス"
  },
  {
    "N1b6SUW4": "710",
    "j28VNcUW": "5000006",
    "IkmC8gG2": "2",
    "q7Nit8JW": "70002",
    "64hAvkZX": "0",
    "30Kw4WBa": "12",
    "TdDHf59J": "1",
    "wJsB35iH": "5",
    "37moriMq": "0",
    "I0ZNnm4b": "条件達成ボーナス",
    "zwwtHlMM": "条件達成ボーナス"
  },
  {
    "N1b6SUW4": "711",
    "j28VNcUW": "5000006",
    "IkmC8gG2": "2",
    "q7Nit8JW": "70005",
    "64hAvkZX": "0",
    "30Kw4WBa": "12",
    "TdDHf59J": "1",
    "wJsB35iH": "4",
    "37moriMq": "0",
    "I0ZNnm4b": "条件達成ボーナス",
    "zwwtHlMM": "条件達成ボーナス"
  },
  {
    "N1b6SUW4": "800",
    "j28VNcUW": "5000007",
    "IkmC8gG2": "4",
    "q7Nit8JW": "",
    "64hAvkZX": "1",
    "30Kw4WBa": "8",
    "TdDHf59J": "0",
    "wJsB35iH": "1",
    "37moriMq": "0",
    "I0ZNnm4b": "クエスト初クリアボーナス",
    "zwwtHlMM": "クエスト初クリア"
  },
  {
    "N1b6SUW4": "801",
    "j28VNcUW": "5000007",
    "IkmC8gG2": "1",
    "q7Nit8JW": "100",
    "64hAvkZX": "1",
    "30Kw4WBa": "4",
    "TdDHf59J": "110020",
    "wJsB35iH": "1",
    "37moriMq": "0",
    "I0ZNnm4b": "達成率コンプリートボーナス",
    "zwwtHlMM": "達成率コンプリート"
  },
  {
    "N1b6SUW4": "802",
    "j28VNcUW": "5000007",
    "IkmC8gG2": "1",
    "q7Nit8JW": "70",
    "64hAvkZX": "1",
    "30Kw4WBa": "6",
    "TdDHf59J": "10313",
    "wJsB35iH": "1",
    "37moriMq": "1:0",
    "I0ZNnm4b": "達成率70%ボーナス",
    "zwwtHlMM": "達成率70％"
  },
  {
    "N1b6SUW4": "803",
    "j28VNcUW": "5000007",
    "IkmC8gG2": "1",
    "q7Nit8JW": "30",
    "64hAvkZX": "1",
    "30Kw4WBa": "6",
    "TdDHf59J": "10312",
    "wJsB35iH": "2",
    "37moriMq": "1:0",
    "I0ZNnm4b": "達成率30%ボーナス",
    "zwwtHlMM": "達成率30％"
  },
  {
    "N1b6SUW4": "804",
    "j28VNcUW": "5000007",
    "IkmC8gG2": "2",
    "q7Nit8JW": "800",
    "64hAvkZX": "1",
    "30Kw4WBa": "6",
    "TdDHf59J": "50612",
    "wJsB35iH": "1",
    "37moriMq": "1:0",
    "I0ZNnm4b": "初回条件達成ボーナス",
    "zwwtHlMM": "カルとの戦いを優勢に進めた"
  },
  {
    "N1b6SUW4": "805",
    "j28VNcUW": "5000007",
    "IkmC8gG2": "2",
    "q7Nit8JW": "801",
    "64hAvkZX": "1",
    "30Kw4WBa": "7",
    "TdDHf59J": "45310",
    "wJsB35iH": "1",
    "37moriMq": "0",
    "I0ZNnm4b": "初回条件達成ボーナス",
    "zwwtHlMM": "魔神ネビュラスを討伐した"
  },
  {
    "N1b6SUW4": "806",
    "j28VNcUW": "5000007",
    "IkmC8gG2": "2",
    "q7Nit8JW": "802",
    "64hAvkZX": "1",
    "30Kw4WBa": "6",
    "TdDHf59J": "40432",
    "wJsB35iH": "3",
    "37moriMq": "1:0",
    "I0ZNnm4b": "初回条件達成ボーナス",
    "zwwtHlMM": "ルジーナ以外が魔神を退けた"
  },
  {
    "N1b6SUW4": "807",
    "j28VNcUW": "5000007",
    "IkmC8gG2": "2",
    "q7Nit8JW": "80001",
    "64hAvkZX": "0",
    "30Kw4WBa": "12",
    "TdDHf59J": "1",
    "wJsB35iH": "9",
    "37moriMq": "0",
    "I0ZNnm4b": "条件達成ボーナス",
    "zwwtHlMM": "条件達成ボーナス"
  },
  {
    "N1b6SUW4": "808",
    "j28VNcUW": "5000007",
    "IkmC8gG2": "2",
    "q7Nit8JW": "80002",
    "64hAvkZX": "0",
    "30Kw4WBa": "12",
    "TdDHf59J": "1",
    "wJsB35iH": "7",
    "37moriMq": "0",
    "I0ZNnm4b": "条件達成ボーナス",
    "zwwtHlMM": "条件達成ボーナス"
  },
  {
    "N1b6SUW4": "809",
    "j28VNcUW": "5000007",
    "IkmC8gG2": "2",
    "q7Nit8JW": "80003",
    "64hAvkZX": "0",
    "30Kw4WBa": "12",
    "TdDHf59J": "1",
    "wJsB35iH": "5",
    "37moriMq": "0",
    "I0ZNnm4b": "条件達成ボーナス",
    "zwwtHlMM": "条件達成ボーナス"
  },
  {
    "N1b6SUW4": "810",
    "j28VNcUW": "5000007",
    "IkmC8gG2": "2",
    "q7Nit8JW": "80004",
    "64hAvkZX": "1",
    "30Kw4WBa": "7",
    "TdDHf59J": "38404",
    "wJsB35iH": "1",
    "37moriMq": "0",
    "I0ZNnm4b": "宝箱獲得",
    "zwwtHlMM": "宝箱獲得"
  },
  {
    "N1b6SUW4": "811",
    "j28VNcUW": "5000007",
    "IkmC8gG2": "2",
    "q7Nit8JW": "80005",
    "64hAvkZX": "0",
    "30Kw4WBa": "4",
    "TdDHf59J": "10110",
    "wJsB35iH": "2",
    "37moriMq": "0",
    "I0ZNnm4b": "宝箱獲得",
    "zwwtHlMM": "宝箱獲得"
  },
  {
    "N1b6SUW4": "812",
    "j28VNcUW": "5000007",
    "IkmC8gG2": "2",
    "q7Nit8JW": "80006",
    "64hAvkZX": "0",
    "30Kw4WBa": "4",
    "TdDHf59J": "11012",
    "wJsB35iH": "1",
    "37moriMq": "0",
    "I0ZNnm4b": "宝箱獲得",
    "zwwtHlMM": "宝箱獲得"
  },
  {
    "N1b6SUW4": "900",
    "j28VNcUW": "5000008",
    "IkmC8gG2": "4",
    "q7Nit8JW": "",
    "64hAvkZX": "1",
    "30Kw4WBa": "8",
    "TdDHf59J": "0",
    "wJsB35iH": "1",
    "37moriMq": "0",
    "I0ZNnm4b": "クエスト初クリアボーナス",
    "zwwtHlMM": "クエスト初クリア"
  },
  {
    "N1b6SUW4": "901",
    "j28VNcUW": "5000008",
    "IkmC8gG2": "1",
    "q7Nit8JW": "100",
    "64hAvkZX": "1",
    "30Kw4WBa": "7",
    "TdDHf59J": "48000",
    "wJsB35iH": "1",
    "37moriMq": "0",
    "I0ZNnm4b": "達成率コンプリートボーナス",
    "zwwtHlMM": "達成率コンプリート"
  },
  {
    "N1b6SUW4": "902",
    "j28VNcUW": "5000008",
    "IkmC8gG2": "1",
    "q7Nit8JW": "80",
    "64hAvkZX": "1",
    "30Kw4WBa": "6",
    "TdDHf59J": "10313",
    "wJsB35iH": "1",
    "37moriMq": "1:0",
    "I0ZNnm4b": "達成率80%ボーナス",
    "zwwtHlMM": "達成率80％"
  },
  {
    "N1b6SUW4": "903",
    "j28VNcUW": "5000008",
    "IkmC8gG2": "1",
    "q7Nit8JW": "30",
    "64hAvkZX": "1",
    "30Kw4WBa": "7",
    "TdDHf59J": "35100",
    "wJsB35iH": "1",
    "37moriMq": "1:0",
    "I0ZNnm4b": "達成率30%ボーナス",
    "zwwtHlMM": "達成率30％"
  },
  {
    "N1b6SUW4": "904",
    "j28VNcUW": "5000008",
    "IkmC8gG2": "2",
    "q7Nit8JW": "901",
    "64hAvkZX": "1",
    "30Kw4WBa": "7",
    "TdDHf59J": "34803",
    "wJsB35iH": "1",
    "37moriMq": "0",
    "I0ZNnm4b": "初回条件達成ボーナス",
    "zwwtHlMM": "８ターン内にゼブラを撃破した"
  },
  {
    "N1b6SUW4": "905",
    "j28VNcUW": "5000008",
    "IkmC8gG2": "2",
    "q7Nit8JW": "902",
    "64hAvkZX": "1",
    "30Kw4WBa": "7",
    "TdDHf59J": "34804",
    "wJsB35iH": "1",
    "37moriMq": "0",
    "I0ZNnm4b": "初回条件達成ボーナス",
    "zwwtHlMM": "９ターン内にルザ＆フィーを撃破した"
  },
  {
    "N1b6SUW4": "906",
    "j28VNcUW": "5000008",
    "IkmC8gG2": "2",
    "q7Nit8JW": "90001",
    "64hAvkZX": "0",
    "30Kw4WBa": "12",
    "TdDHf59J": "1",
    "wJsB35iH": "4",
    "37moriMq": "0",
    "I0ZNnm4b": "条件達成ボーナス",
    "zwwtHlMM": "クリア報酬"
  },
  {
    "N1b6SUW4": "907",
    "j28VNcUW": "5000008",
    "IkmC8gG2": "2",
    "q7Nit8JW": "90017",
    "64hAvkZX": "0",
    "30Kw4WBa": "12",
    "TdDHf59J": "1",
    "wJsB35iH": "2",
    "37moriMq": "0",
    "I0ZNnm4b": "条件達成ボーナス",
    "zwwtHlMM": "８ターン内にゼブラを撃破した"
  },
  {
    "N1b6SUW4": "908",
    "j28VNcUW": "5000008",
    "IkmC8gG2": "2",
    "q7Nit8JW": "90018",
    "64hAvkZX": "0",
    "30Kw4WBa": "12",
    "TdDHf59J": "1",
    "wJsB35iH": "2",
    "37moriMq": "0",
    "I0ZNnm4b": "条件達成ボーナス",
    "zwwtHlMM": "９ターン内にルザ＆フィーを撃破した"
  },
  {
    "N1b6SUW4": "1000",
    "j28VNcUW": "5000009",
    "IkmC8gG2": "4",
    "q7Nit8JW": "",
    "64hAvkZX": "1",
    "30Kw4WBa": "8",
    "TdDHf59J": "0",
    "wJsB35iH": "1",
    "37moriMq": "0",
    "I0ZNnm4b": "クエスト初クリアボーナス",
    "zwwtHlMM": "クエスト初クリア"
  },
  {
    "N1b6SUW4": "1001",
    "j28VNcUW": "5000009",
    "IkmC8gG2": "1",
    "q7Nit8JW": "100",
    "64hAvkZX": "1",
    "30Kw4WBa": "7",
    "TdDHf59J": "48100",
    "wJsB35iH": "1",
    "37moriMq": "0",
    "I0ZNnm4b": "達成率コンプリートボーナス",
    "zwwtHlMM": "達成率コンプリート"
  },
  {
    "N1b6SUW4": "1002",
    "j28VNcUW": "5000009",
    "IkmC8gG2": "1",
    "q7Nit8JW": "70",
    "64hAvkZX": "1",
    "30Kw4WBa": "6",
    "TdDHf59J": "20302",
    "wJsB35iH": "1",
    "37moriMq": "1:0",
    "I0ZNnm4b": "達成率70%ボーナス",
    "zwwtHlMM": "達成率70％"
  },
  {
    "N1b6SUW4": "1003",
    "j28VNcUW": "5000009",
    "IkmC8gG2": "1",
    "q7Nit8JW": "30",
    "64hAvkZX": "1",
    "30Kw4WBa": "6",
    "TdDHf59J": "10313",
    "wJsB35iH": "1",
    "37moriMq": "1:0",
    "I0ZNnm4b": "達成率30%ボーナス",
    "zwwtHlMM": "達成率30％"
  },
  {
    "N1b6SUW4": "1004",
    "j28VNcUW": "5000009",
    "IkmC8gG2": "2",
    "q7Nit8JW": "1002",
    "64hAvkZX": "1",
    "30Kw4WBa": "6",
    "TdDHf59J": "50612",
    "wJsB35iH": "2",
    "37moriMq": "1:0",
    "I0ZNnm4b": "初回条件達成ボーナス",
    "zwwtHlMM": "２５ターン内にカルデス最終戦に勝利"
  },
  {
    "N1b6SUW4": "1005",
    "j28VNcUW": "5000009",
    "IkmC8gG2": "2",
    "q7Nit8JW": "1003",
    "64hAvkZX": "1",
    "30Kw4WBa": "7",
    "TdDHf59J": "44400",
    "wJsB35iH": "1",
    "37moriMq": "0",
    "I0ZNnm4b": "初回条件達成ボーナス",
    "zwwtHlMM": "ノエラ地区でゼブラ達を撃破した"
  },
  {
    "N1b6SUW4": "1006",
    "j28VNcUW": "5000009",
    "IkmC8gG2": "2",
    "q7Nit8JW": "100001",
    "64hAvkZX": "0",
    "30Kw4WBa": "12",
    "TdDHf59J": "1",
    "wJsB35iH": "8",
    "37moriMq": "0",
    "I0ZNnm4b": "条件達成ボーナス",
    "zwwtHlMM": "クリア報酬"
  },
  {
    "N1b6SUW4": "1007",
    "j28VNcUW": "5000009",
    "IkmC8gG2": "2",
    "q7Nit8JW": "100013",
    "64hAvkZX": "0",
    "30Kw4WBa": "12",
    "TdDHf59J": "1",
    "wJsB35iH": "4",
    "37moriMq": "0",
    "I0ZNnm4b": "条件達成ボーナス",
    "zwwtHlMM": "２５ターン内にカルデス最終戦に勝利"
  },
  {
    "N1b6SUW4": "1008",
    "j28VNcUW": "5000009",
    "IkmC8gG2": "2",
    "q7Nit8JW": "100005",
    "64hAvkZX": "0",
    "30Kw4WBa": "12",
    "TdDHf59J": "1",
    "wJsB35iH": "2",
    "37moriMq": "0",
    "I0ZNnm4b": "条件達成ボーナス",
    "zwwtHlMM": "ノエラ地区でゼブラ達を撃破した"
  },
  {
    "N1b6SUW4": "1009",
    "j28VNcUW": "5000009",
    "IkmC8gG2": "2",
    "q7Nit8JW": "100015",
    "64hAvkZX": "0",
    "30Kw4WBa": "12",
    "TdDHf59J": "1",
    "wJsB35iH": "2",
    "37moriMq": "0",
    "I0ZNnm4b": "条件達成ボーナス",
    "zwwtHlMM": "アーリンド神学校でのローランド戦で四戦士の犠牲0で勝利する"
  },
  {
    "N1b6SUW4": "1100",
    "j28VNcUW": "5000010",
    "IkmC8gG2": "4",
    "q7Nit8JW": "",
    "64hAvkZX": "1",
    "30Kw4WBa": "8",
    "TdDHf59J": "0",
    "wJsB35iH": "1",
    "37moriMq": "0",
    "I0ZNnm4b": "クエスト初クリアボーナス",
    "zwwtHlMM": "クエスト初クリア"
  },
  {
    "N1b6SUW4": "1101",
    "j28VNcUW": "5000010",
    "IkmC8gG2": "1",
    "q7Nit8JW": "100",
    "64hAvkZX": "1",
    "30Kw4WBa": "7",
    "TdDHf59J": "48500",
    "wJsB35iH": "1",
    "37moriMq": "0",
    "I0ZNnm4b": "達成率コンプリートボーナス",
    "zwwtHlMM": "達成率コンプリート"
  },
  {
    "N1b6SUW4": "1102",
    "j28VNcUW": "5000010",
    "IkmC8gG2": "1",
    "q7Nit8JW": "70",
    "64hAvkZX": "1",
    "30Kw4WBa": "6",
    "TdDHf59J": "20302",
    "wJsB35iH": "1",
    "37moriMq": "1:0",
    "I0ZNnm4b": "達成率70%ボーナス",
    "zwwtHlMM": "達成率70％"
  },
  {
    "N1b6SUW4": "1103",
    "j28VNcUW": "5000010",
    "IkmC8gG2": "1",
    "q7Nit8JW": "30",
    "64hAvkZX": "1",
    "30Kw4WBa": "6",
    "TdDHf59J": "10313",
    "wJsB35iH": "1",
    "37moriMq": "1:0",
    "I0ZNnm4b": "達成率30%ボーナス",
    "zwwtHlMM": "達成率30％"
  },
  {
    "N1b6SUW4": "1104",
    "j28VNcUW": "5000010",
    "IkmC8gG2": "2",
    "q7Nit8JW": "1100",
    "64hAvkZX": "1",
    "30Kw4WBa": "7",
    "TdDHf59J": "44300",
    "wJsB35iH": "1",
    "37moriMq": "0",
    "I0ZNnm4b": "初回条件達成ボーナス",
    "zwwtHlMM": "DUEL-GXの自爆を阻止し、メルキオを撃破した"
  },
  {
    "N1b6SUW4": "1105",
    "j28VNcUW": "5000010",
    "IkmC8gG2": "2",
    "q7Nit8JW": "1101",
    "64hAvkZX": "1",
    "30Kw4WBa": "6",
    "TdDHf59J": "50612",
    "wJsB35iH": "1",
    "37moriMq": "1:0",
    "I0ZNnm4b": "初回条件達成ボーナス",
    "zwwtHlMM": "DUEL-GXの犠牲によりメルキオを撃破した"
  },
  {
    "N1b6SUW4": "1106",
    "j28VNcUW": "5000010",
    "IkmC8gG2": "2",
    "q7Nit8JW": "1102",
    "64hAvkZX": "1",
    "30Kw4WBa": "8",
    "TdDHf59J": "0",
    "wJsB35iH": "3",
    "37moriMq": "0",
    "I0ZNnm4b": "初回条件達成ボーナス",
    "zwwtHlMM": "ロディンがミセルと出会う前にメルキオを撃破した"
  },
  {
    "N1b6SUW4": "1107",
    "j28VNcUW": "5000010",
    "IkmC8gG2": "2",
    "q7Nit8JW": "1103",
    "64hAvkZX": "1",
    "30Kw4WBa": "6",
    "TdDHf59J": "40432",
    "wJsB35iH": "3",
    "37moriMq": "1:0",
    "I0ZNnm4b": "初回条件達成ボーナス",
    "zwwtHlMM": "ミセル達5人が全員揃わないままでメルキオを撃破した"
  },
  {
    "N1b6SUW4": "1108",
    "j28VNcUW": "5000010",
    "IkmC8gG2": "2",
    "q7Nit8JW": "110052",
    "64hAvkZX": "0",
    "30Kw4WBa": "12",
    "TdDHf59J": "1",
    "wJsB35iH": "8",
    "37moriMq": "0",
    "I0ZNnm4b": "条件達成ボーナス",
    "zwwtHlMM": "DUEL-GXの自爆を阻止し、メルキオを撃破した"
  },
  {
    "N1b6SUW4": "1109",
    "j28VNcUW": "5000010",
    "IkmC8gG2": "2",
    "q7Nit8JW": "110053",
    "64hAvkZX": "0",
    "30Kw4WBa": "12",
    "TdDHf59J": "1",
    "wJsB35iH": "8",
    "37moriMq": "0",
    "I0ZNnm4b": "条件達成ボーナス",
    "zwwtHlMM": "DUEL-GXの犠牲によりメルキオを撃破した"
  },
  {
    "N1b6SUW4": "1110",
    "j28VNcUW": "5000010",
    "IkmC8gG2": "2",
    "q7Nit8JW": "110003",
    "64hAvkZX": "0",
    "30Kw4WBa": "12",
    "TdDHf59J": "1",
    "wJsB35iH": "9",
    "37moriMq": "0",
    "I0ZNnm4b": "条件達成ボーナス",
    "zwwtHlMM": "ロディンがミセルと出会う前にメルキオを撃破した"
  },
  {
    "N1b6SUW4": "1111",
    "j28VNcUW": "5000010",
    "IkmC8gG2": "2",
    "q7Nit8JW": "110026",
    "64hAvkZX": "0",
    "30Kw4WBa": "12",
    "TdDHf59J": "1",
    "wJsB35iH": "6",
    "37moriMq": "0",
    "I0ZNnm4b": "条件達成ボーナス",
    "zwwtHlMM": "ミセル達5人が全員揃わないままでメルキオを撃破した"
  },
  {
    "N1b6SUW4": "1300",
    "j28VNcUW": "5000011",
    "IkmC8gG2": "4",
    "q7Nit8JW": "",
    "64hAvkZX": "1",
    "30Kw4WBa": "8",
    "TdDHf59J": "0",
    "wJsB35iH": "1",
    "37moriMq": "0",
    "I0ZNnm4b": "クエスト初クリアボーナス",
    "zwwtHlMM": "クエスト初クリア"
  },
  {
    "N1b6SUW4": "1301",
    "j28VNcUW": "5000011",
    "IkmC8gG2": "1",
    "q7Nit8JW": "100",
    "64hAvkZX": "1",
    "30Kw4WBa": "7",
    "TdDHf59J": "45201",
    "wJsB35iH": "1",
    "37moriMq": "0",
    "I0ZNnm4b": "達成率コンプリートボーナス",
    "zwwtHlMM": "達成率コンプリート"
  },
  {
    "N1b6SUW4": "1302",
    "j28VNcUW": "5000011",
    "IkmC8gG2": "1",
    "q7Nit8JW": "40",
    "64hAvkZX": "1",
    "30Kw4WBa": "6",
    "TdDHf59J": "10743",
    "wJsB35iH": "1",
    "37moriMq": "1:1",
    "I0ZNnm4b": "達成率40%ボーナス",
    "zwwtHlMM": "達成率40％"
  },
  {
    "N1b6SUW4": "1303",
    "j28VNcUW": "5000011",
    "IkmC8gG2": "2",
    "q7Nit8JW": "130014",
    "64hAvkZX": "0",
    "30Kw4WBa": "12",
    "TdDHf59J": "1",
    "wJsB35iH": "4",
    "37moriMq": "0",
    "I0ZNnm4b": "条件達成ボーナス",
    "zwwtHlMM": "エリーゼ達を救出した"
  },
  {
    "N1b6SUW4": "1304",
    "j28VNcUW": "5000011",
    "IkmC8gG2": "2",
    "q7Nit8JW": "130015",
    "64hAvkZX": "0",
    "30Kw4WBa": "12",
    "TdDHf59J": "1",
    "wJsB35iH": "6",
    "37moriMq": "0",
    "I0ZNnm4b": "条件達成ボーナス",
    "zwwtHlMM": "魔神を討伐し、エリーゼ達を救出した"
  },
  {
    "N1b6SUW4": "1400",
    "j28VNcUW": "5000012",
    "IkmC8gG2": "4",
    "q7Nit8JW": "",
    "64hAvkZX": "1",
    "30Kw4WBa": "8",
    "TdDHf59J": "0",
    "wJsB35iH": "1",
    "37moriMq": "0",
    "I0ZNnm4b": "クエスト初クリアボーナス",
    "zwwtHlMM": "クエスト初クリア"
  },
  {
    "N1b6SUW4": "1401",
    "j28VNcUW": "5000012",
    "IkmC8gG2": "1",
    "q7Nit8JW": "100",
    "64hAvkZX": "1",
    "30Kw4WBa": "7",
    "TdDHf59J": "49200",
    "wJsB35iH": "1",
    "37moriMq": "0",
    "I0ZNnm4b": "達成率コンプリートボーナス",
    "zwwtHlMM": "達成率コンプリート"
  },
  {
    "N1b6SUW4": "1402",
    "j28VNcUW": "5000012",
    "IkmC8gG2": "1",
    "q7Nit8JW": "70",
    "64hAvkZX": "1",
    "30Kw4WBa": "6",
    "TdDHf59J": "20302",
    "wJsB35iH": "1",
    "37moriMq": "1:0",
    "I0ZNnm4b": "達成率70%ボーナス",
    "zwwtHlMM": "達成率70％"
  },
  {
    "N1b6SUW4": "1403",
    "j28VNcUW": "5000012",
    "IkmC8gG2": "1",
    "q7Nit8JW": "30",
    "64hAvkZX": "1",
    "30Kw4WBa": "6",
    "TdDHf59J": "10313",
    "wJsB35iH": "1",
    "37moriMq": "1:0",
    "I0ZNnm4b": "達成率30%ボーナス",
    "zwwtHlMM": "達成率30％"
  },
  {
    "N1b6SUW4": "1404",
    "j28VNcUW": "5000012",
    "IkmC8gG2": "2",
    "q7Nit8JW": "1400",
    "64hAvkZX": "1",
    "30Kw4WBa": "9",
    "TdDHf59J": "3",
    "wJsB35iH": "2",
    "37moriMq": "0",
    "I0ZNnm4b": "初回条件達成ボーナス",
    "zwwtHlMM": "腐堕狂神メロードを撃破"
  },
  {
    "N1b6SUW4": "1405",
    "j28VNcUW": "5000012",
    "IkmC8gG2": "2",
    "q7Nit8JW": "1401",
    "64hAvkZX": "1",
    "30Kw4WBa": "7",
    "TdDHf59J": "38700",
    "wJsB35iH": "1",
    "37moriMq": "0",
    "I0ZNnm4b": "初回条件達成ボーナス",
    "zwwtHlMM": "ファダルたちがイシュグリアからの帰還に成功"
  },
  {
    "N1b6SUW4": "1406",
    "j28VNcUW": "5000012",
    "IkmC8gG2": "2",
    "q7Nit8JW": "1402",
    "64hAvkZX": "1",
    "30Kw4WBa": "6",
    "TdDHf59J": "50612",
    "wJsB35iH": "1",
    "37moriMq": "1:0",
    "I0ZNnm4b": "初回条件達成ボーナス",
    "zwwtHlMM": "仲間が消息不明となる"
  },
  {
    "N1b6SUW4": "1407",
    "j28VNcUW": "5000012",
    "IkmC8gG2": "2",
    "q7Nit8JW": "140034",
    "64hAvkZX": "0",
    "30Kw4WBa": "12",
    "TdDHf59J": "1",
    "wJsB35iH": "8",
    "37moriMq": "0",
    "I0ZNnm4b": "条件達成ボーナス",
    "zwwtHlMM": "腐堕狂神メロードを撃破"
  },
  {
    "N1b6SUW4": "1408",
    "j28VNcUW": "5000012",
    "IkmC8gG2": "2",
    "q7Nit8JW": "140035",
    "64hAvkZX": "0",
    "30Kw4WBa": "12",
    "TdDHf59J": "1",
    "wJsB35iH": "6",
    "37moriMq": "0",
    "I0ZNnm4b": "条件達成ボーナス",
    "zwwtHlMM": "ファダルたちがイシュグリアからの帰還に成功"
  },
  {
    "N1b6SUW4": "1409",
    "j28VNcUW": "5000012",
    "IkmC8gG2": "2",
    "q7Nit8JW": "140036",
    "64hAvkZX": "0",
    "30Kw4WBa": "12",
    "TdDHf59J": "1",
    "wJsB35iH": "4",
    "37moriMq": "0",
    "I0ZNnm4b": "条件達成ボーナス",
    "zwwtHlMM": "仲間が消息不明となる"
  },
  {
    "N1b6SUW4": "1700",
    "j28VNcUW": "5000013",
    "IkmC8gG2": "4",
    "q7Nit8JW": "",
    "64hAvkZX": "1",
    "30Kw4WBa": "8",
    "TdDHf59J": "0",
    "wJsB35iH": "1",
    "37moriMq": "0",
    "I0ZNnm4b": "クエスト初クリアボーナス",
    "zwwtHlMM": "クエスト初クリア"
  },
  {
    "N1b6SUW4": "1701",
    "j28VNcUW": "5000013",
    "IkmC8gG2": "1",
    "q7Nit8JW": "100",
    "64hAvkZX": "1",
    "30Kw4WBa": "7",
    "TdDHf59J": "60400",
    "wJsB35iH": "1",
    "37moriMq": "0",
    "I0ZNnm4b": "達成率コンプリートボーナス",
    "zwwtHlMM": "達成率コンプリート"
  },
  {
    "N1b6SUW4": "1702",
    "j28VNcUW": "5000013",
    "IkmC8gG2": "1",
    "q7Nit8JW": "40",
    "64hAvkZX": "1",
    "30Kw4WBa": "6",
    "TdDHf59J": "10875",
    "wJsB35iH": "1",
    "37moriMq": "1:1",
    "I0ZNnm4b": "達成率40%ボーナス",
    "zwwtHlMM": "達成率40％"
  },
  {
    "N1b6SUW4": "1703",
    "j28VNcUW": "5000013",
    "IkmC8gG2": "2",
    "q7Nit8JW": "1500",
    "64hAvkZX": "1",
    "30Kw4WBa": "9",
    "TdDHf59J": "3",
    "wJsB35iH": "2",
    "37moriMq": "0",
    "I0ZNnm4b": "初回条件達成ボーナス",
    "zwwtHlMM": "先遣隊全員が揃ってイシュグリアからの帰還に成功"
  },
  {
    "N1b6SUW4": "1704",
    "j28VNcUW": "5000013",
    "IkmC8gG2": "2",
    "q7Nit8JW": "1501",
    "64hAvkZX": "1",
    "30Kw4WBa": "6",
    "TdDHf59J": "20302",
    "wJsB35iH": "1",
    "37moriMq": "1:0",
    "I0ZNnm4b": "初回条件達成ボーナス",
    "zwwtHlMM": "ミーファ一人が生き残り魔獣を撃破"
  },
  {
    "N1b6SUW4": "1705",
    "j28VNcUW": "5000013",
    "IkmC8gG2": "2",
    "q7Nit8JW": "150002",
    "64hAvkZX": "0",
    "30Kw4WBa": "12",
    "TdDHf59J": "1",
    "wJsB35iH": "6",
    "37moriMq": "0",
    "I0ZNnm4b": "条件達成ボーナス",
    "zwwtHlMM": "先遣隊全員が揃ってイシュグリアからの帰還に成功"
  },
  {
    "N1b6SUW4": "1706",
    "j28VNcUW": "5000013",
    "IkmC8gG2": "2",
    "q7Nit8JW": "150001",
    "64hAvkZX": "0",
    "30Kw4WBa": "12",
    "TdDHf59J": "1",
    "wJsB35iH": "4",
    "37moriMq": "0",
    "I0ZNnm4b": "条件達成ボーナス",
    "zwwtHlMM": "ミーファ一人が生き残り魔獣を撃破"
  },
  {
    "N1b6SUW4": "1900",
    "j28VNcUW": "5000014",
    "IkmC8gG2": "4",
    "q7Nit8JW": "",
    "64hAvkZX": "1",
    "30Kw4WBa": "8",
    "TdDHf59J": "0",
    "wJsB35iH": "1",
    "37moriMq": "0",
    "I0ZNnm4b": "クエスト初クリアボーナス",
    "zwwtHlMM": "クエスト初クリア"
  },
  {
    "N1b6SUW4": "1901",
    "j28VNcUW": "5000014",
    "IkmC8gG2": "1",
    "q7Nit8JW": "100",
    "64hAvkZX": "1",
    "30Kw4WBa": "7",
    "TdDHf59J": "45202",
    "wJsB35iH": "1",
    "37moriMq": "0",
    "I0ZNnm4b": "達成率コンプリートボーナス",
    "zwwtHlMM": "達成率コンプリート"
  },
  {
    "N1b6SUW4": "1902",
    "j28VNcUW": "5000014",
    "IkmC8gG2": "1",
    "q7Nit8JW": "80",
    "64hAvkZX": "1",
    "30Kw4WBa": "6",
    "TdDHf59J": "20683",
    "wJsB35iH": "1",
    "37moriMq": "1:1",
    "I0ZNnm4b": "達成率80%ボーナス",
    "zwwtHlMM": "達成率80％"
  },
  {
    "N1b6SUW4": "1903",
    "j28VNcUW": "5000014",
    "IkmC8gG2": "2",
    "q7Nit8JW": "160099",
    "64hAvkZX": "0",
    "30Kw4WBa": "12",
    "TdDHf59J": "1",
    "wJsB35iH": "4",
    "37moriMq": "0",
    "I0ZNnm4b": "条件達成ボーナス",
    "zwwtHlMM": "魔獣を倒した"
  },
  {
    "N1b6SUW4": "2000",
    "j28VNcUW": "5000015",
    "IkmC8gG2": "4",
    "q7Nit8JW": "",
    "64hAvkZX": "1",
    "30Kw4WBa": "8",
    "TdDHf59J": "0",
    "wJsB35iH": "1",
    "37moriMq": "0",
    "I0ZNnm4b": "クエスト初クリアボーナス",
    "zwwtHlMM": "クエスト初クリア"
  },
  {
    "N1b6SUW4": "2001",
    "j28VNcUW": "5000015",
    "IkmC8gG2": "1",
    "q7Nit8JW": "100",
    "64hAvkZX": "1",
    "30Kw4WBa": "7",
    "TdDHf59J": "60410",
    "wJsB35iH": "1",
    "37moriMq": "0",
    "I0ZNnm4b": "達成率コンプリートボーナス",
    "zwwtHlMM": "達成率コンプリート"
  },
  {
    "N1b6SUW4": "2002",
    "j28VNcUW": "5000015",
    "IkmC8gG2": "1",
    "q7Nit8JW": "80",
    "64hAvkZX": "1",
    "30Kw4WBa": "6",
    "TdDHf59J": "10313",
    "wJsB35iH": "2",
    "37moriMq": "1:0",
    "I0ZNnm4b": "達成率80%ボーナス",
    "zwwtHlMM": "達成率80％"
  },
  {
    "N1b6SUW4": "2003",
    "j28VNcUW": "5000015",
    "IkmC8gG2": "1",
    "q7Nit8JW": "30",
    "64hAvkZX": "1",
    "30Kw4WBa": "6",
    "TdDHf59J": "50612",
    "wJsB35iH": "1",
    "37moriMq": "1:0",
    "I0ZNnm4b": "達成率30%ボーナス",
    "zwwtHlMM": "達成率30％"
  },
  {
    "N1b6SUW4": "2004",
    "j28VNcUW": "5000015",
    "IkmC8gG2": "2",
    "q7Nit8JW": "1700",
    "64hAvkZX": "1",
    "30Kw4WBa": "9",
    "TdDHf59J": "3",
    "wJsB35iH": "2",
    "37moriMq": "0",
    "I0ZNnm4b": "初回条件達成ボーナス",
    "zwwtHlMM": "リードたち全員がグランガイアから脱出した"
  },
  {
    "N1b6SUW4": "2005",
    "j28VNcUW": "5000015",
    "IkmC8gG2": "2",
    "q7Nit8JW": "1702",
    "64hAvkZX": "1",
    "30Kw4WBa": "6",
    "TdDHf59J": "20302",
    "wJsB35iH": "1",
    "37moriMq": "1:0",
    "I0ZNnm4b": "初回条件達成ボーナス",
    "zwwtHlMM": "リードとルカナが民衆を率いてグランガイアを脱出した"
  },
  {
    "N1b6SUW4": "2006",
    "j28VNcUW": "5000015",
    "IkmC8gG2": "2",
    "q7Nit8JW": "170039",
    "64hAvkZX": "0",
    "30Kw4WBa": "12",
    "TdDHf59J": "1",
    "wJsB35iH": "6",
    "37moriMq": "0",
    "I0ZNnm4b": "条件達成ボーナス",
    "zwwtHlMM": "リードたち全員がグランガイアから脱出した"
  },
  {
    "N1b6SUW4": "2007",
    "j28VNcUW": "5000015",
    "IkmC8gG2": "2",
    "q7Nit8JW": "170040",
    "64hAvkZX": "0",
    "30Kw4WBa": "12",
    "TdDHf59J": "1",
    "wJsB35iH": "4",
    "37moriMq": "0",
    "I0ZNnm4b": "条件達成ボーナス",
    "zwwtHlMM": "リードとルカナが民衆を率いてグランガイアを脱出した"
  },
  {
    "N1b6SUW4": "2100",
    "j28VNcUW": "5000016",
    "IkmC8gG2": "4",
    "q7Nit8JW": "",
    "64hAvkZX": "1",
    "30Kw4WBa": "8",
    "TdDHf59J": "0",
    "wJsB35iH": "1",
    "37moriMq": "0",
    "I0ZNnm4b": "クエスト初クリアボーナス",
    "zwwtHlMM": "クエスト初クリア"
  },
  {
    "N1b6SUW4": "2101",
    "j28VNcUW": "5000016",
    "IkmC8gG2": "1",
    "q7Nit8JW": "100",
    "64hAvkZX": "1",
    "30Kw4WBa": "7",
    "TdDHf59J": "62200",
    "wJsB35iH": "1",
    "37moriMq": "0",
    "I0ZNnm4b": "達成率コンプリートボーナス",
    "zwwtHlMM": "達成率コンプリート"
  },
  {
    "N1b6SUW4": "2102",
    "j28VNcUW": "5000016",
    "IkmC8gG2": "1",
    "q7Nit8JW": "40",
    "64hAvkZX": "1",
    "30Kw4WBa": "6",
    "TdDHf59J": "50612",
    "wJsB35iH": "1",
    "37moriMq": "1:0",
    "I0ZNnm4b": "達成率40%ボーナス",
    "zwwtHlMM": "達成率40％"
  },
  {
    "N1b6SUW4": "2104",
    "j28VNcUW": "5000016",
    "IkmC8gG2": "2",
    "q7Nit8JW": "1800",
    "64hAvkZX": "1",
    "30Kw4WBa": "9",
    "TdDHf59J": "3",
    "wJsB35iH": "2",
    "37moriMq": "0",
    "I0ZNnm4b": "初回条件達成ボーナス",
    "zwwtHlMM": "シリウスたちが民衆を率いてバリウラから脱出した"
  },
  {
    "N1b6SUW4": "2105",
    "j28VNcUW": "5000016",
    "IkmC8gG2": "2",
    "q7Nit8JW": "1801",
    "64hAvkZX": "1",
    "30Kw4WBa": "6",
    "TdDHf59J": "20302",
    "wJsB35iH": "1",
    "37moriMq": "1:0",
    "I0ZNnm4b": "初回条件達成ボーナス",
    "zwwtHlMM": "シリウスがバリウラを脱出した"
  },
  {
    "N1b6SUW4": "2106",
    "j28VNcUW": "5000016",
    "IkmC8gG2": "2",
    "q7Nit8JW": "180002",
    "64hAvkZX": "0",
    "30Kw4WBa": "12",
    "TdDHf59J": "1",
    "wJsB35iH": "6",
    "37moriMq": "0",
    "I0ZNnm4b": "条件達成ボーナス",
    "zwwtHlMM": "シリウスたちが民衆を率いてバリウラから脱出した"
  },
  {
    "N1b6SUW4": "2107",
    "j28VNcUW": "5000016",
    "IkmC8gG2": "2",
    "q7Nit8JW": "180001",
    "64hAvkZX": "0",
    "30Kw4WBa": "12",
    "TdDHf59J": "1",
    "wJsB35iH": "4",
    "37moriMq": "0",
    "I0ZNnm4b": "条件達成ボーナス",
    "zwwtHlMM": "シリウスがバリウラを脱出した"
  },
  {
    "N1b6SUW4": "5000",
    "j28VNcUW": "5200000",
    "IkmC8gG2": "4",
    "q7Nit8JW": "",
    "64hAvkZX": "1",
    "30Kw4WBa": "8",
    "TdDHf59J": "0",
    "wJsB35iH": "1",
    "37moriMq": "0",
    "I0ZNnm4b": "クエスト初クリアボーナス",
    "zwwtHlMM": "クエスト初クリア"
  },
  {
    "N1b6SUW4": "5001",
    "j28VNcUW": "5200000",
    "IkmC8gG2": "2",
    "q7Nit8JW": "5001",
    "64hAvkZX": "1",
    "30Kw4WBa": "6",
    "TdDHf59J": "60794",
    "wJsB35iH": "1",
    "37moriMq": "1:1",
    "I0ZNnm4b": "初回条件達成ボーナス",
    "zwwtHlMM": "魔神を討伐した"
  },
  {
    "N1b6SUW4": "5002",
    "j28VNcUW": "5200000",
    "IkmC8gG2": "2",
    "q7Nit8JW": "5000",
    "64hAvkZX": "1",
    "30Kw4WBa": "6",
    "TdDHf59J": "10704",
    "wJsB35iH": "1",
    "37moriMq": "1:1",
    "I0ZNnm4b": "初回条件達成ボーナス",
    "zwwtHlMM": "呪騎葬神ホロウナを討伐した"
  },
  {
    "N1b6SUW4": "5003",
    "j28VNcUW": "5200000",
    "IkmC8gG2": "2",
    "q7Nit8JW": "5000",
    "64hAvkZX": "1",
    "30Kw4WBa": "6",
    "TdDHf59J": "20654",
    "wJsB35iH": "1",
    "37moriMq": "1:1",
    "I0ZNnm4b": "初回条件達成ボーナス",
    "zwwtHlMM": "呪騎葬神ホロウナを討伐した"
  },
  {
    "N1b6SUW4": "5004",
    "j28VNcUW": "5200000",
    "IkmC8gG2": "2",
    "q7Nit8JW": "500001",
    "64hAvkZX": "0",
    "30Kw4WBa": "12",
    "TdDHf59J": "1",
    "wJsB35iH": "4",
    "37moriMq": "0",
    "I0ZNnm4b": "条件達成ボーナス",
    "zwwtHlMM": "魔神を討伐した"
  },
  {
    "N1b6SUW4": "5005",
    "j28VNcUW": "5200000",
    "IkmC8gG2": "2",
    "q7Nit8JW": "500002",
    "64hAvkZX": "0",
    "30Kw4WBa": "12",
    "TdDHf59J": "1",
    "wJsB35iH": "6",
    "37moriMq": "0",
    "I0ZNnm4b": "条件達成ボーナス",
    "zwwtHlMM": "呪騎葬神ホロウナを討伐した"
  },
  {
    "N1b6SUW4": "5100",
    "j28VNcUW": "5200001",
    "IkmC8gG2": "4",
    "q7Nit8JW": "",
    "64hAvkZX": "1",
    "30Kw4WBa": "8",
    "TdDHf59J": "0",
    "wJsB35iH": "1",
    "37moriMq": "0",
    "I0ZNnm4b": "クエスト初クリアボーナス",
    "zwwtHlMM": "クエスト初クリア"
  },
  {
    "N1b6SUW4": "5101",
    "j28VNcUW": "5200001",
    "IkmC8gG2": "2",
    "q7Nit8JW": "5101",
    "64hAvkZX": "1",
    "30Kw4WBa": "6",
    "TdDHf59J": "60904",
    "wJsB35iH": "1",
    "37moriMq": "1:1",
    "I0ZNnm4b": "初回条件達成ボーナス",
    "zwwtHlMM": "アリス達が任務を達成した"
  },
  {
    "N1b6SUW4": "5102",
    "j28VNcUW": "5200001",
    "IkmC8gG2": "2",
    "q7Nit8JW": "5102",
    "64hAvkZX": "1",
    "30Kw4WBa": "6",
    "TdDHf59J": "50904",
    "wJsB35iH": "1",
    "37moriMq": "1:1",
    "I0ZNnm4b": "初回条件達成ボーナス",
    "zwwtHlMM": "エルザ達が任務を達成した"
  },
  {
    "N1b6SUW4": "5103",
    "j28VNcUW": "5200001",
    "IkmC8gG2": "2",
    "q7Nit8JW": "5100",
    "64hAvkZX": "1",
    "30Kw4WBa": "7",
    "TdDHf59J": "49920",
    "wJsB35iH": "1",
    "37moriMq": "0",
    "I0ZNnm4b": "初回条件達成ボーナス",
    "zwwtHlMM": "アリス達とエルザ達が合流してシードを撃破"
  },
  {
    "N1b6SUW4": "5104",
    "j28VNcUW": "5200001",
    "IkmC8gG2": "2",
    "q7Nit8JW": "510001",
    "64hAvkZX": "0",
    "30Kw4WBa": "12",
    "TdDHf59J": "1",
    "wJsB35iH": "4",
    "37moriMq": "0",
    "I0ZNnm4b": "条件達成ボーナス",
    "zwwtHlMM": "アリス達が任務を達成した"
  },
  {
    "N1b6SUW4": "5105",
    "j28VNcUW": "5200001",
    "IkmC8gG2": "2",
    "q7Nit8JW": "510002",
    "64hAvkZX": "0",
    "30Kw4WBa": "12",
    "TdDHf59J": "1",
    "wJsB35iH": "4",
    "37moriMq": "0",
    "I0ZNnm4b": "条件達成ボーナス",
    "zwwtHlMM": "エルザ達が任務を達成した"
  },
  {
    "N1b6SUW4": "5106",
    "j28VNcUW": "5200001",
    "IkmC8gG2": "2",
    "q7Nit8JW": "510003",
    "64hAvkZX": "0",
    "30Kw4WBa": "12",
    "TdDHf59J": "1",
    "wJsB35iH": "6",
    "37moriMq": "0",
    "I0ZNnm4b": "条件達成ボーナス",
    "zwwtHlMM": "アリス達とエルザ達が合流してシードを撃破"
  },
  {
    "N1b6SUW4": "5200",
    "j28VNcUW": "5200002",
    "IkmC8gG2": "4",
    "q7Nit8JW": "",
    "64hAvkZX": "1",
    "30Kw4WBa": "8",
    "TdDHf59J": "0",
    "wJsB35iH": "1",
    "37moriMq": "0",
    "I0ZNnm4b": "クエスト初クリアボーナス",
    "zwwtHlMM": "クエスト初クリア"
  },
  {
    "N1b6SUW4": "5201",
    "j28VNcUW": "5200002",
    "IkmC8gG2": "1",
    "q7Nit8JW": "100",
    "64hAvkZX": "1",
    "30Kw4WBa": "6",
    "TdDHf59J": "50944",
    "wJsB35iH": "1",
    "37moriMq": "1:1",
    "I0ZNnm4b": "達成率コンプリートボーナス",
    "zwwtHlMM": "達成率コンプリート"
  },
  {
    "N1b6SUW4": "5202",
    "j28VNcUW": "5200002",
    "IkmC8gG2": "2",
    "q7Nit8JW": "5201",
    "64hAvkZX": "1",
    "30Kw4WBa": "6",
    "TdDHf59J": "30764",
    "wJsB35iH": "1",
    "37moriMq": "1:1",
    "I0ZNnm4b": "初回条件達成ボーナス",
    "zwwtHlMM": "ノゾミと共に魔神を撃破"
  },
  {
    "N1b6SUW4": "5203",
    "j28VNcUW": "5200002",
    "IkmC8gG2": "2",
    "q7Nit8JW": "5202",
    "64hAvkZX": "1",
    "30Kw4WBa": "6",
    "TdDHf59J": "20784",
    "wJsB35iH": "1",
    "37moriMq": "1:1",
    "I0ZNnm4b": "初回条件達成ボーナス",
    "zwwtHlMM": "アサヒと共に魔神を撃破"
  },
  {
    "N1b6SUW4": "5204",
    "j28VNcUW": "5200002",
    "IkmC8gG2": "2",
    "q7Nit8JW": "5200",
    "64hAvkZX": "1",
    "30Kw4WBa": "7",
    "TdDHf59J": "49960",
    "wJsB35iH": "1",
    "37moriMq": "0",
    "I0ZNnm4b": "初回条件達成ボーナス",
    "zwwtHlMM": "ナバールと出会い魔神を撃破"
  },
  {
    "N1b6SUW4": "5205",
    "j28VNcUW": "5200002",
    "IkmC8gG2": "2",
    "q7Nit8JW": "520001",
    "64hAvkZX": "0",
    "30Kw4WBa": "12",
    "TdDHf59J": "1",
    "wJsB35iH": "4",
    "37moriMq": "0",
    "I0ZNnm4b": "条件達成ボーナス",
    "zwwtHlMM": "ノゾミと共に魔神を撃破"
  },
  {
    "N1b6SUW4": "5206",
    "j28VNcUW": "5200002",
    "IkmC8gG2": "2",
    "q7Nit8JW": "520002",
    "64hAvkZX": "0",
    "30Kw4WBa": "12",
    "TdDHf59J": "1",
    "wJsB35iH": "4",
    "37moriMq": "0",
    "I0ZNnm4b": "条件達成ボーナス",
    "zwwtHlMM": "アサヒと共に魔神を撃破"
  },
  {
    "N1b6SUW4": "5207",
    "j28VNcUW": "5200002",
    "IkmC8gG2": "2",
    "q7Nit8JW": "520003",
    "64hAvkZX": "0",
    "30Kw4WBa": "12",
    "TdDHf59J": "1",
    "wJsB35iH": "6",
    "37moriMq": "0",
    "I0ZNnm4b": "条件達成ボーナス",
    "zwwtHlMM": "ナバールと出会い魔神を撃破"
  },
  {
    "N1b6SUW4": "5400",
    "j28VNcUW": "5200003",
    "IkmC8gG2": "2",
    "q7Nit8JW": "5301",
    "64hAvkZX": "1",
    "30Kw4WBa": "6",
    "TdDHf59J": "10904",
    "wJsB35iH": "1",
    "37moriMq": "1:1",
    "I0ZNnm4b": "クエストクリアボーナス",
    "zwwtHlMM": "鷹の爪団たちに勝利"
  },
  {
    "N1b6SUW4": "5401",
    "j28VNcUW": "5200003",
    "IkmC8gG2": "2",
    "q7Nit8JW": "5301",
    "64hAvkZX": "1",
    "30Kw4WBa": "6",
    "TdDHf59J": "20844",
    "wJsB35iH": "1",
    "37moriMq": "1:1",
    "I0ZNnm4b": "クエストクリアボーナス",
    "zwwtHlMM": "鷹の爪団たちに勝利"
  },
  {
    "N1b6SUW4": "5402",
    "j28VNcUW": "5200003",
    "IkmC8gG2": "2",
    "q7Nit8JW": "5301",
    "64hAvkZX": "1",
    "30Kw4WBa": "6",
    "TdDHf59J": "30804",
    "wJsB35iH": "1",
    "37moriMq": "1:1",
    "I0ZNnm4b": "クエストクリアボーナス",
    "zwwtHlMM": "鷹の爪団たちに勝利"
  },
  {
    "N1b6SUW4": "5403",
    "j28VNcUW": "5200003",
    "IkmC8gG2": "2",
    "q7Nit8JW": "5301",
    "64hAvkZX": "1",
    "30Kw4WBa": "6",
    "TdDHf59J": "40794",
    "wJsB35iH": "1",
    "37moriMq": "1:1",
    "I0ZNnm4b": "クエストクリアボーナス",
    "zwwtHlMM": "鷹の爪団たちに勝利"
  },
  {
    "N1b6SUW4": "5404",
    "j28VNcUW": "5200003",
    "IkmC8gG2": "2",
    "q7Nit8JW": "5301",
    "64hAvkZX": "1",
    "30Kw4WBa": "6",
    "TdDHf59J": "60994",
    "wJsB35iH": "1",
    "37moriMq": "1:1",
    "I0ZNnm4b": "クエストクリアボーナス",
    "zwwtHlMM": "鷹の爪団たちに勝利"
  },
  {
    "N1b6SUW4": "5405",
    "j28VNcUW": "5200003",
    "IkmC8gG2": "2",
    "q7Nit8JW": "5300",
    "64hAvkZX": "1",
    "30Kw4WBa": "6",
    "TdDHf59J": "51014",
    "wJsB35iH": "1",
    "37moriMq": "1:1",
    "I0ZNnm4b": "クエストクリアボーナス",
    "zwwtHlMM": "大家に勝利"
  },
  {
    "N1b6SUW4": "5406",
    "j28VNcUW": "5200003",
    "IkmC8gG2": "2",
    "q7Nit8JW": "530009",
    "64hAvkZX": "0",
    "30Kw4WBa": "12",
    "TdDHf59J": "1",
    "wJsB35iH": "3",
    "37moriMq": "0",
    "I0ZNnm4b": "クエストクリアボーナス",
    "zwwtHlMM": "クエストクリア"
  }
]