[
  {
    "hBNPQAU0": "1",
    "BilJmqI0": "挑戦者の回廊",
    "qA7M9EjP": "0000-00-00 00:00:00",
    "SzV0Nps7": "0000-00-00 00:00:00",
    "qp37xTDh": "最初にノエルが用意したもののため大きな特徴は無いが、敵は徐々に強くなるため新人召喚師でも挑戦することは可能だろう。",
    "4N25Z87R": "3",
    "c6fVJ9qR": "@0",
    "Q1z2IFjZ": "10,10,3000,0,0,50,10000,2000,1,2,100,0,0,100:1000,100:2000,35,10,0.1,0.1",
    "gNEbgjmh": "-1,-1",
    "59b1eE6N": "1,50,500,100,3000,200,10000,300,15000,:2,100,1000,200,5000,400,10000,1500,15000,:3,3,3000,5,5000,8,10000,12,15000,:2,100,5000,200,10000,600,30000,1000,80000,:3,3,5000,5,10000,8,30000,12,80000,:2,100,5000,200,10000,600,30000,1000,80000,:3,4,10000,6,20000,8,60000,11,100000,:2,100,5000,200,10000,600,30000,1000,80000,:3,4,10000,6,20000,8,60000,11,100000,:2,100,5000,200,10000,600,30000,1000,80000,:3,4,10000,6,20000,8,60000,11,100000,:2,100,5000,200,10000,600,30000,1000,80000,:3,4,10000,6,20000,8,60000,11,100000,:2,100,5000,200,10000,600,30000,1000,80000,:3,4,10000,6,20000,8,60000,11,100000,:2,100,5000,200,10000,600,30000,1000,80000,:3,4,10000,6,20000,8,60000,11,100000,:2,100,5000,200,10000,600,30000,1000,80000,:3,4,10000,6,20000,10,60000,15,100000,:1,500,10000,1000,20000,1500,30000,2500,50000,:2,100,10000,300,20000,700,30000,1500,50000,:3,10,10000,20,20000,30,30000,50,50000,:2,100,5000,200,10000,600,30000,1000,80000,:3,4,10000,6,20000,8,60000,11,100000,:2,100,5000,200,10000,600,30000,1000,80000,:3,4,10000,6,20000,8,60000,11,100000,:2,100,5000,200,10000,600,30000,1000,80000,:3,4,10000,6,20000,8,60000,11,100000,:2,100,5000,200,10000,600,30000,1000,80000,:3,4,10000,6,20000,8,60000,11,100000,:1,500,10000,1000,20000,1500,30000,2500,50000,:2,100,10000,300,20000,700,30000,1500,50000,:3,10,10000,20,20000,30,30000,50,50000,:1,500,10000,1000,20000,1500,30000,2500,50000,:2,100,10000,300,20000,700,30000,1500,50000,:3,10,10000,20,20000,30,30000,50,50000,:1,500,10000,1000,20000,1500,30000,2500,50000,:2,100,10000,300,20000,700,30000,1500,50000,:3,10,10000,20,20000,30,30000,50,50000,:1,500,10000,1000,20000,1500,30000,2500,50000,:2,100,10000,300,20000,700,30000,1500,50000,:3,10,10000,20,20000,30,30000,50,50000,",
    "HSRhkf70": "0",
    "RlFWcCqN": "",
    "J3bZkWUt": "0"
  },
  {
    "hBNPQAU0": "2",
    "BilJmqI0": "力の証明",
    "qA7M9EjP": "0000-00-00 00:00:00",
    "SzV0Nps7": "0000-00-00 00:00:00",
    "qp37xTDh": "新たな修練プログラムは挑戦者たちに基本の戦いを求める。新人召喚師でも、現在の実力を確認しながら着実に経験を積めるだろう。",
    "4N25Z87R": "3",
    "c6fVJ9qR": "@0",
    "Q1z2IFjZ": "0,0,10000,0,0,80,50000,20000,0,0,0,0,0,100:1000,100:2000,35,10,0.1,0.1",
    "gNEbgjmh": "-1,-1",
    "59b1eE6N": "2,100,5000,200,10000,600,30000,1000,80000,:3,3,5000,5,10000,8,30000,12,80000,:2,100,5000,200,10000,600,30000,1000,80000,:3,4,10000,6,20000,8,60000,11,100000,:2,100,5000,200,10000,600,30000,1000,80000,:3,4,10000,6,20000,8,60000,11,100000,:2,100,5000,200,10000,600,30000,1000,80000,:3,4,10000,6,20000,8,60000,11,100000,:2,100,5000,200,10000,600,30000,1000,80000,:3,4,10000,6,20000,8,60000,11,100000,:2,100,5000,200,10000,600,30000,1000,80000,:3,4,10000,6,20000,8,60000,11,100000,:2,100,5000,200,10000,600,30000,1000,80000,:3,4,10000,6,20000,8,60000,11,100000,:2,100,5000,200,10000,600,30000,1000,80000,:3,4,10000,6,20000,10,60000,15,100000,:1,500,10000,1000,20000,1500,30000,2500,50000,:2,100,10000,300,20000,700,30000,1500,50000,:3,10,10000,20,20000,30,30000,50,50000,:2,100,5000,200,10000,600,30000,1000,80000,:3,4,10000,6,20000,8,60000,11,100000,:2,100,5000,200,10000,600,30000,1000,80000,:3,4,10000,6,20000,8,60000,11,100000,:2,100,5000,200,10000,600,30000,1000,80000,:3,4,10000,6,20000,8,60000,11,100000,:2,100,5000,200,10000,600,30000,1000,80000,:3,4,10000,6,20000,8,60000,11,100000,:1,500,10000,1000,20000,1500,30000,2500,50000,:2,100,10000,300,20000,700,30000,1500,50000,:3,10,10000,20,20000,30,30000,50,50000,:1,500,10000,1000,20000,1500,30000,2500,50000,:2,100,10000,300,20000,700,30000,1500,50000,:3,10,10000,20,20000,30,30000,50,50000,:1,500,10000,1000,20000,1500,30000,2500,50000,:2,100,10000,300,20000,700,30000,1500,50000,:3,10,10000,20,20000,30,30000,50,50000,:1,500,10000,1000,20000,1500,30000,2500,50000,:2,100,10000,300,20000,700,30000,1500,50000,:3,10,10000,20,20000,30,30000,50,50000,",
    "HSRhkf70": "0",
    "RlFWcCqN": "",
    "J3bZkWUt": "0"
  },
  {
    "hBNPQAU0": "3",
    "BilJmqI0": "樹の界域",
    "qA7M9EjP": "0000-00-00 00:00:00",
    "SzV0Nps7": "0000-00-00 00:00:00",
    "qp37xTDh": "樹属性ユニットのみという条件で挑む修練プログラム。限定されたユニットでいかに強敵と戦うか。召喚師の技量が試されると言えよう。",
    "4N25Z87R": "3",
    "c6fVJ9qR": "3:3,@0",
    "Q1z2IFjZ": "0,0,50000,10000,0,30,100000,30000,5,10,0,0,0,100:1000,100:2000,35,10,0.1,0.1",
    "gNEbgjmh": "-1,-1",
    "59b1eE6N": "2,100,5000,200,10000,600,30000,1000,80000,:3,4,10000,6,20000,8,60000,11,100000,:2,100,5000,200,10000,600,30000,1000,80000,:3,4,10000,6,20000,8,60000,11,100000,:2,100,5000,200,10000,600,30000,1000,80000,:3,4,10000,6,20000,8,60000,11,100000,:2,100,5000,200,10000,600,30000,1000,80000,:3,4,10000,6,20000,8,60000,11,100000,:2,100,5000,200,10000,600,30000,1000,80000,:3,4,10000,6,20000,8,60000,11,100000,:2,100,5000,200,10000,600,30000,1000,80000,:3,4,10000,6,20000,8,60000,11,100000,:2,100,5000,200,10000,600,30000,1000,80000,:3,4,10000,6,20000,10,60000,15,100000,:1,500,10000,1000,20000,1500,30000,2500,50000,:2,100,10000,300,20000,700,30000,1500,50000,:3,10,10000,20,20000,30,30000,50,50000,:2,100,5000,200,10000,600,30000,1000,80000,:3,4,10000,6,20000,8,60000,11,100000,:2,100,5000,200,10000,600,30000,1000,80000,:3,4,10000,6,20000,8,60000,11,100000,:2,100,5000,200,10000,600,30000,1000,80000,:3,4,10000,6,20000,8,60000,11,100000,:2,100,5000,200,10000,600,30000,1000,80000,:3,4,10000,6,20000,8,60000,11,100000,:1,500,10000,1000,20000,1500,30000,2500,50000,:2,100,10000,300,20000,700,30000,1500,50000,:3,10,10000,20,20000,30,30000,50,50000,:1,500,10000,1000,20000,1500,30000,2500,50000,:2,100,10000,300,20000,700,30000,1500,50000,:3,10,10000,20,20000,30,30000,50,50000,:1,500,10000,1000,20000,1500,30000,2500,50000,:2,100,10000,300,20000,700,30000,1500,50000,:3,10,10000,20,20000,30,30000,50,50000,:1,500,10000,1000,20000,1500,30000,2500,50000,:2,100,10000,300,20000,700,30000,1500,50000,:3,10,10000,20,20000,30,30000,50,50000,",
    "HSRhkf70": "0",
    "RlFWcCqN": "",
    "J3bZkWUt": "0"
  },
  {
    "hBNPQAU0": "4",
    "BilJmqI0": "炎の界域",
    "qA7M9EjP": "0000-00-00 00:00:00",
    "SzV0Nps7": "0000-00-00 00:00:00",
    "qp37xTDh": "炎属性ユニットのみという条件で挑む修練プログラム。限定されたユニットでいかに強敵と戦うか。召喚師の技量が試されると言えよう。",
    "4N25Z87R": "3",
    "c6fVJ9qR": "3:1,@0",
    "Q1z2IFjZ": "0,0,50000,10000,0,60,100000,30000,5,10,0,0,0,100:1000,100:2000,35,10,0.1,0.1",
    "gNEbgjmh": "-1,-1",
    "59b1eE6N": "2,100,5000,200,10000,600,30000,1000,80000,:3,4,10000,6,20000,8,60000,11,100000,:2,100,5000,200,10000,600,30000,1000,80000,:3,4,10000,6,20000,8,60000,11,100000,:2,100,5000,200,10000,600,30000,1000,80000,:3,4,10000,6,20000,8,60000,11,100000,:2,100,5000,200,10000,600,30000,1000,80000,:3,4,10000,6,20000,8,60000,11,100000,:2,100,5000,200,10000,600,30000,1000,80000,:3,4,10000,6,20000,8,60000,11,100000,:2,100,5000,200,10000,600,30000,1000,80000,:3,4,10000,6,20000,10,60000,15,100000,:1,500,10000,1000,20000,1500,30000,2500,50000,:2,100,10000,300,20000,700,30000,1500,50000,:3,10,10000,20,20000,30,30000,50,50000,:2,100,5000,200,10000,600,30000,1000,80000,:3,4,10000,6,20000,8,60000,11,100000,:2,100,5000,200,10000,600,30000,1000,80000,:3,4,10000,6,20000,8,60000,11,100000,:2,100,5000,200,10000,600,30000,1000,80000,:3,4,10000,6,20000,8,60000,11,100000,:2,100,5000,200,10000,600,30000,1000,80000,:3,4,10000,6,20000,8,60000,11,100000,:1,500,10000,1000,20000,1500,30000,2500,50000,:2,100,10000,300,20000,700,30000,1500,50000,:3,10,10000,20,20000,30,30000,50,50000,:1,500,10000,1000,20000,1500,30000,2500,50000,:2,100,10000,300,20000,700,30000,1500,50000,:3,10,10000,20,20000,30,30000,50,50000,:1,500,10000,1000,20000,1500,30000,2500,50000,:2,100,10000,300,20000,700,30000,1500,50000,:3,10,10000,20,20000,30,30000,50,50000,:1,500,10000,1000,20000,1500,30000,2500,50000,:2,100,10000,300,20000,700,30000,1500,50000,:3,10,10000,20,20000,30,30000,50,50000,",
    "HSRhkf70": "0",
    "RlFWcCqN": "",
    "J3bZkWUt": "0"
  },
  {
    "hBNPQAU0": "5",
    "BilJmqI0": "闇の界域",
    "qA7M9EjP": "0000-00-00 00:00:00",
    "SzV0Nps7": "0000-00-00 00:00:00",
    "qp37xTDh": "闇属性ユニットのみという条件で挑む修練プログラム。限定されたユニットでいかに強敵と戦うか。召喚師の技量が試されると言えよう。",
    "4N25Z87R": "3",
    "c6fVJ9qR": "3:6,@0",
    "Q1z2IFjZ": "0,0,50000,10000,0,65,100000,30000,5,10,0,0,0,100:1000,100:2000,35,10,0.1,0.1",
    "gNEbgjmh": "-1,-1",
    "59b1eE6N": "2,100,5000,200,10000,600,30000,1000,80000,:3,4,10000,6,20000,8,60000,11,100000,:2,100,5000,200,10000,600,30000,1000,80000,:3,4,10000,6,20000,8,60000,11,100000,:2,100,5000,200,10000,600,30000,1000,80000,:3,4,10000,6,20000,8,60000,11,100000,:2,100,5000,200,10000,600,30000,1000,80000,:3,4,10000,6,20000,8,60000,11,100000,:2,100,5000,200,10000,600,30000,1000,80000,:3,4,10000,6,20000,10,60000,15,100000,:1,500,10000,1000,20000,1500,30000,2500,50000,:2,100,10000,300,20000,700,30000,1500,50000,:3,10,10000,20,20000,30,30000,50,50000,:2,100,5000,200,10000,600,30000,1000,80000,:3,4,10000,6,20000,8,60000,11,100000,:2,100,5000,200,10000,600,30000,1000,80000,:3,4,10000,6,20000,8,60000,11,100000,:2,100,5000,200,10000,600,30000,1000,80000,:3,4,10000,6,20000,8,60000,11,100000,:2,100,5000,200,10000,600,30000,1000,80000,:3,4,10000,6,20000,8,60000,11,100000,:1,500,10000,1000,20000,1500,30000,2500,50000,:2,100,10000,300,20000,700,30000,1500,50000,:3,10,10000,20,20000,30,30000,50,50000,:1,500,10000,1000,20000,1500,30000,2500,50000,:2,100,10000,300,20000,700,30000,1500,50000,:3,10,10000,20,20000,30,30000,50,50000,:1,500,10000,1000,20000,1500,30000,2500,50000,:2,100,10000,300,20000,700,30000,1500,50000,:3,10,10000,20,20000,30,30000,50,50000,:1,500,10000,1000,20000,1500,30000,2500,50000,:2,100,10000,300,20000,700,30000,1500,50000,:3,10,10000,20,20000,30,30000,50,50000,",
    "HSRhkf70": "0",
    "RlFWcCqN": "",
    "J3bZkWUt": "0"
  },
  {
    "hBNPQAU0": "6",
    "BilJmqI0": "水の界域",
    "qA7M9EjP": "0000-00-00 00:00:00",
    "SzV0Nps7": "0000-00-00 00:00:00",
    "qp37xTDh": "水属性ユニットのみという条件で挑む修練プログラム。限定されたユニットでいかに強敵と戦うか。召喚師の技量が試されると言えよう。",
    "4N25Z87R": "3",
    "c6fVJ9qR": "3:2,@0",
    "Q1z2IFjZ": "0,0,50000,10000,0,60,100000,30000,5,10,0,0,0,100:1000,100:2000,35,10,0.1,0.1",
    "gNEbgjmh": "-1,-1",
    "59b1eE6N": "2,100,5000,200,10000,600,30000,1000,80000,:3,4,10000,6,20000,8,60000,11,100000,:2,100,5000,200,10000,600,30000,1000,80000,:3,4,10000,6,20000,8,60000,11,100000,:2,100,5000,200,10000,600,30000,1000,80000,:3,4,10000,6,20000,8,60000,11,100000,:2,100,5000,200,10000,600,30000,1000,80000,:3,4,10000,6,20000,10,60000,15,100000,:1,500,10000,1000,20000,1500,30000,2500,50000,:2,100,10000,300,20000,700,30000,1500,50000,:3,10,10000,20,20000,30,30000,50,50000,:2,100,5000,200,10000,600,30000,1000,80000,:3,4,10000,6,20000,8,60000,11,100000,:2,100,5000,200,10000,600,30000,1000,80000,:3,4,10000,6,20000,8,60000,11,100000,:2,100,5000,200,10000,600,30000,1000,80000,:3,4,10000,6,20000,8,60000,11,100000,:2,100,5000,200,10000,600,30000,1000,80000,:3,4,10000,6,20000,8,60000,11,100000,:1,500,10000,1000,20000,1500,30000,2500,50000,:2,100,10000,300,20000,700,30000,1500,50000,:3,10,10000,20,20000,30,30000,50,50000,:1,500,10000,1000,20000,1500,30000,2500,50000,:2,100,10000,300,20000,700,30000,1500,50000,:3,10,10000,20,20000,30,30000,50,50000,:1,500,10000,1000,20000,1500,30000,2500,50000,:2,100,10000,300,20000,700,30000,1500,50000,:3,10,10000,20,20000,30,30000,50,50000,:1,500,10000,1000,20000,1500,30000,2500,50000,:2,100,10000,300,20000,700,30000,1500,50000,:3,10,10000,20,20000,30,30000,50,50000,",
    "HSRhkf70": "0",
    "RlFWcCqN": "",
    "J3bZkWUt": "0"
  },
  {
    "hBNPQAU0": "7",
    "BilJmqI0": "雷の界域",
    "qA7M9EjP": "0000-00-00 00:00:00",
    "SzV0Nps7": "0000-00-00 00:00:00",
    "qp37xTDh": "雷属性ユニットのみという条件で挑む修練プログラム。限定されたユニットでいかに強敵と戦うか。召喚師の技量が試されると言えよう。",
    "4N25Z87R": "3",
    "c6fVJ9qR": "3:4,@0",
    "Q1z2IFjZ": "0,0,50000,10000,0,50,100000,30000,5,10,0,0,0,100:1000,100:2000,35,10,0.1,0.1",
    "gNEbgjmh": "-1,-1",
    "59b1eE6N": "2,100,5000,200,10000,600,30000,1000,80000,:3,4,10000,6,20000,8,60000,11,100000,:2,100,5000,200,10000,600,30000,1000,80000,:3,4,10000,6,20000,8,60000,11,100000,:2,100,5000,200,10000,600,30000,1000,80000,:3,4,10000,6,20000,10,60000,15,100000,:1,500,10000,1000,20000,1500,30000,2500,50000,:2,100,10000,300,20000,700,30000,1500,50000,:3,10,10000,20,20000,30,30000,50,50000,:2,100,5000,200,10000,600,30000,1000,80000,:3,4,10000,6,20000,8,60000,11,100000,:2,100,5000,200,10000,600,30000,1000,80000,:3,4,10000,6,20000,8,60000,11,100000,:2,100,5000,200,10000,600,30000,1000,80000,:3,4,10000,6,20000,8,60000,11,100000,:2,100,5000,200,10000,600,30000,1000,80000,:3,4,10000,6,20000,8,60000,11,100000,:1,500,10000,1000,20000,1500,30000,2500,50000,:2,100,10000,300,20000,700,30000,1500,50000,:3,10,10000,20,20000,30,30000,50,50000,:1,500,10000,1000,20000,1500,30000,2500,50000,:2,100,10000,300,20000,700,30000,1500,50000,:3,10,10000,20,20000,30,30000,50,50000,:1,500,10000,1000,20000,1500,30000,2500,50000,:2,100,10000,300,20000,700,30000,1500,50000,:3,10,10000,20,20000,30,30000,50,50000,:1,500,10000,1000,20000,1500,30000,2500,50000,:2,100,10000,300,20000,700,30000,1500,50000,:3,10,10000,20,20000,30,30000,50,50000,",
    "HSRhkf70": "0",
    "RlFWcCqN": "",
    "J3bZkWUt": "0"
  },
  {
    "hBNPQAU0": "8",
    "BilJmqI0": "光の界域",
    "qA7M9EjP": "0000-00-00 00:00:00",
    "SzV0Nps7": "0000-00-00 00:00:00",
    "qp37xTDh": "光属性ユニットのみという条件で挑む修練プログラム。限定されたユニットでいかに強敵と戦うか。召喚師の技量が試されると言えよう。",
    "4N25Z87R": "3",
    "c6fVJ9qR": "3:5,@0",
    "Q1z2IFjZ": "0,0,50000,10000,0,50,100000,30000,5,10,0,0,0,100:1000,100:2000,35,10,0.1,0.1",
    "gNEbgjmh": "-1,-1",
    "59b1eE6N": "2,100,5000,200,10000,600,30000,1000,80000,:3,4,10000,6,20000,8,60000,11,100000,:2,100,5000,200,10000,600,30000,1000,80000,:3,4,10000,6,20000,10,60000,15,100000,:1,500,10000,1000,20000,1500,30000,2500,50000,:2,100,10000,300,20000,700,30000,1500,50000,:3,10,10000,20,20000,30,30000,50,50000,:2,100,5000,200,10000,600,30000,1000,80000,:3,4,10000,6,20000,8,60000,11,100000,:2,100,5000,200,10000,600,30000,1000,80000,:3,4,10000,6,20000,8,60000,11,100000,:2,100,5000,200,10000,600,30000,1000,80000,:3,4,10000,6,20000,8,60000,11,100000,:2,100,5000,200,10000,600,30000,1000,80000,:3,4,10000,6,20000,8,60000,11,100000,:1,500,10000,1000,20000,1500,30000,2500,50000,:2,100,10000,300,20000,700,30000,1500,50000,:3,10,10000,20,20000,30,30000,50,50000,:1,500,10000,1000,20000,1500,30000,2500,50000,:2,100,10000,300,20000,700,30000,1500,50000,:3,10,10000,20,20000,30,30000,50,50000,:1,500,10000,1000,20000,1500,30000,2500,50000,:2,100,10000,300,20000,700,30000,1500,50000,:3,10,10000,20,20000,30,30000,50,50000,:1,500,10000,1000,20000,1500,30000,2500,50000,:2,100,10000,300,20000,700,30000,1500,50000,:3,10,10000,20,20000,30,30000,50,50000,",
    "HSRhkf70": "0",
    "RlFWcCqN": "",
    "J3bZkWUt": "0"
  },
  {
    "hBNPQAU0": "9",
    "BilJmqI0": "六星制戦",
    "qA7M9EjP": "0000-00-00 00:00:00",
    "SzV0Nps7": "0000-00-00 00:00:00",
    "qp37xTDh": "★６以下のユニットのみという条件で挑む修練プログラム。限定されたユニットの能力を最大限に引き出す技量が求められるだろう。",
    "4N25Z87R": "3",
    "c6fVJ9qR": "2:0:6,@0",
    "Q1z2IFjZ": "100,50,50000,10000,10,25,100000,30000,5,10,0,0,0,100:1000,100:2000,35,10,0.1,0.1",
    "gNEbgjmh": "50000,50000",
    "59b1eE6N": "2,100,5000,200,10000,600,30000,1000,80000,:3,4,10000,6,20000,10,60000,15,100000,:1,500,10000,1000,20000,1500,30000,2500,50000,:2,100,10000,300,20000,700,30000,1500,50000,:3,10,10000,20,20000,30,30000,50,50000,:2,100,5000,200,10000,600,30000,1000,80000,:3,4,10000,6,20000,8,60000,11,100000,:2,100,5000,200,10000,600,30000,1000,80000,:3,4,10000,6,20000,8,60000,11,100000,:2,100,5000,200,10000,600,30000,1000,80000,:3,4,10000,6,20000,8,60000,11,100000,:2,100,5000,200,10000,600,30000,1000,80000,:3,4,10000,6,20000,8,60000,11,100000,:1,500,10000,1000,20000,1500,30000,2500,50000,:2,100,10000,300,20000,700,30000,1500,50000,:3,10,10000,20,20000,30,30000,50,50000,:1,500,10000,1000,20000,1500,30000,2500,50000,:2,100,10000,300,20000,700,30000,1500,50000,:3,10,10000,20,20000,30,30000,50,50000,:1,500,10000,1000,20000,1500,30000,2500,50000,:2,100,10000,300,20000,700,30000,1500,50000,:3,10,10000,20,20000,30,30000,50,50000,:1,500,10000,1000,20000,1500,30000,2500,50000,:2,100,10000,300,20000,700,30000,1500,50000,:3,10,10000,20,20000,30,30000,50,50000,",
    "HSRhkf70": "0",
    "RlFWcCqN": "",
    "J3bZkWUt": "0"
  },
  {
    "hBNPQAU0": "10",
    "BilJmqI0": "総攻化演習",
    "qA7M9EjP": "0000-00-00 00:00:00",
    "SzV0Nps7": "0000-00-00 00:00:00",
    "qp37xTDh": "短期間でどれだけダメージを与えられるかが試される修練プログラム。ユニットの瞬間的な攻撃力を引き出す技量が求められる。",
    "4N25Z87R": "3",
    "c6fVJ9qR": "@0",
    "Q1z2IFjZ": "0,0,0,0,0,10,0,0,0,0,0,0,0,100:1000,100:2000,35,10,0.008,0.008",
    "gNEbgjmh": "-1,-1",
    "59b1eE6N": "",
    "HSRhkf70": "0",
    "RlFWcCqN": "",
    "J3bZkWUt": "0"
  },
  {
    "hBNPQAU0": "11",
    "BilJmqI0": "果てなき回廊",
    "qA7M9EjP": "0000-00-00 00:00:00",
    "SzV0Nps7": "0000-00-00 00:00:00",
    "qp37xTDh": "力尽きるまで戦い続ける修練プログラム。数多くの階層を突破するには、不測の事態にも対応できるユニット構成が求められる…！！",
    "4N25Z87R": "3",
    "c6fVJ9qR": "@0",
    "Q1z2IFjZ": "10,10,10000,10000,5,50,10000,2000,1,2,10000,0,0,100:1000,100:2000,35,10,0.15,0.15",
    "gNEbgjmh": "50000,50000",
    "59b1eE6N": "1,500,10000,1000,20000,1500,30000,2500,50000,:2,100,10000,300,20000,700,30000,1500,50000,:3,10,10000,20,20000,30,30000,50,50000,:2,100,5000,200,10000,600,30000,1000,80000,:3,4,10000,6,20000,8,60000,11,100000,:2,100,5000,200,10000,600,30000,1000,80000,:3,4,10000,6,20000,8,60000,11,100000,:2,100,5000,200,10000,600,30000,1000,80000,:3,4,10000,6,20000,8,60000,11,100000,:2,100,5000,200,10000,600,30000,1000,80000,:3,4,10000,6,20000,8,60000,11,100000,:1,500,10000,1000,20000,1500,30000,2500,50000,:2,100,10000,300,20000,700,30000,1500,50000,:3,10,10000,20,20000,30,30000,50,50000,:1,500,10000,1000,20000,1500,30000,2500,50000,:2,100,10000,300,20000,700,30000,1500,50000,:3,10,10000,20,20000,30,30000,50,50000,:1,500,10000,1000,20000,1500,30000,2500,50000,:2,100,10000,300,20000,700,30000,1500,50000,:3,10,10000,20,20000,30,30000,50,50000,:1,500,10000,1000,20000,1500,30000,2500,50000,:2,100,10000,300,20000,700,30000,1500,50000,:3,10,10000,20,20000,30,30000,50,50000,",
    "HSRhkf70": "0",
    "RlFWcCqN": "",
    "J3bZkWUt": "1"
  },
  {
    "hBNPQAU0": "12",
    "BilJmqI0": "勇武制戦",
    "qA7M9EjP": "0000-00-00 00:00:00",
    "SzV0Nps7": "0000-00-00 00:00:00",
    "qp37xTDh": "男性ユニットのみという条件で挑む修練プログラム。限定されたユニットでいかに強敵と戦うか。召喚師の高い技量が試されると言えよう。",
    "4N25Z87R": "3",
    "c6fVJ9qR": "4:1,@0",
    "Q1z2IFjZ": "0,0,50000,10000,0,60,80000,20000,5,10,0,0,0,100:1000,100:2000,20,10,0.1,0.1",
    "gNEbgjmh": "-1,-1",
    "59b1eE6N": "2,100,5000,200,10000,600,30000,1000,80000,:3,4,10000,6,20000,8,60000,11,100000,:2,100,5000,200,10000,600,30000,1000,80000,:3,4,10000,6,20000,8,60000,11,100000,:2,100,5000,200,10000,600,30000,1000,80000,:3,4,10000,6,20000,8,60000,11,100000,:2,100,5000,200,10000,600,30000,1000,80000,:3,4,10000,6,20000,8,60000,11,100000,:1,500,10000,1000,20000,1500,30000,2500,50000,:2,100,10000,300,20000,700,30000,1500,50000,:3,10,10000,20,20000,30,30000,50,50000,:1,500,10000,1000,20000,1500,30000,2500,50000,:2,100,10000,300,20000,700,30000,1500,50000,:3,10,10000,20,20000,30,30000,50,50000,:1,500,10000,1000,20000,1500,30000,2500,50000,:2,100,10000,300,20000,700,30000,1500,50000,:3,10,10000,20,20000,30,30000,50,50000,:1,500,10000,1000,20000,1500,30000,2500,50000,:2,100,10000,300,20000,700,30000,1500,50000,:3,10,10000,20,20000,30,30000,50,50000,",
    "HSRhkf70": "0",
    "RlFWcCqN": "",
    "J3bZkWUt": "0"
  },
  {
    "hBNPQAU0": "13",
    "BilJmqI0": "麗憐制戦",
    "qA7M9EjP": "0000-00-00 00:00:00",
    "SzV0Nps7": "0000-00-00 00:00:00",
    "qp37xTDh": "女性ユニットのみという条件で挑む修練プログラム。限定されたユニットでいかに強敵と戦うか。召喚師の高い技量が試されると言えよう。",
    "4N25Z87R": "3",
    "c6fVJ9qR": "4:2,@0",
    "Q1z2IFjZ": "0,0,70000,10000,0,75,100000,30000,5,10,0,0,0,100:1000,100:2000,20,10,0.1,0.1",
    "gNEbgjmh": "-1,-1",
    "59b1eE6N": "2,100,5000,200,10000,600,30000,1000,80000,:3,4,10000,6,20000,8,60000,11,100000,:2,100,5000,200,10000,600,30000,1000,80000,:3,4,10000,6,20000,8,60000,11,100000,:2,100,5000,200,10000,600,30000,1000,80000,:3,4,10000,6,20000,8,60000,11,100000,:1,500,10000,1000,20000,1500,30000,2500,50000,:2,100,10000,300,20000,700,30000,1500,50000,:3,10,10000,20,20000,30,30000,50,50000,:1,500,10000,1000,20000,1500,30000,2500,50000,:2,100,10000,300,20000,700,30000,1500,50000,:3,10,10000,20,20000,30,30000,50,50000,:1,500,10000,1000,20000,1500,30000,2500,50000,:2,100,10000,300,20000,700,30000,1500,50000,:3,10,10000,20,20000,30,30000,50,50000,:1,500,10000,1000,20000,1500,30000,2500,50000,:2,100,10000,300,20000,700,30000,1500,50000,:3,10,10000,20,20000,30,30000,50,50000,",
    "HSRhkf70": "0",
    "RlFWcCqN": "",
    "J3bZkWUt": "0"
  },
  {
    "hBNPQAU0": "14",
    "BilJmqI0": "秩序の追憶",
    "qA7M9EjP": "0000-00-00 00:00:00",
    "SzV0Nps7": "0000-00-00 00:00:00",
    "qp37xTDh": "グランガイアでの冒険を制した者のための修練プログラム。彼の地での神々たちとの再戦を通じ、召喚師の真の力が試される。",
    "4N25Z87R": "3",
    "c6fVJ9qR": "@0",
    "Q1z2IFjZ": "10,10,0,10000,0,10,100000,30000,5,10,0,0,0,100:1000,100:2000,35,10,0.125,0.125",
    "gNEbgjmh": "-1,-1",
    "59b1eE6N": "2,100,5000,200,10000,600,30000,1000,80000,:3,4,10000,6,20000,8,60000,11,100000,:2,100,5000,200,10000,600,30000,1000,80000,:3,4,10000,6,20000,8,60000,11,100000,:1,500,10000,1000,20000,1500,30000,2500,50000,:2,100,10000,300,20000,700,30000,1500,50000,:3,10,10000,20,20000,30,30000,50,50000,:1,500,10000,1000,20000,1500,30000,2500,50000,:2,100,10000,300,20000,700,30000,1500,50000,:3,10,10000,20,20000,30,30000,50,50000,:1,500,10000,1000,20000,1500,30000,2500,50000,:2,100,10000,300,20000,700,30000,1500,50000,:3,10,10000,20,20000,30,30000,50,50000,:1,500,10000,1000,20000,1500,30000,2500,50000,:2,100,10000,300,20000,700,30000,1500,50000,:3,10,10000,20,20000,30,30000,50,50000,",
    "HSRhkf70": "0",
    "RlFWcCqN": "",
    "J3bZkWUt": "0"
  },
  {
    "hBNPQAU0": "15",
    "BilJmqI0": "神鎖の追憶",
    "qA7M9EjP": "0000-00-00 00:00:00",
    "SzV0Nps7": "0000-00-00 00:00:00",
    "qp37xTDh": "イシュグリアでの冒険を制した者のための修練プログラム。彼の地での魔神たちとの再戦を通じ、召喚師の真の力が試される。",
    "4N25Z87R": "3",
    "c6fVJ9qR": "@0",
    "Q1z2IFjZ": "10,10,0,10000,0,10,100000,30000,5,10,0,0,0,100:1000,100:2000,35,10,0.125,0.125",
    "gNEbgjmh": "-1,-1",
    "59b1eE6N": "2,100,5000,200,10000,600,30000,1000,80000,:3,4,10000,6,20000,8,60000,11,100000,:1,500,10000,1000,20000,1500,30000,2500,50000,:2,100,10000,300,20000,700,30000,1500,50000,:3,10,10000,20,20000,30,30000,50,50000,:1,500,10000,1000,20000,1500,30000,2500,50000,:2,100,10000,300,20000,700,30000,1500,50000,:3,10,10000,20,20000,30,30000,50,50000,:1,500,10000,1000,20000,1500,30000,2500,50000,:2,100,10000,300,20000,700,30000,1500,50000,:3,10,10000,20,20000,30,30000,50,50000,:1,500,10000,1000,20000,1500,30000,2500,50000,:2,100,10000,300,20000,700,30000,1500,50000,:3,10,10000,20,20000,30,30000,50,50000,",
    "HSRhkf70": "0",
    "RlFWcCqN": "",
    "J3bZkWUt": "0"
  },
  {
    "hBNPQAU0": "16",
    "BilJmqI0": "雷光の回廊",
    "qA7M9EjP": "0000-00-00 00:00:00",
    "SzV0Nps7": "0000-00-00 00:00:00",
    "qp37xTDh": "雷・光属性ユニットのみという条件で力尽きるまで戦い続ける修練プログラム。制限された状況下での底力が試される！",
    "4N25Z87R": "3",
    "c6fVJ9qR": "3:4:5,@0",
    "Q1z2IFjZ": "10,10,10000,10000,5,50,10000,2000,1,2,10000,0,0,100:1000,100:2000,35,10,0.18,0.18",
    "gNEbgjmh": "50000,50000",
    "59b1eE6N": "1,500,10000,1000,20000,1500,30000,2500,50000,:2,100,10000,300,20000,700,30000,1500,50000,:3,10,10000,20,20000,30,30000,50,50000,:1,500,10000,1000,20000,1500,30000,2500,50000,:2,100,10000,300,20000,700,30000,1500,50000,:3,10,10000,20,20000,30,30000,50,50000,:1,500,10000,1000,20000,1500,30000,2500,50000,:2,100,10000,300,20000,700,30000,1500,50000,:3,10,10000,20,20000,30,30000,50,50000,:1,500,10000,1000,20000,1500,30000,2500,50000,:2,100,10000,300,20000,700,30000,1500,50000,:3,10,10000,20,20000,30,30000,50,50000,",
    "HSRhkf70": "0",
    "RlFWcCqN": "",
    "J3bZkWUt": "1"
  },
  {
    "hBNPQAU0": "17",
    "BilJmqI0": "闇炎の回廊",
    "qA7M9EjP": "0000-00-00 00:00:00",
    "SzV0Nps7": "0000-00-00 00:00:00",
    "qp37xTDh": "炎・闇属性ユニットのみという条件で力尽きるまで戦い続ける修練プログラム。制限された状況下での底力が試される！",
    "4N25Z87R": "3",
    "c6fVJ9qR": "3:1:6,@0",
    "Q1z2IFjZ": "10,10,10000,10000,5,50,10000,2000,1,2,10000,0,0,100:1000,100:2000,35,10,0.18,0.18",
    "gNEbgjmh": "50000,50000",
    "59b1eE6N": "1,500,10000,1000,20000,1500,30000,2500,50000,:2,100,10000,300,20000,700,30000,1500,50000,:3,10,10000,20,20000,30,30000,50,50000,:1,500,10000,1000,20000,1500,30000,2500,50000,:2,100,10000,300,20000,700,30000,1500,50000,:3,10,10000,20,20000,30,30000,50,50000,:1,500,10000,1000,20000,1500,30000,2500,50000,:2,100,10000,300,20000,700,30000,1500,50000,:3,10,10000,20,20000,30,30000,50,50000,",
    "HSRhkf70": "0",
    "RlFWcCqN": "",
    "J3bZkWUt": "1"
  },
  {
    "hBNPQAU0": "18",
    "BilJmqI0": "水樹の回廊",
    "qA7M9EjP": "0000-00-00 00:00:00",
    "SzV0Nps7": "0000-00-00 00:00:00",
    "qp37xTDh": "水・樹属性ユニットのみという条件で力尽きるまで戦い続ける修練プログラム。制限された状況下での底力が試される！",
    "4N25Z87R": "3",
    "c6fVJ9qR": "3:2:3,@0",
    "Q1z2IFjZ": "10,10,10000,10000,5,50,10000,2000,1,2,10000,0,0,100:1000,100:2000,35,10,0.18,0.18",
    "gNEbgjmh": "50000,50000",
    "59b1eE6N": "1,500,10000,1000,20000,1500,30000,2500,50000,:2,100,10000,300,20000,700,30000,1500,50000,:3,10,10000,20,20000,30,30000,50,50000,:1,500,10000,1000,20000,1500,30000,2500,50000,:2,100,10000,300,20000,700,30000,1500,50000,:3,10,10000,20,20000,30,30000,50,50000,",
    "HSRhkf70": "0",
    "RlFWcCqN": "",
    "J3bZkWUt": "1"
  },
  {
    "hBNPQAU0": "19",
    "BilJmqI0": "連煌演習",
    "qA7M9EjP": "0000-00-00 00:00:00",
    "SzV0Nps7": "0000-00-00 00:00:00",
    "qp37xTDh": "敵を倒すまでに、スパークをどれだけ出せるかが試される修練プログラム。ユニットたちの攻撃能力の熟知が求められるであろう。",
    "4N25Z87R": "3",
    "c6fVJ9qR": "@0",
    "Q1z2IFjZ": "12500,0,0,0,0,1,0,0,0,0,0,0,0,100:1000,100:2000,35,10,0.018,0.018",
    "gNEbgjmh": "-1,-1",
    "59b1eE6N": "",
    "HSRhkf70": "0",
    "RlFWcCqN": "",
    "J3bZkWUt": "0"
  },
  {
    "hBNPQAU0": "20",
    "BilJmqI0": "永劫血戦",
    "qA7M9EjP": "0000-00-00 00:00:00",
    "SzV0Nps7": "0000-00-00 00:00:00",
    "qp37xTDh": "力尽きるまで戦い続ける修練プログラム。強大な敵たちが絶え間なく出現。召喚師としてこれまで培った力のすべてが今、試される！",
    "4N25Z87R": "3",
    "c6fVJ9qR": "@0",
    "Q1z2IFjZ": "10,10,10000,10000,5,50,10000,2000,1,2,10000,0,0,100:1000,100:2000,20,10,0.15,0.15",
    "gNEbgjmh": "50000,50000",
    "59b1eE6N": "1,500,10000,1000,20000,1500,30000,2500,50000,:2,100,10000,300,20000,700,30000,1500,50000,:3,10,10000,20,20000,30,30000,50,50000,",
    "HSRhkf70": "0",
    "RlFWcCqN": "",
    "J3bZkWUt": "1"
  }
]