[
  {
    "43hMuY2I": "1",
    "3D42LTtj": "ミストラル",
    "PIa6T3RK": "ssl.brave.a-lim.jp",
    "1n9caurK": "rw1",
    "Rqc8pi0x": "4"
  },
  {
    "43hMuY2I": "2",
    "3D42LTtj": "モルガン",
    "PIa6T3RK": "ssl.brave.a-lim.jp",
    "1n9caurK": "rw2",
    "Rqc8pi0x": "4"
  },
  {
    "43hMuY2I": "3",
    "3D42LTtj": "セントラミア",
    "PIa6T3RK": "ssl.brave.a-lim.jp",
    "1n9caurK": "rw3",
    "Rqc8pi0x": "4"
  }
]