[
  {
    "oL71Fz3a": "10",
    "LM34kfVC": "1",
    "NyYKc1A5": "公式サイト",
    "aL70hVYQ": "1,2,3",
    "XuJL4pc5": "190",
    "jsRoN50z": "https://www.bravefrontier.jp/bf1/",
    "1gDkL6XR": "banner_braveweb.jpg",
    "t5R47iwj": ""
  },
  {
    "oL71Fz3a": "20",
    "LM34kfVC": "1",
    "NyYKc1A5": "ファミ通App",
    "aL70hVYQ": "1,2,3",
    "XuJL4pc5": "200",
    "jsRoN50z": "http://app.famitsu.com/20130702_187969/",
    "1gDkL6XR": "banner_famituapp.jpg",
    "t5R47iwj": ""
  },
  {
    "oL71Fz3a": "30",
    "LM34kfVC": "1",
    "NyYKc1A5": "AppBank",
    "aL70hVYQ": "",
    "XuJL4pc5": "210",
    "jsRoN50z": "http://game.appbank.net/brave/",
    "1gDkL6XR": "banner_appbank_2.jpg",
    "t5R47iwj": ""
  },
  {
    "oL71Fz3a": "40",
    "LM34kfVC": "1",
    "NyYKc1A5": "ゲームギフト（iOS）",
    "aL70hVYQ": "1",
    "XuJL4pc5": "230",
    "jsRoN50z": "http://gamegift.jp/web/adtrack?campaign=brafro_fan&url=/game/32",
    "1gDkL6XR": "brafro_1811_app.png",
    "t5R47iwj": ""
  },
  {
    "oL71Fz3a": "41",
    "LM34kfVC": "1",
    "NyYKc1A5": "ゲームギフト（Android）",
    "aL70hVYQ": "2",
    "XuJL4pc5": "230",
    "jsRoN50z": "http://gamegift.jp/web/adtrack?campaign=brafro_fan&url=/game/32",
    "1gDkL6XR": "brafro_1811_app.png",
    "t5R47iwj": ""
  },
  {
    "oL71Fz3a": "42",
    "LM34kfVC": "1",
    "NyYKc1A5": "ゲームギフト（Kindle）",
    "aL70hVYQ": "3",
    "XuJL4pc5": "230",
    "jsRoN50z": "http://gamegift.jp/web/adtrack?campaign=brafro_fan&url=/game/32",
    "1gDkL6XR": "brafro_1811_app.png",
    "t5R47iwj": ""
  },
  {
    "oL71Fz3a": "43",
    "LM34kfVC": "1",
    "NyYKc1A5": "ゲームギフト_千メモコラボ（iOS）",
    "aL70hVYQ": "",
    "XuJL4pc5": "230",
    "jsRoN50z": "http://gamegift.jp/web/adtrack?campaign=TwitterBreSen&url=/link/allpresentbftm",
    "1gDkL6XR": "app-banner_03.png",
    "t5R47iwj": ""
  },
  {
    "oL71Fz3a": "44",
    "LM34kfVC": "1",
    "NyYKc1A5": "ゲームギフト_千メモコラボ（Android）",
    "aL70hVYQ": "",
    "XuJL4pc5": "230",
    "jsRoN50z": "http://gamegift.jp/web/adtrack?campaign=TwitterBreSen&url=/link/allpresentbftm",
    "1gDkL6XR": "app-banner_03.png",
    "t5R47iwj": ""
  },
  {
    "oL71Fz3a": "45",
    "LM34kfVC": "1",
    "NyYKc1A5": "ゲームギフト_千メモコラボ（Kindle）",
    "aL70hVYQ": "",
    "XuJL4pc5": "230",
    "jsRoN50z": "http://gamegift.jp/web/adtrack?campaign=TwitterBreSen&url=/link/allpresentbftm",
    "1gDkL6XR": "app-banner_03.png",
    "t5R47iwj": ""
  },
  {
    "oL71Fz3a": "50",
    "LM34kfVC": "1",
    "NyYKc1A5": "アプリソムリエ（ブレフロ女子）",
    "aL70hVYQ": "",
    "XuJL4pc5": "240",
    "jsRoN50z": "https://www.facebook.com/BraFro",
    "1gDkL6XR": "banner_applisommelier.jpg",
    "t5R47iwj": "fb://profile/648615025169346"
  },
  {
    "oL71Fz3a": "60",
    "LM34kfVC": "1",
    "NyYKc1A5": "公式コミュニティLOBI",
    "aL70hVYQ": "",
    "XuJL4pc5": "250",
    "jsRoN50z": "https://lobi.co/sp/official/54584",
    "1gDkL6XR": "banner_lobi.jpg",
    "t5R47iwj": "lobi://public_groups_tree?category=54584"
  },
  {
    "oL71Fz3a": "61",
    "LM34kfVC": "1",
    "NyYKc1A5": "LOBI動画掲示板",
    "aL70hVYQ": "",
    "XuJL4pc5": "260",
    "jsRoN50z": "https://lbplay",
    "1gDkL6XR": "banner_lobi_movie.jpg",
    "t5R47iwj": ""
  },
  {
    "oL71Fz3a": "70",
    "LM34kfVC": "1",
    "NyYKc1A5": "公式facebook",
    "aL70hVYQ": "1,2,3",
    "XuJL4pc5": "270",
    "jsRoN50z": "https://www.facebook.com/BraveFrontier",
    "1gDkL6XR": "banner_facebook.jpg",
    "t5R47iwj": "fb://profile/150831271767548"
  },
  {
    "oL71Fz3a": "80",
    "LM34kfVC": "1",
    "NyYKc1A5": "公式Twitter",
    "aL70hVYQ": "1,2,3",
    "XuJL4pc5": "280",
    "jsRoN50z": "https://twitter.com/brave_pr",
    "1gDkL6XR": "banner_twitter.jpg",
    "t5R47iwj": ""
  },
  {
    "oL71Fz3a": "90",
    "LM34kfVC": "1",
    "NyYKc1A5": "ブレフロ本",
    "aL70hVYQ": "",
    "XuJL4pc5": "290",
    "jsRoN50z": "http://app.famitsu.com/20131218_281115/",
    "1gDkL6XR": "banner_gamebook.jpg",
    "t5R47iwj": ""
  },
  {
    "oL71Fz3a": "100",
    "LM34kfVC": "1",
    "NyYKc1A5": "エンサガコラボ",
    "aL70hVYQ": "",
    "XuJL4pc5": "50",
    "jsRoN50z": "http://bf.emperors-sg.jp/bf_collabo/",
    "1gDkL6XR": "banner_emperorssaga.jpg",
    "t5R47iwj": ""
  },
  {
    "oL71Fz3a": "110",
    "LM34kfVC": "1",
    "NyYKc1A5": "リアルコラボ！キャンペーン",
    "aL70hVYQ": "",
    "XuJL4pc5": "220",
    "jsRoN50z": "http://ad.ama.tv/?ac=7382",
    "1gDkL6XR": "banner_real_collaboration.jpg",
    "t5R47iwj": ""
  },
  {
    "oL71Fz3a": "120",
    "LM34kfVC": "1",
    "NyYKc1A5": "レイドバトルご意見ご要望",
    "aL70hVYQ": "",
    "XuJL4pc5": "130",
    "jsRoN50z": "http://www.a-lim.jp/brave/raid/opinion.php",
    "1gDkL6XR": "banner_raid_enquete.jpg",
    "t5R47iwj": ""
  },
  {
    "oL71Fz3a": "130",
    "LM34kfVC": "1",
    "NyYKc1A5": "公式ニコ生",
    "aL70hVYQ": "",
    "XuJL4pc5": "4",
    "jsRoN50z": "http://live.nicovideo.jp/watch/lv266366430",
    "1gDkL6XR": "banner_nico_new.jpg",
    "t5R47iwj": ""
  },
  {
    "oL71Fz3a": "140",
    "LM34kfVC": "1",
    "NyYKc1A5": "ブレフェス2014応募ページ ",
    "aL70hVYQ": "",
    "XuJL4pc5": "35",
    "jsRoN50z": "http://1st-anniv.bravefrontier.jp/index.php?friend_id=",
    "1gDkL6XR": "banner_1st-anniv_subscribe.jpg",
    "t5R47iwj": ""
  },
  {
    "oL71Fz3a": "150",
    "LM34kfVC": "1",
    "NyYKc1A5": "第2回ブレフロ総選挙",
    "aL70hVYQ": "",
    "XuJL4pc5": "160",
    "jsRoN50z": "http://www.appbankstore.jp/article/brefro_senkyo",
    "1gDkL6XR": "banner_event20140815result.jpg",
    "t5R47iwj": ""
  },
  {
    "oL71Fz3a": "160",
    "LM34kfVC": "1",
    "NyYKc1A5": "ユーザー投稿コンテスト",
    "aL70hVYQ": "",
    "XuJL4pc5": "150",
    "jsRoN50z": "http://app.famitsu.com/20140919_441077/",
    "1gDkL6XR": "banner_event20140704_result.jpg",
    "t5R47iwj": ""
  },
  {
    "oL71Fz3a": "170",
    "LM34kfVC": "1",
    "NyYKc1A5": "ゴー☆ジャス動画",
    "aL70hVYQ": "1,2,3",
    "XuJL4pc5": "180",
    "jsRoN50z": "https://www.youtube.com/playlist?list=PLmJk2jcHilkUPIt5N6nGtGI-cJ73tP3wy",
    "1gDkL6XR": "banner_go0909.png",
    "t5R47iwj": ""
  },
  {
    "oL71Fz3a": "180",
    "LM34kfVC": "1",
    "NyYKc1A5": "ブレフロ本2",
    "aL70hVYQ": "",
    "XuJL4pc5": "170",
    "jsRoN50z": "http://app.famitsu.com/20140807_420046/",
    "1gDkL6XR": "banner_event20140807.jpg",
    "t5R47iwj": ""
  },
  {
    "oL71Fz3a": "181",
    "LM34kfVC": "1",
    "NyYKc1A5": "ブレフロ本3",
    "aL70hVYQ": "",
    "XuJL4pc5": "50",
    "jsRoN50z": "http://app.famitsu.com/20150611_532549",
    "1gDkL6XR": "banner_event20150611_2.jpg",
    "t5R47iwj": ""
  },
  {
    "oL71Fz3a": "190",
    "LM34kfVC": "1",
    "NyYKc1A5": "ローソンコラボ",
    "aL70hVYQ": "",
    "XuJL4pc5": "2",
    "jsRoN50z": "http://lwp.jp/bvf/campaign/static/bvf/",
    "1gDkL6XR": "banner_lawson.jpg",
    "t5R47iwj": ""
  },
  {
    "oL71Fz3a": "200",
    "LM34kfVC": "1",
    "NyYKc1A5": "ピックアップアンケート",
    "aL70hVYQ": "",
    "XuJL4pc5": "80",
    "jsRoN50z": "http://tw-cp.a-lim.co.jp/public/enquete/",
    "1gDkL6XR": "banner_event20140905_3.jpg",
    "t5R47iwj": ""
  },
  {
    "oL71Fz3a": "210",
    "LM34kfVC": "1",
    "NyYKc1A5": "ブレキャス",
    "aL70hVYQ": "",
    "XuJL4pc5": "140",
    "jsRoN50z": "https://web.lobi.co/special/bravecast?friend_id=",
    "1gDkL6XR": "bravecast_kekka.png",
    "t5R47iwj": ""
  },
  {
    "oL71Fz3a": "220",
    "LM34kfVC": "1",
    "NyYKc1A5": "タイアップキャンペーン",
    "aL70hVYQ": "",
    "XuJL4pc5": "2",
    "jsRoN50z": "http://ws.brave.a-lim.jp/php/web/info/html/tieupphantom_3.html",
    "1gDkL6XR": "banner_phantom_cereal.jpg",
    "t5R47iwj": "tieup=7"
  },
  {
    "oL71Fz3a": "221",
    "LM34kfVC": "1",
    "NyYKc1A5": "タイアップキャンペーン2",
    "aL70hVYQ": "",
    "XuJL4pc5": "2",
    "jsRoN50z": "http://ws.brave.a-lim.jp/php/web/info/html/crycamp_act.html?friend_id=",
    "1gDkL6XR": "banner_event_cryuni.jpg",
    "t5R47iwj": ""
  },
  {
    "oL71Fz3a": "230",
    "LM34kfVC": "1",
    "NyYKc1A5": "シリアルコード入力",
    "aL70hVYQ": "1",
    "XuJL4pc5": "1",
    "jsRoN50z": "http://ws.brave.a-lim.jp/php/web/info/html/campaign.html?friend_id=",
    "1gDkL6XR": "banner_serial.jpg",
    "t5R47iwj": "serial_code"
  },
  {
    "oL71Fz3a": "240",
    "LM34kfVC": "1",
    "NyYKc1A5": "友だち招待",
    "aL70hVYQ": "1,2,3",
    "XuJL4pc5": "70",
    "jsRoN50z": "http://ws.brave.a-lim.jp/php/web/info/html/invite.html?friend_id=",
    "1gDkL6XR": "friend_banner_dia.jpg",
    "t5R47iwj": "invite"
  },
  {
    "oL71Fz3a": "250",
    "LM34kfVC": "1",
    "NyYKc1A5": "みんなでブレフロキャンペーン",
    "aL70hVYQ": "",
    "XuJL4pc5": "20",
    "jsRoN50z": "http://www.a-lim.jp/brave/prt/cmpm/winter.html",
    "1gDkL6XR": "banner_event20151127.jpg",
    "t5R47iwj": ""
  },
  {
    "oL71Fz3a": "260",
    "LM34kfVC": "1",
    "NyYKc1A5": "ブレ生サンタ",
    "aL70hVYQ": "",
    "XuJL4pc5": "60",
    "jsRoN50z": "http://www.a-lim.jp/brave/opinions/branama_santa.html",
    "1gDkL6XR": "banner_nico_santa.jpg",
    "t5R47iwj": ""
  },
  {
    "oL71Fz3a": "270",
    "LM34kfVC": "1",
    "NyYKc1A5": "リツイートキャンペーン",
    "aL70hVYQ": "",
    "XuJL4pc5": "100",
    "jsRoN50z": "http://www.a-lim.jp/brave/prt/cmpt/",
    "1gDkL6XR": "banner_tw.jpg",
    "t5R47iwj": ""
  },
  {
    "oL71Fz3a": "280",
    "LM34kfVC": "1",
    "NyYKc1A5": "公式Youtube",
    "aL70hVYQ": "1,2,3",
    "XuJL4pc5": "300",
    "jsRoN50z": "https://www.youtube.com/bravefrontierchannel",
    "1gDkL6XR": "banner_BFChannel.jpg",
    "t5R47iwj": ""
  },
  {
    "oL71Fz3a": "290",
    "LM34kfVC": "1",
    "NyYKc1A5": "第3回ブレフロ総選挙",
    "aL70hVYQ": "",
    "XuJL4pc5": "110",
    "jsRoN50z": "http://generic.a-lim.jp/general/public/voteresult",
    "1gDkL6XR": "banner_event20150521_2.jpg",
    "t5R47iwj": ""
  },
  {
    "oL71Fz3a": "300",
    "LM34kfVC": "1",
    "NyYKc1A5": "ブレフェス2015",
    "aL70hVYQ": "",
    "XuJL4pc5": "7",
    "jsRoN50z": "http://anniversary.a-lim.co.jp/anniversary/public/annivtop?friend_id=",
    "1gDkL6XR": "banner_bravefes.png",
    "t5R47iwj": ""
  },
  {
    "oL71Fz3a": "310",
    "LM34kfVC": "1",
    "NyYKc1A5": "ブレQ",
    "aL70hVYQ": "",
    "XuJL4pc5": "15",
    "jsRoN50z": "http://anniversary.a-lim.co.jp/anniversary/public/breq?friend_id=",
    "1gDkL6XR": "banner_braveq.jpg",
    "t5R47iwj": ""
  },
  {
    "oL71Fz3a": "320",
    "LM34kfVC": "1",
    "NyYKc1A5": "ブレフロ調査隊",
    "aL70hVYQ": "",
    "XuJL4pc5": "30",
    "jsRoN50z": "http://anniversary.a-lim.co.jp/anniversary/public/evo7enquete?friend_id=",
    "1gDkL6XR": "banner_event20150325_1.jpg",
    "t5R47iwj": ""
  },
  {
    "oL71Fz3a": "330",
    "LM34kfVC": "1",
    "NyYKc1A5": "別バージョンイラストアンケート",
    "aL70hVYQ": "",
    "XuJL4pc5": "90",
    "jsRoN50z": "http://anniversary.a-lim.co.jp/anniversary/public/enquete?friend_id=",
    "1gDkL6XR": "banner_event20150601_1.jpg",
    "t5R47iwj": ""
  },
  {
    "oL71Fz3a": "340",
    "LM34kfVC": "1",
    "NyYKc1A5": "ブレ生質問",
    "aL70hVYQ": "",
    "XuJL4pc5": "7",
    "jsRoN50z": "http://survey.brenama.a-lim.jp/survey/brenamaSurvey",
    "1gDkL6XR": "banner_nico.jpg",
    "t5R47iwj": ""
  },
  {
    "oL71Fz3a": "350",
    "LM34kfVC": "1",
    "NyYKc1A5": "好きなユニットプレゼント",
    "aL70hVYQ": "",
    "XuJL4pc5": "5",
    "jsRoN50z": "http://anniversary.a-lim.co.jp/anniversary/public/unitpresent?friend_id=",
    "1gDkL6XR": "banner_event20150703_1.jpg",
    "t5R47iwj": ""
  },
  {
    "oL71Fz3a": "360",
    "LM34kfVC": "1",
    "NyYKc1A5": "チェンクロコラボサイト",
    "aL70hVYQ": "",
    "XuJL4pc5": "5",
    "jsRoN50z": "http://anniversary.a-lim.co.jp/anniversary/public/cbcollabo",
    "1gDkL6XR": "banner_collabo_cb.jpg",
    "t5R47iwj": ""
  },
  {
    "oL71Fz3a": "370",
    "LM34kfVC": "1",
    "NyYKc1A5": "ブレカフェ",
    "aL70hVYQ": "",
    "XuJL4pc5": "40",
    "jsRoN50z": "http://anniversary.a-lim.co.jp/anniversary/public/bravecafe",
    "1gDkL6XR": "banner_cafe.jpg",
    "t5R47iwj": ""
  },
  {
    "oL71Fz3a": "371",
    "LM34kfVC": "1",
    "NyYKc1A5": "ブレカフェ2",
    "aL70hVYQ": "",
    "XuJL4pc5": "17",
    "jsRoN50z": "http://anniversary.a-lim.co.jp/anniversary/public/bravecafe",
    "1gDkL6XR": "banner_cafe201512.jpg",
    "t5R47iwj": ""
  },
  {
    "oL71Fz3a": "380",
    "LM34kfVC": "1",
    "NyYKc1A5": "ファミ通二周年",
    "aL70hVYQ": "",
    "XuJL4pc5": "20",
    "jsRoN50z": "http://app.famitsu.com/20150711_544485/",
    "1gDkL6XR": "banner_event20150713_2.jpg",
    "t5R47iwj": ""
  },
  {
    "oL71Fz3a": "381",
    "LM34kfVC": "1",
    "NyYKc1A5": "ファミ通三周年",
    "aL70hVYQ": "",
    "XuJL4pc5": "10",
    "jsRoN50z": "http://app.famitsu.com/20160621_750793/",
    "1gDkL6XR": "banner_event20160629_fami.jpg",
    "t5R47iwj": ""
  },
  {
    "oL71Fz3a": "390",
    "LM34kfVC": "1",
    "NyYKc1A5": "アートブック",
    "aL70hVYQ": "",
    "XuJL4pc5": "30",
    "jsRoN50z": "http://app.famitsu.com/20150730_551577",
    "1gDkL6XR": "banner_event20150730_1.jpg",
    "t5R47iwj": ""
  },
  {
    "oL71Fz3a": "400",
    "LM34kfVC": "1",
    "NyYKc1A5": "LINE連携",
    "aL70hVYQ": "",
    "XuJL4pc5": "15",
    "jsRoN50z": "https://line.a-lim.co.jp/brave/lineweblogin/relation?friend_id=",
    "1gDkL6XR": "banner_linelink.jpg",
    "t5R47iwj": ""
  },
  {
    "oL71Fz3a": "410",
    "LM34kfVC": "1",
    "NyYKc1A5": "ノベライズ",
    "aL70hVYQ": "",
    "XuJL4pc5": "35",
    "jsRoN50z": "http://j-books.shueisha.co.jp/news_newrelease/bravefrontier",
    "1gDkL6XR": "banner_event20150729_1.jpg",
    "t5R47iwj": ""
  },
  {
    "oL71Fz3a": "420",
    "LM34kfVC": "1",
    "NyYKc1A5": "ヴァルガス戦記コミック",
    "aL70hVYQ": "",
    "XuJL4pc5": "25",
    "jsRoN50z": "http://www.hmv.co.jp/product/detail/6533407",
    "1gDkL6XR": "banner_event20150804_1.jpg",
    "t5R47iwj": ""
  },
  {
    "oL71Fz3a": "430",
    "LM34kfVC": "1",
    "NyYKc1A5": "ブレフェスグッズ",
    "aL70hVYQ": "",
    "XuJL4pc5": "10",
    "jsRoN50z": "http://www.hmv.co.jp/news/article/1508070033/",
    "1gDkL6XR": "banner_event20150807_1.jpg",
    "t5R47iwj": ""
  },
  {
    "oL71Fz3a": "440",
    "LM34kfVC": "1",
    "NyYKc1A5": "ユニットプレゼント再チャンス",
    "aL70hVYQ": "",
    "XuJL4pc5": "5",
    "jsRoN50z": "http://anniversary.a-lim.co.jp/anniversary/public/unitpresentss?friend_id=",
    "1gDkL6XR": "banner_event20150812_1.jpg",
    "t5R47iwj": ""
  },
  {
    "oL71Fz3a": "450",
    "LM34kfVC": "1",
    "NyYKc1A5": "千メモ_コラボミッション",
    "aL70hVYQ": "",
    "XuJL4pc5": "2",
    "jsRoN50z": "http://ws.brave.a-lim.jp/php/web/info/html/senmemo01.html",
    "1gDkL6XR": "banner_senmemo_tassei.jpg",
    "t5R47iwj": ""
  },
  {
    "oL71Fz3a": "460",
    "LM34kfVC": "1",
    "NyYKc1A5": "ハルトの召喚日記2巻発売",
    "aL70hVYQ": "1,2,3",
    "XuJL4pc5": "21",
    "jsRoN50z": "http://generic.a-lim.jp/general/hult/index.php",
    "1gDkL6XR": "banner_event20160225_haruto.jpg",
    "t5R47iwj": ""
  },
  {
    "oL71Fz3a": "470",
    "LM34kfVC": "1",
    "NyYKc1A5": "Lobi管理人総選挙",
    "aL70hVYQ": "",
    "XuJL4pc5": "7",
    "jsRoN50z": "http://lobi.bfsenkyo.a-lim.jp/lobielection/?friend_id=",
    "1gDkL6XR": "banner_event20160314_lobi.jpg",
    "t5R47iwj": ""
  },
  {
    "oL71Fz3a": "471",
    "LM34kfVC": "1",
    "NyYKc1A5": "Lobi管理人総選挙2016",
    "aL70hVYQ": "",
    "XuJL4pc5": "5",
    "jsRoN50z": "http://lobielection.a-lim.jp/lobielection/?friend_id=",
    "1gDkL6XR": "banner_event_lobi_161111.jpg",
    "t5R47iwj": ""
  },
  {
    "oL71Fz3a": "480",
    "LM34kfVC": "1",
    "NyYKc1A5": "みんなでブレフロ2016",
    "aL70hVYQ": "",
    "XuJL4pc5": "8",
    "jsRoN50z": "http://www.a-lim.jp/brave/prt/cmpv/Anniversary2016.html",
    "1gDkL6XR": "banner_minnade.jpg",
    "t5R47iwj": ""
  },
  {
    "oL71Fz3a": "481",
    "LM34kfVC": "1",
    "NyYKc1A5": "年末年始キャンペーン2016",
    "aL70hVYQ": "",
    "XuJL4pc5": "14",
    "jsRoN50z": "http://www.a-lim.jp/brave/prt/cmpb/2016-2017campaign.html",
    "1gDkL6XR": "banner_event20161201_cp.jpg",
    "t5R47iwj": ""
  },
  {
    "oL71Fz3a": "482",
    "LM34kfVC": "1",
    "NyYKc1A5": "みんなでブレフロ2017",
    "aL70hVYQ": "",
    "XuJL4pc5": "8",
    "jsRoN50z": "http://www.a-lim.jp/brave/prt/cmpe/Anniversary2017.html",
    "1gDkL6XR": "banner20170703_minnade.jpg",
    "t5R47iwj": ""
  },
  {
    "oL71Fz3a": "483",
    "LM34kfVC": "1",
    "NyYKc1A5": "皆でブレフロ年末年始2017",
    "aL70hVYQ": "",
    "XuJL4pc5": "14",
    "jsRoN50z": "https://www.bravefrontier.jp/bf1/cp/newyearcp/",
    "1gDkL6XR": "banner_event20171128_minnade.jpg",
    "t5R47iwj": ""
  },
  {
    "oL71Fz3a": "490",
    "LM34kfVC": "1",
    "NyYKc1A5": "幻想進化アンケート",
    "aL70hVYQ": "",
    "XuJL4pc5": "3",
    "jsRoN50z": "http://anniversary.a-lim.co.jp/anniversary/public/feenquete?friend_id=",
    "1gDkL6XR": "banner_event20160331_gensou.jpg",
    "t5R47iwj": ""
  },
  {
    "oL71Fz3a": "500",
    "LM34kfVC": "1",
    "NyYKc1A5": "ブレ生特典受取ページ",
    "aL70hVYQ": "",
    "XuJL4pc5": "7",
    "jsRoN50z": "http://generic.a-lim.jp/general/public/bravescm",
    "1gDkL6XR": "banner_event20160401_nicopre.jpg",
    "t5R47iwj": ""
  },
  {
    "oL71Fz3a": "510",
    "LM34kfVC": "1",
    "NyYKc1A5": "ファミマプリント",
    "aL70hVYQ": "",
    "XuJL4pc5": "60",
    "jsRoN50z": "http://drtv.jp/third/goods/bravefrontier/bravefrontier.html",
    "1gDkL6XR": "banner_20180714_famima.jpg",
    "t5R47iwj": ""
  },
  {
    "oL71Fz3a": "511",
    "LM34kfVC": "1",
    "NyYKc1A5": "ファミマプリント2019",
    "aL70hVYQ": "1,2,3",
    "XuJL4pc5": "60",
    "jsRoN50z": "http://fp.famima.com/game/brave",
    "1gDkL6XR": "banner_20190313_bf_famima.jpg",
    "t5R47iwj": ""
  },
  {
    "oL71Fz3a": "520",
    "LM34kfVC": "1",
    "NyYKc1A5": "ファンキル×タガタメ×ブレフロ",
    "aL70hVYQ": "",
    "XuJL4pc5": "4",
    "jsRoN50z": "https://pk.fg-games.co.jp/cp/3collabo",
    "1gDkL6XR": "banner_event_3collab.jpg",
    "t5R47iwj": ""
  },
  {
    "oL71Fz3a": "530",
    "LM34kfVC": "1",
    "NyYKc1A5": "ブレフロ関連コンテンツ",
    "aL70hVYQ": "1,2,3",
    "XuJL4pc5": "25",
    "jsRoN50z": "http://mediacontents.brave.a-lim.jp/",
    "1gDkL6XR": "banner_mediacontents.jpg",
    "t5R47iwj": ""
  },
  {
    "oL71Fz3a": "540",
    "LM34kfVC": "1",
    "NyYKc1A5": "第4回ブレフロ総選挙",
    "aL70hVYQ": "",
    "XuJL4pc5": "9",
    "jsRoN50z": "http://unitelection.a-lim.co.jp/index_result.html",
    "1gDkL6XR": "banner_sousenkyo2016_2.jpg",
    "t5R47iwj": ""
  },
  {
    "oL71Fz3a": "541",
    "LM34kfVC": "1",
    "NyYKc1A5": "第5回ブレフロ総選挙",
    "aL70hVYQ": "",
    "XuJL4pc5": "23",
    "jsRoN50z": "http://unitelection.a-lim.co.jp/v5/votes?friend_id=",
    "1gDkL6XR": "banner_sousenkyo2017_kekka.jpg",
    "t5R47iwj": ""
  },
  {
    "oL71Fz3a": "550",
    "LM34kfVC": "1",
    "NyYKc1A5": "ブレフェス2016",
    "aL70hVYQ": "",
    "XuJL4pc5": "2",
    "jsRoN50z": "http://anniversary.a-lim.co.jp",
    "1gDkL6XR": "banner_bravefes2016_2.jpg",
    "t5R47iwj": ""
  },
  {
    "oL71Fz3a": "551",
    "LM34kfVC": "1",
    "NyYKc1A5": "ブレフェス2017",
    "aL70hVYQ": "",
    "XuJL4pc5": "21",
    "jsRoN50z": "http://anniversary.a-lim.co.jp/2017/",
    "1gDkL6XR": "banner_bravefes2017_fin.jpg",
    "t5R47iwj": ""
  },
  {
    "oL71Fz3a": "560",
    "LM34kfVC": "1",
    "NyYKc1A5": "グランガイアサマナーズ",
    "aL70hVYQ": "",
    "XuJL4pc5": "5",
    "jsRoN50z": "https://anniversary.a-lim.co.jp/events/ggslive?friend_id=",
    "1gDkL6XR": "banner_ggs.jpg",
    "t5R47iwj": ""
  },
  {
    "oL71Fz3a": "570",
    "LM34kfVC": "1",
    "NyYKc1A5": "ニコファーレ",
    "aL70hVYQ": "",
    "XuJL4pc5": "3",
    "jsRoN50z": "https://anniversary.a-lim.co.jp/events/bravefes2016after?friend_id=",
    "1gDkL6XR": "banner_nicofarre.jpg",
    "t5R47iwj": ""
  },
  {
    "oL71Fz3a": "580",
    "LM34kfVC": "1",
    "NyYKc1A5": "ブレフロワンナイト人狼",
    "aL70hVYQ": "",
    "XuJL4pc5": "30",
    "jsRoN50z": "http://anniversary.a-lim.co.jp/1nite-jinro-bravefrontier/index.html",
    "1gDkL6XR": "banner_bf_1nightjinro.jpg",
    "t5R47iwj": ""
  },
  {
    "oL71Fz3a": "590",
    "LM34kfVC": "1",
    "NyYKc1A5": "ブレフロ機能アンケート",
    "aL70hVYQ": "",
    "XuJL4pc5": "4",
    "jsRoN50z": "http://functionsurvey.a-lim.co.jp/?friend_id=",
    "1gDkL6XR": "banner_questionnaire.jpg",
    "t5R47iwj": ""
  },
  {
    "oL71Fz3a": "600",
    "LM34kfVC": "1",
    "NyYKc1A5": "ブレフロオンラインショップ",
    "aL70hVYQ": "1,2,3",
    "XuJL4pc5": "12",
    "jsRoN50z": "http://www.a-limshop.com/",
    "1gDkL6XR": "banner_201810_1.jpg",
    "t5R47iwj": ""
  },
  {
    "oL71Fz3a": "610",
    "LM34kfVC": "1",
    "NyYKc1A5": "ブレ生公式サイト",
    "aL70hVYQ": "",
    "XuJL4pc5": "18",
    "jsRoN50z": "http://burenama.a-lim.jp/",
    "1gDkL6XR": "banner_0330_brenama.jpg",
    "t5R47iwj": ""
  },
  {
    "oL71Fz3a": "620",
    "LM34kfVC": "1",
    "NyYKc1A5": "ダイヤくじ",
    "aL70hVYQ": "",
    "XuJL4pc5": "5",
    "jsRoN50z": "http://lottery.bravefrontier.jp/lots/dialots?friend_id=",
    "1gDkL6XR": "banner_20161219_diakuji.jpg",
    "t5R47iwj": ""
  },
  {
    "oL71Fz3a": "630",
    "LM34kfVC": "1",
    "NyYKc1A5": "護冠魔神討伐隊選抜戦",
    "aL70hVYQ": "",
    "XuJL4pc5": "22",
    "jsRoN50z": "https://anniversary.a-lim.co.jp/events/toubatu?friend_id=",
    "1gDkL6XR": "banner_toubatu_end.jpg",
    "t5R47iwj": ""
  },
  {
    "oL71Fz3a": "640",
    "LM34kfVC": "1",
    "NyYKc1A5": "DC鷹の爪ブレイブファンディング",
    "aL70hVYQ": "",
    "XuJL4pc5": "7",
    "jsRoN50z": "https://bf-takanotsume.a-lim.co.jp/?friend_id=",
    "1gDkL6XR": "banner_event_takanotume_pre.jpg",
    "t5R47iwj": ""
  },
  {
    "oL71Fz3a": "641",
    "LM34kfVC": "1",
    "NyYKc1A5": "DC鷹の爪スタッフロール登録",
    "aL70hVYQ": "",
    "XuJL4pc5": "8",
    "jsRoN50z": "https://bf-takanotsume.a-lim.co.jp/endroll?friend_id=",
    "1gDkL6XR": "banner_event20170629_taka.jpg",
    "t5R47iwj": ""
  },
  {
    "oL71Fz3a": "650",
    "LM34kfVC": "1",
    "NyYKc1A5": "エイリムアカウントページ",
    "aL70hVYQ": "1,2,3",
    "XuJL4pc5": "19",
    "jsRoN50z": "https://account.a-lim.co.jp/",
    "1gDkL6XR": "banner_alimaccount.jpg",
    "t5R47iwj": ""
  },
  {
    "oL71Fz3a": "651",
    "LM34kfVC": "1",
    "NyYKc1A5": "エイリムアカウントページとは？",
    "aL70hVYQ": "1,2,3",
    "XuJL4pc5": "20",
    "jsRoN50z": "https://account.a-lim.co.jp/alim_account.html",
    "1gDkL6XR": "banner_alimaccount2.jpg",
    "t5R47iwj": ""
  },
  {
    "oL71Fz3a": "652",
    "LM34kfVC": "1",
    "NyYKc1A5": "ブレフロ2お知らせ",
    "aL70hVYQ": "",
    "XuJL4pc5": "2",
    "jsRoN50z": "https://www.bravefrontier.jp/bf2/",
    "1gDkL6XR": "banner_event_bf2release_2.jpg",
    "t5R47iwj": ""
  },
  {
    "oL71Fz3a": "653",
    "LM34kfVC": "1",
    "NyYKc1A5": "ブレフロ音楽祭",
    "aL70hVYQ": "",
    "XuJL4pc5": "16",
    "jsRoN50z": "https://www.bravefrontier.jp/music-fes/",
    "1gDkL6XR": "banner_music-fes.jpg",
    "t5R47iwj": ""
  },
  {
    "oL71Fz3a": "654",
    "LM34kfVC": "1",
    "NyYKc1A5": "ドワンゴジェイピーストア",
    "aL70hVYQ": "",
    "XuJL4pc5": "17",
    "jsRoN50z": "https://jpstore.dwango.jp/products/detail.php?product_id=679",
    "1gDkL6XR": "banner_dowango.jpg",
    "t5R47iwj": ""
  },
  {
    "oL71Fz3a": "655",
    "LM34kfVC": "1",
    "NyYKc1A5": "ブレフェス2018",
    "aL70hVYQ": "",
    "XuJL4pc5": "15",
    "jsRoN50z": "https://www.bravefrontier.jp/brave-fes/2018/",
    "1gDkL6XR": "banner_20180714_bravefes.jpg",
    "t5R47iwj": ""
  },
  {
    "oL71Fz3a": "1000",
    "LM34kfVC": "2",
    "NyYKc1A5": "青春姫",
    "aL70hVYQ": "",
    "XuJL4pc5": "1000",
    "jsRoN50z": "https://itunes.apple.com/jp/app/id678095953?mt=8",
    "1gDkL6XR": "banner_schoolprincess.jpg",
    "t5R47iwj": ""
  },
  {
    "oL71Fz3a": "1010",
    "LM34kfVC": "2",
    "NyYKc1A5": "GANMA",
    "aL70hVYQ": "",
    "XuJL4pc5": "615",
    "jsRoN50z": "http://store.ganma.jp/comics/bravefrontier/",
    "1gDkL6XR": "01_600x120_saishin_2kan2.jpg",
    "t5R47iwj": ""
  },
  {
    "oL71Fz3a": "1011",
    "LM34kfVC": "2",
    "NyYKc1A5": "GANMA",
    "aL70hVYQ": "",
    "XuJL4pc5": "615",
    "jsRoN50z": "http://store.ganma.jp/comics/bravefrontier/",
    "1gDkL6XR": "01_600x120_saishin_2kan2.jpg",
    "t5R47iwj": ""
  },
  {
    "oL71Fz3a": "1012",
    "LM34kfVC": "2",
    "NyYKc1A5": "GANMA",
    "aL70hVYQ": "",
    "XuJL4pc5": "615",
    "jsRoN50z": "http://store.ganma.jp/comics/bravefrontier/",
    "1gDkL6XR": "01_600x120_saishin_2kan2.jpg",
    "t5R47iwj": ""
  },
  {
    "oL71Fz3a": "1013",
    "LM34kfVC": "2",
    "NyYKc1A5": "GANMA_2",
    "aL70hVYQ": "",
    "XuJL4pc5": "650",
    "jsRoN50z": "https://itunes.apple.com/ja/app/id709003148?l=ja&ls=1&mt=8",
    "1gDkL6XR": "banner_event20150716_1.jpg",
    "t5R47iwj": ""
  },
  {
    "oL71Fz3a": "1014",
    "LM34kfVC": "2",
    "NyYKc1A5": "GANMA_2",
    "aL70hVYQ": "",
    "XuJL4pc5": "650",
    "jsRoN50z": "https://play.google.com/store/apps/details?id=com.COMICSMART.GANMA",
    "1gDkL6XR": "banner_event20150716_1.jpg",
    "t5R47iwj": ""
  },
  {
    "oL71Fz3a": "1015",
    "LM34kfVC": "2",
    "NyYKc1A5": "GANMA_2",
    "aL70hVYQ": "",
    "XuJL4pc5": "650",
    "jsRoN50z": "http://ganma.jp",
    "1gDkL6XR": "banner_event20150716_1.jpg",
    "t5R47iwj": ""
  },
  {
    "oL71Fz3a": "1020",
    "LM34kfVC": "2",
    "NyYKc1A5": "DEEMO",
    "aL70hVYQ": "1",
    "XuJL4pc5": "660",
    "jsRoN50z": "https://itunes.apple.com/app/deemo/id700637744",
    "1gDkL6XR": "banner_brave_Deemo.jpg",
    "t5R47iwj": ""
  },
  {
    "oL71Fz3a": "1021",
    "LM34kfVC": "2",
    "NyYKc1A5": "DEEMO",
    "aL70hVYQ": "2",
    "XuJL4pc5": "661",
    "jsRoN50z": "https://play.google.com/store/apps/details?id=com.rayark.pluto",
    "1gDkL6XR": "banner_brave_Deemo.jpg",
    "t5R47iwj": ""
  },
  {
    "oL71Fz3a": "1030",
    "LM34kfVC": "2",
    "NyYKc1A5": "ファンアプリ",
    "aL70hVYQ": "",
    "XuJL4pc5": "800",
    "jsRoN50z": "https://itunes.apple.com/jp/app/id907398614?mt=8",
    "1gDkL6XR": "banner_event_app.jpg",
    "t5R47iwj": ""
  },
  {
    "oL71Fz3a": "1031",
    "LM34kfVC": "2",
    "NyYKc1A5": "ファンアプリ",
    "aL70hVYQ": "",
    "XuJL4pc5": "801",
    "jsRoN50z": "https://play.google.com/store/apps/details?id=net.appbank.bravefan",
    "1gDkL6XR": "banner_event_app.jpg",
    "t5R47iwj": ""
  },
  {
    "oL71Fz3a": "1040",
    "LM34kfVC": "2",
    "NyYKc1A5": "cocoppa",
    "aL70hVYQ": "1",
    "XuJL4pc5": "950",
    "jsRoN50z": "https://85160.api-05.com/serve?action=click&publisher_id=85160&site_id=38592&offer_id=263832&destination_id=33720&agency_id=120&my_campaign=banner4_ja.png",
    "1gDkL6XR": "banner4_ja.png",
    "t5R47iwj": ""
  },
  {
    "oL71Fz3a": "1041",
    "LM34kfVC": "2",
    "NyYKc1A5": "cocoppa",
    "aL70hVYQ": "2",
    "XuJL4pc5": "951",
    "jsRoN50z": "https://85160.api-05.com/serve?action=click&publisher_id=85160&site_id=38594&offer_id=263834&destination_id=33722&agency_id=120&my_campaign=banner4_ja.png",
    "1gDkL6XR": "banner4_ja.png",
    "t5R47iwj": ""
  },
  {
    "oL71Fz3a": "1050",
    "LM34kfVC": "2",
    "NyYKc1A5": "初音ミク",
    "aL70hVYQ": "1,2",
    "XuJL4pc5": "590",
    "jsRoN50z": "http://www.crypton.co.jp/mikucolle_app/index_s.php",
    "1gDkL6XR": "banner_open.jpg",
    "t5R47iwj": ""
  },
  {
    "oL71Fz3a": "1060",
    "LM34kfVC": "2",
    "NyYKc1A5": "聖剣伝説RoM_iOS",
    "aL70hVYQ": "",
    "XuJL4pc5": "700",
    "jsRoN50z": "https://itunes.apple.com/jp/app/sheng-jian-chuan-shuo-rise/id696484385?mt=8",
    "1gDkL6XR": "banner_seiken_RoM.png",
    "t5R47iwj": ""
  },
  {
    "oL71Fz3a": "1061",
    "LM34kfVC": "2",
    "NyYKc1A5": "聖剣伝説RoM_Android",
    "aL70hVYQ": "",
    "XuJL4pc5": "700",
    "jsRoN50z": "https://play.google.com/store/apps/details?id=com.square_enix.android_googleplay.riseofmana1&hl=ja",
    "1gDkL6XR": "banner_seiken_RoM.png",
    "t5R47iwj": ""
  },
  {
    "oL71Fz3a": "1070",
    "LM34kfVC": "2",
    "NyYKc1A5": "聖剣伝説2_iOS",
    "aL70hVYQ": "1",
    "XuJL4pc5": "710",
    "jsRoN50z": "https://itunes.apple.com/jp/app/sheng-jian-chuan-shuo2/id407949800?mt=8",
    "1gDkL6XR": "banner_seiken2.png",
    "t5R47iwj": ""
  },
  {
    "oL71Fz3a": "1071",
    "LM34kfVC": "2",
    "NyYKc1A5": "聖剣伝説2_Android",
    "aL70hVYQ": "2",
    "XuJL4pc5": "710",
    "jsRoN50z": "https://play.google.com/store/apps/details?id=com.square_enix.secret",
    "1gDkL6XR": "banner_seiken2.png",
    "t5R47iwj": ""
  },
  {
    "oL71Fz3a": "1080",
    "LM34kfVC": "2",
    "NyYKc1A5": "ログレスコラボ",
    "aL70hVYQ": "1,2,3",
    "XuJL4pc5": "690",
    "jsRoN50z": "http://sp.mmo-logres.com/",
    "1gDkL6XR": "banner_logres.png",
    "t5R47iwj": ""
  },
  {
    "oL71Fz3a": "1090",
    "LM34kfVC": "2",
    "NyYKc1A5": "テイルズコラボ_iOS",
    "aL70hVYQ": "",
    "XuJL4pc5": "720",
    "jsRoN50z": "https://itunes.apple.com/jp/app/tales-of-link/id793729153?mt=8",
    "1gDkL6XR": "banner_tales_of_link.png",
    "t5R47iwj": ""
  },
  {
    "oL71Fz3a": "1091",
    "LM34kfVC": "2",
    "NyYKc1A5": "テイルズコラボ_Android",
    "aL70hVYQ": "",
    "XuJL4pc5": "721",
    "jsRoN50z": "https://play.google.com/store/apps/details?id=com.bandainamcogames.talesoflink",
    "1gDkL6XR": "banner_tales_of_link.png",
    "t5R47iwj": ""
  },
  {
    "oL71Fz3a": "1100",
    "LM34kfVC": "2",
    "NyYKc1A5": "ファンキルコラボ",
    "aL70hVYQ": "1,2,3",
    "XuJL4pc5": "670",
    "jsRoN50z": "http://lp-pk.fg-games.co.jp/sp/",
    "1gDkL6XR": "fokbanner.jpg",
    "t5R47iwj": ""
  },
  {
    "oL71Fz3a": "1110",
    "LM34kfVC": "2",
    "NyYKc1A5": "チェンクロコラボ_iOS",
    "aL70hVYQ": "1",
    "XuJL4pc5": "730",
    "jsRoN50z": "https://itunes.apple.com/jp/app/id631980607",
    "1gDkL6XR": "banner_osusume_cc.png",
    "t5R47iwj": ""
  },
  {
    "oL71Fz3a": "1111",
    "LM34kfVC": "2",
    "NyYKc1A5": "チェンクロコラボ_Android",
    "aL70hVYQ": "2",
    "XuJL4pc5": "731",
    "jsRoN50z": "https://play.google.com/store/apps/details?id=com.sega.chainchronicle",
    "1gDkL6XR": "banner_osusume_cc.png",
    "t5R47iwj": ""
  },
  {
    "oL71Fz3a": "1112",
    "LM34kfVC": "2",
    "NyYKc1A5": "チェンクロコラボ_Kindle",
    "aL70hVYQ": "3",
    "XuJL4pc5": "732",
    "jsRoN50z": "http://www.amazon.co.jp/gp/product/B00NATVFGG/",
    "1gDkL6XR": "banner_osusume_cc.png",
    "t5R47iwj": ""
  },
  {
    "oL71Fz3a": "1120",
    "LM34kfVC": "2",
    "NyYKc1A5": "FFBE",
    "aL70hVYQ": "1,2,3",
    "XuJL4pc5": "600",
    "jsRoN50z": "http://www.jp.square-enix.com/FFBE/",
    "1gDkL6XR": "banner_ffbe.jpg",
    "t5R47iwj": ""
  },
  {
    "oL71Fz3a": "1130",
    "LM34kfVC": "2",
    "NyYKc1A5": "三国志ブレイブ",
    "aL70hVYQ": "",
    "XuJL4pc5": "610",
    "jsRoN50z": "https://sangokushibrave.game.line.me/",
    "1gDkL6XR": "banner_sangokushi.jpg",
    "t5R47iwj": ""
  },
  {
    "oL71Fz3a": "1131",
    "LM34kfVC": "2",
    "NyYKc1A5": "三国志ブレイブ_iOS",
    "aL70hVYQ": "",
    "XuJL4pc5": "610",
    "jsRoN50z": "https://186875.measurementapi.com/serve?action=click&publisher_id=186875&site_id=105138",
    "1gDkL6XR": "banner_sangokushi.jpg",
    "t5R47iwj": ""
  },
  {
    "oL71Fz3a": "1132",
    "LM34kfVC": "2",
    "NyYKc1A5": "三国志ブレイブ_Android",
    "aL70hVYQ": "",
    "XuJL4pc5": "610",
    "jsRoN50z": "https://186875.measurementapi.com/serve?action=click&publisher_id=186875&site_id=105136",
    "1gDkL6XR": "banner_sangokushi.jpg",
    "t5R47iwj": ""
  },
  {
    "oL71Fz3a": "1140",
    "LM34kfVC": "2",
    "NyYKc1A5": "千メモコラボ_iOS",
    "aL70hVYQ": "1",
    "XuJL4pc5": "740",
    "jsRoN50z": "https://click.adzcore.com/1.0.63c9c0d128f548bf2743cf917084efa5c",
    "1gDkL6XR": "banner_thousandmemories.png",
    "t5R47iwj": ""
  },
  {
    "oL71Fz3a": "1141",
    "LM34kfVC": "2",
    "NyYKc1A5": "千メモコラボ_Android",
    "aL70hVYQ": "2",
    "XuJL4pc5": "741",
    "jsRoN50z": "https://click.adzcore.com/1.0.91980d45753199438c178fc3e5bddef9c",
    "1gDkL6XR": "banner_thousandmemories.png",
    "t5R47iwj": ""
  },
  {
    "oL71Fz3a": "1142",
    "LM34kfVC": "2",
    "NyYKc1A5": "千メモコラボ_Kindle",
    "aL70hVYQ": "3",
    "XuJL4pc5": "742",
    "jsRoN50z": "http://www.amazon.co.jp/gp/mas/dl/android?p=jp.aktsk.kindle.memories",
    "1gDkL6XR": "banner_thousandmemories.png",
    "t5R47iwj": ""
  },
  {
    "oL71Fz3a": "1150",
    "LM34kfVC": "2",
    "NyYKc1A5": "テラバトルコラボ_iOS",
    "aL70hVYQ": "1",
    "XuJL4pc5": "620",
    "jsRoN50z": "https://itunes.apple.com/jp/app/terra-battle/id888628623",
    "1gDkL6XR": "TB_banner.png",
    "t5R47iwj": ""
  },
  {
    "oL71Fz3a": "1151",
    "LM34kfVC": "2",
    "NyYKc1A5": "テラバトルコラボ_Android",
    "aL70hVYQ": "2",
    "XuJL4pc5": "621",
    "jsRoN50z": "https://play.google.com/store/apps/details?id=com.mistwalkercorp.guardians",
    "1gDkL6XR": "TB_banner.png",
    "t5R47iwj": ""
  },
  {
    "oL71Fz3a": "1160",
    "LM34kfVC": "2",
    "NyYKc1A5": "鷹の爪",
    "aL70hVYQ": "1,2,3",
    "XuJL4pc5": "599",
    "jsRoN50z": "http://xn--u9j429qiq1a.jp/",
    "1gDkL6XR": "banner_takanotsume.jpg",
    "t5R47iwj": ""
  },
  {
    "oL71Fz3a": "1170",
    "LM34kfVC": "2",
    "NyYKc1A5": "メガテンコラボ",
    "aL70hVYQ": "1,2,3",
    "XuJL4pc5": "605",
    "jsRoN50z": "http://megaten4f.jp/",
    "1gDkL6XR": "banner_megaten_link.jpg",
    "t5R47iwj": ""
  },
  {
    "oL71Fz3a": "1180",
    "LM34kfVC": "2",
    "NyYKc1A5": "タガタメコラボ",
    "aL70hVYQ": "1,2,3",
    "XuJL4pc5": "680",
    "jsRoN50z": "https://al.fg-games.co.jp/",
    "1gDkL6XR": "banner_tagatame.png",
    "t5R47iwj": ""
  },
  {
    "oL71Fz3a": "1190",
    "LM34kfVC": "2",
    "NyYKc1A5": "クリユニコラボ_iOS",
    "aL70hVYQ": "1",
    "XuJL4pc5": "570",
    "jsRoN50z": "https://itunes.apple.com/jp/app/kurisutaru-obu-riyunion-crystal/id993529737?mt=8",
    "1gDkL6XR": "banner_crystalreunion.jpg",
    "t5R47iwj": ""
  },
  {
    "oL71Fz3a": "1191",
    "LM34kfVC": "2",
    "NyYKc1A5": "クリユニコラボ_Android",
    "aL70hVYQ": "2",
    "XuJL4pc5": "570",
    "jsRoN50z": "https://play.google.com/store/apps/details?id=jp.co.gu3.orange01&referrer=utm_source%3Dko_de8d577b33755b849%26utm_medium%3D1%26utm_campaign%3Dkojp-co-gu3-orange01-8b-android565bb145222831c090b13f8c5a%26utm_term%3D%26utm_content%3D%26",
    "1gDkL6XR": "banner_crystalreunion.jpg",
    "t5R47iwj": ""
  },
  {
    "oL71Fz3a": "1192",
    "LM34kfVC": "2",
    "NyYKc1A5": "ブレオデコラボ_iOS",
    "aL70hVYQ": "",
    "XuJL4pc5": "560",
    "jsRoN50z": "https://itunes.apple.com/jp/app/bureijingu-odessei-wu-liao/id962257687?mt=8",
    "1gDkL6XR": "Banner_blazing.jpg",
    "t5R47iwj": ""
  },
  {
    "oL71Fz3a": "1193",
    "LM34kfVC": "2",
    "NyYKc1A5": "ブレオデコラボ_Android",
    "aL70hVYQ": "",
    "XuJL4pc5": "560",
    "jsRoN50z": "https://play.google.com/store/apps/details?id=jp.co.fenris.kira",
    "1gDkL6XR": "Banner_blazing.jpg",
    "t5R47iwj": ""
  },
  {
    "oL71Fz3a": "1200",
    "LM34kfVC": "2",
    "NyYKc1A5": "ギルティコラボ",
    "aL70hVYQ": "1,2,3",
    "XuJL4pc5": "550",
    "jsRoN50z": "http://www.ggxrd.com/rev/cs2/",
    "1gDkL6XR": "banner_frame_REV2.jpg",
    "t5R47iwj": ""
  },
  {
    "oL71Fz3a": "1210",
    "LM34kfVC": "2",
    "NyYKc1A5": "ブレメモ_iOS",
    "aL70hVYQ": "1",
    "XuJL4pc5": "540",
    "jsRoN50z": "https://itunes.apple.com/jp/app/id1229037203?l=ja&ls=1&mt=8",
    "1gDkL6XR": "banner_bf_m.jpg",
    "t5R47iwj": ""
  },
  {
    "oL71Fz3a": "1211",
    "LM34kfVC": "2",
    "NyYKc1A5": "ブレメモ_Android",
    "aL70hVYQ": "2",
    "XuJL4pc5": "540",
    "jsRoN50z": "https://play.google.com/store/apps/details?id=jp.co.alim.BraveFrontierMemories",
    "1gDkL6XR": "banner_bf_m.jpg",
    "t5R47iwj": ""
  },
  {
    "oL71Fz3a": "1212",
    "LM34kfVC": "2",
    "NyYKc1A5": "スママジ_iOS",
    "aL70hVYQ": "",
    "XuJL4pc5": "545",
    "jsRoN50z": "https://app.adjust.com/xzflrl9",
    "1gDkL6XR": "Banner_sumamazi.jpg",
    "t5R47iwj": ""
  },
  {
    "oL71Fz3a": "1213",
    "LM34kfVC": "2",
    "NyYKc1A5": "スママジ_Android",
    "aL70hVYQ": "",
    "XuJL4pc5": "545",
    "jsRoN50z": "https://app.adjust.com/xzflrl9",
    "1gDkL6XR": "Banner_sumamazi.jpg",
    "t5R47iwj": ""
  },
  {
    "oL71Fz3a": "1214",
    "LM34kfVC": "2",
    "NyYKc1A5": "ブレフロ2_iOS",
    "aL70hVYQ": "1",
    "XuJL4pc5": "530",
    "jsRoN50z": "https://itunes.apple.com/jp/app/id1260930018?mt=8",
    "1gDkL6XR": "banner_bf2.jpg",
    "t5R47iwj": ""
  },
  {
    "oL71Fz3a": "1215",
    "LM34kfVC": "2",
    "NyYKc1A5": "ブレフロ2_Android",
    "aL70hVYQ": "2",
    "XuJL4pc5": "530",
    "jsRoN50z": "https://play.google.com/store/apps/details?id=jp.co.alim.BraveFrontier2",
    "1gDkL6XR": "banner_bf2.jpg",
    "t5R47iwj": ""
  },
  {
    "oL71Fz3a": "1216",
    "LM34kfVC": "2",
    "NyYKc1A5": "GANMA",
    "aL70hVYQ": "1,2,3",
    "XuJL4pc5": "620",
    "jsRoN50z": "https://app.adjust.com/33no4ks?fallback=http%3a%2f%2fganma%2ejp%2f",
    "1gDkL6XR": "01_600x120_saishin_2kan2.jpg",
    "t5R47iwj": ""
  },
  {
    "oL71Fz3a": "1217",
    "LM34kfVC": "2",
    "NyYKc1A5": "ローグストーリー_iOS",
    "aL70hVYQ": "1",
    "XuJL4pc5": "535",
    "jsRoN50z": "https://itunes.apple.com/jp/app/id1229046102?mt=8",
    "1gDkL6XR": "banner_20190313_rogue_bf1.jpg",
    "t5R47iwj": ""
  },
  {
    "oL71Fz3a": "1218",
    "LM34kfVC": "2",
    "NyYKc1A5": "ローグストーリー_Android",
    "aL70hVYQ": "2",
    "XuJL4pc5": "535",
    "jsRoN50z": "https://play.google.com/store/apps/details?id=jp.co.alim.BraveFrontierRogueStory",
    "1gDkL6XR": "banner_20190313_rogue_bf1.jpg",
    "t5R47iwj": ""
  },
  {
    "oL71Fz3a": "1220",
    "LM34kfVC": "1",
    "NyYKc1A5": "ローグサントラ",
    "aL70hVYQ": "1,2,3",
    "XuJL4pc5": "18",
    "jsRoN50z": "https://www.bravefrontier.jp/rogue_story/soundtrack/",
    "1gDkL6XR": "banner_roguesound_bf1.jpg",
    "t5R47iwj": ""
  },
  {
    "oL71Fz3a": "1230",
    "LM34kfVC": "1",
    "NyYKc1A5": "6周年キャンペーン",
    "aL70hVYQ": "1,2,3",
    "XuJL4pc5": "1",
    "jsRoN50z": "https://www.bravefrontier.jp/6th_anniversary/",
    "1gDkL6XR": "banner_6th.jpg",
    "t5R47iwj": ""
  }
]