[
  {
    "3mMAn6L5": "1",
    "NGL2K1id": "極輝召",
    "YDxl64JI": "999",
    "XuJL4pc5": "1",
    "qp37xTDh": "ユニットコストが無制限の対戦ルール",
    "1gDkL6XR": "banner_event20140703_1.jpg"
  },
  {
    "3mMAn6L5": "2",
    "NGL2K1id": "天星召",
    "YDxl64JI": "35",
    "XuJL4pc5": "2",
    "qp37xTDh": "ユニットコスト35以下限定の対戦ルール",
    "1gDkL6XR": "banner_event20140703_1.jpg"
  },
  {
    "3mMAn6L5": "3",
    "NGL2K1id": "幟臣召",
    "YDxl64JI": "19",
    "XuJL4pc5": "3",
    "qp37xTDh": "ユニットコスト28以下限定の対戦ルール",
    "1gDkL6XR": "banner_event20140703_1.jpg"
  },
  {
    "3mMAn6L5": "4",
    "NGL2K1id": "戦塔召",
    "YDxl64JI": "14",
    "XuJL4pc5": "4",
    "qp37xTDh": "ユニットコスト15以下限定の対戦ルール",
    "1gDkL6XR": "banner_event20140703_1.jpg"
  }
]