[
  {
    "H9sx5D08": "1",
    "0QyCU1dR": "セドリア湿地Lv3",
    "b5VveUd8": "raid_map003_01.jpg:0:0,raid_map003_02.jpg:0:960,raid_map003_03.jpg:640:0,raid_map003_04.jpg:640:960",
    "d54Z3hUc": "0,0",
    "sdE1oku7": "1280,1440",
    "U0s6Wkoq": "0,0",
    "W4QdZ6pE": "1280,1440"
  },
  {
    "H9sx5D08": "2",
    "0QyCU1dR": "モイズ草原Lv3",
    "b5VveUd8": "raid_map000_01.jpg:0:0,raid_map000_02.jpg:0:960,raid_map000_03.jpg:640:0,raid_map000_04.jpg:640:960",
    "d54Z3hUc": "0,0",
    "sdE1oku7": "1280,1440",
    "U0s6Wkoq": "0,0",
    "W4QdZ6pE": "1280,1440"
  },
  {
    "H9sx5D08": "3",
    "0QyCU1dR": "蒼き魂の覚醒",
    "b5VveUd8": "grand_map000_01.jpg:0:0,grand_map000_02.jpg:0:960,grand_map000_03.jpg:640:0,grand_map000_04.jpg:640:960",
    "d54Z3hUc": "0,0",
    "sdE1oku7": "1280,1440",
    "U0s6Wkoq": "0,0",
    "W4QdZ6pE": "1280,1440"
  },
  {
    "H9sx5D08": "4",
    "0QyCU1dR": "紅き鬼神の叫び",
    "b5VveUd8": "raid_map002_01.jpg:0:0,raid_map002_02.jpg:0:960,raid_map002_03.jpg:640:0,raid_map002_04.jpg:640:960",
    "d54Z3hUc": "0,0",
    "sdE1oku7": "1280,1440",
    "U0s6Wkoq": "0,0",
    "W4QdZ6pE": "1280,1440"
  },
  {
    "H9sx5D08": "5",
    "0QyCU1dR": "暁の老将",
    "b5VveUd8": "raid_map004_01.jpg:0:0,raid_map004_02.jpg:0:960,raid_map004_03.jpg:640:0,raid_map004_04.jpg:640:960",
    "d54Z3hUc": "0,0",
    "sdE1oku7": "1280,1440",
    "U0s6Wkoq": "0,0",
    "W4QdZ6pE": "1280,1440"
  },
  {
    "H9sx5D08": "6",
    "0QyCU1dR": "通信士の長い一日",
    "b5VveUd8": "raid_map001_01.jpg:0:0,raid_map001_02.jpg:0:960,raid_map001_03.jpg:640:0,raid_map001_04.jpg:640:960",
    "d54Z3hUc": "0,0",
    "sdE1oku7": "1280,1440",
    "U0s6Wkoq": "0,0",
    "W4QdZ6pE": "1280,1440"
  },
  {
    "H9sx5D08": "7",
    "0QyCU1dR": "虚像の庭",
    "b5VveUd8": "raid_map000_01.jpg:0:0,raid_map000_02.jpg:0:960,raid_map000_03.jpg:640:0,raid_map000_04.jpg:640:960",
    "d54Z3hUc": "0,0",
    "sdE1oku7": "1280,1440",
    "U0s6Wkoq": "0,0",
    "W4QdZ6pE": "1280,1440"
  },
  {
    "H9sx5D08": "8",
    "0QyCU1dR": "歪んだ鏡影",
    "b5VveUd8": "raid_map004_01.jpg:0:0,raid_map004_02.jpg:0:960,raid_map004_03.jpg:640:0,raid_map004_04.jpg:640:960",
    "d54Z3hUc": "0,0",
    "sdE1oku7": "1280,1440",
    "U0s6Wkoq": "0,0",
    "W4QdZ6pE": "1280,1440"
  },
  {
    "H9sx5D08": "9",
    "0QyCU1dR": "パルミナの四戦士前編",
    "b5VveUd8": "raid_map005_01_2.jpg:0:0,raid_map005_02.jpg:0:960,raid_map005_03_2.jpg:640:0,raid_map005_04.jpg:640:960",
    "d54Z3hUc": "0,0",
    "sdE1oku7": "1280,1440",
    "U0s6Wkoq": "0,0",
    "W4QdZ6pE": "1280,1440"
  },
  {
    "H9sx5D08": "10",
    "0QyCU1dR": "パルミナの四戦士後編",
    "b5VveUd8": "raid_map005_01.jpg:0:0,raid_map005_02.jpg:0:960,raid_map005_03.jpg:640:0,raid_map005_04.jpg:640:960",
    "d54Z3hUc": "0,0",
    "sdE1oku7": "1280,1440",
    "U0s6Wkoq": "0,0",
    "W4QdZ6pE": "1280,1440"
  },
  {
    "H9sx5D08": "11",
    "0QyCU1dR": "グラクエミセル編",
    "b5VveUd8": "raid_map006_01.jpg:0:0,raid_map006_02.jpg:0:960,raid_map006_03.jpg:640:0,raid_map006_04.jpg:640:960",
    "d54Z3hUc": "0,0",
    "sdE1oku7": "1280,1440",
    "U0s6Wkoq": "0,0",
    "W4QdZ6pE": "1280,1440"
  },
  {
    "H9sx5D08": "13",
    "0QyCU1dR": "グラクエエリーゼ編",
    "b5VveUd8": "grand_map000_01.jpg:0:0,grand_map000_02.jpg:0:960,grand_map000_03.jpg:640:0,grand_map000_04.jpg:640:960",
    "d54Z3hUc": "0,0",
    "sdE1oku7": "1280,1440",
    "U0s6Wkoq": "0,0",
    "W4QdZ6pE": "1280,1440"
  },
  {
    "H9sx5D08": "14",
    "0QyCU1dR": "グラクエメイリス編",
    "b5VveUd8": "raid_map004_01.jpg:0:0,raid_map004_02.jpg:0:960,raid_map004_03.jpg:640:0,raid_map004_04.jpg:640:960",
    "d54Z3hUc": "0,0",
    "sdE1oku7": "1280,1440",
    "U0s6Wkoq": "0,0",
    "W4QdZ6pE": "1280,1440"
  },
  {
    "H9sx5D08": "17",
    "0QyCU1dR": "グラクエ先遣隊編",
    "b5VveUd8": "raid_map007_01.jpg:0:0,raid_map007_02.jpg:0:960,raid_map007_03.jpg:640:0,raid_map007_04.jpg:640:960",
    "d54Z3hUc": "0,0",
    "sdE1oku7": "1280,1440",
    "U0s6Wkoq": "0,0",
    "W4QdZ6pE": "1280,1440"
  },
  {
    "H9sx5D08": "19",
    "0QyCU1dR": "グラクエセラ編",
    "b5VveUd8": "raid_map003_01.jpg:0:0,raid_map003_02.jpg:0:960,raid_map003_03.jpg:640:0,raid_map003_04.jpg:640:960",
    "d54Z3hUc": "0,0",
    "sdE1oku7": "1280,1140",
    "U0s6Wkoq": "0,0",
    "W4QdZ6pE": "1280,1140"
  },
  {
    "H9sx5D08": "20",
    "0QyCU1dR": "グラクエリード編",
    "b5VveUd8": "raid_map009_01.jpg:0:0,raid_map009_02.jpg:0:960,raid_map009_03.jpg:640:0,raid_map009_04.jpg:640:960",
    "d54Z3hUc": "0,0",
    "sdE1oku7": "1280,1440",
    "U0s6Wkoq": "0,0",
    "W4QdZ6pE": "1280,1440"
  },
  {
    "H9sx5D08": "21",
    "0QyCU1dR": "グラクエバリウラ編",
    "b5VveUd8": "raid_map010_01.jpg:0:0,raid_map010_02.jpg:0:960,raid_map010_03.jpg:640:0,raid_map010_04.jpg:640:960",
    "d54Z3hUc": "0,0",
    "sdE1oku7": "1280,1440",
    "U0s6Wkoq": "0,0",
    "W4QdZ6pE": "1280,1440"
  },
  {
    "H9sx5D08": "50",
    "0QyCU1dR": "グラクエチェンクロ",
    "b5VveUd8": "raid_map000_01.jpg:0:0,raid_map000_02.jpg:0:960,raid_map000_03.jpg:640:0,raid_map000_04.jpg:640:960",
    "d54Z3hUc": "0,0",
    "sdE1oku7": "1280,1440",
    "U0s6Wkoq": "0,0",
    "W4QdZ6pE": "1280,1440"
  },
  {
    "H9sx5D08": "51",
    "0QyCU1dR": "グラクエ千メモ",
    "b5VveUd8": "raid_map003_01.jpg:0:0,raid_map003_02.jpg:0:960,raid_map003_03.jpg:640:0,raid_map003_04.jpg:640:960",
    "d54Z3hUc": "0,0",
    "sdE1oku7": "1280,1440",
    "U0s6Wkoq": "0,0",
    "W4QdZ6pE": "1280,1440"
  },
  {
    "H9sx5D08": "52",
    "0QyCU1dR": "グラクエメガテン",
    "b5VveUd8": "raid_map004_01.jpg:0:0,raid_map004_02.jpg:0:960,raid_map004_03.jpg:640:0,raid_map004_04.jpg:640:960",
    "d54Z3hUc": "0,0",
    "sdE1oku7": "1280,1440",
    "U0s6Wkoq": "0,0",
    "W4QdZ6pE": "1280,1440"
  },
  {
    "H9sx5D08": "54",
    "0QyCU1dR": "グラクエ鷹の爪",
    "b5VveUd8": "raid_map008_001.jpg:0:0,raid_map008_002.jpg:0:960,raid_map008_003.jpg:640:0,raid_map008_004.jpg:640:960",
    "d54Z3hUc": "0,0",
    "sdE1oku7": "1280,1440",
    "U0s6Wkoq": "0,0",
    "W4QdZ6pE": "1280,1440"
  }
]