[
  {
    "FcKX8O65": "1",
    "j28VNcUW": "2000",
    "XuJL4pc5": "1",
    "JRqU2bS6": "1",
    "3l52Vq2h": "1:1:0"
  },
  {
    "FcKX8O65": "2",
    "j28VNcUW": "2001",
    "XuJL4pc5": "1",
    "JRqU2bS6": "1",
    "3l52Vq2h": "1:2:0"
  },
  {
    "FcKX8O65": "3",
    "j28VNcUW": "2002",
    "XuJL4pc5": "1",
    "JRqU2bS6": "1",
    "3l52Vq2h": "1:3:0"
  },
  {
    "FcKX8O65": "4",
    "j28VNcUW": "2003",
    "XuJL4pc5": "1",
    "JRqU2bS6": "1",
    "3l52Vq2h": "2:213101:5"
  },
  {
    "FcKX8O65": "5",
    "j28VNcUW": "2004",
    "XuJL4pc5": "1",
    "JRqU2bS6": "1",
    "3l52Vq2h": "1:4:0"
  },
  {
    "FcKX8O65": "6",
    "j28VNcUW": "2005",
    "XuJL4pc5": "1",
    "JRqU2bS6": "1",
    "3l52Vq2h": "1:5:0"
  },
  {
    "FcKX8O65": "7",
    "j28VNcUW": "2006",
    "XuJL4pc5": "1",
    "JRqU2bS6": "1",
    "3l52Vq2h": "1:6:0"
  },
  {
    "FcKX8O65": "8",
    "j28VNcUW": "2007",
    "XuJL4pc5": "1",
    "JRqU2bS6": "1",
    "3l52Vq2h": "1:7:0"
  },
  {
    "FcKX8O65": "9",
    "j28VNcUW": "2008",
    "XuJL4pc5": "1",
    "JRqU2bS6": "1",
    "3l52Vq2h": "1:39:0"
  },
  {
    "FcKX8O65": "10",
    "j28VNcUW": "2009",
    "XuJL4pc5": "1",
    "JRqU2bS6": "1",
    "3l52Vq2h": "1:42:0"
  },
  {
    "FcKX8O65": "11",
    "j28VNcUW": "2010",
    "XuJL4pc5": "1",
    "JRqU2bS6": "1",
    "3l52Vq2h": "1:45:0"
  },
  {
    "FcKX8O65": "12",
    "j28VNcUW": "3000",
    "XuJL4pc5": "1",
    "JRqU2bS6": "1",
    "3l52Vq2h": "2:213201:5"
  },
  {
    "FcKX8O65": "13",
    "j28VNcUW": "3001",
    "XuJL4pc5": "1",
    "JRqU2bS6": "1",
    "3l52Vq2h": "1:8:0"
  },
  {
    "FcKX8O65": "14",
    "j28VNcUW": "3002",
    "XuJL4pc5": "1",
    "JRqU2bS6": "1",
    "3l52Vq2h": "1:9:0"
  },
  {
    "FcKX8O65": "15",
    "j28VNcUW": "3003",
    "XuJL4pc5": "1",
    "JRqU2bS6": "1",
    "3l52Vq2h": "2:213102:5"
  },
  {
    "FcKX8O65": "16",
    "j28VNcUW": "3003",
    "XuJL4pc5": "2",
    "JRqU2bS6": "1",
    "3l52Vq2h": "2:213202:5"
  },
  {
    "FcKX8O65": "17",
    "j28VNcUW": "3004",
    "XuJL4pc5": "1",
    "JRqU2bS6": "1",
    "3l52Vq2h": "1:10:0"
  },
  {
    "FcKX8O65": "18",
    "j28VNcUW": "3004",
    "XuJL4pc5": "2",
    "JRqU2bS6": "1",
    "3l52Vq2h": "1:11:0"
  },
  {
    "FcKX8O65": "19",
    "j28VNcUW": "3005",
    "XuJL4pc5": "1",
    "JRqU2bS6": "1",
    "3l52Vq2h": "1:12:0"
  },
  {
    "FcKX8O65": "20",
    "j28VNcUW": "3005",
    "XuJL4pc5": "2",
    "JRqU2bS6": "1",
    "3l52Vq2h": "1:13:0"
  },
  {
    "FcKX8O65": "21",
    "j28VNcUW": "3006",
    "XuJL4pc5": "1",
    "JRqU2bS6": "1",
    "3l52Vq2h": "1:14:0"
  },
  {
    "FcKX8O65": "22",
    "j28VNcUW": "3007",
    "XuJL4pc5": "1",
    "JRqU2bS6": "1",
    "3l52Vq2h": "1:15:0"
  },
  {
    "FcKX8O65": "23",
    "j28VNcUW": "3008",
    "XuJL4pc5": "1",
    "JRqU2bS6": "1",
    "3l52Vq2h": "1:16:0"
  },
  {
    "FcKX8O65": "24",
    "j28VNcUW": "3009",
    "XuJL4pc5": "1",
    "JRqU2bS6": "1",
    "3l52Vq2h": "1:17:0"
  },
  {
    "FcKX8O65": "25",
    "j28VNcUW": "3010",
    "XuJL4pc5": "1",
    "JRqU2bS6": "1",
    "3l52Vq2h": "1:18:0"
  },
  {
    "FcKX8O65": "26",
    "j28VNcUW": "3011",
    "XuJL4pc5": "1",
    "JRqU2bS6": "1",
    "3l52Vq2h": "1:19:0"
  },
  {
    "FcKX8O65": "27",
    "j28VNcUW": "3012",
    "XuJL4pc5": "1",
    "JRqU2bS6": "1",
    "3l52Vq2h": "1:38:0"
  },
  {
    "FcKX8O65": "28",
    "j28VNcUW": "3013",
    "XuJL4pc5": "1",
    "JRqU2bS6": "1",
    "3l52Vq2h": "1:40:0"
  },
  {
    "FcKX8O65": "29",
    "j28VNcUW": "3014",
    "XuJL4pc5": "1",
    "JRqU2bS6": "1",
    "3l52Vq2h": "1:43:0"
  },
  {
    "FcKX8O65": "30",
    "j28VNcUW": "3015",
    "XuJL4pc5": "1",
    "JRqU2bS6": "1",
    "3l52Vq2h": "1:46:0"
  },
  {
    "FcKX8O65": "31",
    "j28VNcUW": "4000",
    "XuJL4pc5": "1",
    "JRqU2bS6": "1",
    "3l52Vq2h": "1:20:0"
  },
  {
    "FcKX8O65": "32",
    "j28VNcUW": "4001",
    "XuJL4pc5": "1",
    "JRqU2bS6": "1",
    "3l52Vq2h": "1:21:0"
  },
  {
    "FcKX8O65": "33",
    "j28VNcUW": "4001",
    "XuJL4pc5": "2",
    "JRqU2bS6": "1",
    "3l52Vq2h": "1:22:0"
  },
  {
    "FcKX8O65": "34",
    "j28VNcUW": "4001",
    "XuJL4pc5": "3",
    "JRqU2bS6": "1",
    "3l52Vq2h": "1:23:0"
  },
  {
    "FcKX8O65": "35",
    "j28VNcUW": "4001",
    "XuJL4pc5": "4",
    "JRqU2bS6": "1",
    "3l52Vq2h": "1:24:0"
  },
  {
    "FcKX8O65": "36",
    "j28VNcUW": "4002",
    "XuJL4pc5": "1",
    "JRqU2bS6": "1",
    "3l52Vq2h": "2:213103:5"
  },
  {
    "FcKX8O65": "37",
    "j28VNcUW": "4002",
    "XuJL4pc5": "2",
    "JRqU2bS6": "1",
    "3l52Vq2h": "2:213203:5"
  },
  {
    "FcKX8O65": "38",
    "j28VNcUW": "4004",
    "XuJL4pc5": "1",
    "JRqU2bS6": "1",
    "3l52Vq2h": "1:25:0"
  },
  {
    "FcKX8O65": "39",
    "j28VNcUW": "4005",
    "XuJL4pc5": "1",
    "JRqU2bS6": "1",
    "3l52Vq2h": "1:26:0"
  },
  {
    "FcKX8O65": "40",
    "j28VNcUW": "4006",
    "XuJL4pc5": "1",
    "JRqU2bS6": "1",
    "3l52Vq2h": "1:27:0"
  },
  {
    "FcKX8O65": "41",
    "j28VNcUW": "4003",
    "XuJL4pc5": "1",
    "JRqU2bS6": "1",
    "3l52Vq2h": "1:28:0"
  },
  {
    "FcKX8O65": "42",
    "j28VNcUW": "4003",
    "XuJL4pc5": "2",
    "JRqU2bS6": "1",
    "3l52Vq2h": "1:29:0"
  },
  {
    "FcKX8O65": "43",
    "j28VNcUW": "4008",
    "XuJL4pc5": "1",
    "JRqU2bS6": "1",
    "3l52Vq2h": "1:30:0"
  },
  {
    "FcKX8O65": "44",
    "j28VNcUW": "4007",
    "XuJL4pc5": "1",
    "JRqU2bS6": "1",
    "3l52Vq2h": "1:31:0"
  },
  {
    "FcKX8O65": "45",
    "j28VNcUW": "4009",
    "XuJL4pc5": "1",
    "JRqU2bS6": "1",
    "3l52Vq2h": "1:32:0"
  },
  {
    "FcKX8O65": "46",
    "j28VNcUW": "4009",
    "XuJL4pc5": "2",
    "JRqU2bS6": "1",
    "3l52Vq2h": "1:33:0"
  },
  {
    "FcKX8O65": "47",
    "j28VNcUW": "4010",
    "XuJL4pc5": "1",
    "JRqU2bS6": "1",
    "3l52Vq2h": "1:34:0"
  },
  {
    "FcKX8O65": "48",
    "j28VNcUW": "4010",
    "XuJL4pc5": "2",
    "JRqU2bS6": "1",
    "3l52Vq2h": "1:35:0"
  },
  {
    "FcKX8O65": "49",
    "j28VNcUW": "4010",
    "XuJL4pc5": "3",
    "JRqU2bS6": "1",
    "3l52Vq2h": "1:36:0"
  },
  {
    "FcKX8O65": "50",
    "j28VNcUW": "4011",
    "XuJL4pc5": "1",
    "JRqU2bS6": "1",
    "3l52Vq2h": "1:37:0"
  },
  {
    "FcKX8O65": "51",
    "j28VNcUW": "4012",
    "XuJL4pc5": "1",
    "JRqU2bS6": "1",
    "3l52Vq2h": "1:41:0"
  },
  {
    "FcKX8O65": "52",
    "j28VNcUW": "4013",
    "XuJL4pc5": "1",
    "JRqU2bS6": "1",
    "3l52Vq2h": "1:44:0"
  },
  {
    "FcKX8O65": "53",
    "j28VNcUW": "4014",
    "XuJL4pc5": "1",
    "JRqU2bS6": "1",
    "3l52Vq2h": "1:47:0"
  },
  {
    "FcKX8O65": "54",
    "j28VNcUW": "5000",
    "XuJL4pc5": "1",
    "JRqU2bS6": "1",
    "3l52Vq2h": "1:48:0"
  },
  {
    "FcKX8O65": "55",
    "j28VNcUW": "5001",
    "XuJL4pc5": "1",
    "JRqU2bS6": "1",
    "3l52Vq2h": "1:49:0"
  },
  {
    "FcKX8O65": "56",
    "j28VNcUW": "5002",
    "XuJL4pc5": "1",
    "JRqU2bS6": "1",
    "3l52Vq2h": "1:50:0"
  },
  {
    "FcKX8O65": "57",
    "j28VNcUW": "5002",
    "XuJL4pc5": "2",
    "JRqU2bS6": "1",
    "3l52Vq2h": "1:51:0"
  },
  {
    "FcKX8O65": "58",
    "j28VNcUW": "5003",
    "XuJL4pc5": "1",
    "JRqU2bS6": "1",
    "3l52Vq2h": "2:213104:5"
  },
  {
    "FcKX8O65": "59",
    "j28VNcUW": "5004",
    "XuJL4pc5": "1",
    "JRqU2bS6": "1",
    "3l52Vq2h": "1:52:0"
  },
  {
    "FcKX8O65": "60",
    "j28VNcUW": "5005",
    "XuJL4pc5": "1",
    "JRqU2bS6": "1",
    "3l52Vq2h": "1:53:0"
  },
  {
    "FcKX8O65": "61",
    "j28VNcUW": "5010",
    "XuJL4pc5": "1",
    "JRqU2bS6": "1",
    "3l52Vq2h": "1:54:0"
  },
  {
    "FcKX8O65": "62",
    "j28VNcUW": "5006",
    "XuJL4pc5": "1",
    "JRqU2bS6": "1",
    "3l52Vq2h": "1:55:0"
  },
  {
    "FcKX8O65": "63",
    "j28VNcUW": "5007",
    "XuJL4pc5": "1",
    "JRqU2bS6": "1",
    "3l52Vq2h": "1:56:0"
  },
  {
    "FcKX8O65": "64",
    "j28VNcUW": "5007",
    "XuJL4pc5": "2",
    "JRqU2bS6": "1",
    "3l52Vq2h": "1:57:0"
  },
  {
    "FcKX8O65": "65",
    "j28VNcUW": "5008",
    "XuJL4pc5": "1",
    "JRqU2bS6": "1",
    "3l52Vq2h": "1:58:0"
  },
  {
    "FcKX8O65": "66",
    "j28VNcUW": "6000",
    "XuJL4pc5": "1",
    "JRqU2bS6": "1",
    "3l52Vq2h": "1:59:0"
  },
  {
    "FcKX8O65": "67",
    "j28VNcUW": "6000",
    "XuJL4pc5": "2",
    "JRqU2bS6": "1",
    "3l52Vq2h": "1:60:0"
  },
  {
    "FcKX8O65": "68",
    "j28VNcUW": "6000",
    "XuJL4pc5": "3",
    "JRqU2bS6": "1",
    "3l52Vq2h": "1:61:0"
  },
  {
    "FcKX8O65": "69",
    "j28VNcUW": "6000",
    "XuJL4pc5": "4",
    "JRqU2bS6": "1",
    "3l52Vq2h": "1:62:0"
  },
  {
    "FcKX8O65": "70",
    "j28VNcUW": "6001",
    "XuJL4pc5": "1",
    "JRqU2bS6": "1",
    "3l52Vq2h": "1:63:0"
  },
  {
    "FcKX8O65": "71",
    "j28VNcUW": "6002",
    "XuJL4pc5": "1",
    "JRqU2bS6": "1",
    "3l52Vq2h": "1:64:0"
  },
  {
    "FcKX8O65": "72",
    "j28VNcUW": "6002",
    "XuJL4pc5": "2",
    "JRqU2bS6": "1",
    "3l52Vq2h": "1:65:0"
  },
  {
    "FcKX8O65": "73",
    "j28VNcUW": "6003",
    "XuJL4pc5": "1",
    "JRqU2bS6": "1",
    "3l52Vq2h": "1:66:0"
  },
  {
    "FcKX8O65": "74",
    "j28VNcUW": "6003",
    "XuJL4pc5": "2",
    "JRqU2bS6": "1",
    "3l52Vq2h": "1:67:0"
  },
  {
    "FcKX8O65": "75",
    "j28VNcUW": "6004",
    "XuJL4pc5": "1",
    "JRqU2bS6": "1",
    "3l52Vq2h": "1:68:0"
  },
  {
    "FcKX8O65": "76",
    "j28VNcUW": "6004",
    "XuJL4pc5": "2",
    "JRqU2bS6": "1",
    "3l52Vq2h": "1:69:0"
  },
  {
    "FcKX8O65": "77",
    "j28VNcUW": "6005",
    "XuJL4pc5": "1",
    "JRqU2bS6": "1",
    "3l52Vq2h": "1:70:0"
  },
  {
    "FcKX8O65": "78",
    "j28VNcUW": "6006",
    "XuJL4pc5": "1",
    "JRqU2bS6": "1",
    "3l52Vq2h": "1:71:0"
  },
  {
    "FcKX8O65": "79",
    "j28VNcUW": "6006",
    "XuJL4pc5": "2",
    "JRqU2bS6": "1",
    "3l52Vq2h": "1:72:0"
  },
  {
    "FcKX8O65": "80",
    "j28VNcUW": "6007",
    "XuJL4pc5": "1",
    "JRqU2bS6": "1",
    "3l52Vq2h": "1:73:0"
  },
  {
    "FcKX8O65": "81",
    "j28VNcUW": "6008",
    "XuJL4pc5": "1",
    "JRqU2bS6": "1",
    "3l52Vq2h": "1:74:0"
  },
  {
    "FcKX8O65": "82",
    "j28VNcUW": "6009",
    "XuJL4pc5": "1",
    "JRqU2bS6": "1",
    "3l52Vq2h": "1:75:0"
  },
  {
    "FcKX8O65": "83",
    "j28VNcUW": "6009",
    "XuJL4pc5": "2",
    "JRqU2bS6": "1",
    "3l52Vq2h": "1:76:0"
  },
  {
    "FcKX8O65": "84",
    "j28VNcUW": "6009",
    "XuJL4pc5": "3",
    "JRqU2bS6": "1",
    "3l52Vq2h": "1:77:0"
  },
  {
    "FcKX8O65": "85",
    "j28VNcUW": "6010",
    "XuJL4pc5": "1",
    "JRqU2bS6": "1",
    "3l52Vq2h": "1:78:0"
  },
  {
    "FcKX8O65": "86",
    "j28VNcUW": "7000",
    "XuJL4pc5": "1",
    "JRqU2bS6": "1",
    "3l52Vq2h": "1:79:0"
  },
  {
    "FcKX8O65": "87",
    "j28VNcUW": "7001",
    "XuJL4pc5": "1",
    "JRqU2bS6": "1",
    "3l52Vq2h": "1:80:0"
  },
  {
    "FcKX8O65": "88",
    "j28VNcUW": "2011",
    "XuJL4pc5": "1",
    "JRqU2bS6": "1",
    "3l52Vq2h": "1:81:0"
  },
  {
    "FcKX8O65": "89",
    "j28VNcUW": "4015",
    "XuJL4pc5": "1",
    "JRqU2bS6": "1",
    "3l52Vq2h": "1:82:0"
  },
  {
    "FcKX8O65": "90",
    "j28VNcUW": "6020",
    "XuJL4pc5": "1",
    "JRqU2bS6": "1",
    "3l52Vq2h": "1:83:0"
  },
  {
    "FcKX8O65": "91",
    "j28VNcUW": "7002",
    "XuJL4pc5": "1",
    "JRqU2bS6": "1",
    "3l52Vq2h": "1:84:0"
  },
  {
    "FcKX8O65": "92",
    "j28VNcUW": "7003",
    "XuJL4pc5": "1",
    "JRqU2bS6": "1",
    "3l52Vq2h": "1:85:0"
  },
  {
    "FcKX8O65": "93",
    "j28VNcUW": "7004",
    "XuJL4pc5": "1",
    "JRqU2bS6": "1",
    "3l52Vq2h": "1:86:0"
  },
  {
    "FcKX8O65": "94",
    "j28VNcUW": "7005",
    "XuJL4pc5": "1",
    "JRqU2bS6": "1",
    "3l52Vq2h": "1:87:0"
  },
  {
    "FcKX8O65": "95",
    "j28VNcUW": "7006",
    "XuJL4pc5": "1",
    "JRqU2bS6": "1",
    "3l52Vq2h": "1:88:0"
  },
  {
    "FcKX8O65": "96",
    "j28VNcUW": "7007",
    "XuJL4pc5": "1",
    "JRqU2bS6": "1",
    "3l52Vq2h": "1:89:0"
  },
  {
    "FcKX8O65": "97",
    "j28VNcUW": "6011",
    "XuJL4pc5": "1",
    "JRqU2bS6": "1",
    "3l52Vq2h": "1:90:0"
  },
  {
    "FcKX8O65": "98",
    "j28VNcUW": "6011",
    "XuJL4pc5": "1",
    "JRqU2bS6": "1",
    "3l52Vq2h": "1:91:0"
  },
  {
    "FcKX8O65": "99",
    "j28VNcUW": "6011",
    "XuJL4pc5": "1",
    "JRqU2bS6": "1",
    "3l52Vq2h": "1:92:0"
  },
  {
    "FcKX8O65": "100",
    "j28VNcUW": "6011",
    "XuJL4pc5": "1",
    "JRqU2bS6": "1",
    "3l52Vq2h": "1:93:0"
  },
  {
    "FcKX8O65": "101",
    "j28VNcUW": "7008",
    "XuJL4pc5": "1",
    "JRqU2bS6": "1",
    "3l52Vq2h": "1:94:0"
  },
  {
    "FcKX8O65": "102",
    "j28VNcUW": "7008",
    "XuJL4pc5": "1",
    "JRqU2bS6": "1",
    "3l52Vq2h": "1:95:0"
  },
  {
    "FcKX8O65": "103",
    "j28VNcUW": "7008",
    "XuJL4pc5": "1",
    "JRqU2bS6": "1",
    "3l52Vq2h": "1:96:0"
  },
  {
    "FcKX8O65": "104",
    "j28VNcUW": "7009",
    "XuJL4pc5": "1",
    "JRqU2bS6": "1",
    "3l52Vq2h": "1:97:0"
  },
  {
    "FcKX8O65": "105",
    "j28VNcUW": "7009",
    "XuJL4pc5": "1",
    "JRqU2bS6": "1",
    "3l52Vq2h": "1:98:0"
  },
  {
    "FcKX8O65": "106",
    "j28VNcUW": "7010",
    "XuJL4pc5": "1",
    "JRqU2bS6": "1",
    "3l52Vq2h": "1:99:0"
  },
  {
    "FcKX8O65": "107",
    "j28VNcUW": "7010",
    "XuJL4pc5": "1",
    "JRqU2bS6": "1",
    "3l52Vq2h": "1:100:0"
  },
  {
    "FcKX8O65": "108",
    "j28VNcUW": "7010",
    "XuJL4pc5": "1",
    "JRqU2bS6": "1",
    "3l52Vq2h": "1:101:0"
  },
  {
    "FcKX8O65": "109",
    "j28VNcUW": "6012",
    "XuJL4pc5": "1",
    "JRqU2bS6": "1",
    "3l52Vq2h": "1:102:0"
  },
  {
    "FcKX8O65": "110",
    "j28VNcUW": "6012",
    "XuJL4pc5": "1",
    "JRqU2bS6": "1",
    "3l52Vq2h": "1:103:0"
  },
  {
    "FcKX8O65": "111",
    "j28VNcUW": "6012",
    "XuJL4pc5": "1",
    "JRqU2bS6": "1",
    "3l52Vq2h": "1:104:0"
  },
  {
    "FcKX8O65": "112",
    "j28VNcUW": "6012",
    "XuJL4pc5": "1",
    "JRqU2bS6": "1",
    "3l52Vq2h": "1:105:0"
  },
  {
    "FcKX8O65": "113",
    "j28VNcUW": "2012",
    "XuJL4pc5": "1",
    "JRqU2bS6": "1",
    "3l52Vq2h": "1:106:0"
  },
  {
    "FcKX8O65": "114",
    "j28VNcUW": "4016",
    "XuJL4pc5": "1",
    "JRqU2bS6": "1",
    "3l52Vq2h": "1:107:0"
  },
  {
    "FcKX8O65": "115",
    "j28VNcUW": "6021",
    "XuJL4pc5": "1",
    "JRqU2bS6": "1",
    "3l52Vq2h": "1:108:0"
  }
]