[
  {
    "92VHUDEC": "70000050",
    "6qjD4Jdh": "bf1_ending_3_471x112.png"
  },
  {
    "92VHUDEC": "70000051",
    "6qjD4Jdh": "map106-ending.txt"
  },
  {
    "92VHUDEC": "70000052",
    "6qjD4Jdh": "map106-ending_lib.txt"
  },
  {
    "92VHUDEC": "70000053",
    "6qjD4Jdh": "map106-staffroll_lib.txt"
  },
  {
    "92VHUDEC": "70000054",
    "6qjD4Jdh": "map105-dungeon8-3.txt"
  },
  {
    "92VHUDEC": "70000055",
    "6qjD4Jdh": "map105-dungeon_ex2_open.txt"
  }
]