[
  {
    "4HqhTf3a": "1009",
    "kixHbe54": "20000",
    "wgV86x1q": "1",
    "HTVh8a65": "0",
    "75YV2q1i": "10000:1,10300:1",
    "7dEB1Kwj": "",
    "H6k1LIxC": "-1",
    "XuJL4pc5": "20000",
    "qA7M9EjP": "0000-00-00 00:00:00",
    "SzV0Nps7": "9999-12-31 23:59:59"
  },
  {
    "4HqhTf3a": "1010",
    "kixHbe54": "20001",
    "wgV86x1q": "1",
    "HTVh8a65": "0",
    "75YV2q1i": "10001:1,10302:1,20000:1",
    "7dEB1Kwj": "",
    "H6k1LIxC": "-1",
    "XuJL4pc5": "20001",
    "qA7M9EjP": "0000-00-00 00:00:00",
    "SzV0Nps7": "9999-12-31 23:59:59"
  },
  {
    "4HqhTf3a": "1011",
    "kixHbe54": "20002",
    "wgV86x1q": "1",
    "HTVh8a65": "0",
    "75YV2q1i": "10002:1,10303:1,20001:1",
    "7dEB1Kwj": "",
    "H6k1LIxC": "-1",
    "XuJL4pc5": "20002",
    "qA7M9EjP": "0000-00-00 00:00:00",
    "SzV0Nps7": "9999-12-31 23:59:59"
  },
  {
    "4HqhTf3a": "1012",
    "kixHbe54": "20100",
    "wgV86x1q": "1",
    "HTVh8a65": "0",
    "75YV2q1i": "20001:5,10304:1",
    "7dEB1Kwj": "",
    "H6k1LIxC": "-1",
    "XuJL4pc5": "20100",
    "qA7M9EjP": "0000-00-00 00:00:00",
    "SzV0Nps7": "9999-12-31 23:59:59"
  },
  {
    "4HqhTf3a": "1013",
    "kixHbe54": "20101",
    "wgV86x1q": "1",
    "HTVh8a65": "0",
    "75YV2q1i": "20100:2,20002:5,10305:1",
    "7dEB1Kwj": "",
    "H6k1LIxC": "-1",
    "XuJL4pc5": "20101",
    "qA7M9EjP": "0000-00-00 00:00:00",
    "SzV0Nps7": "9999-12-31 23:59:59"
  },
  {
    "4HqhTf3a": "1014",
    "kixHbe54": "20200",
    "wgV86x1q": "1",
    "HTVh8a65": "0",
    "75YV2q1i": "10301:1,10200:1",
    "7dEB1Kwj": "",
    "H6k1LIxC": "-1",
    "XuJL4pc5": "20200",
    "qA7M9EjP": "0000-00-00 00:00:00",
    "SzV0Nps7": "9999-12-31 23:59:59"
  },
  {
    "4HqhTf3a": "1015",
    "kixHbe54": "20210",
    "wgV86x1q": "1",
    "HTVh8a65": "0",
    "75YV2q1i": "10301:1,10202:1",
    "7dEB1Kwj": "",
    "H6k1LIxC": "-1",
    "XuJL4pc5": "20210",
    "qA7M9EjP": "0000-00-00 00:00:00",
    "SzV0Nps7": "9999-12-31 23:59:59"
  },
  {
    "4HqhTf3a": "1016",
    "kixHbe54": "20220",
    "wgV86x1q": "1",
    "HTVh8a65": "0",
    "75YV2q1i": "10301:1,10204:1",
    "7dEB1Kwj": "",
    "H6k1LIxC": "-1",
    "XuJL4pc5": "20220",
    "qA7M9EjP": "0000-00-00 00:00:00",
    "SzV0Nps7": "9999-12-31 23:59:59"
  },
  {
    "4HqhTf3a": "1017",
    "kixHbe54": "20230",
    "wgV86x1q": "1",
    "HTVh8a65": "0",
    "75YV2q1i": "10301:1,10205:1",
    "7dEB1Kwj": "",
    "H6k1LIxC": "-1",
    "XuJL4pc5": "20230",
    "qA7M9EjP": "0000-00-00 00:00:00",
    "SzV0Nps7": "9999-12-31 23:59:59"
  },
  {
    "4HqhTf3a": "1018",
    "kixHbe54": "20400",
    "wgV86x1q": "1",
    "HTVh8a65": "0",
    "75YV2q1i": "10003:1,10201:2",
    "7dEB1Kwj": "",
    "H6k1LIxC": "-1",
    "XuJL4pc5": "20400",
    "qA7M9EjP": "0000-00-00 00:00:00",
    "SzV0Nps7": "9999-12-31 23:59:59"
  },
  {
    "4HqhTf3a": "1019",
    "kixHbe54": "20600",
    "wgV86x1q": "1",
    "HTVh8a65": "0",
    "75YV2q1i": "10003:1,10203:2",
    "7dEB1Kwj": "",
    "H6k1LIxC": "-1",
    "XuJL4pc5": "20600",
    "qA7M9EjP": "0000-00-00 00:00:00",
    "SzV0Nps7": "9999-12-31 23:59:59"
  },
  {
    "4HqhTf3a": "1020",
    "kixHbe54": "20800",
    "wgV86x1q": "1",
    "HTVh8a65": "0",
    "75YV2q1i": "10600:1,11000:1",
    "7dEB1Kwj": "",
    "H6k1LIxC": "-1",
    "XuJL4pc5": "20800",
    "qA7M9EjP": "0000-00-00 00:00:00",
    "SzV0Nps7": "9999-12-31 23:59:59"
  },
  {
    "4HqhTf3a": "1021",
    "kixHbe54": "20810",
    "wgV86x1q": "1",
    "HTVh8a65": "0",
    "75YV2q1i": "10601:1,11000:1",
    "7dEB1Kwj": "",
    "H6k1LIxC": "-1",
    "XuJL4pc5": "20810",
    "qA7M9EjP": "0000-00-00 00:00:00",
    "SzV0Nps7": "9999-12-31 23:59:59"
  },
  {
    "4HqhTf3a": "1022",
    "kixHbe54": "20820",
    "wgV86x1q": "1",
    "HTVh8a65": "0",
    "75YV2q1i": "10602:1,11000:1",
    "7dEB1Kwj": "",
    "H6k1LIxC": "-1",
    "XuJL4pc5": "20820",
    "qA7M9EjP": "0000-00-00 00:00:00",
    "SzV0Nps7": "9999-12-31 23:59:59"
  },
  {
    "4HqhTf3a": "1023",
    "kixHbe54": "20830",
    "wgV86x1q": "1",
    "HTVh8a65": "0",
    "75YV2q1i": "10603:1,11000:1",
    "7dEB1Kwj": "",
    "H6k1LIxC": "-1",
    "XuJL4pc5": "20830",
    "qA7M9EjP": "0000-00-00 00:00:00",
    "SzV0Nps7": "9999-12-31 23:59:59"
  },
  {
    "4HqhTf3a": "1024",
    "kixHbe54": "20840",
    "wgV86x1q": "1",
    "HTVh8a65": "0",
    "75YV2q1i": "10604:1,11000:1",
    "7dEB1Kwj": "",
    "H6k1LIxC": "-1",
    "XuJL4pc5": "20840",
    "qA7M9EjP": "0000-00-00 00:00:00",
    "SzV0Nps7": "9999-12-31 23:59:59"
  },
  {
    "4HqhTf3a": "1025",
    "kixHbe54": "20850",
    "wgV86x1q": "1",
    "HTVh8a65": "0",
    "75YV2q1i": "10605:1,11000:1",
    "7dEB1Kwj": "",
    "H6k1LIxC": "-1",
    "XuJL4pc5": "20850",
    "qA7M9EjP": "0000-00-00 00:00:00",
    "SzV0Nps7": "9999-12-31 23:59:59"
  },
  {
    "4HqhTf3a": "1026",
    "kixHbe54": "20900",
    "wgV86x1q": "1",
    "HTVh8a65": "0",
    "75YV2q1i": "10600:1,11001:1",
    "7dEB1Kwj": "",
    "H6k1LIxC": "-1",
    "XuJL4pc5": "20900",
    "qA7M9EjP": "0000-00-00 00:00:00",
    "SzV0Nps7": "9999-12-31 23:59:59"
  },
  {
    "4HqhTf3a": "1027",
    "kixHbe54": "20910",
    "wgV86x1q": "1",
    "HTVh8a65": "0",
    "75YV2q1i": "10601:1,11001:1",
    "7dEB1Kwj": "",
    "H6k1LIxC": "-1",
    "XuJL4pc5": "20910",
    "qA7M9EjP": "0000-00-00 00:00:00",
    "SzV0Nps7": "9999-12-31 23:59:59"
  },
  {
    "4HqhTf3a": "1028",
    "kixHbe54": "20920",
    "wgV86x1q": "1",
    "HTVh8a65": "0",
    "75YV2q1i": "10602:1,11001:1",
    "7dEB1Kwj": "",
    "H6k1LIxC": "-1",
    "XuJL4pc5": "20920",
    "qA7M9EjP": "0000-00-00 00:00:00",
    "SzV0Nps7": "9999-12-31 23:59:59"
  },
  {
    "4HqhTf3a": "1029",
    "kixHbe54": "20930",
    "wgV86x1q": "1",
    "HTVh8a65": "0",
    "75YV2q1i": "10603:1,11001:1",
    "7dEB1Kwj": "",
    "H6k1LIxC": "-1",
    "XuJL4pc5": "20930",
    "qA7M9EjP": "0000-00-00 00:00:00",
    "SzV0Nps7": "9999-12-31 23:59:59"
  },
  {
    "4HqhTf3a": "1030",
    "kixHbe54": "20940",
    "wgV86x1q": "1",
    "HTVh8a65": "0",
    "75YV2q1i": "10604:1,11001:1",
    "7dEB1Kwj": "",
    "H6k1LIxC": "-1",
    "XuJL4pc5": "20940",
    "qA7M9EjP": "0000-00-00 00:00:00",
    "SzV0Nps7": "9999-12-31 23:59:59"
  },
  {
    "4HqhTf3a": "1031",
    "kixHbe54": "20950",
    "wgV86x1q": "1",
    "HTVh8a65": "0",
    "75YV2q1i": "10605:1,11001:1",
    "7dEB1Kwj": "",
    "H6k1LIxC": "-1",
    "XuJL4pc5": "20950",
    "qA7M9EjP": "0000-00-00 00:00:00",
    "SzV0Nps7": "9999-12-31 23:59:59"
  },
  {
    "4HqhTf3a": "1032",
    "kixHbe54": "21000",
    "wgV86x1q": "1",
    "HTVh8a65": "0",
    "75YV2q1i": "10606:1,11003:1",
    "7dEB1Kwj": "",
    "H6k1LIxC": "-1",
    "XuJL4pc5": "21000",
    "qA7M9EjP": "0000-00-00 00:00:00",
    "SzV0Nps7": "9999-12-31 23:59:59"
  },
  {
    "4HqhTf3a": "1034",
    "kixHbe54": "22200",
    "wgV86x1q": "1",
    "HTVh8a65": "0",
    "75YV2q1i": "10307:1,11004:1",
    "7dEB1Kwj": "",
    "H6k1LIxC": "-1",
    "XuJL4pc5": "22200",
    "qA7M9EjP": "0000-00-00 00:00:00",
    "SzV0Nps7": "9999-12-31 23:59:59"
  },
  {
    "4HqhTf3a": "1035",
    "kixHbe54": "22300",
    "wgV86x1q": "1",
    "HTVh8a65": "0",
    "75YV2q1i": "10805:1,11005:1",
    "7dEB1Kwj": "",
    "H6k1LIxC": "-1",
    "XuJL4pc5": "22300",
    "qA7M9EjP": "0000-00-00 00:00:00",
    "SzV0Nps7": "9999-12-31 23:59:59"
  },
  {
    "4HqhTf3a": "1036",
    "kixHbe54": "22400",
    "wgV86x1q": "1",
    "HTVh8a65": "0",
    "75YV2q1i": "20000:10,10308:3",
    "7dEB1Kwj": "",
    "H6k1LIxC": "-1",
    "XuJL4pc5": "22400",
    "qA7M9EjP": "0000-00-00 00:00:00",
    "SzV0Nps7": "9999-12-31 23:59:59"
  },
  {
    "4HqhTf3a": "1037",
    "kixHbe54": "70000",
    "wgV86x1q": "1",
    "HTVh8a65": "0",
    "75YV2q1i": "11016:1,10610:1",
    "7dEB1Kwj": "",
    "H6k1LIxC": "-1",
    "XuJL4pc5": "70000",
    "qA7M9EjP": "0000-00-00 00:00:00",
    "SzV0Nps7": "9999-12-31 23:59:59"
  },
  {
    "4HqhTf3a": "1038",
    "kixHbe54": "70100",
    "wgV86x1q": "1",
    "HTVh8a65": "0",
    "75YV2q1i": "11016:1,10309:1",
    "7dEB1Kwj": "",
    "H6k1LIxC": "-1",
    "XuJL4pc5": "70100",
    "qA7M9EjP": "0000-00-00 00:00:00",
    "SzV0Nps7": "9999-12-31 23:59:59"
  },
  {
    "4HqhTf3a": "1039",
    "kixHbe54": "70200",
    "wgV86x1q": "1",
    "HTVh8a65": "0",
    "75YV2q1i": "11016:1,10108:1",
    "7dEB1Kwj": "",
    "H6k1LIxC": "-1",
    "XuJL4pc5": "70200",
    "qA7M9EjP": "0000-00-00 00:00:00",
    "SzV0Nps7": "9999-12-31 23:59:59"
  },
  {
    "4HqhTf3a": "1044",
    "kixHbe54": "21010",
    "wgV86x1q": "1",
    "HTVh8a65": "0",
    "75YV2q1i": "21000:2,20401:1,10405:1",
    "7dEB1Kwj": "",
    "H6k1LIxC": "-1",
    "XuJL4pc5": "21010",
    "qA7M9EjP": "0000-00-00 00:00:00",
    "SzV0Nps7": "9999-12-31 23:59:59"
  },
  {
    "4HqhTf3a": "1045",
    "kixHbe54": "22210",
    "wgV86x1q": "1",
    "HTVh8a65": "0",
    "75YV2q1i": "22200:2,20601:1,10806:1",
    "7dEB1Kwj": "",
    "H6k1LIxC": "-1",
    "XuJL4pc5": "22210",
    "qA7M9EjP": "0000-00-00 00:00:00",
    "SzV0Nps7": "9999-12-31 23:59:59"
  },
  {
    "4HqhTf3a": "1046",
    "kixHbe54": "22310",
    "wgV86x1q": "1",
    "HTVh8a65": "0",
    "75YV2q1i": "22300:2,21000:1,10506:1",
    "7dEB1Kwj": "",
    "H6k1LIxC": "-1",
    "XuJL4pc5": "22310",
    "qA7M9EjP": "0000-00-00 00:00:00",
    "SzV0Nps7": "9999-12-31 23:59:59"
  },
  {
    "4HqhTf3a": "1047",
    "kixHbe54": "22410",
    "wgV86x1q": "1",
    "HTVh8a65": "0",
    "75YV2q1i": "22400:1,20001:10,10308:3",
    "7dEB1Kwj": "",
    "H6k1LIxC": "-1",
    "XuJL4pc5": "22410",
    "qA7M9EjP": "0000-00-00 00:00:00",
    "SzV0Nps7": "9999-12-31 23:59:59"
  },
  {
    "4HqhTf3a": "1050",
    "kixHbe54": "20401",
    "wgV86x1q": "1",
    "HTVh8a65": "0",
    "75YV2q1i": "20400:2,10201:2,10303:1",
    "7dEB1Kwj": "",
    "H6k1LIxC": "-1",
    "XuJL4pc5": "20401",
    "qA7M9EjP": "0000-00-00 00:00:00",
    "SzV0Nps7": "9999-12-31 23:59:59"
  },
  {
    "4HqhTf3a": "1051",
    "kixHbe54": "20960",
    "wgV86x1q": "1",
    "HTVh8a65": "0",
    "75YV2q1i": "20800:2,20900:2,10600:3",
    "7dEB1Kwj": "",
    "H6k1LIxC": "-1",
    "XuJL4pc5": "20960",
    "qA7M9EjP": "0000-00-00 00:00:00",
    "SzV0Nps7": "9999-12-31 23:59:59"
  },
  {
    "4HqhTf3a": "1052",
    "kixHbe54": "20961",
    "wgV86x1q": "1",
    "HTVh8a65": "0",
    "75YV2q1i": "20810:2,20910:2,10601:3",
    "7dEB1Kwj": "",
    "H6k1LIxC": "-1",
    "XuJL4pc5": "20961",
    "qA7M9EjP": "0000-00-00 00:00:00",
    "SzV0Nps7": "9999-12-31 23:59:59"
  },
  {
    "4HqhTf3a": "1053",
    "kixHbe54": "20962",
    "wgV86x1q": "1",
    "HTVh8a65": "0",
    "75YV2q1i": "20820:2,20920:2,10602:3",
    "7dEB1Kwj": "",
    "H6k1LIxC": "-1",
    "XuJL4pc5": "20962",
    "qA7M9EjP": "0000-00-00 00:00:00",
    "SzV0Nps7": "9999-12-31 23:59:59"
  },
  {
    "4HqhTf3a": "1054",
    "kixHbe54": "20963",
    "wgV86x1q": "1",
    "HTVh8a65": "0",
    "75YV2q1i": "20830:2,20930:2,10603:3",
    "7dEB1Kwj": "",
    "H6k1LIxC": "-1",
    "XuJL4pc5": "20963",
    "qA7M9EjP": "0000-00-00 00:00:00",
    "SzV0Nps7": "9999-12-31 23:59:59"
  },
  {
    "4HqhTf3a": "1055",
    "kixHbe54": "20964",
    "wgV86x1q": "1",
    "HTVh8a65": "0",
    "75YV2q1i": "20840:2,20940:2,10604:3",
    "7dEB1Kwj": "",
    "H6k1LIxC": "-1",
    "XuJL4pc5": "20964",
    "qA7M9EjP": "0000-00-00 00:00:00",
    "SzV0Nps7": "9999-12-31 23:59:59"
  },
  {
    "4HqhTf3a": "1056",
    "kixHbe54": "20965",
    "wgV86x1q": "1",
    "HTVh8a65": "0",
    "75YV2q1i": "20850:2,20950:2,10605:3",
    "7dEB1Kwj": "",
    "H6k1LIxC": "-1",
    "XuJL4pc5": "20965",
    "qA7M9EjP": "0000-00-00 00:00:00",
    "SzV0Nps7": "9999-12-31 23:59:59"
  },
  {
    "4HqhTf3a": "1057",
    "kixHbe54": "20240",
    "wgV86x1q": "1",
    "HTVh8a65": "0",
    "75YV2q1i": "20210:3,10301:2",
    "7dEB1Kwj": "",
    "H6k1LIxC": "-1",
    "XuJL4pc5": "20240",
    "qA7M9EjP": "0000-00-00 00:00:00",
    "SzV0Nps7": "9999-12-31 23:59:59"
  },
  {
    "4HqhTf3a": "1058",
    "kixHbe54": "22420",
    "wgV86x1q": "1",
    "HTVh8a65": "0",
    "75YV2q1i": "21010:2,22310:2,10405:1,10506:1",
    "7dEB1Kwj": "",
    "H6k1LIxC": "-1",
    "XuJL4pc5": "22420",
    "qA7M9EjP": "0000-00-00 00:00:00",
    "SzV0Nps7": "9999-12-31 23:59:59"
  },
  {
    "4HqhTf3a": "1059",
    "kixHbe54": "20102",
    "wgV86x1q": "1",
    "HTVh8a65": "0",
    "75YV2q1i": "20101:1,10304:5,10305:2",
    "7dEB1Kwj": "",
    "H6k1LIxC": "-1",
    "XuJL4pc5": "20102",
    "qA7M9EjP": "0000-00-00 00:00:00",
    "SzV0Nps7": "9999-12-31 23:59:59"
  },
  {
    "4HqhTf3a": "1060",
    "kixHbe54": "20601",
    "wgV86x1q": "1",
    "HTVh8a65": "0",
    "75YV2q1i": "20600:2,10203:2,10303:1",
    "7dEB1Kwj": "",
    "H6k1LIxC": "-1",
    "XuJL4pc5": "20601",
    "qA7M9EjP": "0000-00-00 00:00:00",
    "SzV0Nps7": "9999-12-31 23:59:59"
  },
  {
    "4HqhTf3a": "1061",
    "kixHbe54": "20250",
    "wgV86x1q": "1",
    "HTVh8a65": "0",
    "75YV2q1i": "20200:3,20220:3,20230:3,10308:10",
    "7dEB1Kwj": "",
    "H6k1LIxC": "-1",
    "XuJL4pc5": "20250",
    "qA7M9EjP": "0000-00-00 00:00:00",
    "SzV0Nps7": "9999-12-31 23:59:59"
  },
  {
    "4HqhTf3a": "1062",
    "kixHbe54": "21100",
    "wgV86x1q": "1",
    "HTVh8a65": "0",
    "75YV2q1i": "22300:1,10305:1,10707:1",
    "7dEB1Kwj": "",
    "H6k1LIxC": "-1",
    "XuJL4pc5": "21020",
    "qA7M9EjP": "0000-00-00 00:00:00",
    "SzV0Nps7": "9999-12-31 23:59:59"
  },
  {
    "4HqhTf3a": "1070",
    "kixHbe54": "20700",
    "wgV86x1q": "1",
    "HTVh8a65": "0",
    "75YV2q1i": "20401:1,20601:1,11000:1,11001:1",
    "7dEB1Kwj": "",
    "H6k1LIxC": "-1",
    "XuJL4pc5": "20700",
    "qA7M9EjP": "0000-00-00 00:00:00",
    "SzV0Nps7": "9999-12-31 23:59:59"
  },
  {
    "4HqhTf3a": "2005",
    "kixHbe54": "30000",
    "wgV86x1q": "1",
    "HTVh8a65": "500",
    "75YV2q1i": "10400:5",
    "7dEB1Kwj": "",
    "H6k1LIxC": "-1",
    "XuJL4pc5": "1010010",
    "qA7M9EjP": "0000-00-00 00:00:00",
    "SzV0Nps7": "9999-12-31 23:59:59"
  },
  {
    "4HqhTf3a": "2006",
    "kixHbe54": "30001",
    "wgV86x1q": "1",
    "HTVh8a65": "3000",
    "75YV2q1i": "30000:1,10401:10",
    "7dEB1Kwj": "",
    "H6k1LIxC": "-1",
    "XuJL4pc5": "1010020",
    "qA7M9EjP": "0000-00-00 00:00:00",
    "SzV0Nps7": "9999-12-31 23:59:59"
  },
  {
    "4HqhTf3a": "2007",
    "kixHbe54": "30002",
    "wgV86x1q": "1",
    "HTVh8a65": "5000",
    "75YV2q1i": "30001:1,10402:10",
    "7dEB1Kwj": "",
    "H6k1LIxC": "-1",
    "XuJL4pc5": "1010030",
    "qA7M9EjP": "0000-00-00 00:00:00",
    "SzV0Nps7": "9999-12-31 23:59:59"
  },
  {
    "4HqhTf3a": "2010",
    "kixHbe54": "30100",
    "wgV86x1q": "1",
    "HTVh8a65": "500",
    "75YV2q1i": "10700:5",
    "7dEB1Kwj": "",
    "H6k1LIxC": "-1",
    "XuJL4pc5": "1020010",
    "qA7M9EjP": "0000-00-00 00:00:00",
    "SzV0Nps7": "9999-12-31 23:59:59"
  },
  {
    "4HqhTf3a": "2011",
    "kixHbe54": "30101",
    "wgV86x1q": "1",
    "HTVh8a65": "2000",
    "75YV2q1i": "30100:1,10701:10",
    "7dEB1Kwj": "",
    "H6k1LIxC": "-1",
    "XuJL4pc5": "1020020",
    "qA7M9EjP": "0000-00-00 00:00:00",
    "SzV0Nps7": "9999-12-31 23:59:59"
  },
  {
    "4HqhTf3a": "2012",
    "kixHbe54": "30102",
    "wgV86x1q": "1",
    "HTVh8a65": "5000",
    "75YV2q1i": "30101:1,10702:10",
    "7dEB1Kwj": "",
    "H6k1LIxC": "-1",
    "XuJL4pc5": "1020030",
    "qA7M9EjP": "0000-00-00 00:00:00",
    "SzV0Nps7": "9999-12-31 23:59:59"
  },
  {
    "4HqhTf3a": "2015",
    "kixHbe54": "30200",
    "wgV86x1q": "1",
    "HTVh8a65": "500",
    "75YV2q1i": "10900:5",
    "7dEB1Kwj": "",
    "H6k1LIxC": "-1",
    "XuJL4pc5": "1030010",
    "qA7M9EjP": "0000-00-00 00:00:00",
    "SzV0Nps7": "9999-12-31 23:59:59"
  },
  {
    "4HqhTf3a": "2016",
    "kixHbe54": "30201",
    "wgV86x1q": "1",
    "HTVh8a65": "3000",
    "75YV2q1i": "30200:1,10901:10",
    "7dEB1Kwj": "",
    "H6k1LIxC": "-1",
    "XuJL4pc5": "1030020",
    "qA7M9EjP": "0000-00-00 00:00:00",
    "SzV0Nps7": "9999-12-31 23:59:59"
  },
  {
    "4HqhTf3a": "2017",
    "kixHbe54": "30202",
    "wgV86x1q": "1",
    "HTVh8a65": "5000",
    "75YV2q1i": "30201:1,10902:10",
    "7dEB1Kwj": "",
    "H6k1LIxC": "-1",
    "XuJL4pc5": "1030030",
    "qA7M9EjP": "0000-00-00 00:00:00",
    "SzV0Nps7": "9999-12-31 23:59:59"
  },
  {
    "4HqhTf3a": "2020",
    "kixHbe54": "30300",
    "wgV86x1q": "1",
    "HTVh8a65": "500",
    "75YV2q1i": "10800:5",
    "7dEB1Kwj": "",
    "H6k1LIxC": "-1",
    "XuJL4pc5": "1040010",
    "qA7M9EjP": "0000-00-00 00:00:00",
    "SzV0Nps7": "9999-12-31 23:59:59"
  },
  {
    "4HqhTf3a": "2021",
    "kixHbe54": "30301",
    "wgV86x1q": "1",
    "HTVh8a65": "3000",
    "75YV2q1i": "30300:1,10801:10",
    "7dEB1Kwj": "",
    "H6k1LIxC": "-1",
    "XuJL4pc5": "1040020",
    "qA7M9EjP": "0000-00-00 00:00:00",
    "SzV0Nps7": "9999-12-31 23:59:59"
  },
  {
    "4HqhTf3a": "2022",
    "kixHbe54": "30302",
    "wgV86x1q": "1",
    "HTVh8a65": "5000",
    "75YV2q1i": "30301:1,10802:10",
    "7dEB1Kwj": "",
    "H6k1LIxC": "-1",
    "XuJL4pc5": "1040030",
    "qA7M9EjP": "0000-00-00 00:00:00",
    "SzV0Nps7": "9999-12-31 23:59:59"
  },
  {
    "4HqhTf3a": "2025",
    "kixHbe54": "30400",
    "wgV86x1q": "1",
    "HTVh8a65": "800",
    "75YV2q1i": "10500:5",
    "7dEB1Kwj": "",
    "H6k1LIxC": "-1",
    "XuJL4pc5": "3010010",
    "qA7M9EjP": "0000-00-00 00:00:00",
    "SzV0Nps7": "9999-12-31 23:59:59"
  },
  {
    "4HqhTf3a": "2026",
    "kixHbe54": "30401",
    "wgV86x1q": "1",
    "HTVh8a65": "10000",
    "75YV2q1i": "30400:3,10502:10",
    "7dEB1Kwj": "",
    "H6k1LIxC": "-1",
    "XuJL4pc5": "3010020",
    "qA7M9EjP": "0000-00-00 00:00:00",
    "SzV0Nps7": "9999-12-31 23:59:59"
  },
  {
    "4HqhTf3a": "2028",
    "kixHbe54": "31000",
    "wgV86x1q": "1",
    "HTVh8a65": "10000",
    "75YV2q1i": "30001:2,10102:5,10104:5,10607:2,10705:2",
    "7dEB1Kwj": "",
    "H6k1LIxC": "-1",
    "XuJL4pc5": "1140010",
    "qA7M9EjP": "0000-00-00 00:00:00",
    "SzV0Nps7": "9999-12-31 23:59:59"
  },
  {
    "4HqhTf3a": "2030",
    "kixHbe54": "31100",
    "wgV86x1q": "1",
    "HTVh8a65": "10000",
    "75YV2q1i": "30101:2,10102:5,10104:5,10607:2,10705:2",
    "7dEB1Kwj": "",
    "H6k1LIxC": "-1",
    "XuJL4pc5": "1130010",
    "qA7M9EjP": "0000-00-00 00:00:00",
    "SzV0Nps7": "9999-12-31 23:59:59"
  },
  {
    "4HqhTf3a": "2032",
    "kixHbe54": "31200",
    "wgV86x1q": "1",
    "HTVh8a65": "5000",
    "75YV2q1i": "30001:2,10104:5",
    "7dEB1Kwj": "",
    "H6k1LIxC": "-1",
    "XuJL4pc5": "1080010",
    "qA7M9EjP": "0000-00-00 00:00:00",
    "SzV0Nps7": "9999-12-31 23:59:59"
  },
  {
    "4HqhTf3a": "2034",
    "kixHbe54": "31300",
    "wgV86x1q": "1",
    "HTVh8a65": "5000",
    "75YV2q1i": "30101:2,10104:5",
    "7dEB1Kwj": "",
    "H6k1LIxC": "-1",
    "XuJL4pc5": "1070010",
    "qA7M9EjP": "0000-00-00 00:00:00",
    "SzV0Nps7": "9999-12-31 23:59:59"
  },
  {
    "4HqhTf3a": "2039",
    "kixHbe54": "31600",
    "wgV86x1q": "1",
    "HTVh8a65": "10000",
    "75YV2q1i": "32300:2,10101:10",
    "7dEB1Kwj": "",
    "H6k1LIxC": "-1",
    "XuJL4pc5": "9010010",
    "qA7M9EjP": "0000-00-00 00:00:00",
    "SzV0Nps7": "9999-12-31 23:59:59"
  },
  {
    "4HqhTf3a": "2041",
    "kixHbe54": "31700",
    "wgV86x1q": "1",
    "HTVh8a65": "10000",
    "75YV2q1i": "32400:2,10101:10",
    "7dEB1Kwj": "",
    "H6k1LIxC": "-1",
    "XuJL4pc5": "9020010",
    "qA7M9EjP": "0000-00-00 00:00:00",
    "SzV0Nps7": "9999-12-31 23:59:59"
  },
  {
    "4HqhTf3a": "2043",
    "kixHbe54": "31800",
    "wgV86x1q": "1",
    "HTVh8a65": "10000",
    "75YV2q1i": "32500:2,10101:10",
    "7dEB1Kwj": "",
    "H6k1LIxC": "-1",
    "XuJL4pc5": "9030010",
    "qA7M9EjP": "0000-00-00 00:00:00",
    "SzV0Nps7": "9999-12-31 23:59:59"
  },
  {
    "4HqhTf3a": "2045",
    "kixHbe54": "31900",
    "wgV86x1q": "1",
    "HTVh8a65": "10000",
    "75YV2q1i": "32600:2,10101:10",
    "7dEB1Kwj": "",
    "H6k1LIxC": "-1",
    "XuJL4pc5": "9040010",
    "qA7M9EjP": "0000-00-00 00:00:00",
    "SzV0Nps7": "9999-12-31 23:59:59"
  },
  {
    "4HqhTf3a": "2047",
    "kixHbe54": "32000",
    "wgV86x1q": "1",
    "HTVh8a65": "15000",
    "75YV2q1i": "32700:4,10101:20",
    "7dEB1Kwj": "",
    "H6k1LIxC": "-1",
    "XuJL4pc5": "9050010",
    "qA7M9EjP": "0000-00-00 00:00:00",
    "SzV0Nps7": "9999-12-31 23:59:59"
  },
  {
    "4HqhTf3a": "2049",
    "kixHbe54": "32100",
    "wgV86x1q": "1",
    "HTVh8a65": "15000",
    "75YV2q1i": "32800:4,10101:20",
    "7dEB1Kwj": "",
    "H6k1LIxC": "-1",
    "XuJL4pc5": "9060010",
    "qA7M9EjP": "0000-00-00 00:00:00",
    "SzV0Nps7": "9999-12-31 23:59:59"
  },
  {
    "4HqhTf3a": "2051",
    "kixHbe54": "32200",
    "wgV86x1q": "1",
    "HTVh8a65": "7000",
    "75YV2q1i": "30101:1,10607:3,10806:20",
    "7dEB1Kwj": "",
    "H6k1LIxC": "-1",
    "XuJL4pc5": "10020010",
    "qA7M9EjP": "0000-00-00 00:00:00",
    "SzV0Nps7": "9999-12-31 23:59:59"
  },
  {
    "4HqhTf3a": "2054",
    "kixHbe54": "32300",
    "wgV86x1q": "1",
    "HTVh8a65": "1000",
    "75YV2q1i": "10200:20,10100:5",
    "7dEB1Kwj": "",
    "H6k1LIxC": "-1",
    "XuJL4pc5": "8010010",
    "qA7M9EjP": "0000-00-00 00:00:00",
    "SzV0Nps7": "9999-12-31 23:59:59"
  },
  {
    "4HqhTf3a": "2056",
    "kixHbe54": "32400",
    "wgV86x1q": "1",
    "HTVh8a65": "1000",
    "75YV2q1i": "10202:20,10100:5",
    "7dEB1Kwj": "",
    "H6k1LIxC": "-1",
    "XuJL4pc5": "8010020",
    "qA7M9EjP": "0000-00-00 00:00:00",
    "SzV0Nps7": "9999-12-31 23:59:59"
  },
  {
    "4HqhTf3a": "2058",
    "kixHbe54": "32500",
    "wgV86x1q": "1",
    "HTVh8a65": "1000",
    "75YV2q1i": "10202:20,10100:5",
    "7dEB1Kwj": "",
    "H6k1LIxC": "-1",
    "XuJL4pc5": "8010030",
    "qA7M9EjP": "0000-00-00 00:00:00",
    "SzV0Nps7": "9999-12-31 23:59:59"
  },
  {
    "4HqhTf3a": "2060",
    "kixHbe54": "32600",
    "wgV86x1q": "1",
    "HTVh8a65": "1000",
    "75YV2q1i": "10202:20,10100:5",
    "7dEB1Kwj": "",
    "H6k1LIxC": "-1",
    "XuJL4pc5": "8010040",
    "qA7M9EjP": "0000-00-00 00:00:00",
    "SzV0Nps7": "9999-12-31 23:59:59"
  },
  {
    "4HqhTf3a": "2062",
    "kixHbe54": "32700",
    "wgV86x1q": "1",
    "HTVh8a65": "1000",
    "75YV2q1i": "10204:20,10100:5",
    "7dEB1Kwj": "",
    "H6k1LIxC": "-1",
    "XuJL4pc5": "8010050",
    "qA7M9EjP": "0000-00-00 00:00:00",
    "SzV0Nps7": "9999-12-31 23:59:59"
  },
  {
    "4HqhTf3a": "2064",
    "kixHbe54": "32800",
    "wgV86x1q": "1",
    "HTVh8a65": "1000",
    "75YV2q1i": "10205:20,10100:5",
    "7dEB1Kwj": "",
    "H6k1LIxC": "-1",
    "XuJL4pc5": "8010060",
    "qA7M9EjP": "0000-00-00 00:00:00",
    "SzV0Nps7": "9999-12-31 23:59:59"
  },
  {
    "4HqhTf3a": "2067",
    "kixHbe54": "33000",
    "wgV86x1q": "1",
    "HTVh8a65": "10000",
    "75YV2q1i": "30201:1,10705:3",
    "7dEB1Kwj": "",
    "H6k1LIxC": "-1",
    "XuJL4pc5": "7030010",
    "qA7M9EjP": "0000-00-00 00:00:00",
    "SzV0Nps7": "9999-12-31 23:59:59"
  },
  {
    "4HqhTf3a": "2068",
    "kixHbe54": "33001",
    "wgV86x1q": "1",
    "HTVh8a65": "15000",
    "75YV2q1i": "33000:1,10706:3",
    "7dEB1Kwj": "",
    "H6k1LIxC": "-1",
    "XuJL4pc5": "7030020",
    "qA7M9EjP": "0000-00-00 00:00:00",
    "SzV0Nps7": "9999-12-31 23:59:59"
  },
  {
    "4HqhTf3a": "2070",
    "kixHbe54": "33400",
    "wgV86x1q": "1",
    "HTVh8a65": "10000",
    "75YV2q1i": "30001:1,10705:3,10506:20",
    "7dEB1Kwj": "",
    "H6k1LIxC": "-1",
    "XuJL4pc5": "6020010",
    "qA7M9EjP": "0000-00-00 00:00:00",
    "SzV0Nps7": "9999-12-31 23:59:59"
  },
  {
    "4HqhTf3a": "2071",
    "kixHbe54": "33500",
    "wgV86x1q": "1",
    "HTVh8a65": "15000",
    "75YV2q1i": "33001:1,30401:1,30002:1,11010:3,10405:30",
    "7dEB1Kwj": "",
    "H6k1LIxC": "-1",
    "XuJL4pc5": "7010010",
    "qA7M9EjP": "0000-00-00 00:00:00",
    "SzV0Nps7": "9999-12-31 23:59:59"
  },
  {
    "4HqhTf3a": "2077",
    "kixHbe54": "33700",
    "wgV86x1q": "1",
    "HTVh8a65": "5000",
    "75YV2q1i": "30400:1,30000:1,11006:3,10405:10",
    "7dEB1Kwj": "",
    "H6k1LIxC": "-1",
    "XuJL4pc5": "5040010",
    "qA7M9EjP": "0000-00-00 00:00:00",
    "SzV0Nps7": "9999-12-31 23:59:59"
  },
  {
    "4HqhTf3a": "2078",
    "kixHbe54": "33800",
    "wgV86x1q": "1",
    "HTVh8a65": "7000",
    "75YV2q1i": "30201:1,30301:1,11007:3,10405:20",
    "7dEB1Kwj": "",
    "H6k1LIxC": "-1",
    "XuJL4pc5": "5040030",
    "qA7M9EjP": "0000-00-00 00:00:00",
    "SzV0Nps7": "9999-12-31 23:59:59"
  },
  {
    "4HqhTf3a": "2079",
    "kixHbe54": "33900",
    "wgV86x1q": "1",
    "HTVh8a65": "15000",
    "75YV2q1i": "33700:1,30001:1,11009:3,10806:20,10707:20",
    "7dEB1Kwj": "",
    "H6k1LIxC": "-1",
    "XuJL4pc5": "5030010",
    "qA7M9EjP": "0000-00-00 00:00:00",
    "SzV0Nps7": "9999-12-31 23:59:59"
  },
  {
    "4HqhTf3a": "2081",
    "kixHbe54": "34000",
    "wgV86x1q": "1",
    "HTVh8a65": "15000",
    "75YV2q1i": "33800:1,30301:1,11008:3,10806:20,10707:20",
    "7dEB1Kwj": "",
    "H6k1LIxC": "-1",
    "XuJL4pc5": "5020010",
    "qA7M9EjP": "0000-00-00 00:00:00",
    "SzV0Nps7": "9999-12-31 23:59:59"
  },
  {
    "4HqhTf3a": "2084",
    "kixHbe54": "34300",
    "wgV86x1q": "1",
    "HTVh8a65": "15000",
    "75YV2q1i": "30102:1,30001:1,10505:3,10806:30,10405:30",
    "7dEB1Kwj": "",
    "H6k1LIxC": "-1",
    "XuJL4pc5": "7040010",
    "qA7M9EjP": "0000-00-00 00:00:00",
    "SzV0Nps7": "9999-12-31 23:59:59"
  },
  {
    "4HqhTf3a": "2087",
    "kixHbe54": "34400",
    "wgV86x1q": "1",
    "HTVh8a65": "3000",
    "75YV2q1i": "10104:10,10701:10,10707:20",
    "7dEB1Kwj": "",
    "H6k1LIxC": "-1",
    "XuJL4pc5": "13010010",
    "qA7M9EjP": "0000-00-00 00:00:00",
    "SzV0Nps7": "9999-12-31 23:59:59"
  },
  {
    "4HqhTf3a": "2088",
    "kixHbe54": "34500",
    "wgV86x1q": "1",
    "HTVh8a65": "3000",
    "75YV2q1i": "10102:10,10801:10,10806:20",
    "7dEB1Kwj": "",
    "H6k1LIxC": "-1",
    "XuJL4pc5": "13010020",
    "qA7M9EjP": "0000-00-00 00:00:00",
    "SzV0Nps7": "9999-12-31 23:59:59"
  },
  {
    "4HqhTf3a": "2089",
    "kixHbe54": "35300",
    "wgV86x1q": "1",
    "HTVh8a65": "10000",
    "75YV2q1i": "32300:3,32500:3,32700:3,11002:10,10806:15",
    "7dEB1Kwj": "",
    "H6k1LIxC": "-1",
    "XuJL4pc5": "8010110",
    "qA7M9EjP": "0000-00-00 00:00:00",
    "SzV0Nps7": "9999-12-31 23:59:59"
  },
  {
    "4HqhTf3a": "2090",
    "kixHbe54": "35301",
    "wgV86x1q": "1",
    "HTVh8a65": "10000",
    "75YV2q1i": "32400:3,32600:3,32800:3,11002:10,10707:15",
    "7dEB1Kwj": "",
    "H6k1LIxC": "-1",
    "XuJL4pc5": "8010120",
    "qA7M9EjP": "0000-00-00 00:00:00",
    "SzV0Nps7": "9999-12-31 23:59:59"
  },
  {
    "4HqhTf3a": "2091",
    "kixHbe54": "35600",
    "wgV86x1q": "1",
    "HTVh8a65": "10000",
    "75YV2q1i": "33500:1,10406:10,10807:3,10405:20",
    "7dEB1Kwj": "",
    "H6k1LIxC": "-1",
    "XuJL4pc5": "7020010",
    "qA7M9EjP": "0000-00-00 00:00:00",
    "SzV0Nps7": "9999-12-31 23:59:59"
  },
  {
    "4HqhTf3a": "2092",
    "kixHbe54": "35400",
    "wgV86x1q": "1",
    "HTVh8a65": "15000",
    "75YV2q1i": "30002:2,30102:2,10406:10,10708:10,10806:10",
    "7dEB1Kwj": "",
    "H6k1LIxC": "-1",
    "XuJL4pc5": "1150010",
    "qA7M9EjP": "0000-00-00 00:00:00",
    "SzV0Nps7": "9999-12-31 23:59:59"
  },
  {
    "4HqhTf3a": "2093",
    "kixHbe54": "35500",
    "wgV86x1q": "1",
    "HTVh8a65": "20000",
    "75YV2q1i": "31200:3,31300:3,10608:3,10405:20,10707:20",
    "7dEB1Kwj": "",
    "H6k1LIxC": "-1",
    "XuJL4pc5": "1120010",
    "qA7M9EjP": "0000-00-00 00:00:00",
    "SzV0Nps7": "9999-12-31 23:59:59"
  },
  {
    "4HqhTf3a": "2094",
    "kixHbe54": "32301",
    "wgV86x1q": "1",
    "HTVh8a65": "5000",
    "75YV2q1i": "32300:2,10105:10",
    "7dEB1Kwj": "",
    "H6k1LIxC": "-1",
    "XuJL4pc5": "8020010",
    "qA7M9EjP": "0000-00-00 00:00:00",
    "SzV0Nps7": "9999-12-31 23:59:59"
  },
  {
    "4HqhTf3a": "2095",
    "kixHbe54": "32401",
    "wgV86x1q": "1",
    "HTVh8a65": "5000",
    "75YV2q1i": "32400:2,10105:10",
    "7dEB1Kwj": "",
    "H6k1LIxC": "-1",
    "XuJL4pc5": "8020020",
    "qA7M9EjP": "0000-00-00 00:00:00",
    "SzV0Nps7": "9999-12-31 23:59:59"
  },
  {
    "4HqhTf3a": "2096",
    "kixHbe54": "34803",
    "wgV86x1q": "1",
    "HTVh8a65": "15000",
    "75YV2q1i": "33700:1,30002:1,11011:3,10405:20",
    "7dEB1Kwj": "",
    "H6k1LIxC": "-1",
    "XuJL4pc5": "5040020",
    "qA7M9EjP": "0000-00-00 00:00:00",
    "SzV0Nps7": "9999-12-31 23:59:59"
  },
  {
    "4HqhTf3a": "2097",
    "kixHbe54": "32501",
    "wgV86x1q": "1",
    "HTVh8a65": "5000",
    "75YV2q1i": "32500:2,10105:10",
    "7dEB1Kwj": "",
    "H6k1LIxC": "-1",
    "XuJL4pc5": "8020030",
    "qA7M9EjP": "0000-00-00 00:00:00",
    "SzV0Nps7": "9999-12-31 23:59:59"
  },
  {
    "4HqhTf3a": "2098",
    "kixHbe54": "32601",
    "wgV86x1q": "1",
    "HTVh8a65": "5000",
    "75YV2q1i": "32600:2,10105:10",
    "7dEB1Kwj": "",
    "H6k1LIxC": "-1",
    "XuJL4pc5": "8020040",
    "qA7M9EjP": "0000-00-00 00:00:00",
    "SzV0Nps7": "9999-12-31 23:59:59"
  },
  {
    "4HqhTf3a": "2099",
    "kixHbe54": "34804",
    "wgV86x1q": "1",
    "HTVh8a65": "17000",
    "75YV2q1i": "33800:1,30102:1,11012:3,10405:20",
    "7dEB1Kwj": "",
    "H6k1LIxC": "-1",
    "XuJL4pc5": "5040040",
    "qA7M9EjP": "0000-00-00 00:00:00",
    "SzV0Nps7": "9999-12-31 23:59:59"
  },
  {
    "4HqhTf3a": "2100",
    "kixHbe54": "32701",
    "wgV86x1q": "1",
    "HTVh8a65": "5000",
    "75YV2q1i": "32700:2,10105:10",
    "7dEB1Kwj": "",
    "H6k1LIxC": "-1",
    "XuJL4pc5": "8020050",
    "qA7M9EjP": "0000-00-00 00:00:00",
    "SzV0Nps7": "9999-12-31 23:59:59"
  },
  {
    "4HqhTf3a": "2101",
    "kixHbe54": "32801",
    "wgV86x1q": "1",
    "HTVh8a65": "5000",
    "75YV2q1i": "32800:2,10105:10",
    "7dEB1Kwj": "",
    "H6k1LIxC": "-1",
    "XuJL4pc5": "8020060",
    "qA7M9EjP": "0000-00-00 00:00:00",
    "SzV0Nps7": "9999-12-31 23:59:59"
  },
  {
    "4HqhTf3a": "2102",
    "kixHbe54": "33901",
    "wgV86x1q": "1",
    "HTVh8a65": "20000",
    "75YV2q1i": "33900:1,30002:1,11013:3,10806:20,10707:20",
    "7dEB1Kwj": "",
    "H6k1LIxC": "-1",
    "XuJL4pc5": "5030020",
    "qA7M9EjP": "0000-00-00 00:00:00",
    "SzV0Nps7": "9999-12-31 23:59:59"
  },
  {
    "4HqhTf3a": "2103",
    "kixHbe54": "30003",
    "wgV86x1q": "1",
    "HTVh8a65": "10000",
    "75YV2q1i": "30002:1,10407:10,10405:5",
    "7dEB1Kwj": "",
    "H6k1LIxC": "-1",
    "XuJL4pc5": "1010040",
    "qA7M9EjP": "0000-00-00 00:00:00",
    "SzV0Nps7": "9999-12-31 23:59:59"
  },
  {
    "4HqhTf3a": "2104",
    "kixHbe54": "30103",
    "wgV86x1q": "1",
    "HTVh8a65": "10000",
    "75YV2q1i": "30102:1,10709:10,10707:5",
    "7dEB1Kwj": "",
    "H6k1LIxC": "-1",
    "XuJL4pc5": "1020040",
    "qA7M9EjP": "0000-00-00 00:00:00",
    "SzV0Nps7": "9999-12-31 23:59:59"
  },
  {
    "4HqhTf3a": "2105",
    "kixHbe54": "30203",
    "wgV86x1q": "1",
    "HTVh8a65": "10000",
    "75YV2q1i": "30202:1,10903:10,10308:5",
    "7dEB1Kwj": "",
    "H6k1LIxC": "-1",
    "XuJL4pc5": "1030040",
    "qA7M9EjP": "0000-00-00 00:00:00",
    "SzV0Nps7": "9999-12-31 23:59:59"
  },
  {
    "4HqhTf3a": "2106",
    "kixHbe54": "30303",
    "wgV86x1q": "1",
    "HTVh8a65": "10000",
    "75YV2q1i": "30302:1,10808:10,10308:5",
    "7dEB1Kwj": "",
    "H6k1LIxC": "-1",
    "XuJL4pc5": "1040040",
    "qA7M9EjP": "0000-00-00 00:00:00",
    "SzV0Nps7": "9999-12-31 23:59:59"
  },
  {
    "4HqhTf3a": "2107",
    "kixHbe54": "31601",
    "wgV86x1q": "1",
    "HTVh8a65": "20000",
    "75YV2q1i": "31600:1,10106:10,10405:5",
    "7dEB1Kwj": "",
    "H6k1LIxC": "-1",
    "XuJL4pc5": "9010020",
    "qA7M9EjP": "0000-00-00 00:00:00",
    "SzV0Nps7": "9999-12-31 23:59:59"
  },
  {
    "4HqhTf3a": "2108",
    "kixHbe54": "31701",
    "wgV86x1q": "1",
    "HTVh8a65": "20000",
    "75YV2q1i": "31700:1,10106:10,10707:5",
    "7dEB1Kwj": "",
    "H6k1LIxC": "-1",
    "XuJL4pc5": "9020020",
    "qA7M9EjP": "0000-00-00 00:00:00",
    "SzV0Nps7": "9999-12-31 23:59:59"
  },
  {
    "4HqhTf3a": "2109",
    "kixHbe54": "31801",
    "wgV86x1q": "1",
    "HTVh8a65": "20000",
    "75YV2q1i": "31800:1,10106:10,10405:5",
    "7dEB1Kwj": "",
    "H6k1LIxC": "-1",
    "XuJL4pc5": "9030020",
    "qA7M9EjP": "0000-00-00 00:00:00",
    "SzV0Nps7": "9999-12-31 23:59:59"
  },
  {
    "4HqhTf3a": "2110",
    "kixHbe54": "31901",
    "wgV86x1q": "1",
    "HTVh8a65": "20000",
    "75YV2q1i": "31900:1,10106:10,10707:5",
    "7dEB1Kwj": "",
    "H6k1LIxC": "-1",
    "XuJL4pc5": "9040020",
    "qA7M9EjP": "0000-00-00 00:00:00",
    "SzV0Nps7": "9999-12-31 23:59:59"
  },
  {
    "4HqhTf3a": "2111",
    "kixHbe54": "32001",
    "wgV86x1q": "1",
    "HTVh8a65": "20000",
    "75YV2q1i": "32000:1,10106:10,10405:5",
    "7dEB1Kwj": "",
    "H6k1LIxC": "-1",
    "XuJL4pc5": "9050020",
    "qA7M9EjP": "0000-00-00 00:00:00",
    "SzV0Nps7": "9999-12-31 23:59:59"
  },
  {
    "4HqhTf3a": "2112",
    "kixHbe54": "32101",
    "wgV86x1q": "1",
    "HTVh8a65": "20000",
    "75YV2q1i": "32100:1,10106:10,10707:5",
    "7dEB1Kwj": "",
    "H6k1LIxC": "-1",
    "XuJL4pc5": "9060020",
    "qA7M9EjP": "0000-00-00 00:00:00",
    "SzV0Nps7": "9999-12-31 23:59:59"
  },
  {
    "4HqhTf3a": "2113",
    "kixHbe54": "30402",
    "wgV86x1q": "1",
    "HTVh8a65": "15000",
    "75YV2q1i": "30401:1,10507:10,10806:10",
    "7dEB1Kwj": "",
    "H6k1LIxC": "-1",
    "XuJL4pc5": "3010030",
    "qA7M9EjP": "0000-00-00 00:00:00",
    "SzV0Nps7": "9999-12-31 23:59:59"
  },
  {
    "4HqhTf3a": "2114",
    "kixHbe54": "34001",
    "wgV86x1q": "1",
    "HTVh8a65": "25000",
    "75YV2q1i": "34000:1,30302:1,10507:3,10707:15,10107:3",
    "7dEB1Kwj": "",
    "H6k1LIxC": "-1",
    "XuJL4pc5": "5020030",
    "qA7M9EjP": "0000-00-00 00:00:00",
    "SzV0Nps7": "9999-12-31 23:59:59"
  },
  {
    "4HqhTf3a": "2115",
    "kixHbe54": "34805",
    "wgV86x1q": "1",
    "HTVh8a65": "20000",
    "75YV2q1i": "30401:1,10507:3,10106:3,10806:15,10107:3",
    "7dEB1Kwj": "",
    "H6k1LIxC": "-1",
    "XuJL4pc5": "2010010",
    "qA7M9EjP": "0000-00-00 00:00:00",
    "SzV0Nps7": "9999-12-31 23:59:59"
  },
  {
    "4HqhTf3a": "2116",
    "kixHbe54": "34806",
    "wgV86x1q": "1",
    "HTVh8a65": "20000",
    "75YV2q1i": "30002:1,10507:3,10106:3,10405:15,10508:5",
    "7dEB1Kwj": "",
    "H6k1LIxC": "-1",
    "XuJL4pc5": "6080010",
    "qA7M9EjP": "0000-00-00 00:00:00",
    "SzV0Nps7": "9999-12-31 23:59:59"
  },
  {
    "4HqhTf3a": "2117",
    "kixHbe54": "31001",
    "wgV86x1q": "1",
    "HTVh8a65": "50000",
    "75YV2q1i": "31000:2,30002:1,10408:3,10710:3,10308:20",
    "7dEB1Kwj": "",
    "H6k1LIxC": "-1",
    "XuJL4pc5": "1140020",
    "qA7M9EjP": "0000-00-00 00:00:00",
    "SzV0Nps7": "9999-12-31 23:59:59"
  },
  {
    "4HqhTf3a": "2118",
    "kixHbe54": "31101",
    "wgV86x1q": "1",
    "HTVh8a65": "50000",
    "75YV2q1i": "31100:2,30102:1,10408:3,10710:3,10308:20",
    "7dEB1Kwj": "",
    "H6k1LIxC": "-1",
    "XuJL4pc5": "1130020",
    "qA7M9EjP": "0000-00-00 00:00:00",
    "SzV0Nps7": "9999-12-31 23:59:59"
  },
  {
    "4HqhTf3a": "2119",
    "kixHbe54": "34807",
    "wgV86x1q": "1",
    "HTVh8a65": "25000",
    "75YV2q1i": "30002:1,10609:3,10408:3,10405:20",
    "7dEB1Kwj": "",
    "H6k1LIxC": "-1",
    "XuJL4pc5": "12010010",
    "qA7M9EjP": "0000-00-00 00:00:00",
    "SzV0Nps7": "9999-12-31 23:59:59"
  },
  {
    "4HqhTf3a": "2120",
    "kixHbe54": "34808",
    "wgV86x1q": "1",
    "HTVh8a65": "30000",
    "75YV2q1i": "33000:1,30202:1,30302:1,10904:3,11014:3",
    "7dEB1Kwj": "",
    "H6k1LIxC": "-1",
    "XuJL4pc5": "7060010",
    "qA7M9EjP": "0000-00-00 00:00:00",
    "SzV0Nps7": "9999-12-31 23:59:59"
  },
  {
    "4HqhTf3a": "2121",
    "kixHbe54": "34809",
    "wgV86x1q": "1",
    "HTVh8a65": "25000",
    "75YV2q1i": "30101:1,30201:1,30301:1,10308:20",
    "7dEB1Kwj": "",
    "H6k1LIxC": "-1",
    "XuJL4pc5": "1150040",
    "qA7M9EjP": "0000-00-00 00:00:00",
    "SzV0Nps7": "9999-12-31 23:59:59"
  },
  {
    "4HqhTf3a": "2122",
    "kixHbe54": "37700",
    "wgV86x1q": "1",
    "HTVh8a65": "25000",
    "75YV2q1i": "35300:1,35301:1,11015:3,10509:2,10707:20",
    "7dEB1Kwj": "",
    "H6k1LIxC": "-1",
    "XuJL4pc5": "8010210",
    "qA7M9EjP": "0000-00-00 00:00:00",
    "SzV0Nps7": "9999-12-31 23:59:59"
  },
  {
    "4HqhTf3a": "2123",
    "kixHbe54": "37800",
    "wgV86x1q": "1",
    "HTVh8a65": "30000",
    "75YV2q1i": "35400:1,10509:2,10809:3,10506:20",
    "7dEB1Kwj": "",
    "H6k1LIxC": "-1",
    "XuJL4pc5": "1150020",
    "qA7M9EjP": "0000-00-00 00:00:00",
    "SzV0Nps7": "9999-12-31 23:59:59"
  },
  {
    "4HqhTf3a": "2124",
    "kixHbe54": "37900",
    "wgV86x1q": "1",
    "HTVh8a65": "40000",
    "75YV2q1i": "34806:1,30003:1,10509:5,10405:20",
    "7dEB1Kwj": "",
    "H6k1LIxC": "-1",
    "XuJL4pc5": "1100010",
    "qA7M9EjP": "0000-00-00 00:00:00",
    "SzV0Nps7": "9999-12-31 23:59:59"
  },
  {
    "4HqhTf3a": "2125",
    "kixHbe54": "38000",
    "wgV86x1q": "1",
    "HTVh8a65": "25000",
    "75YV2q1i": "34803:2,11015:3,10809:3,10308:20",
    "7dEB1Kwj": "",
    "H6k1LIxC": "-1",
    "XuJL4pc5": "6040010",
    "qA7M9EjP": "0000-00-00 00:00:00",
    "SzV0Nps7": "9999-12-31 23:59:59"
  },
  {
    "4HqhTf3a": "2126",
    "kixHbe54": "30004",
    "wgV86x1q": "1",
    "HTVh8a65": "30000",
    "75YV2q1i": "30003:1,10409:10,11017:1,10405:5",
    "7dEB1Kwj": "",
    "H6k1LIxC": "-1",
    "XuJL4pc5": "1010050",
    "qA7M9EjP": "0000-00-00 00:00:00",
    "SzV0Nps7": "9999-12-31 23:59:59"
  },
  {
    "4HqhTf3a": "2127",
    "kixHbe54": "30104",
    "wgV86x1q": "1",
    "HTVh8a65": "30000",
    "75YV2q1i": "30103:1,10711:10,11017:1,10707:5",
    "7dEB1Kwj": "",
    "H6k1LIxC": "-1",
    "XuJL4pc5": "1020050",
    "qA7M9EjP": "0000-00-00 00:00:00",
    "SzV0Nps7": "9999-12-31 23:59:59"
  },
  {
    "4HqhTf3a": "2128",
    "kixHbe54": "30204",
    "wgV86x1q": "1",
    "HTVh8a65": "30000",
    "75YV2q1i": "30203:1,10409:10,11017:1,10806:5",
    "7dEB1Kwj": "",
    "H6k1LIxC": "-1",
    "XuJL4pc5": "1030050",
    "qA7M9EjP": "0000-00-00 00:00:00",
    "SzV0Nps7": "9999-12-31 23:59:59"
  },
  {
    "4HqhTf3a": "2129",
    "kixHbe54": "30304",
    "wgV86x1q": "1",
    "HTVh8a65": "30000",
    "75YV2q1i": "30303:1,10711:10,11017:1,10506:5",
    "7dEB1Kwj": "",
    "H6k1LIxC": "-1",
    "XuJL4pc5": "1040050",
    "qA7M9EjP": "0000-00-00 00:00:00",
    "SzV0Nps7": "9999-12-31 23:59:59"
  },
  {
    "4HqhTf3a": "2130",
    "kixHbe54": "38100",
    "wgV86x1q": "1",
    "HTVh8a65": "30000",
    "75YV2q1i": "35300:2,11017:2,10905:10,10308:20",
    "7dEB1Kwj": "",
    "H6k1LIxC": "-1",
    "XuJL4pc5": "8020110",
    "qA7M9EjP": "0000-00-00 00:00:00",
    "SzV0Nps7": "9999-12-31 23:59:59"
  },
  {
    "4HqhTf3a": "2131",
    "kixHbe54": "38200",
    "wgV86x1q": "1",
    "HTVh8a65": "30000",
    "75YV2q1i": "35301:2,11017:2,10905:10,10308:20",
    "7dEB1Kwj": "",
    "H6k1LIxC": "-1",
    "XuJL4pc5": "8020120",
    "qA7M9EjP": "0000-00-00 00:00:00",
    "SzV0Nps7": "9999-12-31 23:59:59"
  },
  {
    "4HqhTf3a": "2132",
    "kixHbe54": "38300",
    "wgV86x1q": "1",
    "HTVh8a65": "50000",
    "75YV2q1i": "33900:1,34000:1,11017:3,10405:20,10806:20",
    "7dEB1Kwj": "",
    "H6k1LIxC": "-1",
    "XuJL4pc5": "5030030",
    "qA7M9EjP": "0000-00-00 00:00:00",
    "SzV0Nps7": "9999-12-31 23:59:59"
  },
  {
    "4HqhTf3a": "2133",
    "kixHbe54": "30305",
    "wgV86x1q": "1",
    "HTVh8a65": "35000",
    "75YV2q1i": "30304:1,10810:10,10611:1,10506:20",
    "7dEB1Kwj": "",
    "H6k1LIxC": "-1",
    "XuJL4pc5": "1040060",
    "qA7M9EjP": "0000-00-00 00:00:00",
    "SzV0Nps7": "9999-12-31 23:59:59"
  },
  {
    "4HqhTf3a": "2134",
    "kixHbe54": "30005",
    "wgV86x1q": "1",
    "HTVh8a65": "35000",
    "75YV2q1i": "30004:1,10510:10,10611:1,10405:20",
    "7dEB1Kwj": "",
    "H6k1LIxC": "-1",
    "XuJL4pc5": "1010060",
    "qA7M9EjP": "0000-00-00 00:00:00",
    "SzV0Nps7": "9999-12-31 23:59:59"
  },
  {
    "4HqhTf3a": "2135",
    "kixHbe54": "30105",
    "wgV86x1q": "1",
    "HTVh8a65": "35000",
    "75YV2q1i": "30104:1,10810:10,10611:1,10806:20",
    "7dEB1Kwj": "",
    "H6k1LIxC": "-1",
    "XuJL4pc5": "1020060",
    "qA7M9EjP": "0000-00-00 00:00:00",
    "SzV0Nps7": "9999-12-31 23:59:59"
  },
  {
    "4HqhTf3a": "2136",
    "kixHbe54": "30205",
    "wgV86x1q": "1",
    "HTVh8a65": "35000",
    "75YV2q1i": "30204:1,10510:10,10611:1,10308:20",
    "7dEB1Kwj": "",
    "H6k1LIxC": "-1",
    "XuJL4pc5": "1030060",
    "qA7M9EjP": "0000-00-00 00:00:00",
    "SzV0Nps7": "9999-12-31 23:59:59"
  },
  {
    "4HqhTf3a": "2137",
    "kixHbe54": "39500",
    "wgV86x1q": "1",
    "HTVh8a65": "50000",
    "75YV2q1i": "38000:1,10109:20,10611:3,10707:20",
    "7dEB1Kwj": "",
    "H6k1LIxC": "-1",
    "XuJL4pc5": "6070010",
    "qA7M9EjP": "0000-00-00 00:00:00",
    "SzV0Nps7": "9999-12-31 23:59:59"
  },
  {
    "4HqhTf3a": "2138",
    "kixHbe54": "31301",
    "wgV86x1q": "1",
    "HTVh8a65": "50000",
    "75YV2q1i": "31300:1,30105:1,11022:10,10110:3,10906:3",
    "7dEB1Kwj": "",
    "H6k1LIxC": "-1",
    "XuJL4pc5": "1070020",
    "qA7M9EjP": "0000-00-00 00:00:00",
    "SzV0Nps7": "9999-12-31 23:59:59"
  },
  {
    "4HqhTf3a": "2139",
    "kixHbe54": "40000",
    "wgV86x1q": "1",
    "HTVh8a65": "20000",
    "75YV2q1i": "34803:1,11022:10,10110:3,10308:20",
    "7dEB1Kwj": "",
    "H6k1LIxC": "-1",
    "XuJL4pc5": "5040130",
    "qA7M9EjP": "0000-00-00 00:00:00",
    "SzV0Nps7": "9999-12-31 23:59:59"
  },
  {
    "4HqhTf3a": "2140",
    "kixHbe54": "40100",
    "wgV86x1q": "1",
    "HTVh8a65": "20000",
    "75YV2q1i": "34804:1,11022:10,10110:3,10308:20",
    "7dEB1Kwj": "",
    "H6k1LIxC": "-1",
    "XuJL4pc5": "5040230",
    "qA7M9EjP": "0000-00-00 00:00:00",
    "SzV0Nps7": "9999-12-31 23:59:59"
  },
  {
    "4HqhTf3a": "2141",
    "kixHbe54": "30006",
    "wgV86x1q": "1",
    "HTVh8a65": "40000",
    "75YV2q1i": "30005:1,10813:10,10906:1,10405:20",
    "7dEB1Kwj": "",
    "H6k1LIxC": "-1",
    "XuJL4pc5": "1010070",
    "qA7M9EjP": "0000-00-00 00:00:00",
    "SzV0Nps7": "9999-12-31 23:59:59"
  },
  {
    "4HqhTf3a": "2142",
    "kixHbe54": "30106",
    "wgV86x1q": "1",
    "HTVh8a65": "40000",
    "75YV2q1i": "30105:1,10813:10,10906:1,10806:20",
    "7dEB1Kwj": "",
    "H6k1LIxC": "-1",
    "XuJL4pc5": "1020070",
    "qA7M9EjP": "0000-00-00 00:00:00",
    "SzV0Nps7": "9999-12-31 23:59:59"
  },
  {
    "4HqhTf3a": "2143",
    "kixHbe54": "30206",
    "wgV86x1q": "1",
    "HTVh8a65": "40000",
    "75YV2q1i": "30205:1,10719:10,10906:1,10707:20",
    "7dEB1Kwj": "",
    "H6k1LIxC": "-1",
    "XuJL4pc5": "1030070",
    "qA7M9EjP": "0000-00-00 00:00:00",
    "SzV0Nps7": "9999-12-31 23:59:59"
  },
  {
    "4HqhTf3a": "2144",
    "kixHbe54": "30306",
    "wgV86x1q": "1",
    "HTVh8a65": "40000",
    "75YV2q1i": "30305:1,10719:10,10906:1,10506:20",
    "7dEB1Kwj": "",
    "H6k1LIxC": "-1",
    "XuJL4pc5": "1040070",
    "qA7M9EjP": "0000-00-00 00:00:00",
    "SzV0Nps7": "9999-12-31 23:59:59"
  },
  {
    "4HqhTf3a": "2145",
    "kixHbe54": "41400",
    "wgV86x1q": "1",
    "HTVh8a65": "30000",
    "75YV2q1i": "30101:1,10814:10,10720:10,10600:30,10806:20",
    "7dEB1Kwj": "",
    "H6k1LIxC": "-1",
    "XuJL4pc5": "10010110",
    "qA7M9EjP": "0000-00-00 00:00:00",
    "SzV0Nps7": "9999-12-31 23:59:59"
  },
  {
    "4HqhTf3a": "2146",
    "kixHbe54": "41401",
    "wgV86x1q": "1",
    "HTVh8a65": "30000",
    "75YV2q1i": "30101:1,10814:10,10720:10,10601:30,10806:20",
    "7dEB1Kwj": "",
    "H6k1LIxC": "-1",
    "XuJL4pc5": "10010210",
    "qA7M9EjP": "0000-00-00 00:00:00",
    "SzV0Nps7": "9999-12-31 23:59:59"
  },
  {
    "4HqhTf3a": "2147",
    "kixHbe54": "41402",
    "wgV86x1q": "1",
    "HTVh8a65": "30000",
    "75YV2q1i": "30101:1,10814:10,10720:10,10602:30,10806:20",
    "7dEB1Kwj": "",
    "H6k1LIxC": "-1",
    "XuJL4pc5": "10010310",
    "qA7M9EjP": "0000-00-00 00:00:00",
    "SzV0Nps7": "9999-12-31 23:59:59"
  },
  {
    "4HqhTf3a": "2148",
    "kixHbe54": "41403",
    "wgV86x1q": "1",
    "HTVh8a65": "30000",
    "75YV2q1i": "30101:1,10814:10,10720:10,10603:30,10806:20",
    "7dEB1Kwj": "",
    "H6k1LIxC": "-1",
    "XuJL4pc5": "10010410",
    "qA7M9EjP": "0000-00-00 00:00:00",
    "SzV0Nps7": "9999-12-31 23:59:59"
  },
  {
    "4HqhTf3a": "2149",
    "kixHbe54": "41404",
    "wgV86x1q": "1",
    "HTVh8a65": "30000",
    "75YV2q1i": "30101:1,10814:10,10720:10,10604:30,10806:20",
    "7dEB1Kwj": "",
    "H6k1LIxC": "-1",
    "XuJL4pc5": "10010510",
    "qA7M9EjP": "0000-00-00 00:00:00",
    "SzV0Nps7": "9999-12-31 23:59:59"
  },
  {
    "4HqhTf3a": "2150",
    "kixHbe54": "41405",
    "wgV86x1q": "1",
    "HTVh8a65": "30000",
    "75YV2q1i": "30101:1,10814:10,10720:10,10605:30,10806:20",
    "7dEB1Kwj": "",
    "H6k1LIxC": "-1",
    "XuJL4pc5": "10010610",
    "qA7M9EjP": "0000-00-00 00:00:00",
    "SzV0Nps7": "9999-12-31 23:59:59"
  },
  {
    "4HqhTf3a": "2151",
    "kixHbe54": "31002",
    "wgV86x1q": "1",
    "HTVh8a65": "50000",
    "75YV2q1i": "31001:1,30402:1,10625:2,11023:2,10405:30",
    "7dEB1Kwj": "",
    "H6k1LIxC": "-1",
    "XuJL4pc5": "1140030",
    "qA7M9EjP": "0000-00-00 00:00:00",
    "SzV0Nps7": "9999-12-31 23:59:59"
  },
  {
    "4HqhTf3a": "2152",
    "kixHbe54": "31102",
    "wgV86x1q": "1",
    "HTVh8a65": "50000",
    "75YV2q1i": "31101:1,30203:1,10625:2,11023:2,10707:30",
    "7dEB1Kwj": "",
    "H6k1LIxC": "-1",
    "XuJL4pc5": "1130030",
    "qA7M9EjP": "0000-00-00 00:00:00",
    "SzV0Nps7": "9999-12-31 23:59:59"
  },
  {
    "4HqhTf3a": "2153",
    "kixHbe54": "35501",
    "wgV86x1q": "1",
    "HTVh8a65": "30000",
    "75YV2q1i": "35500:1,10416:10,10512:10,10506:20,10405:20",
    "7dEB1Kwj": "",
    "H6k1LIxC": "-1",
    "XuJL4pc5": "1120020",
    "qA7M9EjP": "0000-00-00 00:00:00",
    "SzV0Nps7": "9999-12-31 23:59:59"
  },
  {
    "4HqhTf3a": "2154",
    "kixHbe54": "41500",
    "wgV86x1q": "1",
    "HTVh8a65": "30000",
    "75YV2q1i": "33700:1,33800:1,10111:1,10806:20,10308:20",
    "7dEB1Kwj": "",
    "H6k1LIxC": "-1",
    "XuJL4pc5": "5010010",
    "qA7M9EjP": "0000-00-00 00:00:00",
    "SzV0Nps7": "9999-12-31 23:59:59"
  },
  {
    "4HqhTf3a": "2155",
    "kixHbe54": "41600",
    "wgV86x1q": "1",
    "HTVh8a65": "40000",
    "75YV2q1i": "33400:1,10416:20,10111:1,10506:20",
    "7dEB1Kwj": "",
    "H6k1LIxC": "-1",
    "XuJL4pc5": "6010020",
    "qA7M9EjP": "0000-00-00 00:00:00",
    "SzV0Nps7": "9999-12-31 23:59:59"
  },
  {
    "4HqhTf3a": "2156",
    "kixHbe54": "41700",
    "wgV86x1q": "1",
    "HTVh8a65": "40000",
    "75YV2q1i": "34806:1,10512:20,10111:1,10806:20",
    "7dEB1Kwj": "",
    "H6k1LIxC": "-1",
    "XuJL4pc5": "6080040",
    "qA7M9EjP": "0000-00-00 00:00:00",
    "SzV0Nps7": "9999-12-31 23:59:59"
  },
  {
    "4HqhTf3a": "2157",
    "kixHbe54": "30007",
    "wgV86x1q": "1",
    "HTVh8a65": "45000",
    "75YV2q1i": "30006:1,10815:10,11024:1,10405:25",
    "7dEB1Kwj": "",
    "H6k1LIxC": "-1",
    "XuJL4pc5": "1010080",
    "qA7M9EjP": "0000-00-00 00:00:00",
    "SzV0Nps7": "9999-12-31 23:59:59"
  },
  {
    "4HqhTf3a": "2158",
    "kixHbe54": "30107",
    "wgV86x1q": "1",
    "HTVh8a65": "45000",
    "75YV2q1i": "30106:1,10815:10,11024:1,10806:25",
    "7dEB1Kwj": "",
    "H6k1LIxC": "-1",
    "XuJL4pc5": "1020080",
    "qA7M9EjP": "0000-00-00 00:00:00",
    "SzV0Nps7": "9999-12-31 23:59:59"
  },
  {
    "4HqhTf3a": "2159",
    "kixHbe54": "30207",
    "wgV86x1q": "1",
    "HTVh8a65": "45000",
    "75YV2q1i": "30206:1,10721:10,11024:1,10707:25",
    "7dEB1Kwj": "",
    "H6k1LIxC": "-1",
    "XuJL4pc5": "1030080",
    "qA7M9EjP": "0000-00-00 00:00:00",
    "SzV0Nps7": "9999-12-31 23:59:59"
  },
  {
    "4HqhTf3a": "2160",
    "kixHbe54": "30307",
    "wgV86x1q": "1",
    "HTVh8a65": "45000",
    "75YV2q1i": "30306:1,10721:10,11024:1,10506:25",
    "7dEB1Kwj": "",
    "H6k1LIxC": "-1",
    "XuJL4pc5": "1040080",
    "qA7M9EjP": "0000-00-00 00:00:00",
    "SzV0Nps7": "9999-12-31 23:59:59"
  },
  {
    "4HqhTf3a": "2161",
    "kixHbe54": "41800",
    "wgV86x1q": "1",
    "HTVh8a65": "50000",
    "75YV2q1i": "32200:1,10815:10,10907:1,10707:30",
    "7dEB1Kwj": "",
    "H6k1LIxC": "-1",
    "XuJL4pc5": "11010020",
    "qA7M9EjP": "0000-00-00 00:00:00",
    "SzV0Nps7": "9999-12-31 23:59:59"
  },
  {
    "4HqhTf3a": "2162",
    "kixHbe54": "41900",
    "wgV86x1q": "1",
    "HTVh8a65": "50000",
    "75YV2q1i": "34300:1,10721:10,10907:1,10506:30",
    "7dEB1Kwj": "",
    "H6k1LIxC": "-1",
    "XuJL4pc5": "7040030",
    "qA7M9EjP": "0000-00-00 00:00:00",
    "SzV0Nps7": "9999-12-31 23:59:59"
  },
  {
    "4HqhTf3a": "2163",
    "kixHbe54": "31602",
    "wgV86x1q": "1",
    "HTVh8a65": "40000",
    "75YV2q1i": "31601:1,10112:10,10405:20",
    "7dEB1Kwj": "",
    "H6k1LIxC": "-1",
    "XuJL4pc5": "9010030",
    "qA7M9EjP": "0000-00-00 00:00:00",
    "SzV0Nps7": "9999-12-31 23:59:59"
  },
  {
    "4HqhTf3a": "2164",
    "kixHbe54": "31702",
    "wgV86x1q": "1",
    "HTVh8a65": "40000",
    "75YV2q1i": "31701:1,10112:10,10707:20",
    "7dEB1Kwj": "",
    "H6k1LIxC": "-1",
    "XuJL4pc5": "9020030",
    "qA7M9EjP": "0000-00-00 00:00:00",
    "SzV0Nps7": "9999-12-31 23:59:59"
  },
  {
    "4HqhTf3a": "2165",
    "kixHbe54": "31802",
    "wgV86x1q": "1",
    "HTVh8a65": "40000",
    "75YV2q1i": "31801:1,10112:10,10405:20",
    "7dEB1Kwj": "",
    "H6k1LIxC": "-1",
    "XuJL4pc5": "9030030",
    "qA7M9EjP": "0000-00-00 00:00:00",
    "SzV0Nps7": "9999-12-31 23:59:59"
  },
  {
    "4HqhTf3a": "2166",
    "kixHbe54": "31902",
    "wgV86x1q": "1",
    "HTVh8a65": "40000",
    "75YV2q1i": "31901:1,10112:10,10707:20",
    "7dEB1Kwj": "",
    "H6k1LIxC": "-1",
    "XuJL4pc5": "9040030",
    "qA7M9EjP": "0000-00-00 00:00:00",
    "SzV0Nps7": "9999-12-31 23:59:59"
  },
  {
    "4HqhTf3a": "2167",
    "kixHbe54": "32002",
    "wgV86x1q": "1",
    "HTVh8a65": "40000",
    "75YV2q1i": "32001:1,10112:10,10405:20",
    "7dEB1Kwj": "",
    "H6k1LIxC": "-1",
    "XuJL4pc5": "9050030",
    "qA7M9EjP": "0000-00-00 00:00:00",
    "SzV0Nps7": "9999-12-31 23:59:59"
  },
  {
    "4HqhTf3a": "2168",
    "kixHbe54": "32102",
    "wgV86x1q": "1",
    "HTVh8a65": "40000",
    "75YV2q1i": "32101:1,10112:10,10707:20",
    "7dEB1Kwj": "",
    "H6k1LIxC": "-1",
    "XuJL4pc5": "9060030",
    "qA7M9EjP": "0000-00-00 00:00:00",
    "SzV0Nps7": "9999-12-31 23:59:59"
  },
  {
    "4HqhTf3a": "2169",
    "kixHbe54": "38001",
    "wgV86x1q": "1",
    "HTVh8a65": "50000",
    "75YV2q1i": "38000:1,10513:20,10908:3,10308:30",
    "7dEB1Kwj": "",
    "H6k1LIxC": "-1",
    "XuJL4pc5": "6040030",
    "qA7M9EjP": "0000-00-00 00:00:00",
    "SzV0Nps7": "9999-12-31 23:59:59"
  },
  {
    "4HqhTf3a": "2170",
    "kixHbe54": "43300",
    "wgV86x1q": "1",
    "HTVh8a65": "50000",
    "75YV2q1i": "34807:1,10417:20,10908:3,10506:30",
    "7dEB1Kwj": "",
    "H6k1LIxC": "-1",
    "XuJL4pc5": "12010020",
    "qA7M9EjP": "0000-00-00 00:00:00",
    "SzV0Nps7": "9999-12-31 23:59:59"
  },
  {
    "4HqhTf3a": "2171",
    "kixHbe54": "30008",
    "wgV86x1q": "1",
    "HTVh8a65": "50000",
    "75YV2q1i": "30007:1,10514:10,11025:1,10405:25",
    "7dEB1Kwj": "",
    "H6k1LIxC": "-1",
    "XuJL4pc5": "1010090",
    "qA7M9EjP": "0000-00-00 00:00:00",
    "SzV0Nps7": "9999-12-31 23:59:59"
  },
  {
    "4HqhTf3a": "2172",
    "kixHbe54": "30108",
    "wgV86x1q": "1",
    "HTVh8a65": "50000",
    "75YV2q1i": "30107:1,10514:10,11025:1,10707:25",
    "7dEB1Kwj": "",
    "H6k1LIxC": "-1",
    "XuJL4pc5": "1020090",
    "qA7M9EjP": "0000-00-00 00:00:00",
    "SzV0Nps7": "9999-12-31 23:59:59"
  },
  {
    "4HqhTf3a": "2173",
    "kixHbe54": "30208",
    "wgV86x1q": "1",
    "HTVh8a65": "50000",
    "75YV2q1i": "30207:1,10722:10,11025:1,10308:25",
    "7dEB1Kwj": "",
    "H6k1LIxC": "-1",
    "XuJL4pc5": "1030090",
    "qA7M9EjP": "0000-00-00 00:00:00",
    "SzV0Nps7": "9999-12-31 23:59:59"
  },
  {
    "4HqhTf3a": "2174",
    "kixHbe54": "30308",
    "wgV86x1q": "1",
    "HTVh8a65": "50000",
    "75YV2q1i": "30307:1,10722:10,11025:1,10806:25",
    "7dEB1Kwj": "",
    "H6k1LIxC": "-1",
    "XuJL4pc5": "1040090",
    "qA7M9EjP": "0000-00-00 00:00:00",
    "SzV0Nps7": "9999-12-31 23:59:59"
  },
  {
    "4HqhTf3a": "2175",
    "kixHbe54": "44000",
    "wgV86x1q": "1",
    "HTVh8a65": "50000",
    "75YV2q1i": "37800:1,10514:15,10722:15,10626:1,10506:25",
    "7dEB1Kwj": "",
    "H6k1LIxC": "-1",
    "XuJL4pc5": "1150030",
    "qA7M9EjP": "0000-00-00 00:00:00",
    "SzV0Nps7": "9999-12-31 23:59:59"
  },
  {
    "4HqhTf3a": "2176",
    "kixHbe54": "44100",
    "wgV86x1q": "1",
    "HTVh8a65": "50000",
    "75YV2q1i": "31301:1,10816:20,11025:2,10626:2",
    "7dEB1Kwj": "",
    "H6k1LIxC": "-1",
    "XuJL4pc5": "10030010",
    "qA7M9EjP": "0000-00-00 00:00:00",
    "SzV0Nps7": "9999-12-31 23:59:59"
  },
  {
    "4HqhTf3a": "2177",
    "kixHbe54": "44200",
    "wgV86x1q": "1",
    "HTVh8a65": "50000",
    "75YV2q1i": "38300:1,10514:5,10722:5,10816:5,10626:1",
    "7dEB1Kwj": "",
    "H6k1LIxC": "-1",
    "XuJL4pc5": "5030040",
    "qA7M9EjP": "0000-00-00 00:00:00",
    "SzV0Nps7": "9999-12-31 23:59:59"
  },
  {
    "4HqhTf3a": "2178",
    "kixHbe54": "47900",
    "wgV86x1q": "1",
    "HTVh8a65": "50000",
    "75YV2q1i": "40000:1,40100:1,11008:10,11009:10,11037:5",
    "7dEB1Kwj": "",
    "H6k1LIxC": "-1",
    "XuJL4pc5": "14060010",
    "qA7M9EjP": "0000-00-00 00:00:00",
    "SzV0Nps7": "9999-12-31 23:59:59"
  },
  {
    "4HqhTf3a": "2179",
    "kixHbe54": "47901",
    "wgV86x1q": "1",
    "HTVh8a65": "50000",
    "75YV2q1i": "38001:1,34808:2,10807:10,10608:10,10421:5",
    "7dEB1Kwj": "",
    "H6k1LIxC": "-1",
    "XuJL4pc5": "14060020",
    "qA7M9EjP": "0000-00-00 00:00:00",
    "SzV0Nps7": "9999-12-31 23:59:59"
  },
  {
    "4HqhTf3a": "2180",
    "kixHbe54": "47902",
    "wgV86x1q": "1",
    "HTVh8a65": "50000",
    "75YV2q1i": "39500:1,41900:1,10107:10,10710:10,10517:5",
    "7dEB1Kwj": "",
    "H6k1LIxC": "-1",
    "XuJL4pc5": "14060030",
    "qA7M9EjP": "0000-00-00 00:00:00",
    "SzV0Nps7": "9999-12-31 23:59:59"
  },
  {
    "4HqhTf3a": "2181",
    "kixHbe54": "48300",
    "wgV86x1q": "1",
    "HTVh8a65": "70000",
    "75YV2q1i": "47900:1,47901:1,47902:1,10630:1",
    "7dEB1Kwj": "",
    "H6k1LIxC": "1",
    "XuJL4pc5": "14070010",
    "qA7M9EjP": "0000-00-00 00:00:00",
    "SzV0Nps7": "9999-12-31 23:59:59"
  },
  {
    "4HqhTf3a": "2182",
    "kixHbe54": "47903",
    "wgV86x1q": "1",
    "HTVh8a65": "60000",
    "75YV2q1i": "30402:1,30108:1,10509:10,10809:10,10909:5",
    "7dEB1Kwj": "",
    "H6k1LIxC": "-1",
    "XuJL4pc5": "14060040",
    "qA7M9EjP": "0000-00-00 00:00:00",
    "SzV0Nps7": "9999-12-31 23:59:59"
  },
  {
    "4HqhTf3a": "2183",
    "kixHbe54": "47904",
    "wgV86x1q": "1",
    "HTVh8a65": "60000",
    "75YV2q1i": "30208:1,32200:2,11017:10,10409:10,10820:5",
    "7dEB1Kwj": "",
    "H6k1LIxC": "-1",
    "XuJL4pc5": "14060050",
    "qA7M9EjP": "0000-00-00 00:00:00",
    "SzV0Nps7": "9999-12-31 23:59:59"
  },
  {
    "4HqhTf3a": "2184",
    "kixHbe54": "47905",
    "wgV86x1q": "1",
    "HTVh8a65": "60000",
    "75YV2q1i": "44100:1,31301:1,10611:10,10110:10,10732:5",
    "7dEB1Kwj": "",
    "H6k1LIxC": "-1",
    "XuJL4pc5": "14060060",
    "qA7M9EjP": "0000-00-00 00:00:00",
    "SzV0Nps7": "9999-12-31 23:59:59"
  },
  {
    "4HqhTf3a": "2185",
    "kixHbe54": "48301",
    "wgV86x1q": "1",
    "HTVh8a65": "75000",
    "75YV2q1i": "47903:1,47904:1,47905:1,10631:1",
    "7dEB1Kwj": "",
    "H6k1LIxC": "1",
    "XuJL4pc5": "14070020",
    "qA7M9EjP": "0000-00-00 00:00:00",
    "SzV0Nps7": "9999-12-31 23:59:59"
  },
  {
    "4HqhTf3a": "2186",
    "kixHbe54": "47906",
    "wgV86x1q": "1",
    "HTVh8a65": "70000",
    "75YV2q1i": "34805:2,41700:2,10625:10,11023:10,10518:5",
    "7dEB1Kwj": "",
    "H6k1LIxC": "-1",
    "XuJL4pc5": "14060070",
    "qA7M9EjP": "0000-00-00 00:00:00",
    "SzV0Nps7": "9999-12-31 23:59:59"
  },
  {
    "4HqhTf3a": "2187",
    "kixHbe54": "47907",
    "wgV86x1q": "1",
    "HTVh8a65": "70000",
    "75YV2q1i": "30005:2,34805:2,11024:10,10907:10,10422:5",
    "7dEB1Kwj": "",
    "H6k1LIxC": "-1",
    "XuJL4pc5": "14060080",
    "qA7M9EjP": "0000-00-00 00:00:00",
    "SzV0Nps7": "9999-12-31 23:59:59"
  },
  {
    "4HqhTf3a": "2188",
    "kixHbe54": "47908",
    "wgV86x1q": "1",
    "HTVh8a65": "70000",
    "75YV2q1i": "30305:2,31002:1,11025:10,10626:10,10117:5",
    "7dEB1Kwj": "",
    "H6k1LIxC": "-1",
    "XuJL4pc5": "14060090",
    "qA7M9EjP": "0000-00-00 00:00:00",
    "SzV0Nps7": "9999-12-31 23:59:59"
  },
  {
    "4HqhTf3a": "2189",
    "kixHbe54": "48302",
    "wgV86x1q": "1",
    "HTVh8a65": "90000",
    "75YV2q1i": "47906:1,47907:1,47908:1,10634:1",
    "7dEB1Kwj": "",
    "H6k1LIxC": "1",
    "XuJL4pc5": "14070030",
    "qA7M9EjP": "0000-00-00 00:00:00",
    "SzV0Nps7": "9999-12-31 23:59:59"
  },
  {
    "4HqhTf3a": "2190",
    "kixHbe54": "62000",
    "wgV86x1q": "1",
    "HTVh8a65": "150000",
    "75YV2q1i": "40800:1,40605:1,36400:1",
    "7dEB1Kwj": "",
    "H6k1LIxC": "-1",
    "XuJL4pc5": "1171010",
    "qA7M9EjP": "0000-00-00 00:00:00",
    "SzV0Nps7": "9999-12-31 23:59:59"
  },
  {
    "4HqhTf3a": "2191",
    "kixHbe54": "62010",
    "wgV86x1q": "1",
    "HTVh8a65": "150000",
    "75YV2q1i": "43000:1,47903:1,47904:1,49800:1",
    "7dEB1Kwj": "",
    "H6k1LIxC": "-1",
    "XuJL4pc5": "10060010",
    "qA7M9EjP": "0000-00-00 00:00:00",
    "SzV0Nps7": "9999-12-31 23:59:59"
  },
  {
    "4HqhTf3a": "2192",
    "kixHbe54": "62030",
    "wgV86x1q": "1",
    "HTVh8a65": "150000",
    "75YV2q1i": "46900:1,41000:1,39500:1,40000:1",
    "7dEB1Kwj": "",
    "H6k1LIxC": "-1",
    "XuJL4pc5": "6120010",
    "qA7M9EjP": "0000-00-00 00:00:00",
    "SzV0Nps7": "9999-12-31 23:59:59"
  },
  {
    "4HqhTf3a": "2193",
    "kixHbe54": "62020",
    "wgV86x1q": "1",
    "HTVh8a65": "150000",
    "75YV2q1i": "46600:1,47601:1",
    "7dEB1Kwj": "",
    "H6k1LIxC": "-1",
    "XuJL4pc5": "3014010",
    "qA7M9EjP": "0000-00-00 00:00:00",
    "SzV0Nps7": "9999-12-31 23:59:59"
  },
  {
    "4HqhTf3a": "2194",
    "kixHbe54": "62070",
    "wgV86x1q": "1",
    "HTVh8a65": "150000",
    "75YV2q1i": "42800:1,32200:1,39002:1",
    "7dEB1Kwj": "",
    "H6k1LIxC": "-1",
    "XuJL4pc5": "1142010",
    "qA7M9EjP": "0000-00-00 00:00:00",
    "SzV0Nps7": "9999-12-31 23:59:59"
  },
  {
    "4HqhTf3a": "2195",
    "kixHbe54": "62060",
    "wgV86x1q": "1",
    "HTVh8a65": "150000",
    "75YV2q1i": "42600:1,41200:1,35202:1",
    "7dEB1Kwj": "",
    "H6k1LIxC": "-1",
    "XuJL4pc5": "6121010",
    "qA7M9EjP": "0000-00-00 00:00:00",
    "SzV0Nps7": "9999-12-31 23:59:59"
  },
  {
    "4HqhTf3a": "2196",
    "kixHbe54": "62050",
    "wgV86x1q": "1",
    "HTVh8a65": "150000",
    "75YV2q1i": "46800:1,60300:1",
    "7dEB1Kwj": "",
    "H6k1LIxC": "-1",
    "XuJL4pc5": "10061010",
    "qA7M9EjP": "0000-00-00 00:00:00",
    "SzV0Nps7": "9999-12-31 23:59:59"
  },
  {
    "4HqhTf3a": "2197",
    "kixHbe54": "62040",
    "wgV86x1q": "1",
    "HTVh8a65": "150000",
    "75YV2q1i": "46300:1,40000:1,35002:1,40200:1,35000:1",
    "7dEB1Kwj": "",
    "H6k1LIxC": "-1",
    "XuJL4pc5": "6122010",
    "qA7M9EjP": "0000-00-00 00:00:00",
    "SzV0Nps7": "9999-12-31 23:59:59"
  },
  {
    "4HqhTf3a": "2198",
    "kixHbe54": "62120",
    "wgV86x1q": "1",
    "HTVh8a65": "150000",
    "75YV2q1i": "42100:1,42700:1,36100:1,47904:1",
    "7dEB1Kwj": "",
    "H6k1LIxC": "-1",
    "XuJL4pc5": "6123010",
    "qA7M9EjP": "0000-00-00 00:00:00",
    "SzV0Nps7": "9999-12-31 23:59:59"
  },
  {
    "4HqhTf3a": "2199",
    "kixHbe54": "62110",
    "wgV86x1q": "1",
    "HTVh8a65": "150000",
    "75YV2q1i": "46700:1,37200:1,30307:1,31101:1,39000:1",
    "7dEB1Kwj": "",
    "H6k1LIxC": "-1",
    "XuJL4pc5": "11012010",
    "qA7M9EjP": "0000-00-00 00:00:00",
    "SzV0Nps7": "9999-12-31 23:59:59"
  },
  {
    "4HqhTf3a": "2200",
    "kixHbe54": "62100",
    "wgV86x1q": "1",
    "HTVh8a65": "150000",
    "75YV2q1i": "46100:1,45500:1,40300:1",
    "7dEB1Kwj": "",
    "H6k1LIxC": "-1",
    "XuJL4pc5": "5061010",
    "qA7M9EjP": "0000-00-00 00:00:00",
    "SzV0Nps7": "9999-12-31 23:59:59"
  },
  {
    "4HqhTf3a": "2201",
    "kixHbe54": "62090",
    "wgV86x1q": "1",
    "HTVh8a65": "150000",
    "75YV2q1i": "46400:1,44501:1,45600:1",
    "7dEB1Kwj": "",
    "H6k1LIxC": "-1",
    "XuJL4pc5": "10062010",
    "qA7M9EjP": "0000-00-00 00:00:00",
    "SzV0Nps7": "9999-12-31 23:59:59"
  },
  {
    "4HqhTf3a": "2202",
    "kixHbe54": "62160",
    "wgV86x1q": "1",
    "HTVh8a65": "150000",
    "75YV2q1i": "41300:1,36200:1,31300:1,31500:1",
    "7dEB1Kwj": "",
    "H6k1LIxC": "-1",
    "XuJL4pc5": "1120040",
    "qA7M9EjP": "0000-00-00 00:00:00",
    "SzV0Nps7": "9999-12-31 23:59:59"
  },
  {
    "4HqhTf3a": "2203",
    "kixHbe54": "62150",
    "wgV86x1q": "1",
    "HTVh8a65": "150000",
    "75YV2q1i": "42200:1,42000:1,47903:1,30105:1,30103:1",
    "7dEB1Kwj": "",
    "H6k1LIxC": "-1",
    "XuJL4pc5": "10061020",
    "qA7M9EjP": "0000-00-00 00:00:00",
    "SzV0Nps7": "9999-12-31 23:59:59"
  },
  {
    "4HqhTf3a": "2204",
    "kixHbe54": "62140",
    "wgV86x1q": "1",
    "HTVh8a65": "150000",
    "75YV2q1i": "46500:1,44600:1,41600:1,33501:1,34900:1",
    "7dEB1Kwj": "",
    "H6k1LIxC": "-1",
    "XuJL4pc5": "4010040",
    "qA7M9EjP": "0000-00-00 00:00:00",
    "SzV0Nps7": "9999-12-31 23:59:59"
  },
  {
    "4HqhTf3a": "2205",
    "kixHbe54": "62130",
    "wgV86x1q": "1",
    "HTVh8a65": "150000",
    "75YV2q1i": "46000:1,35600:1,11042:3,11045:3",
    "7dEB1Kwj": "",
    "H6k1LIxC": "-1",
    "XuJL4pc5": "2013010",
    "qA7M9EjP": "0000-00-00 00:00:00",
    "SzV0Nps7": "9999-12-31 23:59:59"
  },
  {
    "4HqhTf3a": "5000",
    "kixHbe54": "70300",
    "wgV86x1q": "1",
    "HTVh8a65": "0",
    "75YV2q1i": "11016:1,20000:1,10206:1",
    "7dEB1Kwj": "",
    "H6k1LIxC": "-1",
    "XuJL4pc5": "70300",
    "qA7M9EjP": "0000-00-00 00:00:00",
    "SzV0Nps7": "9999-12-31 23:59:59"
  },
  {
    "4HqhTf3a": "5001",
    "kixHbe54": "70400",
    "wgV86x1q": "1",
    "HTVh8a65": "0",
    "75YV2q1i": "11016:1,20400:1,10206:1",
    "7dEB1Kwj": "",
    "H6k1LIxC": "-1",
    "XuJL4pc5": "70400",
    "qA7M9EjP": "0000-00-00 00:00:00",
    "SzV0Nps7": "9999-12-31 23:59:59"
  },
  {
    "4HqhTf3a": "5002",
    "kixHbe54": "70500",
    "wgV86x1q": "1",
    "HTVh8a65": "0",
    "75YV2q1i": "11016:1,20600:1,10206:1",
    "7dEB1Kwj": "",
    "H6k1LIxC": "-1",
    "XuJL4pc5": "70500",
    "qA7M9EjP": "0000-00-00 00:00:00",
    "SzV0Nps7": "9999-12-31 23:59:59"
  },
  {
    "4HqhTf3a": "5003",
    "kixHbe54": "70600",
    "wgV86x1q": "1",
    "HTVh8a65": "0",
    "75YV2q1i": "11016:1,10610:1,10004:1",
    "7dEB1Kwj": "",
    "H6k1LIxC": "-1",
    "XuJL4pc5": "70600",
    "qA7M9EjP": "0000-00-00 00:00:00",
    "SzV0Nps7": "9999-12-31 23:59:59"
  },
  {
    "4HqhTf3a": "10000",
    "kixHbe54": "38400",
    "wgV86x1q": "1",
    "HTVh8a65": "10000",
    "75YV2q1i": "30302:1,30002:1,10717:10",
    "7dEB1Kwj": "",
    "H6k1LIxC": "-1",
    "XuJL4pc5": "1050010",
    "qA7M9EjP": "0000-00-00 00:00:00",
    "SzV0Nps7": "9999-12-31 23:59:59"
  },
  {
    "4HqhTf3a": "10001",
    "kixHbe54": "38500",
    "wgV86x1q": "1",
    "HTVh8a65": "10000",
    "75YV2q1i": "30102:1,30202:1,10718:10",
    "7dEB1Kwj": "",
    "H6k1LIxC": "-1",
    "XuJL4pc5": "1060010",
    "qA7M9EjP": "0000-00-00 00:00:00",
    "SzV0Nps7": "9999-12-31 23:59:59"
  },
  {
    "4HqhTf3a": "10002",
    "kixHbe54": "38600",
    "wgV86x1q": "1",
    "HTVh8a65": "15000",
    "75YV2q1i": "10717:8,10718:8,10209:8,10715:10",
    "7dEB1Kwj": "10717",
    "H6k1LIxC": "-1",
    "XuJL4pc5": "1160010",
    "qA7M9EjP": "0000-00-00 00:00:00",
    "SzV0Nps7": "9999-12-31 23:59:59"
  },
  {
    "4HqhTf3a": "10003",
    "kixHbe54": "38800",
    "wgV86x1q": "1",
    "HTVh8a65": "10000",
    "75YV2q1i": "31600:1,31800:1,32000:1,10718:5,10209:5",
    "7dEB1Kwj": "10209",
    "H6k1LIxC": "-1",
    "XuJL4pc5": "9070010",
    "qA7M9EjP": "0000-00-00 00:00:00",
    "SzV0Nps7": "9999-12-31 23:59:59"
  },
  {
    "4HqhTf3a": "10004",
    "kixHbe54": "38900",
    "wgV86x1q": "1",
    "HTVh8a65": "10000",
    "75YV2q1i": "31700:1,31900:1,32100:1,10717:5,10209:5",
    "7dEB1Kwj": "10209",
    "H6k1LIxC": "-1",
    "XuJL4pc5": "9070020",
    "qA7M9EjP": "0000-00-00 00:00:00",
    "SzV0Nps7": "9999-12-31 23:59:59"
  },
  {
    "4HqhTf3a": "10005",
    "kixHbe54": "39200",
    "wgV86x1q": "1",
    "HTVh8a65": "10000",
    "75YV2q1i": "33800:2,10718:5,10715:10",
    "7dEB1Kwj": "",
    "H6k1LIxC": "-1",
    "XuJL4pc5": "7050010",
    "qA7M9EjP": "0000-00-00 00:00:00",
    "SzV0Nps7": "9999-12-31 23:59:59"
  },
  {
    "4HqhTf3a": "10006",
    "kixHbe54": "39300",
    "wgV86x1q": "1",
    "HTVh8a65": "10000",
    "75YV2q1i": "33700:2,10717:5,10715:10",
    "7dEB1Kwj": "",
    "H6k1LIxC": "-1",
    "XuJL4pc5": "6060010",
    "qA7M9EjP": "0000-00-00 00:00:00",
    "SzV0Nps7": "9999-12-31 23:59:59"
  },
  {
    "4HqhTf3a": "10007",
    "kixHbe54": "35202",
    "wgV86x1q": "1",
    "HTVh8a65": "30000",
    "75YV2q1i": "38600:1,38400:1,38500:1,10209:10",
    "7dEB1Kwj": "",
    "H6k1LIxC": "-1",
    "XuJL4pc5": "1160020",
    "qA7M9EjP": "0000-00-00 00:00:00",
    "SzV0Nps7": "9999-12-31 23:59:59"
  },
  {
    "4HqhTf3a": "10008",
    "kixHbe54": "39400",
    "wgV86x1q": "1",
    "HTVh8a65": "20000",
    "75YV2q1i": "10511:10,10413:10,10210:10,10811:10,10716:15",
    "7dEB1Kwj": "10511",
    "H6k1LIxC": "-1",
    "XuJL4pc5": "6030010",
    "qA7M9EjP": "0000-00-00 00:00:00",
    "SzV0Nps7": "9999-12-31 23:59:59"
  },
  {
    "4HqhTf3a": "10009",
    "kixHbe54": "38401",
    "wgV86x1q": "1",
    "HTVh8a65": "15000",
    "75YV2q1i": "30303:1,30003:1,10511:10,10811:10,11019:8",
    "7dEB1Kwj": "11019",
    "H6k1LIxC": "-1",
    "XuJL4pc5": "1050020",
    "qA7M9EjP": "0000-00-00 00:00:00",
    "SzV0Nps7": "9999-12-31 23:59:59"
  },
  {
    "4HqhTf3a": "10010",
    "kixHbe54": "38501",
    "wgV86x1q": "1",
    "HTVh8a65": "15000",
    "75YV2q1i": "30103:1,30203:1,10413:10,10210:10,10207:8",
    "7dEB1Kwj": "10207",
    "H6k1LIxC": "-1",
    "XuJL4pc5": "1060020",
    "qA7M9EjP": "0000-00-00 00:00:00",
    "SzV0Nps7": "9999-12-31 23:59:59"
  },
  {
    "4HqhTf3a": "10011",
    "kixHbe54": "38801",
    "wgV86x1q": "1",
    "HTVh8a65": "15000",
    "75YV2q1i": "38800:1,31601:1,31801:1,32001:1,10207:10",
    "7dEB1Kwj": "38800",
    "H6k1LIxC": "-1",
    "XuJL4pc5": "9070110",
    "qA7M9EjP": "0000-00-00 00:00:00",
    "SzV0Nps7": "9999-12-31 23:59:59"
  },
  {
    "4HqhTf3a": "10012",
    "kixHbe54": "38901",
    "wgV86x1q": "1",
    "HTVh8a65": "15000",
    "75YV2q1i": "38900:1,31701:1,31901:1,32101:1,10410:10",
    "7dEB1Kwj": "38900",
    "H6k1LIxC": "-1",
    "XuJL4pc5": "9070120",
    "qA7M9EjP": "0000-00-00 00:00:00",
    "SzV0Nps7": "9999-12-31 23:59:59"
  },
  {
    "4HqhTf3a": "10013",
    "kixHbe54": "39100",
    "wgV86x1q": "1",
    "HTVh8a65": "20000",
    "75YV2q1i": "32200:1,10208:1,10712:1,10716:15",
    "7dEB1Kwj": "10716",
    "H6k1LIxC": "-1",
    "XuJL4pc5": "10040010",
    "qA7M9EjP": "0000-00-00 00:00:00",
    "SzV0Nps7": "9999-12-31 23:59:59"
  },
  {
    "4HqhTf3a": "10014",
    "kixHbe54": "39201",
    "wgV86x1q": "1",
    "HTVh8a65": "18000",
    "75YV2q1i": "39200:2,34804:1,10207:10,10410:10,10716:10",
    "7dEB1Kwj": "10410",
    "H6k1LIxC": "-1",
    "XuJL4pc5": "7050020",
    "qA7M9EjP": "0000-00-00 00:00:00",
    "SzV0Nps7": "9999-12-31 23:59:59"
  },
  {
    "4HqhTf3a": "10015",
    "kixHbe54": "39600",
    "wgV86x1q": "1",
    "HTVh8a65": "20000",
    "75YV2q1i": "33001:1,39200:1,10617:10,10310:2,10207:8",
    "7dEB1Kwj": "10617",
    "H6k1LIxC": "-1",
    "XuJL4pc5": "7030110",
    "qA7M9EjP": "0000-00-00 00:00:00",
    "SzV0Nps7": "9999-12-31 23:59:59"
  },
  {
    "4HqhTf3a": "10016",
    "kixHbe54": "39700",
    "wgV86x1q": "1",
    "HTVh8a65": "20000",
    "75YV2q1i": "33400:1,39300:1,10618:10,10311:2,11019:8",
    "7dEB1Kwj": "10618",
    "H6k1LIxC": "-1",
    "XuJL4pc5": "6020020",
    "qA7M9EjP": "0000-00-00 00:00:00",
    "SzV0Nps7": "9999-12-31 23:59:59"
  },
  {
    "4HqhTf3a": "10017",
    "kixHbe54": "35800",
    "wgV86x1q": "1",
    "HTVh8a65": "40000",
    "75YV2q1i": "35202:2,38401:1,38501:1,10208:3,10712:3",
    "7dEB1Kwj": "10712",
    "H6k1LIxC": "-1",
    "XuJL4pc5": "1160030",
    "qA7M9EjP": "0000-00-00 00:00:00",
    "SzV0Nps7": "9999-12-31 23:59:59"
  },
  {
    "4HqhTf3a": "10018",
    "kixHbe54": "38402",
    "wgV86x1q": "1",
    "HTVh8a65": "20000",
    "75YV2q1i": "30304:1,30004:1,10713:15,10612:15,10613:2",
    "7dEB1Kwj": "10612",
    "H6k1LIxC": "-1",
    "XuJL4pc5": "1050030",
    "qA7M9EjP": "0000-00-00 00:00:00",
    "SzV0Nps7": "9999-12-31 23:59:59"
  },
  {
    "4HqhTf3a": "10019",
    "kixHbe54": "38502",
    "wgV86x1q": "1",
    "HTVh8a65": "20000",
    "75YV2q1i": "30104:1,30204:1,10714:15,10812:15,10614:2",
    "7dEB1Kwj": "10812",
    "H6k1LIxC": "-1",
    "XuJL4pc5": "1060030",
    "qA7M9EjP": "0000-00-00 00:00:00",
    "SzV0Nps7": "9999-12-31 23:59:59"
  },
  {
    "4HqhTf3a": "10020",
    "kixHbe54": "38700",
    "wgV86x1q": "1",
    "HTVh8a65": "40000",
    "75YV2q1i": "37900:1,10619:15,10620:10,10621:3,10622:1",
    "7dEB1Kwj": "10619",
    "H6k1LIxC": "-1",
    "XuJL4pc5": "1100020",
    "qA7M9EjP": "0000-00-00 00:00:00",
    "SzV0Nps7": "9999-12-31 23:59:59"
  },
  {
    "4HqhTf3a": "10021",
    "kixHbe54": "39000",
    "wgV86x1q": "1",
    "HTVh8a65": "30000",
    "75YV2q1i": "38801:1,38901:1,10612:10,10812:10,10716:15",
    "7dEB1Kwj": "10812",
    "H6k1LIxC": "-1",
    "XuJL4pc5": "9080010",
    "qA7M9EjP": "0000-00-00 00:00:00",
    "SzV0Nps7": "9999-12-31 23:59:59"
  },
  {
    "4HqhTf3a": "10022",
    "kixHbe54": "39001",
    "wgV86x1q": "1",
    "HTVh8a65": "50000",
    "75YV2q1i": "39000:1,10713:15,10714:15,10615:1,10616:1",
    "7dEB1Kwj": "39000",
    "H6k1LIxC": "-1",
    "XuJL4pc5": "9080020",
    "qA7M9EjP": "0000-00-00 00:00:00",
    "SzV0Nps7": "9999-12-31 23:59:59"
  },
  {
    "4HqhTf3a": "10023",
    "kixHbe54": "39900",
    "wgV86x1q": "1",
    "HTVh8a65": "60000",
    "75YV2q1i": "39600:1,10414:15,11020:1,10620:10,10621:3",
    "7dEB1Kwj": "10414",
    "H6k1LIxC": "-1",
    "XuJL4pc5": "7060110",
    "qA7M9EjP": "0000-00-00 00:00:00",
    "SzV0Nps7": "9999-12-31 23:59:59"
  },
  {
    "4HqhTf3a": "10024",
    "kixHbe54": "39800",
    "wgV86x1q": "1",
    "HTVh8a65": "60000",
    "75YV2q1i": "39700:1,10415:15,11021:1,10619:10,10621:3",
    "7dEB1Kwj": "10415",
    "H6k1LIxC": "-1",
    "XuJL4pc5": "6050110",
    "qA7M9EjP": "0000-00-00 00:00:00",
    "SzV0Nps7": "9999-12-31 23:59:59"
  },
  {
    "4HqhTf3a": "10025",
    "kixHbe54": "37400",
    "wgV86x1q": "1",
    "HTVh8a65": "60000",
    "75YV2q1i": "35800:1,38402:1,38502:1,10621:2,10622:1",
    "7dEB1Kwj": "10621",
    "H6k1LIxC": "-1",
    "XuJL4pc5": "1160040",
    "qA7M9EjP": "0000-00-00 00:00:00",
    "SzV0Nps7": "9999-12-31 23:59:59"
  },
  {
    "4HqhTf3a": "10026",
    "kixHbe54": "38403",
    "wgV86x1q": "1",
    "HTVh8a65": "30000",
    "75YV2q1i": "30305:1,30005:1,10411:15,10615:1,10613:1",
    "7dEB1Kwj": "10411",
    "H6k1LIxC": "-1",
    "XuJL4pc5": "1050040",
    "qA7M9EjP": "0000-00-00 00:00:00",
    "SzV0Nps7": "9999-12-31 23:59:59"
  },
  {
    "4HqhTf3a": "10027",
    "kixHbe54": "38503",
    "wgV86x1q": "1",
    "HTVh8a65": "30000",
    "75YV2q1i": "30105:1,30205:1,10412:15,10616:1,10614:1",
    "7dEB1Kwj": "10412",
    "H6k1LIxC": "-1",
    "XuJL4pc5": "1060040",
    "qA7M9EjP": "0000-00-00 00:00:00",
    "SzV0Nps7": "9999-12-31 23:59:59"
  },
  {
    "4HqhTf3a": "10028",
    "kixHbe54": "38601",
    "wgV86x1q": "1",
    "HTVh8a65": "70000",
    "75YV2q1i": "37400:1,38403:1,38503:1,10623:3,10624:1",
    "7dEB1Kwj": "10623",
    "H6k1LIxC": "-1",
    "XuJL4pc5": "1160050",
    "qA7M9EjP": "0000-00-00 00:00:00",
    "SzV0Nps7": "9999-12-31 23:59:59"
  },
  {
    "4HqhTf3a": "10029",
    "kixHbe54": "44400",
    "wgV86x1q": "1",
    "HTVh8a65": "75000",
    "75YV2q1i": "39900:1,10817:10,11026:1,11020:4,10114:3",
    "7dEB1Kwj": "10817",
    "H6k1LIxC": "-1",
    "XuJL4pc5": "7060120",
    "qA7M9EjP": "0000-00-00 00:00:00",
    "SzV0Nps7": "9999-12-31 23:59:59"
  },
  {
    "4HqhTf3a": "10030",
    "kixHbe54": "44300",
    "wgV86x1q": "1",
    "HTVh8a65": "75000",
    "75YV2q1i": "39800:1,10818:10,11027:1,11021:4,10114:3",
    "7dEB1Kwj": "10818",
    "H6k1LIxC": "-1",
    "XuJL4pc5": "6050210",
    "qA7M9EjP": "0000-00-00 00:00:00",
    "SzV0Nps7": "9999-12-31 23:59:59"
  },
  {
    "4HqhTf3a": "10031",
    "kixHbe54": "44500",
    "wgV86x1q": "1",
    "HTVh8a65": "60000",
    "75YV2q1i": "44100:1,38001:1,10723:15,10418:10,11028:4",
    "7dEB1Kwj": "10723",
    "H6k1LIxC": "-1",
    "XuJL4pc5": "10030020",
    "qA7M9EjP": "0000-00-00 00:00:00",
    "SzV0Nps7": "9999-12-31 23:59:59"
  },
  {
    "4HqhTf3a": "10032",
    "kixHbe54": "44600",
    "wgV86x1q": "1",
    "HTVh8a65": "60000",
    "75YV2q1i": "10113:15,10312:10,10114:4,11029:2",
    "7dEB1Kwj": "10113",
    "H6k1LIxC": "-1",
    "XuJL4pc5": "4010010",
    "qA7M9EjP": "0000-00-00 00:00:00",
    "SzV0Nps7": "9999-12-31 23:59:59"
  },
  {
    "4HqhTf3a": "10033",
    "kixHbe54": "38404",
    "wgV86x1q": "1",
    "HTVh8a65": "35000",
    "75YV2q1i": "30306:1,30006:1,10516:15,10724:4,10515:10",
    "7dEB1Kwj": "10516",
    "H6k1LIxC": "-1",
    "XuJL4pc5": "1050050",
    "qA7M9EjP": "0000-00-00 00:00:00",
    "SzV0Nps7": "9999-12-31 23:59:59"
  },
  {
    "4HqhTf3a": "10034",
    "kixHbe54": "38504",
    "wgV86x1q": "1",
    "HTVh8a65": "35000",
    "75YV2q1i": "30106:1,30206:1,10419:15,10622:4,10515:10",
    "7dEB1Kwj": "10419",
    "H6k1LIxC": "-1",
    "XuJL4pc5": "1060050",
    "qA7M9EjP": "0000-00-00 00:00:00",
    "SzV0Nps7": "9999-12-31 23:59:59"
  },
  {
    "4HqhTf3a": "10035",
    "kixHbe54": "42300",
    "wgV86x1q": "1",
    "HTVh8a65": "80000",
    "75YV2q1i": "38601:1,38404:1,38504:1,11030:2,10627:2",
    "7dEB1Kwj": "11030",
    "H6k1LIxC": "-1",
    "XuJL4pc5": "1160060",
    "qA7M9EjP": "0000-00-00 00:00:00",
    "SzV0Nps7": "9999-12-31 23:59:59"
  },
  {
    "4HqhTf3a": "10036",
    "kixHbe54": "38802",
    "wgV86x1q": "1",
    "HTVh8a65": "35000",
    "75YV2q1i": "38801:1,31602:1,31802:1,32002:1,10420:15",
    "7dEB1Kwj": "10420",
    "H6k1LIxC": "-1",
    "XuJL4pc5": "9070210",
    "qA7M9EjP": "0000-00-00 00:00:00",
    "SzV0Nps7": "9999-12-31 23:59:59"
  },
  {
    "4HqhTf3a": "10037",
    "kixHbe54": "38902",
    "wgV86x1q": "1",
    "HTVh8a65": "35000",
    "75YV2q1i": "38901:1,31702:1,31902:1,32102:1,10725:15",
    "7dEB1Kwj": "10725",
    "H6k1LIxC": "-1",
    "XuJL4pc5": "9070220",
    "qA7M9EjP": "0000-00-00 00:00:00",
    "SzV0Nps7": "9999-12-31 23:59:59"
  },
  {
    "4HqhTf3a": "10038",
    "kixHbe54": "45400",
    "wgV86x1q": "1",
    "HTVh8a65": "75000",
    "75YV2q1i": "44200:1,34803:2,34804:2,11031:3,10629:3",
    "7dEB1Kwj": "10629",
    "H6k1LIxC": "-1",
    "XuJL4pc5": "5060010",
    "qA7M9EjP": "0000-00-00 00:00:00",
    "SzV0Nps7": "9999-12-31 23:59:59"
  },
  {
    "4HqhTf3a": "10039",
    "kixHbe54": "39002",
    "wgV86x1q": "1",
    "HTVh8a65": "60000",
    "75YV2q1i": "39001:1,38802:1,38902:1,10628:3,10726:20",
    "7dEB1Kwj": "10726",
    "H6k1LIxC": "-1",
    "XuJL4pc5": "9080030",
    "qA7M9EjP": "0000-00-00 00:00:00",
    "SzV0Nps7": "9999-12-31 23:59:59"
  },
  {
    "4HqhTf3a": "10040",
    "kixHbe54": "45500",
    "wgV86x1q": "1",
    "HTVh8a65": "60000",
    "75YV2q1i": "39201:1,39300:2,10819:15,11032:2,11033:3",
    "7dEB1Kwj": "10819",
    "H6k1LIxC": "-1",
    "XuJL4pc5": "6060110",
    "qA7M9EjP": "0000-00-00 00:00:00",
    "SzV0Nps7": "9999-12-31 23:59:59"
  },
  {
    "4HqhTf3a": "10041",
    "kixHbe54": "45600",
    "wgV86x1q": "1",
    "HTVh8a65": "40000",
    "75YV2q1i": "39100:2,10727:15,11032:2,10728:3",
    "7dEB1Kwj": "10727",
    "H6k1LIxC": "-1",
    "XuJL4pc5": "10040020",
    "qA7M9EjP": "0000-00-00 00:00:00",
    "SzV0Nps7": "9999-12-31 23:59:59"
  },
  {
    "4HqhTf3a": "10042",
    "kixHbe54": "38405",
    "wgV86x1q": "1",
    "HTVh8a65": "40000",
    "75YV2q1i": "30307:1,30007:1,11029:2,11028:2,10005:15",
    "7dEB1Kwj": "10005",
    "H6k1LIxC": "-1",
    "XuJL4pc5": "1050060",
    "qA7M9EjP": "0000-00-00 00:00:00",
    "SzV0Nps7": "9999-12-31 23:59:59"
  },
  {
    "4HqhTf3a": "10043",
    "kixHbe54": "38505",
    "wgV86x1q": "1",
    "HTVh8a65": "40000",
    "75YV2q1i": "30107:1,30207:1,11029:2,10628:2,10005:15",
    "7dEB1Kwj": "10005",
    "H6k1LIxC": "-1",
    "XuJL4pc5": "1060060",
    "qA7M9EjP": "0000-00-00 00:00:00",
    "SzV0Nps7": "9999-12-31 23:59:59"
  },
  {
    "4HqhTf3a": "10044",
    "kixHbe54": "38701",
    "wgV86x1q": "1",
    "HTVh8a65": "50000",
    "75YV2q1i": "38700:1,10729:20,10627:2,10006:4,10115:2",
    "7dEB1Kwj": "10729",
    "H6k1LIxC": "-1",
    "XuJL4pc5": "1100030",
    "qA7M9EjP": "0000-00-00 00:00:00",
    "SzV0Nps7": "9999-12-31 23:59:59"
  },
  {
    "4HqhTf3a": "10045",
    "kixHbe54": "44501",
    "wgV86x1q": "1",
    "HTVh8a65": "75000",
    "75YV2q1i": "44500:1,38001:1,10730:15,10006:2,10728:2",
    "7dEB1Kwj": "10730",
    "H6k1LIxC": "-1",
    "XuJL4pc5": "10030030",
    "qA7M9EjP": "0000-00-00 00:00:00",
    "SzV0Nps7": "9999-12-31 23:59:59"
  },
  {
    "4HqhTf3a": "10046",
    "kixHbe54": "47600",
    "wgV86x1q": "1",
    "HTVh8a65": "75000",
    "75YV2q1i": "44600:1,34805:2,11035:15,10006:2,10115:2",
    "7dEB1Kwj": "11035",
    "H6k1LIxC": "-1",
    "XuJL4pc5": "4010020",
    "qA7M9EjP": "0000-00-00 00:00:00",
    "SzV0Nps7": "9999-12-31 23:59:59"
  },
  {
    "4HqhTf3a": "10047",
    "kixHbe54": "47700",
    "wgV86x1q": "1",
    "HTVh8a65": "90000",
    "75YV2q1i": "44400:1,44300:1,11034:2,10730:15,11035:15",
    "7dEB1Kwj": "11034",
    "H6k1LIxC": "-1",
    "XuJL4pc5": "6050310",
    "qA7M9EjP": "0000-00-00 00:00:00",
    "SzV0Nps7": "9999-12-31 23:59:59"
  },
  {
    "4HqhTf3a": "10048",
    "kixHbe54": "46200",
    "wgV86x1q": "1",
    "HTVh8a65": "90000",
    "75YV2q1i": "42300:1,38405:1,38505:1,11036:2,11032:2",
    "7dEB1Kwj": "11036",
    "H6k1LIxC": "-1",
    "XuJL4pc5": "1160070",
    "qA7M9EjP": "0000-00-00 00:00:00",
    "SzV0Nps7": "9999-12-31 23:59:59"
  },
  {
    "4HqhTf3a": "10049",
    "kixHbe54": "47601",
    "wgV86x1q": "1",
    "HTVh8a65": "100000",
    "75YV2q1i": "47600:1,38700:1,11038:15,10731:2,11033:3",
    "7dEB1Kwj": "11038",
    "H6k1LIxC": "-1",
    "XuJL4pc5": "4010030",
    "qA7M9EjP": "0000-00-00 00:00:00",
    "SzV0Nps7": "9999-12-31 23:59:59"
  },
  {
    "4HqhTf3a": "10050",
    "kixHbe54": "46210",
    "wgV86x1q": "1",
    "HTVh8a65": "100000",
    "75YV2q1i": "46200:1,44400:1,11039:15,10632:2,11034:3",
    "7dEB1Kwj": "11039",
    "H6k1LIxC": "-1",
    "XuJL4pc5": "1160080",
    "qA7M9EjP": "0000-00-00 00:00:00",
    "SzV0Nps7": "9999-12-31 23:59:59"
  },
  {
    "4HqhTf3a": "10051",
    "kixHbe54": "44802",
    "wgV86x1q": "1",
    "HTVh8a65": "30000",
    "75YV2q1i": "11040:15,10633:3",
    "7dEB1Kwj": "11040",
    "H6k1LIxC": "-1",
    "XuJL4pc5": "14010051",
    "qA7M9EjP": "0000-00-00 00:00:00",
    "SzV0Nps7": "2015-09-29 14:59:59"
  },
  {
    "4HqhTf3a": "10052",
    "kixHbe54": "48900",
    "wgV86x1q": "1",
    "HTVh8a65": "100000",
    "75YV2q1i": "10116:15,10733:2,10728:3,10629:3,11036:1",
    "7dEB1Kwj": "10116",
    "H6k1LIxC": "-1",
    "XuJL4pc5": "3013000",
    "qA7M9EjP": "0000-00-00 00:00:00",
    "SzV0Nps7": "9999-12-31 23:59:59"
  },
  {
    "4HqhTf3a": "10053",
    "kixHbe54": "49700",
    "wgV86x1q": "1",
    "HTVh8a65": "100000",
    "75YV2q1i": "37700:3,11041:15,11018:2,11026:3,11031:3",
    "7dEB1Kwj": "11041",
    "H6k1LIxC": "-1",
    "XuJL4pc5": "8080010",
    "qA7M9EjP": "0000-00-00 00:00:00",
    "SzV0Nps7": "9999-12-31 23:59:59"
  },
  {
    "4HqhTf3a": "10054",
    "kixHbe54": "49800",
    "wgV86x1q": "1",
    "HTVh8a65": "100000",
    "75YV2q1i": "39100:1,47700:1,10007:15,10734:2,10628:3",
    "7dEB1Kwj": "10007",
    "H6k1LIxC": "-1",
    "XuJL4pc5": "10040030",
    "qA7M9EjP": "0000-00-00 00:00:00",
    "SzV0Nps7": "9999-12-31 23:59:59"
  },
  {
    "4HqhTf3a": "10055",
    "kixHbe54": "60200",
    "wgV86x1q": "1",
    "HTVh8a65": "100000",
    "75YV2q1i": "34805:3,10735:15,11042:2,10115:3,11030:3",
    "7dEB1Kwj": "10735",
    "H6k1LIxC": "-1",
    "XuJL4pc5": "2012010",
    "qA7M9EjP": "0000-00-00 00:00:00",
    "SzV0Nps7": "9999-12-31 23:59:59"
  },
  {
    "4HqhTf3a": "10056",
    "kixHbe54": "60300",
    "wgV86x1q": "1",
    "HTVh8a65": "100000",
    "75YV2q1i": "39002:1,41800:3,11043:15,11044:2,10627:3",
    "7dEB1Kwj": "11043",
    "H6k1LIxC": "-1",
    "XuJL4pc5": "11011010",
    "qA7M9EjP": "0000-00-00 00:00:00",
    "SzV0Nps7": "9999-12-31 23:59:59"
  },
  {
    "4HqhTf3a": "10057",
    "kixHbe54": "46220",
    "wgV86x1q": "1",
    "HTVh8a65": "100000",
    "75YV2q1i": "46200:1,38701:1,10118:15,11045:2,10624:3",
    "7dEB1Kwj": "10118",
    "H6k1LIxC": "-1",
    "XuJL4pc5": "1200040",
    "qA7M9EjP": "0000-00-00 00:00:00",
    "SzV0Nps7": "9999-12-31 23:59:59"
  },
  {
    "4HqhTf3a": "10058",
    "kixHbe54": "65020",
    "wgV86x1q": "1",
    "HTVh8a65": "30000",
    "75YV2q1i": "10822:15,11047:3",
    "7dEB1Kwj": "10822",
    "H6k1LIxC": "-1",
    "XuJL4pc5": "14010052",
    "qA7M9EjP": "2018-01-29 15:00:00",
    "SzV0Nps7": "2018-02-18 14:59:59"
  },
  {
    "4HqhTf3a": "10059",
    "kixHbe54": "65040",
    "wgV86x1q": "1",
    "HTVh8a65": "30000",
    "75YV2q1i": "10822:10,10738:3,11047:1",
    "7dEB1Kwj": "10738",
    "H6k1LIxC": "-1",
    "XuJL4pc5": "14010053",
    "qA7M9EjP": "2018-01-29 15:00:00",
    "SzV0Nps7": "2018-02-18 14:59:59"
  },
  {
    "4HqhTf3a": "100000",
    "kixHbe54": "230003",
    "wgV86x1q": "1",
    "HTVh8a65": "100000",
    "75YV2q1i": "30203:2,30303:2,10736:2,10423:2",
    "7dEB1Kwj": "",
    "H6k1LIxC": "-1",
    "XuJL4pc5": "100",
    "qA7M9EjP": "0000-00-00 00:00:00",
    "SzV0Nps7": "9999-12-31 23:59:59"
  },
  {
    "4HqhTf3a": "100003",
    "kixHbe54": "230103",
    "wgV86x1q": "1",
    "HTVh8a65": "100000",
    "75YV2q1i": "30003:2,38000:1,10736:2,10423:2",
    "7dEB1Kwj": "",
    "H6k1LIxC": "-1",
    "XuJL4pc5": "400",
    "qA7M9EjP": "0000-00-00 00:00:00",
    "SzV0Nps7": "9999-12-31 23:59:59"
  },
  {
    "4HqhTf3a": "100006",
    "kixHbe54": "230203",
    "wgV86x1q": "1",
    "HTVh8a65": "100000",
    "75YV2q1i": "30103:2,37700:1,10910:2,10821:2",
    "7dEB1Kwj": "10910",
    "H6k1LIxC": "-1",
    "XuJL4pc5": "700",
    "qA7M9EjP": "0000-00-00 00:00:00",
    "SzV0Nps7": "9999-12-31 23:59:59"
  },
  {
    "4HqhTf3a": "100009",
    "kixHbe54": "230303",
    "wgV86x1q": "1",
    "HTVh8a65": "100000",
    "75YV2q1i": "34300:1,34808:1,10910:2,10821:2",
    "7dEB1Kwj": "10910",
    "H6k1LIxC": "-1",
    "XuJL4pc5": "1000",
    "qA7M9EjP": "0000-00-00 00:00:00",
    "SzV0Nps7": "9999-12-31 23:59:59"
  },
  {
    "4HqhTf3a": "100010",
    "kixHbe54": "230004",
    "wgV86x1q": "1",
    "HTVh8a65": "150000",
    "75YV2q1i": "230003:1,35600:1,10912:10,10313:10",
    "7dEB1Kwj": "10912",
    "H6k1LIxC": "-1",
    "XuJL4pc5": "101",
    "qA7M9EjP": "0000-00-00 00:00:00",
    "SzV0Nps7": "9999-12-31 23:59:59"
  },
  {
    "4HqhTf3a": "100011",
    "kixHbe54": "230104",
    "wgV86x1q": "1",
    "HTVh8a65": "150000",
    "75YV2q1i": "230103:1,34805:2,11046:10,10911:10",
    "7dEB1Kwj": "10911",
    "H6k1LIxC": "-1",
    "XuJL4pc5": "401",
    "qA7M9EjP": "0000-00-00 00:00:00",
    "SzV0Nps7": "9999-12-31 23:59:59"
  },
  {
    "4HqhTf3a": "100012",
    "kixHbe54": "230204",
    "wgV86x1q": "1",
    "HTVh8a65": "150000",
    "75YV2q1i": "230203:1,32200:2,11046:10,10911:10",
    "7dEB1Kwj": "11046",
    "H6k1LIxC": "-1",
    "XuJL4pc5": "701",
    "qA7M9EjP": "0000-00-00 00:00:00",
    "SzV0Nps7": "9999-12-31 23:59:59"
  },
  {
    "4HqhTf3a": "100013",
    "kixHbe54": "230304",
    "wgV86x1q": "1",
    "HTVh8a65": "150000",
    "75YV2q1i": "230303:1,34803:1,34804:1,10912:10,10313:10",
    "7dEB1Kwj": "10313",
    "H6k1LIxC": "-1",
    "XuJL4pc5": "1001",
    "qA7M9EjP": "0000-00-00 00:00:00",
    "SzV0Nps7": "9999-12-31 23:59:59"
  },
  {
    "4HqhTf3a": "100014",
    "kixHbe54": "234000",
    "wgV86x1q": "1",
    "HTVh8a65": "150000",
    "75YV2q1i": "30005:2,38100:1,38200:1,10912:10,10313:10",
    "7dEB1Kwj": "10912",
    "H6k1LIxC": "-1",
    "XuJL4pc5": "1300",
    "qA7M9EjP": "0000-00-00 00:00:00",
    "SzV0Nps7": "9999-12-31 23:59:59"
  },
  {
    "4HqhTf3a": "100015",
    "kixHbe54": "235000",
    "wgV86x1q": "1",
    "HTVh8a65": "200000",
    "75YV2q1i": "30004:2,30104:2,30204:2,30304:2,10519:1",
    "7dEB1Kwj": "10519",
    "H6k1LIxC": "1",
    "XuJL4pc5": "1600",
    "qA7M9EjP": "0000-00-00 00:00:00",
    "SzV0Nps7": "9999-12-31 23:59:59"
  },
  {
    "4HqhTf3a": "100016",
    "kixHbe54": "230005",
    "wgV86x1q": "1",
    "HTVh8a65": "200000",
    "75YV2q1i": "230004:1,230304:1,41900:1,10119:5,10314:10",
    "7dEB1Kwj": "10314",
    "H6k1LIxC": "-1",
    "XuJL4pc5": "102",
    "qA7M9EjP": "0000-00-00 00:00:00",
    "SzV0Nps7": "9999-12-31 23:59:59"
  },
  {
    "4HqhTf3a": "100017",
    "kixHbe54": "230105",
    "wgV86x1q": "1",
    "HTVh8a65": "200000",
    "75YV2q1i": "230104:1,38001:1,34805:2,10314:5,10823:10",
    "7dEB1Kwj": "10823",
    "H6k1LIxC": "-1",
    "XuJL4pc5": "402",
    "qA7M9EjP": "0000-00-00 00:00:00",
    "SzV0Nps7": "9999-12-31 23:59:59"
  },
  {
    "4HqhTf3a": "100018",
    "kixHbe54": "230205",
    "wgV86x1q": "1",
    "HTVh8a65": "200000",
    "75YV2q1i": "230204:1,37700:1,30105:1,10823:5,10119:10",
    "7dEB1Kwj": "10119",
    "H6k1LIxC": "-1",
    "XuJL4pc5": "702",
    "qA7M9EjP": "0000-00-00 00:00:00",
    "SzV0Nps7": "9999-12-31 23:59:59"
  },
  {
    "4HqhTf3a": "100019",
    "kixHbe54": "236000",
    "wgV86x1q": "1",
    "HTVh8a65": "200000",
    "75YV2q1i": "44000:1,41700:1,40000:2,10424:10",
    "7dEB1Kwj": "10424",
    "H6k1LIxC": "-1",
    "XuJL4pc5": "1320",
    "qA7M9EjP": "0000-00-00 00:00:00",
    "SzV0Nps7": "9999-12-31 23:59:59"
  },
  {
    "4HqhTf3a": "100020",
    "kixHbe54": "237000",
    "wgV86x1q": "1",
    "HTVh8a65": "200000",
    "75YV2q1i": "41400:2,41401:2,41402:2,41403:2,10424:10",
    "7dEB1Kwj": "10424",
    "H6k1LIxC": "-1",
    "XuJL4pc5": "1340",
    "qA7M9EjP": "0000-00-00 00:00:00",
    "SzV0Nps7": "9999-12-31 23:59:59"
  },
  {
    "4HqhTf3a": "100021",
    "kixHbe54": "235001",
    "wgV86x1q": "1",
    "HTVh8a65": "300000",
    "75YV2q1i": "34809:2,30006:1,30402:1,39500:1,11048:1",
    "7dEB1Kwj": "11048",
    "H6k1LIxC": "1",
    "XuJL4pc5": "1602",
    "qA7M9EjP": "0000-00-00 00:00:00",
    "SzV0Nps7": "9999-12-31 23:59:59"
  },
  {
    "4HqhTf3a": "100022",
    "kixHbe54": "230006",
    "wgV86x1q": "1",
    "HTVh8a65": "250000",
    "75YV2q1i": "230005:1,30306:1,31300:1,10008:5,10913:10",
    "7dEB1Kwj": "10913",
    "H6k1LIxC": "-1",
    "XuJL4pc5": "103",
    "qA7M9EjP": "0000-00-00 00:00:00",
    "SzV0Nps7": "9999-12-31 23:59:59"
  },
  {
    "4HqhTf3a": "100023",
    "kixHbe54": "230106",
    "wgV86x1q": "1",
    "HTVh8a65": "250000",
    "75YV2q1i": "230105:1,30107:1,30401:1,10211:5,10008:10",
    "7dEB1Kwj": "10008",
    "H6k1LIxC": "-1",
    "XuJL4pc5": "403",
    "qA7M9EjP": "0000-00-00 00:00:00",
    "SzV0Nps7": "9999-12-31 23:59:59"
  },
  {
    "4HqhTf3a": "100024",
    "kixHbe54": "230206",
    "wgV86x1q": "1",
    "HTVh8a65": "250000",
    "75YV2q1i": "230205:1,30106:1,32200:1,10008:5,10211:10",
    "7dEB1Kwj": "10211",
    "H6k1LIxC": "-1",
    "XuJL4pc5": "703",
    "qA7M9EjP": "0000-00-00 00:00:00",
    "SzV0Nps7": "9999-12-31 23:59:59"
  },
  {
    "4HqhTf3a": "100025",
    "kixHbe54": "238000",
    "wgV86x1q": "1",
    "HTVh8a65": "250000",
    "75YV2q1i": "35500:2,40100:1,41404:2,41405:2,10913:10",
    "7dEB1Kwj": "10913",
    "H6k1LIxC": "-1",
    "XuJL4pc5": "1360",
    "qA7M9EjP": "0000-00-00 00:00:00",
    "SzV0Nps7": "9999-12-31 23:59:59"
  },
  {
    "4HqhTf3a": "100026",
    "kixHbe54": "239000",
    "wgV86x1q": "1",
    "HTVh8a65": "250000",
    "75YV2q1i": "31001:1,31101:1,41600:2,10211:5,10737:5",
    "7dEB1Kwj": "10737",
    "H6k1LIxC": "-1",
    "XuJL4pc5": "1380",
    "qA7M9EjP": "0000-00-00 00:00:00",
    "SzV0Nps7": "9999-12-31 23:59:59"
  },
  {
    "4HqhTf3a": "100027",
    "kixHbe54": "235002",
    "wgV86x1q": "1",
    "HTVh8a65": "350000",
    "75YV2q1i": "35501:1,47906:1,33500:2,10737:10,11049:1",
    "7dEB1Kwj": "11049",
    "H6k1LIxC": "1",
    "XuJL4pc5": "1604",
    "qA7M9EjP": "0000-00-00 00:00:00",
    "SzV0Nps7": "9999-12-31 23:59:59"
  },
  {
    "4HqhTf3a": "100028",
    "kixHbe54": "230007",
    "wgV86x1q": "1",
    "HTVh8a65": "300000",
    "75YV2q1i": "230006:1,41500:1,47902:1,10425:5,10824:10",
    "7dEB1Kwj": "10425",
    "H6k1LIxC": "-1",
    "XuJL4pc5": "104",
    "qA7M9EjP": "0000-00-00 00:00:00",
    "SzV0Nps7": "9999-12-31 23:59:59"
  },
  {
    "4HqhTf3a": "100029",
    "kixHbe54": "230107",
    "wgV86x1q": "1",
    "HTVh8a65": "300000",
    "75YV2q1i": "230106:1,43300:1,39500:1,10824:5,10520:10",
    "7dEB1Kwj": "10520",
    "H6k1LIxC": "-1",
    "XuJL4pc5": "404",
    "qA7M9EjP": "0000-00-00 00:00:00",
    "SzV0Nps7": "9999-12-31 23:59:59"
  },
  {
    "4HqhTf3a": "100030",
    "kixHbe54": "230207",
    "wgV86x1q": "1",
    "HTVh8a65": "300000",
    "75YV2q1i": "230206:1,44100:1,38001:1,10520:5,10824:10",
    "7dEB1Kwj": "10824",
    "H6k1LIxC": "-1",
    "XuJL4pc5": "704",
    "qA7M9EjP": "0000-00-00 00:00:00",
    "SzV0Nps7": "9999-12-31 23:59:59"
  },
  {
    "4HqhTf3a": "100031",
    "kixHbe54": "238001",
    "wgV86x1q": "1",
    "HTVh8a65": "300000",
    "75YV2q1i": "237000:1,238000:1,31102:1,10635:5,10425:10",
    "7dEB1Kwj": "10425",
    "H6k1LIxC": "-1",
    "XuJL4pc5": "1361",
    "qA7M9EjP": "0000-00-00 00:00:00",
    "SzV0Nps7": "9999-12-31 23:59:59"
  },
  {
    "4HqhTf3a": "100032",
    "kixHbe54": "236001",
    "wgV86x1q": "1",
    "HTVh8a65": "300000",
    "75YV2q1i": "236000:1,47907:1,41600:2,10425:5,10635:5",
    "7dEB1Kwj": "10635",
    "H6k1LIxC": "-1",
    "XuJL4pc5": "1321",
    "qA7M9EjP": "0000-00-00 00:00:00",
    "SzV0Nps7": "9999-12-31 23:59:59"
  },
  {
    "4HqhTf3a": "100033",
    "kixHbe54": "235003",
    "wgV86x1q": "1",
    "HTVh8a65": "400000",
    "75YV2q1i": "30308:1,31001:3,31301:1,47904:1,11050:1",
    "7dEB1Kwj": "11050",
    "H6k1LIxC": "1",
    "XuJL4pc5": "1606",
    "qA7M9EjP": "0000-00-00 00:00:00",
    "SzV0Nps7": "9999-12-31 23:59:59"
  },
  {
    "4HqhTf3a": "100034",
    "kixHbe54": "235004",
    "wgV86x1q": "1",
    "HTVh8a65": "500000",
    "75YV2q1i": "235000:1,30307:1,40000:1,37900:2,10739:10",
    "7dEB1Kwj": "235000",
    "H6k1LIxC": "1",
    "XuJL4pc5": "1601",
    "qA7M9EjP": "0000-00-00 00:00:00",
    "SzV0Nps7": "9999-12-31 23:59:59"
  },
  {
    "4HqhTf3a": "100035",
    "kixHbe54": "235005",
    "wgV86x1q": "1",
    "HTVh8a65": "500000",
    "75YV2q1i": "235001:1,30007:1,31002:1,10825:5,10739:10",
    "7dEB1Kwj": "235001",
    "H6k1LIxC": "1",
    "XuJL4pc5": "1603",
    "qA7M9EjP": "0000-00-00 00:00:00",
    "SzV0Nps7": "9999-12-31 23:59:59"
  },
  {
    "4HqhTf3a": "100036",
    "kixHbe54": "235006",
    "wgV86x1q": "1",
    "HTVh8a65": "500000",
    "75YV2q1i": "235002:1,41900:1,47905:1,10739:5,10825:5",
    "7dEB1Kwj": "235002",
    "H6k1LIxC": "1",
    "XuJL4pc5": "1605",
    "qA7M9EjP": "0000-00-00 00:00:00",
    "SzV0Nps7": "9999-12-31 23:59:59"
  },
  {
    "4HqhTf3a": "100037",
    "kixHbe54": "235007",
    "wgV86x1q": "1",
    "HTVh8a65": "500000",
    "75YV2q1i": "235003:1,30008:1,30108:1,33001:2,10825:5",
    "7dEB1Kwj": "235003",
    "H6k1LIxC": "1",
    "XuJL4pc5": "1607",
    "qA7M9EjP": "0000-00-00 00:00:00",
    "SzV0Nps7": "9999-12-31 23:59:59"
  },
  {
    "4HqhTf3a": "100038",
    "kixHbe54": "235008",
    "wgV86x1q": "1",
    "HTVh8a65": "500000",
    "75YV2q1i": "238001:1,34805:2,47903:1,47901:1,11051:1",
    "7dEB1Kwj": "11051",
    "H6k1LIxC": "1",
    "XuJL4pc5": "1608",
    "qA7M9EjP": "0000-00-00 00:00:00",
    "SzV0Nps7": "9999-12-31 23:59:59"
  }
]