[
  {
    "DXm2W8vY": "2000000000",
    "jSxdlwqd": "2000000000",
    "4YCzox9t": "10000",
    "Kt8H4LN7": "999",
    "tzCfGX83": "101",
    "ouXxIY63": "3000",
    "5pjoGBC4": "3000",
    "WHy3BSm9": "10",
    "hx87WCbQ": "5000",
    "k0xrd38b": "50",
    "8U93zxsf": "100",
    "2oD1fmuX": "10",
    "PnE6xo93": "1.0",
    "86sx4FfJ": "10",
    "JBR0Po3b": "1.0",
    "K10QSeuj": "5",
    "6p4YW7oc": "1.0",
    "VkA3nu0b": "5",
    "mI1jW0X7": "1.0",
    "Z76WIr8m": "5",
    "xv1Lyw9h": "1.0",
    "p1TQ6XhR": "3",
    "nwXMZ3Q1": "1.0",
    "02IgM6ib": "1",
    "4t3qX2kT": "50",
    "C8KkHGa7": "1",
    "I73XkAQi": "1",
    "CA01vo2Q": "1",
    "sy9G24Su": "1",
    "3Ep5akHJ": "1",
    "QW3HiNv8": "1",
    "21ovwqYT": "1-2@0@10011:0@1@10030:1@1@40030,2-2@0@20011:0@1@10030:1@1@40030,3-2@0@30011:0@1@10030:1@1@40030,4-2@0@40011:0@1@10030:1@1@40030",
    "sRjt0k2L": "0-20000:1",
    "h2C6eFm8": "20000:10",
    "91nRcYWT": "1",
    "uALQnngx": "2011",
    "bi4gV4Ki": "900900,900000:900100:900200:900300:900400:900500:900600:900700:900800",
    "6MJZB4D7": "area:100@effect:1,2,3,21,130,141,142,143,144,145,146,147,310,311,312,530,720,110011,200010,200011,300010,300011,600141@effect_group:20,121,122,123,124,125,126,210,300,520,550,560,570,580,590,600,610,620,720,980,990,2040,110011,200010,300010,600130,710010,710011,710012,710013,710014,710015,710016,710017,710018,710019,710020,710021,710022,710023,710024,710025,710026,710027,710028,710029,710030,710031,710032,710033,710034,710035,710036,710037,710038,710039,710040,710041,710042,710043,710044,710045,710046,710047,710048,710049,710050,710051,710052,710053,710054,710055,710056,710057,710058,710059,710060,710061,710062,710063,710064,710065,710066,710067,710068,710069,710070,710071,710072,710073,710074,710075@item:10000,10200,10300,10301,10312,10423,10800,20000,20200,110000,110010,110020,110030,110040,110050,110080@unit:10030,20030,30030,30031,40030,50030,50050,60030,60050,10594,20564,30554,40534,50654,60664,10604,20574,30564,40544,50664,60674,10634,20604,30594,40574,50694,60704,10644,20614,30604,40584,50734,60734,10664,20624,30614,40594,50744,60754,10674,20634,30624,40604,50754,60764,10684,20644,30634,40614,50764,60774,10734,20674,30674,40644,50814,60834,10754,20694,30684,40664,50834,60844,10774,20704,30694,40674,50864,60874,10794,20724,30704,40684,50884,60884,10804,20734,30714,40694,50894,60894,10824,20754,30734,40714,50914,60914,10846,20774,30754,40744,50934,60954,10864,20796,30774,40766,50964,60974,10884,20804,30786,40774,50986,60984,10896,20826,50996,30796,51006,20836,40786,20856,61006,10916,30816,10936,20876,51036,30836,40816,61026,20886,40826,51046,10946,30846,61036,20906,30866,51066,10976,40856,61046,10996,30876,40866,20926,51086,61056,11016,51106,61066,20946,30896,40876,11036,51126,61086,20966,30916,40886,11046,20976,40896,30926,51136,61096,20986,40906,51166,11056,30946,20996,40916,51186,11066,30956,61136,30966,61146,40936,51216,11096,21006,40946,30986,51246,21036,51256,61196,21046,30996,40976,11116,51276,61216,31006,40986,11146,31036,21086,41016,51326,61256,41036,51336,11166,21106,31066,61286@system:4,5,6,7,8,9,10,11,12,13,14,15,16,18,20,26,27,34,35,38,48,49,51,52,55,56,57,62,63,64,65,66,67,68,69,70,71,72,73,74,76,80,81,82,83,84,85,86,87,88,89,90,91,92,93,94,95,96,97,98,99,100,101,102,103,104,105,107,108,109,110,111,112,113,114,115,117,118,119,137,138,139,184,185,198,199,200,201,202,203,204,205,206,207,208,209,210,211,212,214,215,217,218,222,230,236,237,238,244,245,247,248,250,251,252,253,254,255,257,260,262,263,264,265,266,267,268,269,271,276,277,279,282,283,284,285,287,288,290,293,296,297,300,303,305,306,307,311,314,315,369,370,371,372,373,374,375,376,377,378,379,380,381,382,383,384,385,386,387,388,389,390,391,392,393,394,395,396,397,398,399,400,401,402,403,404,405,406,407,408,409,410,411,412,413,414,415,416,417,418,419,431,432,433,434,435,436,437,438,663,664,665,745,746,747,748,749,750,751,752,753,754,755,756,758,759,761,762,764,765,767,768,769,770,771,772,773,774,775,776,777,778,779,780,781,782,783,784,785,786,787,788,789,790,791,792,793,794,795,796,797,798,799,800,801,802,803,804,805,806,807,808,809,810,811,812,813,814,815,816,817,818,819,820,821,822,823,824,825,826,827,828,829,830,831,832,833,834,835,836,837,838,839,840,841,842,843,844,845,846,847,848,849,850,851,852,853,854,855,856,857,858,859,860,861,862,863,864,865,866,867,868,869,870,871,872,873,874,875,876,877,878,879,880,881,882,901,902,903,904,905,906,907,908,909,910,911,912,913,914,915,916,917,918,919,920,921,922,923,924,925,926,927,928,929,930,940,941,942,943,944,945,946,947,948,949,951,979,980,981,982,983,984,985,986,987,988,989,990,991,992,993,994,995,996,997,998,999,1000,1001,1002,1003,1034,1035,1036,1037,1038,1039,1040,1041,1042,1043,1044,1045,1046,1047,1048,1049,1050,1051,1052,1053,1054,1055,1056,1057,1058,1059,1060,1061,1062,1063,1064,1065,1066,1067,1068,1069,1070,1071,1072,1073,1074,1075,1076,1077,1078,1079,1080,1081,1082,1083,1084,1085,1086,1087,1088,1089,1090,1091,1092,1093,1094,1095,1096,1097,1098,1099,1100,1101,1102,1103,1118,1119,1120,1121,1122,1123,1124,1125,1126,1127,1128,1129,1130,1131,1132,1133,1134,1135,1136,1137,1138,1139,1140,1141,1142,1143,1144,1145,1146,1147,1148,1149,1150,1151,1152,1153,1154,1155,1156,1157,1158,1159,1160,1161,1162,1163,1164,1165,1166,1167,1168,1169,1170,1171,1172,1173,1174,1175,1176,1177,1178,1179,1180,1181,1182,1183,1184,1185,1186,1187,1188,1189,1190,1191,1192,1193,1194,1195,1196,1197,1198,1199,1200,1201,1202,1203,1204,1205,1206,1207,1217,1223,1224,1225,1226,1227,1228,1230,1231,1235,1236,1237,1238,1244,1245,1246,1247,1248,1253,1254,1255,1256,1257,1258,1259,1260,1261,1262,1263,1264,1265,1266,1267,1268,1269,1270,1271,1272,1273,1274,1275,1276,1277,1278,1279,1280,1281,1282,1283,1284,1285,1286,1327,1328,1329,1330,1331,1356,1357,1358,1359,1360,1361,1362,1364,1365,1366,1367,1368,1369,1370,1371,1372,1373,1374,1375,1376,1377,1378,1379,1380,1381,1382,1383,1384,1385,1386,1387,1388,1389,1390,1391,1392,1406,1407,1408,1409,1410,1411,1412,1413,1414,1415,1416,1417,1418,1419,1420,1421,1422,1423,1424,1425,1426,1427,1428,1429,1430,1431,1432,1433,1434,1435,1436,1437,1438,1439,1440,1441,1442,1443,1444,1445,1446,1447,1527,1534,1535,1536,1537,1538,1539,1540,1543,1544,1554,1555,1556,1557,1558,1559,1560,1561,1562,1563,1564,1565,1566,1567,1568,1569,1570,1571,1572,1573,1912,2179,2180,2181,2182,2183,2184,2185,2186,2187,2188,2189,2190,2191,2192,2854,4724,4725,4726,4727,4728,4729,4730,4731,4732,4733,4734,4735,4736,4737,4738,4739,4740,4741,4742,4743,4744,4745,4746,4747,4748,4749,4750,4751,4752,4753,4754,4755,4756,4757,4758,4759,4760,4761,4762,4763,4764,4765,4766,4767,4768,4769,4770,4771,4793,4794,4795,4796,4797,4798,4799,4800,4801,4802,4803,4804,4805,4806,4807,4808,4823,4827,4828,8142,10119,10256,10257,10305,15280,30000,50001,50002,50003,50004,50005,50006,50007,50008,50009,50010,50011,50012,50013,50014,50015,50016,50017,50018,50019,50020,50021,50022,50023,50024,50025,50026,50027,50028,50029,50030,50031,50032,50033,50034,50035,50036,50037,50038,50039,50040,50041,50042,50043,50044,50045,50046,50047,50048,50049,50050,50051,50052,50053,50054,50055,50069,50070,50071,50072,50073,50074,50075,50076,60429,60431,60442",
    "7enK28Q5": "10",
    "mE81UBVk": "1",
    "Ieq49JDy": "180",
    "0BPn68DG": "3600",
    "YR4HI56k": "99",
    "yFRYDj67": "1",
    "6W4PdoJY": "1,2",
    "t8Cc0uMo": "新しいバージョンのアプリがリリースされました。バージョンアップをしてください。",
    "A8L9VERN": "2160",
    "6GXx4LgZ": "0",
    "s79JGu2M": "8:0:5:1,8:0:5:1",
    "MFz8YRS6": "1",
    "2inP0tCg": "1.5",
    "zn65EXYF": "2.0",
    "gEn3GX4C": "",
    "3xAsgHL8": "10800",
    "SziK4Xg1": "3",
    "e6W2N3y9": "1",
    "zkD98Hfy": "3600",
    "S92Hcor3": "3",
    "09EbcDmX": "50",
    "DYMUxgt8": "100",
    "xq0fSrw3": "9999",
    "1JFcDr05": "99999",
    "SAb3m9wo": "10000",
    "KCG5f1AN": "5000",
    "4ARtfF7x": "20000",
    "K0sUIn8R": "20000",
    "M1AJuFU6": "99999",
    "j1zaSBm7": "99999",
    "p3pXbuHA": "10",
    "kmxPgJu9": "1",
    "QylsZTpE": "10000:5000:40000:3:300:100:200:500:100",
    "CjaJUSrs": "50",
    "924iwrJ9": "99",
    "OjAiNSoh": "5",
    "woxAcRoH": "99999",
    "CeTSDBO2": "150,2,10,10,10,5,5",
    "5csFoG1G": "3",
    "deYOowYJ": "10,20",
    "QhV0G2zu": "99999",
    "W9bwut7Q": "9999999",
    "6id2v7eN": "6",
    "25aTznBk": "1800",
    "rNmJkH6K": "0",
    "2m77UddP": "0"
  }
]