[
  {
    "ut3nd0yV": "1",
    "ME4h3vDn": "http://www.a-lim.jp/brave/top/top/",
    "ew54nIpB": "web/notice/index.php",
    "UMRh8tS2": "/web/contact/support.php",
    "R4Dk2FYs": "/web/contact/friend.php",
    "E1oFw94b": "http://appstore.com/bravefrontierrpg",
    "D0gMyJ3o": "https://play.google.com/store/apps/details?id=com.gumieurope.bravefrontier",
    "MrK2k7z6": "amzn://apps/android?p=com.gumieurope.bravefrontier",
    "UWb9B6sm": "https://play.google.com/store/apps/details?id=sg.gumi.bravefrontier",
    "13kI62fP": "http://bravefrontierglobal.wikia.com/wiki/Brave_Frontier_Wiki",
    "HcIt7G8y": "https://www.facebook.com/BraveFrontierRPG?fref=ts",
    "Rf63vLu7": "http://www.kari.a-lim.co.jp/brave/news/news_0038.html",
    "e4qEPM8j": "http://www.appbank.net/2013/07/27/iphone-application/638472.php",
    "t9jT3QKC": "https://lobi.co/sp/official/54584",
    "Yh6MiF8f": "nakamap://public_groups_tree?category=54584"
  }
]