[
  {
    "WB6bsRX9": "1000",
    "SP29fLtH": "4",
    "4vSjr6zw": "2",
    "Qf67k1ut": "3",
    "gW70zeZ5": ""
  },
  {
    "WB6bsRX9": "1001",
    "SP29fLtH": "4",
    "4vSjr6zw": "2",
    "Qf67k1ut": "4",
    "gW70zeZ5": ""
  },
  {
    "WB6bsRX9": "1002",
    "SP29fLtH": "4",
    "4vSjr6zw": "3",
    "Qf67k1ut": "2",
    "gW70zeZ5": ""
  },
  {
    "WB6bsRX9": "1003",
    "SP29fLtH": "4",
    "4vSjr6zw": "4",
    "Qf67k1ut": "2",
    "gW70zeZ5": ""
  },
  {
    "WB6bsRX9": "1100",
    "SP29fLtH": "5",
    "4vSjr6zw": "2",
    "Qf67k1ut": "3",
    "gW70zeZ5": ""
  },
  {
    "WB6bsRX9": "1101",
    "SP29fLtH": "5",
    "4vSjr6zw": "2",
    "Qf67k1ut": "6",
    "gW70zeZ5": ""
  },
  {
    "WB6bsRX9": "1102",
    "SP29fLtH": "5",
    "4vSjr6zw": "3",
    "Qf67k1ut": "2",
    "gW70zeZ5": ""
  },
  {
    "WB6bsRX9": "1103",
    "SP29fLtH": "5",
    "4vSjr6zw": "6",
    "Qf67k1ut": "2",
    "gW70zeZ5": ""
  },
  {
    "WB6bsRX9": "1300",
    "SP29fLtH": "7",
    "4vSjr6zw": "2",
    "Qf67k1ut": "5",
    "gW70zeZ5": ""
  },
  {
    "WB6bsRX9": "1301",
    "SP29fLtH": "7",
    "4vSjr6zw": "2",
    "Qf67k1ut": "6",
    "gW70zeZ5": ""
  },
  {
    "WB6bsRX9": "1302",
    "SP29fLtH": "7",
    "4vSjr6zw": "5",
    "Qf67k1ut": "2",
    "gW70zeZ5": ""
  },
  {
    "WB6bsRX9": "1303",
    "SP29fLtH": "7",
    "4vSjr6zw": "5",
    "Qf67k1ut": "6",
    "gW70zeZ5": ""
  },
  {
    "WB6bsRX9": "1304",
    "SP29fLtH": "7",
    "4vSjr6zw": "6",
    "Qf67k1ut": "2",
    "gW70zeZ5": ""
  },
  {
    "WB6bsRX9": "1305",
    "SP29fLtH": "7",
    "4vSjr6zw": "6",
    "Qf67k1ut": "5",
    "gW70zeZ5": ""
  },
  {
    "WB6bsRX9": "1400",
    "SP29fLtH": "8",
    "4vSjr6zw": "2",
    "Qf67k1ut": "4",
    "gW70zeZ5": ""
  },
  {
    "WB6bsRX9": "1401",
    "SP29fLtH": "8",
    "4vSjr6zw": "2",
    "Qf67k1ut": "5",
    "gW70zeZ5": ""
  },
  {
    "WB6bsRX9": "1402",
    "SP29fLtH": "8",
    "4vSjr6zw": "4",
    "Qf67k1ut": "2",
    "gW70zeZ5": ""
  },
  {
    "WB6bsRX9": "1403",
    "SP29fLtH": "8",
    "4vSjr6zw": "5",
    "Qf67k1ut": "2",
    "gW70zeZ5": ""
  },
  {
    "WB6bsRX9": "1500",
    "SP29fLtH": "9",
    "4vSjr6zw": "2",
    "Qf67k1ut": "6",
    "gW70zeZ5": ""
  },
  {
    "WB6bsRX9": "1501",
    "SP29fLtH": "9",
    "4vSjr6zw": "5",
    "Qf67k1ut": "6",
    "gW70zeZ5": ""
  },
  {
    "WB6bsRX9": "1502",
    "SP29fLtH": "9",
    "4vSjr6zw": "6",
    "Qf67k1ut": "2",
    "gW70zeZ5": ""
  },
  {
    "WB6bsRX9": "1503",
    "SP29fLtH": "9",
    "4vSjr6zw": "6",
    "Qf67k1ut": "5",
    "gW70zeZ5": ""
  },
  {
    "WB6bsRX9": "1600",
    "SP29fLtH": "10",
    "4vSjr6zw": "2",
    "Qf67k1ut": "5",
    "gW70zeZ5": ""
  },
  {
    "WB6bsRX9": "1601",
    "SP29fLtH": "10",
    "4vSjr6zw": "5",
    "Qf67k1ut": "2",
    "gW70zeZ5": ""
  },
  {
    "WB6bsRX9": "1700",
    "SP29fLtH": "11",
    "4vSjr6zw": "3",
    "Qf67k1ut": "4",
    "gW70zeZ5": ""
  },
  {
    "WB6bsRX9": "1701",
    "SP29fLtH": "11",
    "4vSjr6zw": "4",
    "Qf67k1ut": "3",
    "gW70zeZ5": ""
  },
  {
    "WB6bsRX9": "1800",
    "SP29fLtH": "12",
    "4vSjr6zw": "7",
    "Qf67k1ut": "11",
    "gW70zeZ5": ""
  },
  {
    "WB6bsRX9": "1801",
    "SP29fLtH": "12",
    "4vSjr6zw": "8",
    "Qf67k1ut": "11",
    "gW70zeZ5": ""
  },
  {
    "WB6bsRX9": "1802",
    "SP29fLtH": "12",
    "4vSjr6zw": "11",
    "Qf67k1ut": "7",
    "gW70zeZ5": ""
  },
  {
    "WB6bsRX9": "1803",
    "SP29fLtH": "12",
    "4vSjr6zw": "11",
    "Qf67k1ut": "8",
    "gW70zeZ5": ""
  },
  {
    "WB6bsRX9": "2000",
    "SP29fLtH": "14",
    "4vSjr6zw": "5",
    "Qf67k1ut": "8",
    "gW70zeZ5": ""
  },
  {
    "WB6bsRX9": "2001",
    "SP29fLtH": "14",
    "4vSjr6zw": "5",
    "Qf67k1ut": "9",
    "gW70zeZ5": ""
  },
  {
    "WB6bsRX9": "2002",
    "SP29fLtH": "14",
    "4vSjr6zw": "8",
    "Qf67k1ut": "5",
    "gW70zeZ5": ""
  },
  {
    "WB6bsRX9": "2003",
    "SP29fLtH": "14",
    "4vSjr6zw": "8",
    "Qf67k1ut": "9",
    "gW70zeZ5": ""
  },
  {
    "WB6bsRX9": "2004",
    "SP29fLtH": "14",
    "4vSjr6zw": "9",
    "Qf67k1ut": "5",
    "gW70zeZ5": ""
  },
  {
    "WB6bsRX9": "2005",
    "SP29fLtH": "14",
    "4vSjr6zw": "9",
    "Qf67k1ut": "8",
    "gW70zeZ5": ""
  },
  {
    "WB6bsRX9": "2100",
    "SP29fLtH": "15",
    "4vSjr6zw": "3",
    "Qf67k1ut": "7",
    "gW70zeZ5": ""
  },
  {
    "WB6bsRX9": "2101",
    "SP29fLtH": "15",
    "4vSjr6zw": "7",
    "Qf67k1ut": "3",
    "gW70zeZ5": ""
  },
  {
    "WB6bsRX9": "2102",
    "SP29fLtH": "15",
    "4vSjr6zw": "7",
    "Qf67k1ut": "8",
    "gW70zeZ5": ""
  },
  {
    "WB6bsRX9": "2103",
    "SP29fLtH": "15",
    "4vSjr6zw": "8",
    "Qf67k1ut": "7",
    "gW70zeZ5": ""
  },
  {
    "WB6bsRX9": "2200",
    "SP29fLtH": "16",
    "4vSjr6zw": "2",
    "Qf67k1ut": "4",
    "gW70zeZ5": ""
  },
  {
    "WB6bsRX9": "2201",
    "SP29fLtH": "16",
    "4vSjr6zw": "4",
    "Qf67k1ut": "2",
    "gW70zeZ5": ""
  },
  {
    "WB6bsRX9": "2202",
    "SP29fLtH": "16",
    "4vSjr6zw": "4",
    "Qf67k1ut": "7",
    "gW70zeZ5": ""
  },
  {
    "WB6bsRX9": "2203",
    "SP29fLtH": "16",
    "4vSjr6zw": "4",
    "Qf67k1ut": "8",
    "gW70zeZ5": ""
  },
  {
    "WB6bsRX9": "2204",
    "SP29fLtH": "16",
    "4vSjr6zw": "7",
    "Qf67k1ut": "4",
    "gW70zeZ5": ""
  },
  {
    "WB6bsRX9": "2205",
    "SP29fLtH": "16",
    "4vSjr6zw": "8",
    "Qf67k1ut": "4",
    "gW70zeZ5": ""
  },
  {
    "WB6bsRX9": "2300",
    "SP29fLtH": "17",
    "4vSjr6zw": "4",
    "Qf67k1ut": "7",
    "gW70zeZ5": ""
  },
  {
    "WB6bsRX9": "2301",
    "SP29fLtH": "17",
    "4vSjr6zw": "7",
    "Qf67k1ut": "4",
    "gW70zeZ5": ""
  },
  {
    "WB6bsRX9": "2302",
    "SP29fLtH": "17",
    "4vSjr6zw": "7",
    "Qf67k1ut": "9",
    "gW70zeZ5": ""
  },
  {
    "WB6bsRX9": "2303",
    "SP29fLtH": "17",
    "4vSjr6zw": "9",
    "Qf67k1ut": "7",
    "gW70zeZ5": ""
  },
  {
    "WB6bsRX9": "2304",
    "SP29fLtH": "17",
    "4vSjr6zw": "9",
    "Qf67k1ut": "10",
    "gW70zeZ5": ""
  },
  {
    "WB6bsRX9": "2305",
    "SP29fLtH": "17",
    "4vSjr6zw": "10",
    "Qf67k1ut": "9",
    "gW70zeZ5": ""
  },
  {
    "WB6bsRX9": "2400",
    "SP29fLtH": "18",
    "4vSjr6zw": "4",
    "Qf67k1ut": "7",
    "gW70zeZ5": ""
  },
  {
    "WB6bsRX9": "2401",
    "SP29fLtH": "18",
    "4vSjr6zw": "4",
    "Qf67k1ut": "8",
    "gW70zeZ5": ""
  },
  {
    "WB6bsRX9": "2402",
    "SP29fLtH": "18",
    "4vSjr6zw": "7",
    "Qf67k1ut": "4",
    "gW70zeZ5": ""
  },
  {
    "WB6bsRX9": "2403",
    "SP29fLtH": "18",
    "4vSjr6zw": "7",
    "Qf67k1ut": "8",
    "gW70zeZ5": ""
  },
  {
    "WB6bsRX9": "2404",
    "SP29fLtH": "18",
    "4vSjr6zw": "8",
    "Qf67k1ut": "4",
    "gW70zeZ5": ""
  },
  {
    "WB6bsRX9": "2405",
    "SP29fLtH": "18",
    "4vSjr6zw": "8",
    "Qf67k1ut": "7",
    "gW70zeZ5": ""
  },
  {
    "WB6bsRX9": "2500",
    "SP29fLtH": "19",
    "4vSjr6zw": "4",
    "Qf67k1ut": "5",
    "gW70zeZ5": ""
  },
  {
    "WB6bsRX9": "2501",
    "SP29fLtH": "19",
    "4vSjr6zw": "4",
    "Qf67k1ut": "10",
    "gW70zeZ5": ""
  },
  {
    "WB6bsRX9": "2502",
    "SP29fLtH": "19",
    "4vSjr6zw": "5",
    "Qf67k1ut": "4",
    "gW70zeZ5": ""
  },
  {
    "WB6bsRX9": "2503",
    "SP29fLtH": "19",
    "4vSjr6zw": "10",
    "Qf67k1ut": "4",
    "gW70zeZ5": ""
  },
  {
    "WB6bsRX9": "2600",
    "SP29fLtH": "20",
    "4vSjr6zw": "8",
    "Qf67k1ut": "9",
    "gW70zeZ5": ""
  },
  {
    "WB6bsRX9": "2601",
    "SP29fLtH": "20",
    "4vSjr6zw": "8",
    "Qf67k1ut": "10",
    "gW70zeZ5": ""
  },
  {
    "WB6bsRX9": "2602",
    "SP29fLtH": "20",
    "4vSjr6zw": "8",
    "Qf67k1ut": "11",
    "gW70zeZ5": ""
  },
  {
    "WB6bsRX9": "2603",
    "SP29fLtH": "20",
    "4vSjr6zw": "9",
    "Qf67k1ut": "8",
    "gW70zeZ5": ""
  },
  {
    "WB6bsRX9": "2604",
    "SP29fLtH": "20",
    "4vSjr6zw": "9",
    "Qf67k1ut": "10",
    "gW70zeZ5": ""
  },
  {
    "WB6bsRX9": "2605",
    "SP29fLtH": "20",
    "4vSjr6zw": "9",
    "Qf67k1ut": "11",
    "gW70zeZ5": ""
  },
  {
    "WB6bsRX9": "2606",
    "SP29fLtH": "20",
    "4vSjr6zw": "10",
    "Qf67k1ut": "8",
    "gW70zeZ5": ""
  },
  {
    "WB6bsRX9": "2607",
    "SP29fLtH": "20",
    "4vSjr6zw": "10",
    "Qf67k1ut": "9",
    "gW70zeZ5": ""
  },
  {
    "WB6bsRX9": "2608",
    "SP29fLtH": "20",
    "4vSjr6zw": "11",
    "Qf67k1ut": "8",
    "gW70zeZ5": ""
  },
  {
    "WB6bsRX9": "2609",
    "SP29fLtH": "20",
    "4vSjr6zw": "11",
    "Qf67k1ut": "9",
    "gW70zeZ5": ""
  },
  {
    "WB6bsRX9": "2700",
    "SP29fLtH": "21",
    "4vSjr6zw": "2",
    "Qf67k1ut": "3",
    "gW70zeZ5": ""
  },
  {
    "WB6bsRX9": "2701",
    "SP29fLtH": "21",
    "4vSjr6zw": "3",
    "Qf67k1ut": "2",
    "gW70zeZ5": ""
  },
  {
    "WB6bsRX9": "2702",
    "SP29fLtH": "21",
    "4vSjr6zw": "3",
    "Qf67k1ut": "7",
    "gW70zeZ5": ""
  },
  {
    "WB6bsRX9": "2703",
    "SP29fLtH": "21",
    "4vSjr6zw": "7",
    "Qf67k1ut": "3",
    "gW70zeZ5": ""
  },
  {
    "WB6bsRX9": "2800",
    "SP29fLtH": "22",
    "4vSjr6zw": "9",
    "Qf67k1ut": "11",
    "gW70zeZ5": ""
  },
  {
    "WB6bsRX9": "2801",
    "SP29fLtH": "22",
    "4vSjr6zw": "11",
    "Qf67k1ut": "9",
    "gW70zeZ5": ""
  },
  {
    "WB6bsRX9": "2900",
    "SP29fLtH": "24",
    "4vSjr6zw": "5",
    "Qf67k1ut": "6",
    "gW70zeZ5": ""
  },
  {
    "WB6bsRX9": "2901",
    "SP29fLtH": "24",
    "4vSjr6zw": "6",
    "Qf67k1ut": "5",
    "gW70zeZ5": ""
  },
  {
    "WB6bsRX9": "3100",
    "SP29fLtH": "25",
    "4vSjr6zw": "2",
    "Qf67k1ut": "6",
    "gW70zeZ5": ""
  },
  {
    "WB6bsRX9": "3101",
    "SP29fLtH": "25",
    "4vSjr6zw": "2",
    "Qf67k1ut": "7",
    "gW70zeZ5": ""
  },
  {
    "WB6bsRX9": "3102",
    "SP29fLtH": "25",
    "4vSjr6zw": "5",
    "Qf67k1ut": "6",
    "gW70zeZ5": ""
  },
  {
    "WB6bsRX9": "3103",
    "SP29fLtH": "25",
    "4vSjr6zw": "5",
    "Qf67k1ut": "7",
    "gW70zeZ5": ""
  },
  {
    "WB6bsRX9": "3104",
    "SP29fLtH": "25",
    "4vSjr6zw": "6",
    "Qf67k1ut": "2",
    "gW70zeZ5": ""
  },
  {
    "WB6bsRX9": "3105",
    "SP29fLtH": "25",
    "4vSjr6zw": "6",
    "Qf67k1ut": "5",
    "gW70zeZ5": ""
  },
  {
    "WB6bsRX9": "3106",
    "SP29fLtH": "25",
    "4vSjr6zw": "7",
    "Qf67k1ut": "2",
    "gW70zeZ5": ""
  },
  {
    "WB6bsRX9": "3107",
    "SP29fLtH": "25",
    "4vSjr6zw": "7",
    "Qf67k1ut": "5",
    "gW70zeZ5": ""
  },
  {
    "WB6bsRX9": "3200",
    "SP29fLtH": "26",
    "4vSjr6zw": "3",
    "Qf67k1ut": "7",
    "gW70zeZ5": ""
  },
  {
    "WB6bsRX9": "3201",
    "SP29fLtH": "26",
    "4vSjr6zw": "7",
    "Qf67k1ut": "3",
    "gW70zeZ5": ""
  },
  {
    "WB6bsRX9": "3202",
    "SP29fLtH": "26",
    "4vSjr6zw": "7",
    "Qf67k1ut": "9",
    "gW70zeZ5": ""
  },
  {
    "WB6bsRX9": "3203",
    "SP29fLtH": "26",
    "4vSjr6zw": "9",
    "Qf67k1ut": "7",
    "gW70zeZ5": ""
  },
  {
    "WB6bsRX9": "3300",
    "SP29fLtH": "27",
    "4vSjr6zw": "4",
    "Qf67k1ut": "10",
    "gW70zeZ5": ""
  },
  {
    "WB6bsRX9": "3301",
    "SP29fLtH": "27",
    "4vSjr6zw": "4",
    "Qf67k1ut": "11",
    "gW70zeZ5": ""
  },
  {
    "WB6bsRX9": "3302",
    "SP29fLtH": "27",
    "4vSjr6zw": "10",
    "Qf67k1ut": "4",
    "gW70zeZ5": ""
  },
  {
    "WB6bsRX9": "3303",
    "SP29fLtH": "27",
    "4vSjr6zw": "10",
    "Qf67k1ut": "11",
    "gW70zeZ5": ""
  },
  {
    "WB6bsRX9": "3304",
    "SP29fLtH": "27",
    "4vSjr6zw": "11",
    "Qf67k1ut": "4",
    "gW70zeZ5": ""
  },
  {
    "WB6bsRX9": "3305",
    "SP29fLtH": "27",
    "4vSjr6zw": "11",
    "Qf67k1ut": "10",
    "gW70zeZ5": ""
  },
  {
    "WB6bsRX9": "3400",
    "SP29fLtH": "28",
    "4vSjr6zw": "4",
    "Qf67k1ut": "8",
    "gW70zeZ5": ""
  },
  {
    "WB6bsRX9": "3401",
    "SP29fLtH": "28",
    "4vSjr6zw": "4",
    "Qf67k1ut": "10",
    "gW70zeZ5": ""
  },
  {
    "WB6bsRX9": "3402",
    "SP29fLtH": "28",
    "4vSjr6zw": "8",
    "Qf67k1ut": "4",
    "gW70zeZ5": ""
  },
  {
    "WB6bsRX9": "3403",
    "SP29fLtH": "28",
    "4vSjr6zw": "8",
    "Qf67k1ut": "10",
    "gW70zeZ5": ""
  },
  {
    "WB6bsRX9": "3404",
    "SP29fLtH": "28",
    "4vSjr6zw": "10",
    "Qf67k1ut": "4",
    "gW70zeZ5": ""
  },
  {
    "WB6bsRX9": "3405",
    "SP29fLtH": "28",
    "4vSjr6zw": "10",
    "Qf67k1ut": "8",
    "gW70zeZ5": ""
  },
  {
    "WB6bsRX9": "3500",
    "SP29fLtH": "29",
    "4vSjr6zw": "2",
    "Qf67k1ut": "5",
    "gW70zeZ5": ""
  },
  {
    "WB6bsRX9": "3501",
    "SP29fLtH": "29",
    "4vSjr6zw": "5",
    "Qf67k1ut": "2",
    "gW70zeZ5": ""
  },
  {
    "WB6bsRX9": "3502",
    "SP29fLtH": "29",
    "4vSjr6zw": "5",
    "Qf67k1ut": "6",
    "gW70zeZ5": ""
  },
  {
    "WB6bsRX9": "3503",
    "SP29fLtH": "29",
    "4vSjr6zw": "6",
    "Qf67k1ut": "5",
    "gW70zeZ5": ""
  },
  {
    "WB6bsRX9": "3600",
    "SP29fLtH": "30",
    "4vSjr6zw": "5",
    "Qf67k1ut": "8",
    "gW70zeZ5": ""
  },
  {
    "WB6bsRX9": "3601",
    "SP29fLtH": "30",
    "4vSjr6zw": "5",
    "Qf67k1ut": "9",
    "gW70zeZ5": ""
  },
  {
    "WB6bsRX9": "3602",
    "SP29fLtH": "30",
    "4vSjr6zw": "8",
    "Qf67k1ut": "5",
    "gW70zeZ5": ""
  },
  {
    "WB6bsRX9": "3603",
    "SP29fLtH": "30",
    "4vSjr6zw": "9",
    "Qf67k1ut": "5",
    "gW70zeZ5": ""
  },
  {
    "WB6bsRX9": "3700",
    "SP29fLtH": "31",
    "4vSjr6zw": "4",
    "Qf67k1ut": "8",
    "gW70zeZ5": ""
  },
  {
    "WB6bsRX9": "3701",
    "SP29fLtH": "31",
    "4vSjr6zw": "7",
    "Qf67k1ut": "8",
    "gW70zeZ5": ""
  },
  {
    "WB6bsRX9": "3702",
    "SP29fLtH": "31",
    "4vSjr6zw": "7",
    "Qf67k1ut": "11",
    "gW70zeZ5": ""
  },
  {
    "WB6bsRX9": "3703",
    "SP29fLtH": "31",
    "4vSjr6zw": "8",
    "Qf67k1ut": "4",
    "gW70zeZ5": ""
  },
  {
    "WB6bsRX9": "3704",
    "SP29fLtH": "31",
    "4vSjr6zw": "8",
    "Qf67k1ut": "7",
    "gW70zeZ5": ""
  },
  {
    "WB6bsRX9": "3705",
    "SP29fLtH": "31",
    "4vSjr6zw": "8",
    "Qf67k1ut": "11",
    "gW70zeZ5": ""
  },
  {
    "WB6bsRX9": "3706",
    "SP29fLtH": "31",
    "4vSjr6zw": "11",
    "Qf67k1ut": "7",
    "gW70zeZ5": ""
  },
  {
    "WB6bsRX9": "3707",
    "SP29fLtH": "31",
    "4vSjr6zw": "11",
    "Qf67k1ut": "8",
    "gW70zeZ5": ""
  },
  {
    "WB6bsRX9": "3800",
    "SP29fLtH": "32",
    "4vSjr6zw": "4",
    "Qf67k1ut": "6",
    "gW70zeZ5": ""
  },
  {
    "WB6bsRX9": "3801",
    "SP29fLtH": "32",
    "4vSjr6zw": "4",
    "Qf67k1ut": "8",
    "gW70zeZ5": ""
  },
  {
    "WB6bsRX9": "3802",
    "SP29fLtH": "32",
    "4vSjr6zw": "6",
    "Qf67k1ut": "4",
    "gW70zeZ5": ""
  },
  {
    "WB6bsRX9": "3803",
    "SP29fLtH": "32",
    "4vSjr6zw": "6",
    "Qf67k1ut": "8",
    "gW70zeZ5": ""
  },
  {
    "WB6bsRX9": "3804",
    "SP29fLtH": "32",
    "4vSjr6zw": "8",
    "Qf67k1ut": "4",
    "gW70zeZ5": ""
  },
  {
    "WB6bsRX9": "3805",
    "SP29fLtH": "32",
    "4vSjr6zw": "8",
    "Qf67k1ut": "6",
    "gW70zeZ5": ""
  },
  {
    "WB6bsRX9": "3900",
    "SP29fLtH": "33",
    "4vSjr6zw": "3",
    "Qf67k1ut": "7",
    "gW70zeZ5": ""
  },
  {
    "WB6bsRX9": "3901",
    "SP29fLtH": "33",
    "4vSjr6zw": "3",
    "Qf67k1ut": "10",
    "gW70zeZ5": ""
  },
  {
    "WB6bsRX9": "3902",
    "SP29fLtH": "33",
    "4vSjr6zw": "7",
    "Qf67k1ut": "3",
    "gW70zeZ5": ""
  },
  {
    "WB6bsRX9": "3903",
    "SP29fLtH": "33",
    "4vSjr6zw": "7",
    "Qf67k1ut": "10",
    "gW70zeZ5": ""
  },
  {
    "WB6bsRX9": "3904",
    "SP29fLtH": "33",
    "4vSjr6zw": "10",
    "Qf67k1ut": "3",
    "gW70zeZ5": ""
  },
  {
    "WB6bsRX9": "3905",
    "SP29fLtH": "33",
    "4vSjr6zw": "10",
    "Qf67k1ut": "7",
    "gW70zeZ5": ""
  },
  {
    "WB6bsRX9": "4000",
    "SP29fLtH": "34",
    "4vSjr6zw": "3",
    "Qf67k1ut": "4",
    "gW70zeZ5": ""
  },
  {
    "WB6bsRX9": "4001",
    "SP29fLtH": "34",
    "4vSjr6zw": "3",
    "Qf67k1ut": "6",
    "gW70zeZ5": ""
  },
  {
    "WB6bsRX9": "4002",
    "SP29fLtH": "34",
    "4vSjr6zw": "4",
    "Qf67k1ut": "3",
    "gW70zeZ5": ""
  },
  {
    "WB6bsRX9": "4003",
    "SP29fLtH": "34",
    "4vSjr6zw": "4",
    "Qf67k1ut": "6",
    "gW70zeZ5": ""
  },
  {
    "WB6bsRX9": "4004",
    "SP29fLtH": "34",
    "4vSjr6zw": "6",
    "Qf67k1ut": "3",
    "gW70zeZ5": ""
  },
  {
    "WB6bsRX9": "4005",
    "SP29fLtH": "34",
    "4vSjr6zw": "6",
    "Qf67k1ut": "4",
    "gW70zeZ5": ""
  },
  {
    "WB6bsRX9": "4100",
    "SP29fLtH": "35",
    "4vSjr6zw": "5",
    "Qf67k1ut": "7",
    "gW70zeZ5": ""
  },
  {
    "WB6bsRX9": "4101",
    "SP29fLtH": "35",
    "4vSjr6zw": "5",
    "Qf67k1ut": "11",
    "gW70zeZ5": ""
  },
  {
    "WB6bsRX9": "4102",
    "SP29fLtH": "35",
    "4vSjr6zw": "7",
    "Qf67k1ut": "5",
    "gW70zeZ5": ""
  },
  {
    "WB6bsRX9": "4103",
    "SP29fLtH": "35",
    "4vSjr6zw": "7",
    "Qf67k1ut": "11",
    "gW70zeZ5": ""
  },
  {
    "WB6bsRX9": "4104",
    "SP29fLtH": "35",
    "4vSjr6zw": "11",
    "Qf67k1ut": "5",
    "gW70zeZ5": ""
  },
  {
    "WB6bsRX9": "4105",
    "SP29fLtH": "35",
    "4vSjr6zw": "11",
    "Qf67k1ut": "7",
    "gW70zeZ5": ""
  },
  {
    "WB6bsRX9": "4200",
    "SP29fLtH": "36",
    "4vSjr6zw": "8",
    "Qf67k1ut": "9",
    "gW70zeZ5": ""
  },
  {
    "WB6bsRX9": "4201",
    "SP29fLtH": "36",
    "4vSjr6zw": "8",
    "Qf67k1ut": "10",
    "gW70zeZ5": ""
  },
  {
    "WB6bsRX9": "4202",
    "SP29fLtH": "36",
    "4vSjr6zw": "9",
    "Qf67k1ut": "8",
    "gW70zeZ5": ""
  },
  {
    "WB6bsRX9": "4203",
    "SP29fLtH": "36",
    "4vSjr6zw": "9",
    "Qf67k1ut": "10",
    "gW70zeZ5": ""
  },
  {
    "WB6bsRX9": "4204",
    "SP29fLtH": "36",
    "4vSjr6zw": "10",
    "Qf67k1ut": "8",
    "gW70zeZ5": ""
  },
  {
    "WB6bsRX9": "4205",
    "SP29fLtH": "36",
    "4vSjr6zw": "10",
    "Qf67k1ut": "9",
    "gW70zeZ5": ""
  },
  {
    "WB6bsRX9": "4300",
    "SP29fLtH": "37",
    "4vSjr6zw": "4",
    "Qf67k1ut": "6",
    "gW70zeZ5": ""
  },
  {
    "WB6bsRX9": "4301",
    "SP29fLtH": "37",
    "4vSjr6zw": "4",
    "Qf67k1ut": "10",
    "gW70zeZ5": ""
  },
  {
    "WB6bsRX9": "4302",
    "SP29fLtH": "37",
    "4vSjr6zw": "4",
    "Qf67k1ut": "11",
    "gW70zeZ5": ""
  },
  {
    "WB6bsRX9": "4303",
    "SP29fLtH": "37",
    "4vSjr6zw": "6",
    "Qf67k1ut": "4",
    "gW70zeZ5": ""
  },
  {
    "WB6bsRX9": "4304",
    "SP29fLtH": "37",
    "4vSjr6zw": "6",
    "Qf67k1ut": "10",
    "gW70zeZ5": ""
  },
  {
    "WB6bsRX9": "4305",
    "SP29fLtH": "37",
    "4vSjr6zw": "6",
    "Qf67k1ut": "11",
    "gW70zeZ5": ""
  },
  {
    "WB6bsRX9": "4306",
    "SP29fLtH": "37",
    "4vSjr6zw": "10",
    "Qf67k1ut": "4",
    "gW70zeZ5": ""
  },
  {
    "WB6bsRX9": "4307",
    "SP29fLtH": "37",
    "4vSjr6zw": "10",
    "Qf67k1ut": "6",
    "gW70zeZ5": ""
  },
  {
    "WB6bsRX9": "4308",
    "SP29fLtH": "37",
    "4vSjr6zw": "10",
    "Qf67k1ut": "11",
    "gW70zeZ5": ""
  },
  {
    "WB6bsRX9": "4309",
    "SP29fLtH": "37",
    "4vSjr6zw": "11",
    "Qf67k1ut": "4",
    "gW70zeZ5": ""
  },
  {
    "WB6bsRX9": "4310",
    "SP29fLtH": "37",
    "4vSjr6zw": "11",
    "Qf67k1ut": "6",
    "gW70zeZ5": ""
  },
  {
    "WB6bsRX9": "4311",
    "SP29fLtH": "37",
    "4vSjr6zw": "11",
    "Qf67k1ut": "10",
    "gW70zeZ5": ""
  },
  {
    "WB6bsRX9": "4800",
    "SP29fLtH": "48",
    "4vSjr6zw": "4",
    "Qf67k1ut": "5",
    "gW70zeZ5": ""
  },
  {
    "WB6bsRX9": "4801",
    "SP29fLtH": "48",
    "4vSjr6zw": "5",
    "Qf67k1ut": "4",
    "gW70zeZ5": ""
  },
  {
    "WB6bsRX9": "4802",
    "SP29fLtH": "48",
    "4vSjr6zw": "5",
    "Qf67k1ut": "7",
    "gW70zeZ5": ""
  },
  {
    "WB6bsRX9": "4803",
    "SP29fLtH": "48",
    "4vSjr6zw": "7",
    "Qf67k1ut": "5",
    "gW70zeZ5": ""
  },
  {
    "WB6bsRX9": "4804",
    "SP29fLtH": "48",
    "4vSjr6zw": "7",
    "Qf67k1ut": "8",
    "gW70zeZ5": ""
  },
  {
    "WB6bsRX9": "4805",
    "SP29fLtH": "48",
    "4vSjr6zw": "8",
    "Qf67k1ut": "7",
    "gW70zeZ5": ""
  },
  {
    "WB6bsRX9": "4901",
    "SP29fLtH": "49",
    "4vSjr6zw": "4",
    "Qf67k1ut": "7",
    "gW70zeZ5": ""
  },
  {
    "WB6bsRX9": "4902",
    "SP29fLtH": "49",
    "4vSjr6zw": "4",
    "Qf67k1ut": "10",
    "gW70zeZ5": ""
  },
  {
    "WB6bsRX9": "4903",
    "SP29fLtH": "49",
    "4vSjr6zw": "7",
    "Qf67k1ut": "4",
    "gW70zeZ5": ""
  },
  {
    "WB6bsRX9": "4904",
    "SP29fLtH": "49",
    "4vSjr6zw": "7",
    "Qf67k1ut": "10",
    "gW70zeZ5": ""
  },
  {
    "WB6bsRX9": "4905",
    "SP29fLtH": "49",
    "4vSjr6zw": "10",
    "Qf67k1ut": "4",
    "gW70zeZ5": ""
  },
  {
    "WB6bsRX9": "4906",
    "SP29fLtH": "49",
    "4vSjr6zw": "10",
    "Qf67k1ut": "7",
    "gW70zeZ5": ""
  },
  {
    "WB6bsRX9": "5000",
    "SP29fLtH": "50",
    "4vSjr6zw": "5",
    "Qf67k1ut": "7",
    "gW70zeZ5": ""
  },
  {
    "WB6bsRX9": "5001",
    "SP29fLtH": "50",
    "4vSjr6zw": "5",
    "Qf67k1ut": "11",
    "gW70zeZ5": ""
  },
  {
    "WB6bsRX9": "5002",
    "SP29fLtH": "50",
    "4vSjr6zw": "7",
    "Qf67k1ut": "5",
    "gW70zeZ5": ""
  },
  {
    "WB6bsRX9": "5003",
    "SP29fLtH": "50",
    "4vSjr6zw": "7",
    "Qf67k1ut": "11",
    "gW70zeZ5": ""
  },
  {
    "WB6bsRX9": "5004",
    "SP29fLtH": "50",
    "4vSjr6zw": "11",
    "Qf67k1ut": "5",
    "gW70zeZ5": ""
  },
  {
    "WB6bsRX9": "5005",
    "SP29fLtH": "50",
    "4vSjr6zw": "11",
    "Qf67k1ut": "7",
    "gW70zeZ5": ""
  },
  {
    "WB6bsRX9": "5100",
    "SP29fLtH": "51",
    "4vSjr6zw": "8",
    "Qf67k1ut": "9",
    "gW70zeZ5": ""
  },
  {
    "WB6bsRX9": "5101",
    "SP29fLtH": "51",
    "4vSjr6zw": "8",
    "Qf67k1ut": "10",
    "gW70zeZ5": ""
  },
  {
    "WB6bsRX9": "5102",
    "SP29fLtH": "51",
    "4vSjr6zw": "9",
    "Qf67k1ut": "8",
    "gW70zeZ5": ""
  },
  {
    "WB6bsRX9": "5103",
    "SP29fLtH": "51",
    "4vSjr6zw": "9",
    "Qf67k1ut": "10",
    "gW70zeZ5": ""
  },
  {
    "WB6bsRX9": "5104",
    "SP29fLtH": "51",
    "4vSjr6zw": "10",
    "Qf67k1ut": "8",
    "gW70zeZ5": ""
  },
  {
    "WB6bsRX9": "5105",
    "SP29fLtH": "51",
    "4vSjr6zw": "10",
    "Qf67k1ut": "9",
    "gW70zeZ5": ""
  },
  {
    "WB6bsRX9": "5200",
    "SP29fLtH": "52",
    "4vSjr6zw": "5",
    "Qf67k1ut": "7",
    "gW70zeZ5": ""
  },
  {
    "WB6bsRX9": "5201",
    "SP29fLtH": "52",
    "4vSjr6zw": "5",
    "Qf67k1ut": "8",
    "gW70zeZ5": ""
  },
  {
    "WB6bsRX9": "5202",
    "SP29fLtH": "52",
    "4vSjr6zw": "7",
    "Qf67k1ut": "5",
    "gW70zeZ5": ""
  },
  {
    "WB6bsRX9": "5203",
    "SP29fLtH": "52",
    "4vSjr6zw": "7",
    "Qf67k1ut": "8",
    "gW70zeZ5": ""
  },
  {
    "WB6bsRX9": "5204",
    "SP29fLtH": "52",
    "4vSjr6zw": "8",
    "Qf67k1ut": "5",
    "gW70zeZ5": ""
  },
  {
    "WB6bsRX9": "5205",
    "SP29fLtH": "52",
    "4vSjr6zw": "8",
    "Qf67k1ut": "7",
    "gW70zeZ5": ""
  },
  {
    "WB6bsRX9": "5300",
    "SP29fLtH": "53",
    "4vSjr6zw": "3",
    "Qf67k1ut": "6",
    "gW70zeZ5": ""
  },
  {
    "WB6bsRX9": "5301",
    "SP29fLtH": "53",
    "4vSjr6zw": "3",
    "Qf67k1ut": "9",
    "gW70zeZ5": ""
  },
  {
    "WB6bsRX9": "5302",
    "SP29fLtH": "53",
    "4vSjr6zw": "6",
    "Qf67k1ut": "3",
    "gW70zeZ5": ""
  },
  {
    "WB6bsRX9": "5303",
    "SP29fLtH": "53",
    "4vSjr6zw": "6",
    "Qf67k1ut": "9",
    "gW70zeZ5": ""
  },
  {
    "WB6bsRX9": "5304",
    "SP29fLtH": "53",
    "4vSjr6zw": "9",
    "Qf67k1ut": "3",
    "gW70zeZ5": ""
  },
  {
    "WB6bsRX9": "5305",
    "SP29fLtH": "53",
    "4vSjr6zw": "9",
    "Qf67k1ut": "6",
    "gW70zeZ5": ""
  },
  {
    "WB6bsRX9": "5400",
    "SP29fLtH": "55",
    "4vSjr6zw": "2",
    "Qf67k1ut": "3",
    "gW70zeZ5": ""
  },
  {
    "WB6bsRX9": "5401",
    "SP29fLtH": "55",
    "4vSjr6zw": "2",
    "Qf67k1ut": "7",
    "gW70zeZ5": ""
  },
  {
    "WB6bsRX9": "5402",
    "SP29fLtH": "55",
    "4vSjr6zw": "3",
    "Qf67k1ut": "2",
    "gW70zeZ5": ""
  },
  {
    "WB6bsRX9": "5403",
    "SP29fLtH": "55",
    "4vSjr6zw": "3",
    "Qf67k1ut": "7",
    "gW70zeZ5": ""
  },
  {
    "WB6bsRX9": "5404",
    "SP29fLtH": "55",
    "4vSjr6zw": "7",
    "Qf67k1ut": "2",
    "gW70zeZ5": ""
  },
  {
    "WB6bsRX9": "5405",
    "SP29fLtH": "55",
    "4vSjr6zw": "7",
    "Qf67k1ut": "3",
    "gW70zeZ5": ""
  },
  {
    "WB6bsRX9": "5500",
    "SP29fLtH": "56",
    "4vSjr6zw": "5",
    "Qf67k1ut": "6",
    "gW70zeZ5": ""
  },
  {
    "WB6bsRX9": "5501",
    "SP29fLtH": "56",
    "4vSjr6zw": "5",
    "Qf67k1ut": "7",
    "gW70zeZ5": ""
  },
  {
    "WB6bsRX9": "5502",
    "SP29fLtH": "56",
    "4vSjr6zw": "6",
    "Qf67k1ut": "5",
    "gW70zeZ5": ""
  },
  {
    "WB6bsRX9": "5503",
    "SP29fLtH": "56",
    "4vSjr6zw": "6",
    "Qf67k1ut": "7",
    "gW70zeZ5": ""
  },
  {
    "WB6bsRX9": "5504",
    "SP29fLtH": "56",
    "4vSjr6zw": "7",
    "Qf67k1ut": "5",
    "gW70zeZ5": ""
  },
  {
    "WB6bsRX9": "5505",
    "SP29fLtH": "56",
    "4vSjr6zw": "7",
    "Qf67k1ut": "6",
    "gW70zeZ5": ""
  },
  {
    "WB6bsRX9": "5600",
    "SP29fLtH": "57",
    "4vSjr6zw": "9",
    "Qf67k1ut": "10",
    "gW70zeZ5": ""
  },
  {
    "WB6bsRX9": "5601",
    "SP29fLtH": "57",
    "4vSjr6zw": "9",
    "Qf67k1ut": "11",
    "gW70zeZ5": ""
  },
  {
    "WB6bsRX9": "5602",
    "SP29fLtH": "57",
    "4vSjr6zw": "10",
    "Qf67k1ut": "9",
    "gW70zeZ5": ""
  },
  {
    "WB6bsRX9": "5603",
    "SP29fLtH": "57",
    "4vSjr6zw": "10",
    "Qf67k1ut": "11",
    "gW70zeZ5": ""
  },
  {
    "WB6bsRX9": "5604",
    "SP29fLtH": "57",
    "4vSjr6zw": "11",
    "Qf67k1ut": "9",
    "gW70zeZ5": ""
  },
  {
    "WB6bsRX9": "5605",
    "SP29fLtH": "57",
    "4vSjr6zw": "11",
    "Qf67k1ut": "10",
    "gW70zeZ5": ""
  },
  {
    "WB6bsRX9": "5700",
    "SP29fLtH": "58",
    "4vSjr6zw": "2",
    "Qf67k1ut": "4",
    "gW70zeZ5": ""
  },
  {
    "WB6bsRX9": "5701",
    "SP29fLtH": "58",
    "4vSjr6zw": "2",
    "Qf67k1ut": "6",
    "gW70zeZ5": ""
  },
  {
    "WB6bsRX9": "5702",
    "SP29fLtH": "58",
    "4vSjr6zw": "4",
    "Qf67k1ut": "2",
    "gW70zeZ5": ""
  },
  {
    "WB6bsRX9": "5703",
    "SP29fLtH": "58",
    "4vSjr6zw": "4",
    "Qf67k1ut": "6",
    "gW70zeZ5": ""
  },
  {
    "WB6bsRX9": "5704",
    "SP29fLtH": "58",
    "4vSjr6zw": "6",
    "Qf67k1ut": "2",
    "gW70zeZ5": ""
  },
  {
    "WB6bsRX9": "5705",
    "SP29fLtH": "58",
    "4vSjr6zw": "6",
    "Qf67k1ut": "4",
    "gW70zeZ5": ""
  },
  {
    "WB6bsRX9": "5800",
    "SP29fLtH": "63",
    "4vSjr6zw": "9",
    "Qf67k1ut": "10",
    "gW70zeZ5": ""
  },
  {
    "WB6bsRX9": "5801",
    "SP29fLtH": "63",
    "4vSjr6zw": "9",
    "Qf67k1ut": "11",
    "gW70zeZ5": ""
  },
  {
    "WB6bsRX9": "5802",
    "SP29fLtH": "63",
    "4vSjr6zw": "10",
    "Qf67k1ut": "9",
    "gW70zeZ5": ""
  },
  {
    "WB6bsRX9": "5803",
    "SP29fLtH": "63",
    "4vSjr6zw": "10",
    "Qf67k1ut": "11",
    "gW70zeZ5": ""
  },
  {
    "WB6bsRX9": "5804",
    "SP29fLtH": "63",
    "4vSjr6zw": "11",
    "Qf67k1ut": "9",
    "gW70zeZ5": ""
  },
  {
    "WB6bsRX9": "5805",
    "SP29fLtH": "63",
    "4vSjr6zw": "10",
    "Qf67k1ut": "9",
    "gW70zeZ5": ""
  },
  {
    "WB6bsRX9": "5900",
    "SP29fLtH": "64",
    "4vSjr6zw": "2",
    "Qf67k1ut": "5",
    "gW70zeZ5": ""
  },
  {
    "WB6bsRX9": "5901",
    "SP29fLtH": "64",
    "4vSjr6zw": "5",
    "Qf67k1ut": "2",
    "gW70zeZ5": ""
  },
  {
    "WB6bsRX9": "5902",
    "SP29fLtH": "64",
    "4vSjr6zw": "5",
    "Qf67k1ut": "6",
    "gW70zeZ5": ""
  },
  {
    "WB6bsRX9": "5903",
    "SP29fLtH": "64",
    "4vSjr6zw": "6",
    "Qf67k1ut": "5",
    "gW70zeZ5": ""
  },
  {
    "WB6bsRX9": "6000",
    "SP29fLtH": "65",
    "4vSjr6zw": "9",
    "Qf67k1ut": "10",
    "gW70zeZ5": ""
  },
  {
    "WB6bsRX9": "6001",
    "SP29fLtH": "65",
    "4vSjr6zw": "9",
    "Qf67k1ut": "11",
    "gW70zeZ5": ""
  },
  {
    "WB6bsRX9": "6002",
    "SP29fLtH": "65",
    "4vSjr6zw": "10",
    "Qf67k1ut": "9",
    "gW70zeZ5": ""
  },
  {
    "WB6bsRX9": "6003",
    "SP29fLtH": "65",
    "4vSjr6zw": "10",
    "Qf67k1ut": "11",
    "gW70zeZ5": ""
  },
  {
    "WB6bsRX9": "6004",
    "SP29fLtH": "65",
    "4vSjr6zw": "11",
    "Qf67k1ut": "9",
    "gW70zeZ5": ""
  },
  {
    "WB6bsRX9": "6005",
    "SP29fLtH": "65",
    "4vSjr6zw": "11",
    "Qf67k1ut": "10",
    "gW70zeZ5": ""
  },
  {
    "WB6bsRX9": "6100",
    "SP29fLtH": "66",
    "4vSjr6zw": "3",
    "Qf67k1ut": "4",
    "gW70zeZ5": ""
  },
  {
    "WB6bsRX9": "6101",
    "SP29fLtH": "66",
    "4vSjr6zw": "4",
    "Qf67k1ut": "3",
    "gW70zeZ5": ""
  },
  {
    "WB6bsRX9": "6102",
    "SP29fLtH": "66",
    "4vSjr6zw": "4",
    "Qf67k1ut": "6",
    "gW70zeZ5": ""
  },
  {
    "WB6bsRX9": "6103",
    "SP29fLtH": "66",
    "4vSjr6zw": "6",
    "Qf67k1ut": "4",
    "gW70zeZ5": ""
  },
  {
    "WB6bsRX9": "6200",
    "SP29fLtH": "67",
    "4vSjr6zw": "8",
    "Qf67k1ut": "11",
    "gW70zeZ5": ""
  },
  {
    "WB6bsRX9": "6201",
    "SP29fLtH": "67",
    "4vSjr6zw": "11",
    "Qf67k1ut": "8",
    "gW70zeZ5": ""
  },
  {
    "WB6bsRX9": "6300",
    "SP29fLtH": "68",
    "4vSjr6zw": "3",
    "Qf67k1ut": "4",
    "gW70zeZ5": ""
  },
  {
    "WB6bsRX9": "6301",
    "SP29fLtH": "68",
    "4vSjr6zw": "3",
    "Qf67k1ut": "7",
    "gW70zeZ5": ""
  },
  {
    "WB6bsRX9": "6302",
    "SP29fLtH": "68",
    "4vSjr6zw": "4",
    "Qf67k1ut": "3",
    "gW70zeZ5": ""
  },
  {
    "WB6bsRX9": "6303",
    "SP29fLtH": "68",
    "4vSjr6zw": "4",
    "Qf67k1ut": "7",
    "gW70zeZ5": ""
  },
  {
    "WB6bsRX9": "6304",
    "SP29fLtH": "68",
    "4vSjr6zw": "7",
    "Qf67k1ut": "3",
    "gW70zeZ5": ""
  },
  {
    "WB6bsRX9": "6305",
    "SP29fLtH": "68",
    "4vSjr6zw": "7",
    "Qf67k1ut": "4",
    "gW70zeZ5": ""
  },
  {
    "WB6bsRX9": "6400",
    "SP29fLtH": "70",
    "4vSjr6zw": "8",
    "Qf67k1ut": "10",
    "gW70zeZ5": ""
  },
  {
    "WB6bsRX9": "6401",
    "SP29fLtH": "70",
    "4vSjr6zw": "10",
    "Qf67k1ut": "8",
    "gW70zeZ5": ""
  },
  {
    "WB6bsRX9": "6500",
    "SP29fLtH": "71",
    "4vSjr6zw": "5",
    "Qf67k1ut": "6",
    "gW70zeZ5": ""
  },
  {
    "WB6bsRX9": "6501",
    "SP29fLtH": "71",
    "4vSjr6zw": "6",
    "Qf67k1ut": "5",
    "gW70zeZ5": ""
  },
  {
    "WB6bsRX9": "6600",
    "SP29fLtH": "73",
    "4vSjr6zw": "3",
    "Qf67k1ut": "5",
    "gW70zeZ5": ""
  },
  {
    "WB6bsRX9": "6601",
    "SP29fLtH": "73",
    "4vSjr6zw": "4",
    "Qf67k1ut": "5",
    "gW70zeZ5": ""
  },
  {
    "WB6bsRX9": "6602",
    "SP29fLtH": "73",
    "4vSjr6zw": "5",
    "Qf67k1ut": "3",
    "gW70zeZ5": ""
  },
  {
    "WB6bsRX9": "6603",
    "SP29fLtH": "73",
    "4vSjr6zw": "5",
    "Qf67k1ut": "4",
    "gW70zeZ5": ""
  },
  {
    "WB6bsRX9": "6604",
    "SP29fLtH": "73",
    "4vSjr6zw": "5",
    "Qf67k1ut": "6",
    "gW70zeZ5": ""
  },
  {
    "WB6bsRX9": "6605",
    "SP29fLtH": "73",
    "4vSjr6zw": "5",
    "Qf67k1ut": "7",
    "gW70zeZ5": ""
  },
  {
    "WB6bsRX9": "6606",
    "SP29fLtH": "73",
    "4vSjr6zw": "6",
    "Qf67k1ut": "5",
    "gW70zeZ5": ""
  },
  {
    "WB6bsRX9": "6607",
    "SP29fLtH": "73",
    "4vSjr6zw": "7",
    "Qf67k1ut": "5",
    "gW70zeZ5": ""
  },
  {
    "WB6bsRX9": "6700",
    "SP29fLtH": "74",
    "4vSjr6zw": "5",
    "Qf67k1ut": "8",
    "gW70zeZ5": ""
  },
  {
    "WB6bsRX9": "6701",
    "SP29fLtH": "74",
    "4vSjr6zw": "8",
    "Qf67k1ut": "5",
    "gW70zeZ5": ""
  },
  {
    "WB6bsRX9": "6800",
    "SP29fLtH": "75",
    "4vSjr6zw": "4",
    "Qf67k1ut": "5",
    "gW70zeZ5": ""
  },
  {
    "WB6bsRX9": "6801",
    "SP29fLtH": "75",
    "4vSjr6zw": "5",
    "Qf67k1ut": "4",
    "gW70zeZ5": ""
  },
  {
    "WB6bsRX9": "6900",
    "SP29fLtH": "76",
    "4vSjr6zw": "9",
    "Qf67k1ut": "11",
    "gW70zeZ5": ""
  },
  {
    "WB6bsRX9": "6901",
    "SP29fLtH": "76",
    "4vSjr6zw": "11",
    "Qf67k1ut": "9",
    "gW70zeZ5": ""
  },
  {
    "WB6bsRX9": "7000",
    "SP29fLtH": "80",
    "4vSjr6zw": "3",
    "Qf67k1ut": "9",
    "gW70zeZ5": ""
  },
  {
    "WB6bsRX9": "7001",
    "SP29fLtH": "80",
    "4vSjr6zw": "9",
    "Qf67k1ut": "3",
    "gW70zeZ5": ""
  },
  {
    "WB6bsRX9": "80000",
    "SP29fLtH": "831",
    "4vSjr6zw": "9",
    "Qf67k1ut": "7",
    "gW70zeZ5": ""
  },
  {
    "WB6bsRX9": "80001",
    "SP29fLtH": "831",
    "4vSjr6zw": "7",
    "Qf67k1ut": "8",
    "gW70zeZ5": ""
  },
  {
    "WB6bsRX9": "80002",
    "SP29fLtH": "840",
    "4vSjr6zw": "6",
    "Qf67k1ut": "7",
    "gW70zeZ5": ""
  },
  {
    "WB6bsRX9": "80003",
    "SP29fLtH": "841",
    "4vSjr6zw": "11",
    "Qf67k1ut": "10",
    "gW70zeZ5": ""
  },
  {
    "WB6bsRX9": "80004",
    "SP29fLtH": "843",
    "4vSjr6zw": "10",
    "Qf67k1ut": "8",
    "gW70zeZ5": ""
  },
  {
    "WB6bsRX9": "80005",
    "SP29fLtH": "844",
    "4vSjr6zw": "1",
    "Qf67k1ut": "4",
    "gW70zeZ5": ""
  },
  {
    "WB6bsRX9": "80006",
    "SP29fLtH": "845",
    "4vSjr6zw": "9",
    "Qf67k1ut": "7",
    "gW70zeZ5": ""
  },
  {
    "WB6bsRX9": "80007",
    "SP29fLtH": "846",
    "4vSjr6zw": "11",
    "Qf67k1ut": "12",
    "gW70zeZ5": ""
  },
  {
    "WB6bsRX9": "80008",
    "SP29fLtH": "847",
    "4vSjr6zw": "7",
    "Qf67k1ut": "5",
    "gW70zeZ5": ""
  },
  {
    "WB6bsRX9": "80009",
    "SP29fLtH": "848",
    "4vSjr6zw": "8",
    "Qf67k1ut": "3",
    "gW70zeZ5": ""
  },
  {
    "WB6bsRX9": "80010",
    "SP29fLtH": "849",
    "4vSjr6zw": "12",
    "Qf67k1ut": "10",
    "gW70zeZ5": ""
  },
  {
    "WB6bsRX9": "80011",
    "SP29fLtH": "849",
    "4vSjr6zw": "10",
    "Qf67k1ut": "2",
    "gW70zeZ5": ""
  },
  {
    "WB6bsRX9": "80012",
    "SP29fLtH": "850",
    "4vSjr6zw": "5",
    "Qf67k1ut": "9",
    "gW70zeZ5": ""
  },
  {
    "WB6bsRX9": "80013",
    "SP29fLtH": "850",
    "4vSjr6zw": "9",
    "Qf67k1ut": "11",
    "gW70zeZ5": ""
  },
  {
    "WB6bsRX9": "80014",
    "SP29fLtH": "856",
    "4vSjr6zw": "6",
    "Qf67k1ut": "8",
    "gW70zeZ5": ""
  },
  {
    "WB6bsRX9": "80015",
    "SP29fLtH": "857",
    "4vSjr6zw": "11",
    "Qf67k1ut": "4",
    "gW70zeZ5": ""
  },
  {
    "WB6bsRX9": "80016",
    "SP29fLtH": "858",
    "4vSjr6zw": "2",
    "Qf67k1ut": "9",
    "gW70zeZ5": ""
  },
  {
    "WB6bsRX9": "80017",
    "SP29fLtH": "859",
    "4vSjr6zw": "3",
    "Qf67k1ut": "6",
    "gW70zeZ5": ""
  },
  {
    "WB6bsRX9": "80018",
    "SP29fLtH": "860",
    "4vSjr6zw": "10",
    "Qf67k1ut": "12",
    "gW70zeZ5": ""
  },
  {
    "WB6bsRX9": "80019",
    "SP29fLtH": "861",
    "4vSjr6zw": "8",
    "Qf67k1ut": "2",
    "gW70zeZ5": ""
  },
  {
    "WB6bsRX9": "80020",
    "SP29fLtH": "862",
    "4vSjr6zw": "5",
    "Qf67k1ut": "11",
    "gW70zeZ5": ""
  },
  {
    "WB6bsRX9": "80021",
    "SP29fLtH": "863",
    "4vSjr6zw": "9",
    "Qf67k1ut": "12",
    "gW70zeZ5": ""
  },
  {
    "WB6bsRX9": "80022",
    "SP29fLtH": "864",
    "4vSjr6zw": "4",
    "Qf67k1ut": "8",
    "gW70zeZ5": ""
  },
  {
    "WB6bsRX9": "80023",
    "SP29fLtH": "865",
    "4vSjr6zw": "7",
    "Qf67k1ut": "12",
    "gW70zeZ5": ""
  },
  {
    "WB6bsRX9": "80024",
    "SP29fLtH": "866",
    "4vSjr6zw": "10",
    "Qf67k1ut": "6",
    "gW70zeZ5": ""
  },
  {
    "WB6bsRX9": "80025",
    "SP29fLtH": "867",
    "4vSjr6zw": "3",
    "Qf67k1ut": "9",
    "gW70zeZ5": ""
  },
  {
    "WB6bsRX9": "80026",
    "SP29fLtH": "868",
    "4vSjr6zw": "8",
    "Qf67k1ut": "11",
    "gW70zeZ5": ""
  },
  {
    "WB6bsRX9": "80027",
    "SP29fLtH": "869",
    "4vSjr6zw": "10",
    "Qf67k1ut": "7",
    "gW70zeZ5": ""
  },
  {
    "WB6bsRX9": "80028",
    "SP29fLtH": "870",
    "4vSjr6zw": "5",
    "Qf67k1ut": "8",
    "gW70zeZ5": ""
  },
  {
    "WB6bsRX9": "80029",
    "SP29fLtH": "871",
    "4vSjr6zw": "2",
    "Qf67k1ut": "5",
    "gW70zeZ5": ""
  },
  {
    "WB6bsRX9": "80030",
    "SP29fLtH": "872",
    "4vSjr6zw": "6",
    "Qf67k1ut": "12",
    "gW70zeZ5": ""
  },
  {
    "WB6bsRX9": "80031",
    "SP29fLtH": "873",
    "4vSjr6zw": "5",
    "Qf67k1ut": "10",
    "gW70zeZ5": ""
  },
  {
    "WB6bsRX9": "80032",
    "SP29fLtH": "874",
    "4vSjr6zw": "8",
    "Qf67k1ut": "6",
    "gW70zeZ5": ""
  },
  {
    "WB6bsRX9": "80033",
    "SP29fLtH": "875",
    "4vSjr6zw": "9",
    "Qf67k1ut": "4",
    "gW70zeZ5": ""
  },
  {
    "WB6bsRX9": "80034",
    "SP29fLtH": "876",
    "4vSjr6zw": "12",
    "Qf67k1ut": "5",
    "gW70zeZ5": ""
  },
  {
    "WB6bsRX9": "80035",
    "SP29fLtH": "877",
    "4vSjr6zw": "3",
    "Qf67k1ut": "11",
    "gW70zeZ5": ""
  },
  {
    "WB6bsRX9": "80036",
    "SP29fLtH": "878",
    "4vSjr6zw": "4",
    "Qf67k1ut": "7",
    "gW70zeZ5": ""
  },
  {
    "WB6bsRX9": "80037",
    "SP29fLtH": "879",
    "4vSjr6zw": "11",
    "Qf67k1ut": "2",
    "gW70zeZ5": ""
  },
  {
    "WB6bsRX9": "80038",
    "SP29fLtH": "880",
    "4vSjr6zw": "6",
    "Qf67k1ut": "12",
    "gW70zeZ5": ""
  },
  {
    "WB6bsRX9": "80039",
    "SP29fLtH": "880",
    "4vSjr6zw": "12",
    "Qf67k1ut": "7",
    "gW70zeZ5": ""
  },
  {
    "WB6bsRX9": "80040",
    "SP29fLtH": "880",
    "4vSjr6zw": "7",
    "Qf67k1ut": "4",
    "gW70zeZ5": ""
  },
  {
    "WB6bsRX9": "80041",
    "SP29fLtH": "880",
    "4vSjr6zw": "4",
    "Qf67k1ut": "6",
    "gW70zeZ5": ""
  },
  {
    "WB6bsRX9": "80042",
    "SP29fLtH": "881",
    "4vSjr6zw": "4",
    "Qf67k1ut": "6",
    "gW70zeZ5": ""
  },
  {
    "WB6bsRX9": "80043",
    "SP29fLtH": "882",
    "4vSjr6zw": "2",
    "Qf67k1ut": "9",
    "gW70zeZ5": ""
  },
  {
    "WB6bsRX9": "80044",
    "SP29fLtH": "883",
    "4vSjr6zw": "3",
    "Qf67k1ut": "5",
    "gW70zeZ5": ""
  },
  {
    "WB6bsRX9": "80045",
    "SP29fLtH": "884",
    "4vSjr6zw": "8",
    "Qf67k1ut": "11",
    "gW70zeZ5": ""
  },
  {
    "WB6bsRX9": "80046",
    "SP29fLtH": "885",
    "4vSjr6zw": "14",
    "Qf67k1ut": "15",
    "gW70zeZ5": ""
  },
  {
    "WB6bsRX9": "80047",
    "SP29fLtH": "886",
    "4vSjr6zw": "10",
    "Qf67k1ut": "15",
    "gW70zeZ5": ""
  },
  {
    "WB6bsRX9": "80048",
    "SP29fLtH": "887",
    "4vSjr6zw": "14",
    "Qf67k1ut": "6",
    "gW70zeZ5": ""
  },
  {
    "WB6bsRX9": "80049",
    "SP29fLtH": "888",
    "4vSjr6zw": "7",
    "Qf67k1ut": "12",
    "gW70zeZ5": ""
  },
  {
    "WB6bsRX9": "80050",
    "SP29fLtH": "889",
    "4vSjr6zw": "3",
    "Qf67k1ut": "13",
    "gW70zeZ5": ""
  },
  {
    "WB6bsRX9": "80051",
    "SP29fLtH": "890",
    "4vSjr6zw": "5",
    "Qf67k1ut": "7",
    "gW70zeZ5": ""
  },
  {
    "WB6bsRX9": "80052",
    "SP29fLtH": "891",
    "4vSjr6zw": "15",
    "Qf67k1ut": "13",
    "gW70zeZ5": ""
  },
  {
    "WB6bsRX9": "80053",
    "SP29fLtH": "892",
    "4vSjr6zw": "5",
    "Qf67k1ut": "8",
    "gW70zeZ5": ""
  },
  {
    "WB6bsRX9": "80054",
    "SP29fLtH": "893",
    "4vSjr6zw": "9",
    "Qf67k1ut": "14",
    "gW70zeZ5": ""
  },
  {
    "WB6bsRX9": "80055",
    "SP29fLtH": "894",
    "4vSjr6zw": "13",
    "Qf67k1ut": "5",
    "gW70zeZ5": ""
  },
  {
    "WB6bsRX9": "80056",
    "SP29fLtH": "895",
    "4vSjr6zw": "12",
    "Qf67k1ut": "7",
    "gW70zeZ5": ""
  },
  {
    "WB6bsRX9": "80057",
    "SP29fLtH": "895",
    "4vSjr6zw": "7",
    "Qf67k1ut": "13",
    "gW70zeZ5": ""
  },
  {
    "WB6bsRX9": "80058",
    "SP29fLtH": "895",
    "4vSjr6zw": "13",
    "Qf67k1ut": "11",
    "gW70zeZ5": ""
  },
  {
    "WB6bsRX9": "85000",
    "SP29fLtH": "87074",
    "4vSjr6zw": "5",
    "Qf67k1ut": "6",
    "gW70zeZ5": ""
  },
  {
    "WB6bsRX9": "85001",
    "SP29fLtH": "87074",
    "4vSjr6zw": "6",
    "Qf67k1ut": "5",
    "gW70zeZ5": ""
  },
  {
    "WB6bsRX9": "85002",
    "SP29fLtH": "87074",
    "4vSjr6zw": "5",
    "Qf67k1ut": "7",
    "gW70zeZ5": ""
  },
  {
    "WB6bsRX9": "85003",
    "SP29fLtH": "87074",
    "4vSjr6zw": "7",
    "Qf67k1ut": "5",
    "gW70zeZ5": ""
  },
  {
    "WB6bsRX9": "85004",
    "SP29fLtH": "87074",
    "4vSjr6zw": "6",
    "Qf67k1ut": "7",
    "gW70zeZ5": ""
  },
  {
    "WB6bsRX9": "85005",
    "SP29fLtH": "87074",
    "4vSjr6zw": "7",
    "Qf67k1ut": "6",
    "gW70zeZ5": ""
  }
]