[
  {
    "b2LNsR7C": "1",
    "R2XB69Zj": "10130",
    "WDUyI85C": "<size=6><br></size><size=13>【Farmable Locations】</size><size=11><br>Vortex Gate<br>Tuesday Dungeon<br>Enchanted Paradise<br>\"Garden of Nymphs\"</size>"
  },
  {
    "b2LNsR7C": "1",
    "R2XB69Zj": "10131",
    "WDUyI85C": "<size=6><br></size><size=13>【Farmable Locations】</size><size=11><br>Vortex Gate<br>Tuesday Dungeon<br>Enchanted Paradise<br>\"Garden of Spirits\"</size>"
  },
  {
    "b2LNsR7C": "1",
    "R2XB69Zj": "10132",
    "WDUyI85C": "<size=6><br></size><size=13>【Farmable Locations】</size><size=11><br>Vortex Gate<br>Tuesday Dungeon<br>Enchanted Paradise<br>\"Garden of Idols\"</size>"
  },
  {
    "b2LNsR7C": "1",
    "R2XB69Zj": "10133",
    "WDUyI85C": "<size=6><br></size><size=13>【Farmable Locations】</size><size=11><br>Vortex Gate<br>Weekend Dungeon<br>Oasis of the Gods<br>\"Ruins of Fire Lv. 3\"</size>"
  },
  {
    "b2LNsR7C": "1",
    "R2XB69Zj": "10191",
    "WDUyI85C": "<size=6><br></size><size=13>【Farmable Locations】</size><size=11><br>Vortex Gate<br>Tuesday Dungeon<br>Enchanted Paradise<br>\"Phantom Pots\"</size>"
  },
  {
    "b2LNsR7C": "1",
    "R2XB69Zj": "10202",
    "WDUyI85C": "<size=6><br></size><size=13>【Farmable Locations】</size><size=11><br>Vortex Gate<br>Parade Garden<br>\"Metal Parade!\"</size>"
  },
  {
    "b2LNsR7C": "1",
    "R2XB69Zj": "10312",
    "WDUyI85C": "<size=6><br></size><size=13>【Farmable Locations】</size><size=11><br>Mission Exchange Hall<br>Guild Exchange Hall<br>Vortex Arena Event Bazaar</size>"
  },
  {
    "b2LNsR7C": "1",
    "R2XB69Zj": "10313",
    "WDUyI85C": "<size=6><br></size><size=13>【Farmable Locations】</size><size=11><br>Mission Exchange Hall<br>Guild Exchange Hall<br>Guilty Gear Event Bazaar<br>Vortex Arena Event Bazaar</size>"
  },
  {
    "b2LNsR7C": "1",
    "R2XB69Zj": "10354",
    "WDUyI85C": "<size=6><br></size><size=13>【Farmable Locations】</size><size=11><br>Vortex Gate<br>Weekend Dungeon<br>The Mecha Gods Awaken<br>\"Sanctum of Fire Lv. 6\"</size>"
  },
  {
    "b2LNsR7C": "1",
    "R2XB69Zj": "20130",
    "WDUyI85C": "<size=6><br></size><size=13>【Farmable Locations】</size><size=11><br>Vortex Gate<br>Tuesday Dungeon<br>Enchanted Paradise<br>\"Garden of Nymphs\"</size>"
  },
  {
    "b2LNsR7C": "1",
    "R2XB69Zj": "20131",
    "WDUyI85C": "<size=6><br></size><size=13>【Farmable Locations】</size><size=11><br>Vortex Gate<br>Tuesday Dungeon<br>Enchanted Paradise<br>\"Garden of Spirits\"</size>"
  },
  {
    "b2LNsR7C": "1",
    "R2XB69Zj": "20132",
    "WDUyI85C": "<size=6><br></size><size=13>【Farmable Locations】</size><size=11><br>Vortex Gate<br>Tuesday Dungeon<br>Enchanted Paradise<br>\"Garden of Idols\"</size>"
  },
  {
    "b2LNsR7C": "1",
    "R2XB69Zj": "20133",
    "WDUyI85C": "<size=6><br></size><size=13>【Farmable Locations】</size><size=11><br>Vortex Gate<br>Weekend Dungeon<br>Oasis of the Gods<br>\"Ruins of Water Lv. 3\"</size>"
  },
  {
    "b2LNsR7C": "1",
    "R2XB69Zj": "20191",
    "WDUyI85C": "<size=6><br></size><size=13>【Farmable Locations】</size><size=11><br>Vortex Gate<br>Tuesday Dungeon<br>Enchanted Paradise<br>\"Phantom Pots\"</size>"
  },
  {
    "b2LNsR7C": "1",
    "R2XB69Zj": "20202",
    "WDUyI85C": "<size=6><br></size><size=13>【Farmable Locations】</size><size=11><br>Vortex Gate<br>Parade Garden<br>\"Metal Parade!\"</size>"
  },
  {
    "b2LNsR7C": "1",
    "R2XB69Zj": "20302",
    "WDUyI85C": "<size=6><br></size><size=13>【Farmable Locations】</size><size=11><br>Mission Exchange Hall<br>Guild Exchange Hall<br>Guilty Gear Event Bazaar<br>Vortex Arena Event Bazaar</size>"
  },
  {
    "b2LNsR7C": "1",
    "R2XB69Zj": "20344",
    "WDUyI85C": "<size=6><br></size><size=13>【Farmable Locations】</size><size=11><br>Vortex Gate<br>Weekend Dungeon<br>The Mecha Gods Awaken<br>\"Sanctum of Water Lv. 6\"</size>"
  },
  {
    "b2LNsR7C": "1",
    "R2XB69Zj": "30130",
    "WDUyI85C": "<size=6><br></size><size=13>【Farmable Locations】</size><size=11><br>Vortex Gate<br>Tuesday Dungeon<br>Enchanted Paradise<br>\"Garden of Nymphs\"</size>"
  },
  {
    "b2LNsR7C": "1",
    "R2XB69Zj": "30131",
    "WDUyI85C": "<size=6><br></size><size=13>【Farmable Locations】</size><size=11><br>Vortex Gate<br>Tuesday Dungeon<br>Enchanted Paradise<br>\"Garden of Spirits\"</size>"
  },
  {
    "b2LNsR7C": "1",
    "R2XB69Zj": "30132",
    "WDUyI85C": "<size=6><br></size><size=13>【Farmable Locations】</size><size=11><br>Vortex Gate<br>Tuesday Dungeon<br>Enchanted Paradise<br>\"Garden of Idols\"</size>"
  },
  {
    "b2LNsR7C": "1",
    "R2XB69Zj": "30133",
    "WDUyI85C": "<size=6><br></size><size=13>【Farmable Locations】</size><size=11><br>Vortex Gate<br>Weekend Dungeon<br>Oasis of the Gods<br>\"Ruins of Earth Lv. 3\"</size>"
  },
  {
    "b2LNsR7C": "1",
    "R2XB69Zj": "30191",
    "WDUyI85C": "<size=6><br></size><size=13>【Farmable Locations】</size><size=11><br>Vortex Gate<br>Tuesday Dungeon<br>Enchanted Paradise<br>\"Phantom Pots\"</size>"
  },
  {
    "b2LNsR7C": "1",
    "R2XB69Zj": "30202",
    "WDUyI85C": "<size=6><br></size><size=13>【Farmable Locations】</size><size=11><br>Vortex Gate<br>Parade Garden<br>\"Metal Parade!\"</size>"
  },
  {
    "b2LNsR7C": "1",
    "R2XB69Zj": "30334",
    "WDUyI85C": "<size=6><br></size><size=13>【Farmable Locations】</size><size=11><br>Vortex Gate<br>Weekend Dungeon<br>The Mecha Gods Awaken<br>\"Sanctum of Earth Lv. 6\"</size>"
  },
  {
    "b2LNsR7C": "1",
    "R2XB69Zj": "40130",
    "WDUyI85C": "<size=6><br></size><size=13>【Farmable Locations】</size><size=11><br>Vortex Gate<br>Tuesday Dungeon<br>Enchanted Paradise<br>\"Garden of Nymphs\"</size>"
  },
  {
    "b2LNsR7C": "1",
    "R2XB69Zj": "40131",
    "WDUyI85C": "<size=6><br></size><size=13>【Farmable Locations】</size><size=11><br>Vortex Gate<br>Tuesday Dungeon<br>Enchanted Paradise<br>\"Garden of Spirits\"</size>"
  },
  {
    "b2LNsR7C": "1",
    "R2XB69Zj": "40132",
    "WDUyI85C": "<size=6><br></size><size=13>【Farmable Locations】</size><size=11><br>Vortex Gate<br>Tuesday Dungeon<br>Enchanted Paradise<br>\"Garden of Idols\"</size>"
  },
  {
    "b2LNsR7C": "1",
    "R2XB69Zj": "40133",
    "WDUyI85C": "<size=6><br></size><size=13>【Farmable Locations】</size><size=11><br>Vortex Gate<br>Weekend Dungeon<br>Oasis of the Gods<br>\"Ruins of Thunder Lv. 3\"</size>"
  },
  {
    "b2LNsR7C": "1",
    "R2XB69Zj": "40191",
    "WDUyI85C": "<size=6><br></size><size=13>【Farmable Locations】</size><size=11><br>Vortex Gate<br>Tuesday Dungeon<br>Enchanted Paradise<br>\"Phantom Pots\"</size>"
  },
  {
    "b2LNsR7C": "1",
    "R2XB69Zj": "40202",
    "WDUyI85C": "<size=6><br></size><size=13>【Farmable Locations】</size><size=11><br>Vortex Gate<br>Parade Garden<br>\"Metal Parade!\"</size>"
  },
  {
    "b2LNsR7C": "1",
    "R2XB69Zj": "40334",
    "WDUyI85C": "<size=6><br></size><size=13>【Farmable Locations】</size><size=11><br>Vortex Gate<br>Weekend Dungeon<br>The Mecha Gods Awaken<br>\"Sanctum of Thunder Lv. 6\"</size>"
  },
  {
    "b2LNsR7C": "1",
    "R2XB69Zj": "50120",
    "WDUyI85C": "<size=6><br></size><size=13>【Farmable Locations】</size><size=11><br>Vortex Gate<br>Tuesday Dungeon<br>Enchanted Paradise<br>\"Garden of Nymphs\"</size>"
  },
  {
    "b2LNsR7C": "1",
    "R2XB69Zj": "50121",
    "WDUyI85C": "<size=6><br></size><size=13>【Farmable Locations】</size><size=11><br>Vortex Gate<br>Tuesday Dungeon<br>Enchanted Paradise<br>\"Garden of Spirits\"</size>"
  },
  {
    "b2LNsR7C": "1",
    "R2XB69Zj": "50122",
    "WDUyI85C": "<size=6><br></size><size=13>【Farmable Locations】</size><size=11><br>Vortex Gate<br>Tuesday Dungeon<br>Enchanted Paradise<br>\"Garden of Idols\"</size>"
  },
  {
    "b2LNsR7C": "1",
    "R2XB69Zj": "50123",
    "WDUyI85C": "<size=6><br></size><size=13>【Farmable Locations】</size><size=11><br>Vortex Gate<br>Weekend Dungeon<br>Oasis of the Gods<br>\"Ruins of Light\"</size>"
  },
  {
    "b2LNsR7C": "1",
    "R2XB69Zj": "50191",
    "WDUyI85C": "<size=6><br></size><size=13>【Farmable Locations】</size><size=11><br>Vortex Gate<br>Tuesday Dungeon<br>Enchanted Paradise<br>\"Phantom Pots\"</size>"
  },
  {
    "b2LNsR7C": "1",
    "R2XB69Zj": "50202",
    "WDUyI85C": "<size=6><br></size><size=13>【Farmable Locations】</size><size=11><br>Vortex Gate<br>Parade Garden<br>\"Metal Parade!\"</size>"
  },
  {
    "b2LNsR7C": "1",
    "R2XB69Zj": "50354",
    "WDUyI85C": "<size=6><br></size><size=13>【Farmable Locations】</size><size=11><br>Vortex Gate<br>Weekend Dungeon<br>Oasis of the Gods<br>\"Ruins of Miracles Lv. 4\"</size>"
  },
  {
    "b2LNsR7C": "1",
    "R2XB69Zj": "50394",
    "WDUyI85C": "<size=6><br></size><size=13>【Farmable Locations】</size><size=11><br>Vortex Gate<br>Weekend Dungeon<br>The Mecha Gods Awaken<br>\"Sanctum of Light Lv. 6\"</size>"
  },
  {
    "b2LNsR7C": "1",
    "R2XB69Zj": "60120",
    "WDUyI85C": "<size=6><br></size><size=13>【Farmable Locations】</size><size=11><br>Vortex Gate<br>Tuesday Dungeon<br>Enchanted Paradise<br>\"Garden of Nymphs\"</size>"
  },
  {
    "b2LNsR7C": "1",
    "R2XB69Zj": "60121",
    "WDUyI85C": "<size=6><br></size><size=13>【Farmable Locations】</size><size=11><br>Vortex Gate<br>Tuesday Dungeon<br>Enchanted Paradise<br>\"Garden of Spirits\"</size>"
  },
  {
    "b2LNsR7C": "1",
    "R2XB69Zj": "60122",
    "WDUyI85C": "<size=6><br></size><size=13>【Farmable Locations】</size><size=11><br>Vortex Gate<br>Tuesday Dungeon<br>Enchanted Paradise<br>\"Garden of Idols\"</size>"
  },
  {
    "b2LNsR7C": "1",
    "R2XB69Zj": "60123",
    "WDUyI85C": "<size=6><br></size><size=13>【Farmable Locations】</size><size=11><br>Vortex Gate<br>Weekend Dungeon<br>Oasis of the Gods<br>\"Ruins of Dark\"</size>"
  },
  {
    "b2LNsR7C": "1",
    "R2XB69Zj": "60132",
    "WDUyI85C": "<size=6><br></size><size=13>【Farmable Locations】</size><size=11><br>Vortex Gate<br>Parade Garden<br>\"Metal Parade!\"</size>"
  },
  {
    "b2LNsR7C": "1",
    "R2XB69Zj": "60133",
    "WDUyI85C": "<size=6><br></size><size=13>【Farmable Locations】</size><size=11><br>Vortex Gate<br>Parade Garden<br>\"Metal Parade!\"</size>"
  },
  {
    "b2LNsR7C": "1",
    "R2XB69Zj": "60134",
    "WDUyI85C": "<size=6><br></size><size=13>【Farmable Locations】</size><size=11><br>Vortex Gate<br>Parade Garden<br>\"Metal Parade!\"</size>"
  },
  {
    "b2LNsR7C": "1",
    "R2XB69Zj": "60142",
    "WDUyI85C": "<size=6><br></size><size=13>【Farmable Locations】</size><size=11><br>Vortex Gate<br>Wednesday Dungeon<br>Cave of Desires<br>\"The Box of Desires Lv. 1\"</size>"
  },
  {
    "b2LNsR7C": "1",
    "R2XB69Zj": "60143",
    "WDUyI85C": "<size=6><br></size><size=13>【Farmable Locations】</size><size=11><br>Vortex Gate<br>Wednesday Dungeon<br>Cave of Desires<br>\"The Box of Desires Lv. 2\"</size>"
  },
  {
    "b2LNsR7C": "1",
    "R2XB69Zj": "60144",
    "WDUyI85C": "<size=6><br></size><size=13>【Farmable Locations】</size><size=11><br>Vortex Gate<br>Wednesday Dungeon<br>Cave of Desires<br>\"The Box of Desires Lv. 3\"</size>"
  },
  {
    "b2LNsR7C": "1",
    "R2XB69Zj": "60201",
    "WDUyI85C": "<size=6><br></size><size=13>【Farmable Locations】</size><size=11><br>Vortex Gate<br>Tuesday Dungeon<br>Enchanted Paradise<br>\"Phantom Pots\"</size>"
  },
  {
    "b2LNsR7C": "1",
    "R2XB69Zj": "60224",
    "WDUyI85C": "<size=6><br></size><size=13>【Farmable Locations】</size><size=11><br>Bat Mimic's Evolution</size>"
  },
  {
    "b2LNsR7C": "1",
    "R2XB69Zj": "60344",
    "WDUyI85C": "<size=6><br></size><size=13>【Farmable Locations】</size><size=11><br>Vortex Gate<br>Weekend Dungeon<br>The Mecha Gods Awaken<br>\"Sanctum of Dark Lv. 6\"</size>"
  },
  {
    "b2LNsR7C": "1",
    "R2XB69Zj": "750122",
    "WDUyI85C": "<size=6><br></size><size=13>【Obtainable Location】</size><size=11><br>Vortex: A Dark Ritual<br>Setting up the Plan Lv. 2<br>Defeat Merlin once.</size>"
  },
  {
    "b2LNsR7C": "1",
    "R2XB69Zj": "810034",
    "WDUyI85C": "<size=6><br></size><size=13>【Farmable Locations】</size><size=11><br>Vortex Gate<br>Wednesday Dungeon<br>Bulb Haven<br>\"Crimson Fields\"</size>"
  },
  {
    "b2LNsR7C": "1",
    "R2XB69Zj": "810035",
    "WDUyI85C": "<size=6><br></size><size=13>【Farmable Locations】</size><size=11><br>Vortex Gate<br>Hall of Melody<br>\"Hymn of Dusk\"</size>"
  },
  {
    "b2LNsR7C": "1",
    "R2XB69Zj": "810125",
    "WDUyI85C": "<size=6><br></size><size=13>【Farmable Locations】</size><size=11><br>Vortex Gate<br>Thursday Dungeon<br>Soul Bound Saga<br>\"Machine of Destruction\"</size>"
  },
  {
    "b2LNsR7C": "1",
    "R2XB69Zj": "820034",
    "WDUyI85C": "<size=6><br></size><size=13>【Farmable Locations】</size><size=11><br>Vortex Gate<br>Wednesday Dungeon<br>Bulb Haven<br>\"Misty Fields\"</size>"
  },
  {
    "b2LNsR7C": "1",
    "R2XB69Zj": "820035",
    "WDUyI85C": "<size=6><br></size><size=13>【Farmable Locations】</size><size=11><br>Vortex Gate<br>Hall of Melody<br>\"Hymn of Dusk\"</size>"
  },
  {
    "b2LNsR7C": "1",
    "R2XB69Zj": "820125",
    "WDUyI85C": "<size=6><br></size><size=13>【Farmable Locations】</size><size=11><br>Vortex Gate<br>Thursday Dungeon<br>Soul Bound Saga<br>\"Abyssal Fury\"</size>"
  },
  {
    "b2LNsR7C": "1",
    "R2XB69Zj": "820505",
    "WDUyI85C": "<size=6><br></size><size=13>【Farmable Locations】</size><size=11><br>Vortex Gate<br>Witch of the Abyss<br>\"Abyss Rescue Lv. 4\"</size>"
  },
  {
    "b2LNsR7C": "1",
    "R2XB69Zj": "830034",
    "WDUyI85C": "<size=6><br></size><size=13>【Farmable Locations】</size><size=11><br>Vortex Gate<br>Wednesday Dungeon<br>Bulb Haven<br>\"Moss Fields\"</size>"
  },
  {
    "b2LNsR7C": "1",
    "R2XB69Zj": "830035",
    "WDUyI85C": "<size=6><br></size><size=13>【Farmable Locations】</size><size=11><br>Vortex Gate<br>Hall of Melody<br>\"Hymn of Dawn\"</size>"
  },
  {
    "b2LNsR7C": "1",
    "R2XB69Zj": "830125",
    "WDUyI85C": "<size=6><br></size><size=13>【Farmable Locations】</size><size=11><br>Vortex Gate<br>Thursday Dungeon<br>Soul Bound Saga<br>\"Sanctuary Skirmish\"</size>"
  },
  {
    "b2LNsR7C": "1",
    "R2XB69Zj": "840034",
    "WDUyI85C": "<size=6><br></size><size=13>【Farmable Locations】</size><size=11><br>Vortex Gate<br>Wednesday Dungeon<br>Bulb Haven<br>\"Static Fields\"</size>"
  },
  {
    "b2LNsR7C": "1",
    "R2XB69Zj": "840035",
    "WDUyI85C": "<size=6><br></size><size=13>【Farmable Locations】</size><size=11><br>Vortex Gate<br>Hall of Melody<br>\"Hymn of Dawn\"</size>"
  },
  {
    "b2LNsR7C": "1",
    "R2XB69Zj": "840125",
    "WDUyI85C": "<size=6><br></size><size=13>【Farmable Locations】</size><size=11><br>Vortex Gate<br>Thursday Dungeon<br>Soul Bound Saga<br>\"Pinnacle of Command\"</size>"
  },
  {
    "b2LNsR7C": "1",
    "R2XB69Zj": "850034",
    "WDUyI85C": "<size=6><br></size><size=13>【Farmable Locations】</size><size=11><br>Vortex Gate<br>Wednesday Dungeon<br>Bulb Haven<br>\"Radiant Fields\"</size>"
  },
  {
    "b2LNsR7C": "1",
    "R2XB69Zj": "850035",
    "WDUyI85C": "<size=6><br></size><size=13>【Farmable Locations】</size><size=11><br>Vortex Gate<br>Hall of Melody<br>\"Hymn of Dusk\"</size>"
  },
  {
    "b2LNsR7C": "1",
    "R2XB69Zj": "850125",
    "WDUyI85C": "<size=6><br></size><size=13>【Farmable Locations】</size><size=11><br>Vortex Gate<br>Thursday Dungeon<br>Soul Bound Saga<br>\"Spiteful Passion\"</size>"
  },
  {
    "b2LNsR7C": "1",
    "R2XB69Zj": "860034",
    "WDUyI85C": "<size=6><br></size><size=13>【Farmable Locations】</size><size=11><br>Vortex Gate<br>Wednesday Dungeon<br>Bulb Haven<br>\"Shadow Fields\"</size>"
  },
  {
    "b2LNsR7C": "1",
    "R2XB69Zj": "860035",
    "WDUyI85C": "<size=6><br></size><size=13>【Farmable Locations】</size><size=11><br>Vortex Gate<br>Hall of Melody<br>\"Hymn of Dawn\"</size>"
  },
  {
    "b2LNsR7C": "1",
    "R2XB69Zj": "860125",
    "WDUyI85C": "<size=6><br></size><size=13>【Farmable Locations】</size><size=11><br>Vortex Gate<br>Thursday Dungeon<br>Soul Bound Saga<br>\"Underworld Umbrage\"</size>"
  },
  {
    "b2LNsR7C": "1",
    "R2XB69Zj": "870034",
    "WDUyI85C": "<size=6><br></size><size=13>【Farmable Locations】</size><size=11><br>Vortex Gate<br>Wednesday Dungeon<br>Bulb Haven</size>"
  },
  {
    "b2LNsR7C": "1",
    "R2XB69Zj": "87102601",
    "WDUyI85C": "<size=6><br></size><size=13>【Obtainable Location】</size><size=11><br>Raid Battle Bazaar</size><br>Exalted Bazaar<br>Brave Insignia Bazaar</size>"
  },
  {
    "b2LNsR7C": "1",
    "R2XB69Zj": "87202601",
    "WDUyI85C": "<size=6><br></size><size=13>【Obtainable Location】</size><size=11><br>Raid Battle Bazaar</size><br>Exalted Bazaar<br>Brave Insignia Bazaar</size>"
  },
  {
    "b2LNsR7C": "1",
    "R2XB69Zj": "87302601",
    "WDUyI85C": "<size=6><br></size><size=13>【Obtainable Location】</size><size=11><br>Raid Battle Bazaar</size><br>Exalted Bazaar<br>Brave Insignia Bazaar</size>"
  },
  {
    "b2LNsR7C": "1",
    "R2XB69Zj": "87402601",
    "WDUyI85C": "<size=6><br></size><size=13>【Obtainable Location】</size><size=11><br>Raid Battle Bazaar</size><br>Exalted Bazaar<br>Brave Insignia Bazaar</size>"
  },
  {
    "b2LNsR7C": "1",
    "R2XB69Zj": "87502601",
    "WDUyI85C": "<size=6><br></size><size=13>【Obtainable Location】</size><size=11><br>Raid Battle Bazaar</size><br>Exalted Bazaar<br>Brave Insignia Bazaar</size>"
  },
  {
    "b2LNsR7C": "1",
    "R2XB69Zj": "87602601",
    "WDUyI85C": "<size=6><br></size><size=13>【Obtainable Location】</size><size=11><br>Raid Battle Bazaar</size><br>Exalted Bazaar<br>Brave Insignia Bazaar</size>"
  },
  {
    "b2LNsR7C": "2",
    "R2XB69Zj": "110000",
    "WDUyI85C": "<size=6><br></size><size=13>【Farmable Locations】</size><size=11><br>Grand Quest<br>\"The Crimson God's Cry\"</size>"
  },
  {
    "b2LNsR7C": "2",
    "R2XB69Zj": "110001",
    "WDUyI85C": "<size=6><br></size><size=13>【Farmable Locations】</size><size=11><br>Quest<br>Estria<br>Sealed Altar<br>\"Desire to be the Best\"</size>"
  },
  {
    "b2LNsR7C": "2",
    "R2XB69Zj": "110010",
    "WDUyI85C": "<size=6><br></size><size=13>【Farmable Locations】</size><size=11><br>Grand Quest<br>\"Cobalt Spirit's Waking\"</size>"
  },
  {
    "b2LNsR7C": "2",
    "R2XB69Zj": "110011",
    "WDUyI85C": "<size=6><br></size><size=13>【Farmable Locations】</size><size=11><br>Quest<br>Estria<br>Sealed Altar<br>\"True Dragon's Power\"</size>"
  },
  {
    "b2LNsR7C": "2",
    "R2XB69Zj": "110020",
    "WDUyI85C": "<size=6><br></size><size=13>【Farmable Locations】</size><size=11><br>Grand Quest<br>\"Warped Reflection\"</size>"
  },
  {
    "b2LNsR7C": "2",
    "R2XB69Zj": "110021",
    "WDUyI85C": "<size=6><br></size><size=13>【Farmable Locations】</size><size=11><br>Quest<br>Fal Nerga<br>Sealed Dragon's Deep<br>\"Watchful Guide\"</size>"
  },
  {
    "b2LNsR7C": "2",
    "R2XB69Zj": "110030",
    "WDUyI85C": "<size=6><br></size><size=13>【Farmable Locations】</size><size=11><br>Grand Quest<br>\"Virtual Garden\"</size>"
  },
  {
    "b2LNsR7C": "2",
    "R2XB69Zj": "110031",
    "WDUyI85C": "<size=6><br></size><size=13>【Farmable Locations】</size><size=11><br>Quest<br>Fal Nerga<br>Sealed Dragon's Deep<br>\"Thunderbird Awakens\"</size>"
  },
  {
    "b2LNsR7C": "2",
    "R2XB69Zj": "110040",
    "WDUyI85C": "<size=6><br></size><size=13>【Farmable Locations】</size><size=11><br>Quest<br>Menon<br>Empty Seal Menon's<br>\"Holy Emperor\"</size>"
  },
  {
    "b2LNsR7C": "2",
    "R2XB69Zj": "110041",
    "WDUyI85C": "<size=6><br></size><size=13>【Farmable Locations】</size><size=11><br>Trial Test<br>\"Rainbow Goddess\"<br></size>"
  },
  {
    "b2LNsR7C": "2",
    "R2XB69Zj": "110050",
    "WDUyI85C": "<size=6><br></size><size=13>【Farmable Locations】</size><size=11><br>Grand Quest<br>\"The Old Dawn General\"</size>"
  },
  {
    "b2LNsR7C": "2",
    "R2XB69Zj": "110051",
    "WDUyI85C": "<size=6><br></size><size=13>【Farmable Locations】</size><size=11><br>Trial Test<br>\"Breaking Barriers\"<br></size>"
  },
  {
    "b2LNsR7C": "2",
    "R2XB69Zj": "110060",
    "WDUyI85C": "<size=6><br></size><size=13>【Farmable Locations】</size><size=11><br>Trial Test<br>\"Breaking Barriers\"<br></size>"
  },
  {
    "b2LNsR7C": "2",
    "R2XB69Zj": "110070",
    "WDUyI85C": "<size=6><br></size><size=13>【Farmable Locations】</size><size=11><br>Quest<br>　Mildran<br>Hermitage<br>Wandering Hermit</size>"
  },
  {
    "b2LNsR7C": "2",
    "R2XB69Zj": "110080",
    "WDUyI85C": "<size=6><br></size><size=13>【Farmable Locations】</size><size=11><br>　Brave Frontier<br>　Short Novel \"Spiritual Heir\"<br>　Special</size>"
  },
  {
    "b2LNsR7C": "2",
    "R2XB69Zj": "110100",
    "WDUyI85C": "<size=6><br></size><size=13>【Farmable Locations】</size><size=11><br>Mission Exchange Hall</size>"
  },
  {
    "b2LNsR7C": "2",
    "R2XB69Zj": "800104",
    "WDUyI85C": "<size=6><br></size><size=13>【Farmable Locations】</size><size=11><br>FFBE Collab<br>Vortex Gate \"Overwhelming Darkness\"<br>Craft in Synthesis hut with materials from Vortex </size>"
  },
  {
    "b2LNsR7C": "2",
    "R2XB69Zj": "800105",
    "WDUyI85C": "<size=6><br></size><size=13>【Farmable Locations】</size><size=11><br>Vortex Gate<br>Collaboration Dungeon \"The Underworld\"<br>Craft in Synthesis hut with materials from Vortex </size>"
  },
  {
    "b2LNsR7C": "2",
    "R2XB69Zj": "800106",
    "WDUyI85C": "<size=6><br></size><size=13>【Farmable Locations】</size><size=11><br>Vortex Gate<br>Collaboration Dungeon \"Fairy Tail\"<br>Craft in Synthesis hut with materials from Vortex </size>"
  },
  {
    "b2LNsR7C": "2",
    "R2XB69Zj": "800409",
    "WDUyI85C": "<size=6><br></size><size=13>【Farmable Locations】</size><size=11><br>A Colorful Hunt<br>Vortex Gate \"Uneggspected Friend\"<br>First time clear reward from Vortex </size>"
  },
  {
    "b2LNsR7C": "2",
    "R2XB69Zj": "800606",
    "WDUyI85C": "<size=6><br></size><size=13>【Farmable Locations】</size><size=11><br>Witch of the Abyss<br>Vortex Gate \"Abyss Rescue Lv.4\"<br>Craft in Synthesis hut with materials from Vortex </size>"
  },
  {
    "b2LNsR7C": "2",
    "R2XB69Zj": "800901",
    "WDUyI85C": "<size=6><br></size><size=13>【Farmable Locations】</size><size=11><br>Vortex Arena Rewards<br>Weekend Achievements<br>Guild Exchange Hall<br>Mission Exchange Hall</size>"
  },
  {
    "b2LNsR7C": "2",
    "R2XB69Zj": "800902",
    "WDUyI85C": "<size=6><br></size><size=13>【Farmable Locations】</size><size=11><br>Vortex Arena Rewards<br>Weekend Achievements<br>Guild Exchange Hall<br>Mission Exchange Hall</size>"
  },
  {
    "b2LNsR7C": "2",
    "R2XB69Zj": "800903",
    "WDUyI85C": "<size=6><br></size><size=13>【Farmable Locations】</size><size=11><br>Vortex Arena Rewards<br>Weekend Achievements<br>Guild Exchange Hall<br>Mission Exchange Hall</size>"
  },
  {
    "b2LNsR7C": "2",
    "R2XB69Zj": "800904",
    "WDUyI85C": "<size=6><br></size><size=13>【Farmable Locations】</size><size=11><br>Vortex Arena Rewards<br>Weekend Achievements<br>Guild Exchange Hall<br>Mission Exchange Hall</size>"
  },
  {
    "b2LNsR7C": "2",
    "R2XB69Zj": "800905",
    "WDUyI85C": "<size=6><br></size><size=13>【Farmable Locations】</size><size=11><br>Vortex Arena Rewards<br>Weekend Achievements<br>Guild Exchange Hall<br>Mission Exchange Hall</size>"
  },
  {
    "b2LNsR7C": "2",
    "R2XB69Zj": "800906",
    "WDUyI85C": "<size=6><br></size><size=13>【Farmable Locations】</size><size=11><br>Vortex Arena Rewards<br>Weekend Achievements<br>Guild Exchange Hall<br>Mission Exchange Hall</size>"
  },
  {
    "b2LNsR7C": "2",
    "R2XB69Zj": "800907",
    "WDUyI85C": "<size=6><br></size><size=13>【Farmable Locations】</size><size=11><br>Vortex Arena Rewards<br>Weekend Achievements<br>Guild Exchange Hall</size>"
  },
  {
    "b2LNsR7C": "2",
    "R2XB69Zj": "800908",
    "WDUyI85C": "<size=6><br></size><size=13>【Farmable Locations】</size><size=11><br>Vortex Arena Rewards<br>Vortex Arena Event Bazaar<br>Login Bonuses</size>"
  },
  {
    "b2LNsR7C": "2",
    "R2XB69Zj": "801900",
    "WDUyI85C": "<size=6><br></size><size=13>【Obtainable Location】</size><size=11><br>The Alchemist Code Bazaar</size>"
  },
  {
    "b2LNsR7C": "2",
    "R2XB69Zj": "801901",
    "WDUyI85C": "<size=6><br></size><size=13>【Obtainable Location】</size><size=11><br>Frontier Rift: Breaching the Nebula<br>Defeat Golvorg once.</size>"
  },
  {
    "b2LNsR7C": "2",
    "R2XB69Zj": "801902",
    "WDUyI85C": "<size=6><br></size><size=13>【Obtainable Location】</size><size=11><br>Frontier Rift: Heaven's End<br>Defeat Raug Titan.</size>"
  },
  {
    "b2LNsR7C": "2",
    "R2XB69Zj": "880001",
    "WDUyI85C": "<size=6><br></size><size=13>【Farmable Locations】</size><size=11><br>Raid<br>Raid Class 4<br>\"Draegar the Demi-God\"</size>"
  },
  {
    "b2LNsR7C": "2",
    "R2XB69Zj": "880003",
    "WDUyI85C": "<size=6><br></size><size=13>【Farmable Locations】</size><size=11><br>Raid<br>Raid Class 4<br>\"Draegar the Demi-God\"</size>"
  },
  {
    "b2LNsR7C": "2",
    "R2XB69Zj": "880011",
    "WDUyI85C": "<size=6><br></size><size=13>【Farmable Locations】</size><size=11><br>Raid<br>Raid Class 4<br>\"Draegar the Demi-God\"</size>"
  },
  {
    "b2LNsR7C": "2",
    "R2XB69Zj": "880013",
    "WDUyI85C": "<size=6><br></size><size=13>【Farmable Locations】</size><size=11><br>Raid<br>Raid Class 4<br>\"Draegar the Demi-God\"</size>"
  },
  {
    "b2LNsR7C": "2",
    "R2XB69Zj": "880020",
    "WDUyI85C": "<size=6><br></size><size=13>【Farmable Locations】</size><size=11><br>Jubilant Jingles<br>Vortex Gate \"A Tear-Wrapped Reunion\"<br>Craft in Synthesis hut with materials from Vortex </size>"
  },
  {
    "b2LNsR7C": "2",
    "R2XB69Zj": "880243",
    "WDUyI85C": "<size=6><br></size><size=13>【Obtainable Locations】</size><size=11><br>RC7: Dichroma Chaos Harvest<br>Raid Battle Bazaar<br>Guild Exchange Hall</size>"
  },
  {
    "b2LNsR7C": "2",
    "R2XB69Zj": "880244",
    "WDUyI85C": "<size=6><br></size><size=13>【Obtainable Location】</size><size=11><br>Not obtainable currently</size>"
  }
]