[
  {
    "SP29fLtH": "1",
    "j28VNcUW": "2000",
    "tA4T0GXB": "10000",
    "i5r7Vjkq": "4",
    "E0yfb8eK": "4",
    "g9EcMPR6": "1",
    "P6uVAa3m": "1:0:0,1:0:0,1:0:0"
  },
  {
    "SP29fLtH": "2",
    "j28VNcUW": "2001",
    "tA4T0GXB": "10100",
    "i5r7Vjkq": "2",
    "E0yfb8eK": "2",
    "g9EcMPR6": "1",
    "P6uVAa3m": "1:0:0,1:0:0,1:0:0"
  },
  {
    "SP29fLtH": "3",
    "j28VNcUW": "2002",
    "tA4T0GXB": "10200",
    "i5r7Vjkq": "3",
    "E0yfb8eK": "3",
    "g9EcMPR6": "1",
    "P6uVAa3m": "1:0:0,1:0:0,1:0:0"
  },
  {
    "SP29fLtH": "4",
    "j28VNcUW": "2004",
    "tA4T0GXB": "10400",
    "i5r7Vjkq": "4",
    "E0yfb8eK": "2",
    "g9EcMPR6": "1",
    "P6uVAa3m": "1:0:0,1:0:0,1:0:0"
  },
  {
    "SP29fLtH": "5",
    "j28VNcUW": "2005",
    "tA4T0GXB": "10500",
    "i5r7Vjkq": "3",
    "E0yfb8eK": "2",
    "g9EcMPR6": "1",
    "P6uVAa3m": "1:0:0,1:0:0,1:0:0"
  },
  {
    "SP29fLtH": "6",
    "j28VNcUW": "2006",
    "tA4T0GXB": "10600",
    "i5r7Vjkq": "4",
    "E0yfb8eK": "2",
    "g9EcMPR6": "1",
    "P6uVAa3m": "1:0:0,1:0:0,1:0:0"
  },
  {
    "SP29fLtH": "7",
    "j28VNcUW": "2007",
    "tA4T0GXB": "10700",
    "i5r7Vjkq": "5",
    "E0yfb8eK": "5",
    "g9EcMPR6": "0",
    "P6uVAa3m": "1:0:0,1:0:0,1:0:0"
  },
  {
    "SP29fLtH": "8",
    "j28VNcUW": "3001",
    "tA4T0GXB": "20100",
    "i5r7Vjkq": "2",
    "E0yfb8eK": "4",
    "g9EcMPR6": "1",
    "P6uVAa3m": "1:0:0,1:0:0,1:0:0"
  },
  {
    "SP29fLtH": "9",
    "j28VNcUW": "3002",
    "tA4T0GXB": "20200",
    "i5r7Vjkq": "5",
    "E0yfb8eK": "6",
    "g9EcMPR6": "1",
    "P6uVAa3m": "1:0:0,1:0:0,1:0:0"
  },
  {
    "SP29fLtH": "10",
    "j28VNcUW": "3004",
    "tA4T0GXB": "20500",
    "i5r7Vjkq": "2",
    "E0yfb8eK": "5",
    "g9EcMPR6": "0",
    "P6uVAa3m": "1:0:0,1:0:0,1:0:0"
  },
  {
    "SP29fLtH": "11",
    "j28VNcUW": "3004",
    "tA4T0GXB": "20600",
    "i5r7Vjkq": "3",
    "E0yfb8eK": "4",
    "g9EcMPR6": "0",
    "P6uVAa3m": "3:10:50,3:10:50,3:10:50"
  },
  {
    "SP29fLtH": "12",
    "j28VNcUW": "3005",
    "tA4T0GXB": "20700",
    "i5r7Vjkq": "8",
    "E0yfb8eK": "11",
    "g9EcMPR6": "0",
    "P6uVAa3m": "1:0:0,1:0:0,1:0:0"
  },
  {
    "SP29fLtH": "13",
    "j28VNcUW": "3005",
    "tA4T0GXB": "20800",
    "i5r7Vjkq": "2",
    "E0yfb8eK": "6",
    "g9EcMPR6": "0",
    "P6uVAa3m": "3:12:50,3:12:50,3:12:50"
  },
  {
    "SP29fLtH": "14",
    "j28VNcUW": "3006",
    "tA4T0GXB": "20900",
    "i5r7Vjkq": "5",
    "E0yfb8eK": "9",
    "g9EcMPR6": "1",
    "P6uVAa3m": "1:0:0,1:0:0,1:0:0"
  },
  {
    "SP29fLtH": "15",
    "j28VNcUW": "3007",
    "tA4T0GXB": "21000",
    "i5r7Vjkq": "7",
    "E0yfb8eK": "8",
    "g9EcMPR6": "0",
    "P6uVAa3m": "1:0:0,1:0:0,1:0:0"
  },
  {
    "SP29fLtH": "16",
    "j28VNcUW": "3008",
    "tA4T0GXB": "21100",
    "i5r7Vjkq": "4",
    "E0yfb8eK": "7",
    "g9EcMPR6": "0",
    "P6uVAa3m": "1:0:0,1:0:0,1:0:0"
  },
  {
    "SP29fLtH": "17",
    "j28VNcUW": "3009",
    "tA4T0GXB": "21200",
    "i5r7Vjkq": "4",
    "E0yfb8eK": "7",
    "g9EcMPR6": "0",
    "P6uVAa3m": "1:0:0,1:0:0,1:0:0"
  },
  {
    "SP29fLtH": "18",
    "j28VNcUW": "3010",
    "tA4T0GXB": "21300",
    "i5r7Vjkq": "4",
    "E0yfb8eK": "8",
    "g9EcMPR6": "0",
    "P6uVAa3m": "1:0:0,1:0:0,1:0:0"
  },
  {
    "SP29fLtH": "19",
    "j28VNcUW": "3011",
    "tA4T0GXB": "21400",
    "i5r7Vjkq": "5",
    "E0yfb8eK": "10",
    "g9EcMPR6": "0",
    "P6uVAa3m": "1:0:0,1:0:0,1:0:0"
  },
  {
    "SP29fLtH": "20",
    "j28VNcUW": "4000",
    "tA4T0GXB": "30000",
    "i5r7Vjkq": "9",
    "E0yfb8eK": "10",
    "g9EcMPR6": "1",
    "P6uVAa3m": "1:0:0,1:0:0,1:0:0"
  },
  {
    "SP29fLtH": "21",
    "j28VNcUW": "4001",
    "tA4T0GXB": "30100",
    "i5r7Vjkq": "3",
    "E0yfb8eK": "3",
    "g9EcMPR6": "1",
    "P6uVAa3m": "1:0:0,1:0:0,1:0:0"
  },
  {
    "SP29fLtH": "22",
    "j28VNcUW": "4001",
    "tA4T0GXB": "30200",
    "i5r7Vjkq": "9",
    "E0yfb8eK": "11",
    "g9EcMPR6": "1",
    "P6uVAa3m": "1:0:0,1:0:0,1:0:0"
  },
  {
    "SP29fLtH": "23",
    "j28VNcUW": "4001",
    "tA4T0GXB": "30300",
    "i5r7Vjkq": "10",
    "E0yfb8eK": "10",
    "g9EcMPR6": "1",
    "P6uVAa3m": "2:180:0,2:180:0,2:180:0"
  },
  {
    "SP29fLtH": "24",
    "j28VNcUW": "4001",
    "tA4T0GXB": "30400",
    "i5r7Vjkq": "5",
    "E0yfb8eK": "5",
    "g9EcMPR6": "1",
    "P6uVAa3m": "2:180:0,2:180:0,2:180:0"
  },
  {
    "SP29fLtH": "25",
    "j28VNcUW": "4004",
    "tA4T0GXB": "30700",
    "i5r7Vjkq": "7",
    "E0yfb8eK": "5",
    "g9EcMPR6": "0",
    "P6uVAa3m": "1:0:0,1:0:0,1:0:0"
  },
  {
    "SP29fLtH": "26",
    "j28VNcUW": "4005",
    "tA4T0GXB": "30800",
    "i5r7Vjkq": "3",
    "E0yfb8eK": "9",
    "g9EcMPR6": "0",
    "P6uVAa3m": "1:0:0,1:0:0,1:0:0"
  },
  {
    "SP29fLtH": "27",
    "j28VNcUW": "4006",
    "tA4T0GXB": "30900",
    "i5r7Vjkq": "10",
    "E0yfb8eK": "10",
    "g9EcMPR6": "1",
    "P6uVAa3m": "1:0:0,1:0:0,1:0:0"
  },
  {
    "SP29fLtH": "28",
    "j28VNcUW": "4003",
    "tA4T0GXB": "31000",
    "i5r7Vjkq": "4",
    "E0yfb8eK": "8",
    "g9EcMPR6": "1",
    "P6uVAa3m": "1:0:0,1:0:0,1:0:0"
  },
  {
    "SP29fLtH": "29",
    "j28VNcUW": "4003",
    "tA4T0GXB": "31100",
    "i5r7Vjkq": "5",
    "E0yfb8eK": "6",
    "g9EcMPR6": "0",
    "P6uVAa3m": "1:0:0,1:0:0,1:0:0"
  },
  {
    "SP29fLtH": "30",
    "j28VNcUW": "4008",
    "tA4T0GXB": "31200",
    "i5r7Vjkq": "5",
    "E0yfb8eK": "9",
    "g9EcMPR6": "0",
    "P6uVAa3m": "1:0:0,1:0:0,1:0:0"
  },
  {
    "SP29fLtH": "31",
    "j28VNcUW": "4007",
    "tA4T0GXB": "31300",
    "i5r7Vjkq": "8",
    "E0yfb8eK": "11",
    "g9EcMPR6": "0",
    "P6uVAa3m": "1:0:0,1:0:0,1:0:0"
  },
  {
    "SP29fLtH": "32",
    "j28VNcUW": "4009",
    "tA4T0GXB": "31400",
    "i5r7Vjkq": "4",
    "E0yfb8eK": "8",
    "g9EcMPR6": "0",
    "P6uVAa3m": "1:0:0,1:0:0,1:0:0"
  },
  {
    "SP29fLtH": "33",
    "j28VNcUW": "4009",
    "tA4T0GXB": "31500",
    "i5r7Vjkq": "7",
    "E0yfb8eK": "10",
    "g9EcMPR6": "0",
    "P6uVAa3m": "3:32:50,3:32:50,3:32:50"
  },
  {
    "SP29fLtH": "34",
    "j28VNcUW": "4010",
    "tA4T0GXB": "31600",
    "i5r7Vjkq": "3",
    "E0yfb8eK": "6",
    "g9EcMPR6": "0",
    "P6uVAa3m": "1:0:0,1:0:0,1:0:0"
  },
  {
    "SP29fLtH": "35",
    "j28VNcUW": "4010",
    "tA4T0GXB": "31700",
    "i5r7Vjkq": "7",
    "E0yfb8eK": "11",
    "g9EcMPR6": "0",
    "P6uVAa3m": "3:34:0,3:34:0,3:34:0"
  },
  {
    "SP29fLtH": "36",
    "j28VNcUW": "4010",
    "tA4T0GXB": "31800",
    "i5r7Vjkq": "10",
    "E0yfb8eK": "9",
    "g9EcMPR6": "0",
    "P6uVAa3m": "3:35:0,3:35:0,3:35:0"
  },
  {
    "SP29fLtH": "37",
    "j28VNcUW": "4011",
    "tA4T0GXB": "31900",
    "i5r7Vjkq": "11",
    "E0yfb8eK": "11",
    "g9EcMPR6": "0",
    "P6uVAa3m": "1:0:0,1:0:0,1:0:0"
  },
  {
    "SP29fLtH": "38",
    "j28VNcUW": "3012",
    "tA4T0GXB": "20800",
    "i5r7Vjkq": "5",
    "E0yfb8eK": "5",
    "g9EcMPR6": "1",
    "P6uVAa3m": "1:0:0,1:0:0,1:0:0"
  },
  {
    "SP29fLtH": "39",
    "j28VNcUW": "2008",
    "tA4T0GXB": "10800",
    "i5r7Vjkq": "3",
    "E0yfb8eK": "3",
    "g9EcMPR6": "1",
    "P6uVAa3m": "1:0:0,1:0:0,1:0:0"
  },
  {
    "SP29fLtH": "40",
    "j28VNcUW": "3013",
    "tA4T0GXB": "21500",
    "i5r7Vjkq": "4",
    "E0yfb8eK": "4",
    "g9EcMPR6": "1",
    "P6uVAa3m": "1:0:0,1:0:0,1:0:0"
  },
  {
    "SP29fLtH": "41",
    "j28VNcUW": "4012",
    "tA4T0GXB": "32000",
    "i5r7Vjkq": "5",
    "E0yfb8eK": "5",
    "g9EcMPR6": "1",
    "P6uVAa3m": "1:0:0,1:0:0,1:0:0"
  },
  {
    "SP29fLtH": "48",
    "j28VNcUW": "5000",
    "tA4T0GXB": "40000",
    "i5r7Vjkq": "4",
    "E0yfb8eK": "5",
    "g9EcMPR6": "1",
    "P6uVAa3m": "1:0:0,1:0:0,1:0:0"
  },
  {
    "SP29fLtH": "49",
    "j28VNcUW": "5001",
    "tA4T0GXB": "40100",
    "i5r7Vjkq": "10",
    "E0yfb8eK": "4",
    "g9EcMPR6": "0",
    "P6uVAa3m": "1:0:0,1:0:0,1:0:0"
  },
  {
    "SP29fLtH": "50",
    "j28VNcUW": "5002",
    "tA4T0GXB": "40200",
    "i5r7Vjkq": "5",
    "E0yfb8eK": "2",
    "g9EcMPR6": "1",
    "P6uVAa3m": "1:0:0,1:0:0,1:0:0"
  },
  {
    "SP29fLtH": "51",
    "j28VNcUW": "5002",
    "tA4T0GXB": "40300",
    "i5r7Vjkq": "10",
    "E0yfb8eK": "8",
    "g9EcMPR6": "0",
    "P6uVAa3m": "1:0:0,1:0:0,1:0:0"
  },
  {
    "SP29fLtH": "52",
    "j28VNcUW": "5004",
    "tA4T0GXB": "40500",
    "i5r7Vjkq": "7",
    "E0yfb8eK": "8",
    "g9EcMPR6": "0",
    "P6uVAa3m": "1:0:0,1:0:0,1:0:0"
  },
  {
    "SP29fLtH": "53",
    "j28VNcUW": "5005",
    "tA4T0GXB": "40600",
    "i5r7Vjkq": "9",
    "E0yfb8eK": "6",
    "g9EcMPR6": "0",
    "P6uVAa3m": "1:0:0,1:0:0,1:0:0"
  },
  {
    "SP29fLtH": "54",
    "j28VNcUW": "5010",
    "tA4T0GXB": "40700",
    "i5r7Vjkq": "5",
    "E0yfb8eK": "5",
    "g9EcMPR6": "1",
    "P6uVAa3m": "1:0:0,1:0:0,1:0:0"
  },
  {
    "SP29fLtH": "55",
    "j28VNcUW": "5006",
    "tA4T0GXB": "40800",
    "i5r7Vjkq": "7",
    "E0yfb8eK": "6",
    "g9EcMPR6": "0",
    "P6uVAa3m": "1:0:0,1:0:0,1:0:0"
  },
  {
    "SP29fLtH": "56",
    "j28VNcUW": "5007",
    "tA4T0GXB": "40900",
    "i5r7Vjkq": "7",
    "E0yfb8eK": "6",
    "g9EcMPR6": "0",
    "P6uVAa3m": "1:0:0,1:0:0,1:0:0"
  },
  {
    "SP29fLtH": "57",
    "j28VNcUW": "5007",
    "tA4T0GXB": "41000",
    "i5r7Vjkq": "10",
    "E0yfb8eK": "11",
    "g9EcMPR6": "0",
    "P6uVAa3m": "1:0:0,1:0:0,1:0:0"
  },
  {
    "SP29fLtH": "58",
    "j28VNcUW": "5008",
    "tA4T0GXB": "41100",
    "i5r7Vjkq": "6",
    "E0yfb8eK": "8",
    "g9EcMPR6": "0",
    "P6uVAa3m": "1:0:0,1:0:0,1:0:0"
  },
  {
    "SP29fLtH": "59",
    "j28VNcUW": "6000",
    "tA4T0GXB": "50000",
    "i5r7Vjkq": "3",
    "E0yfb8eK": "3",
    "g9EcMPR6": "1",
    "P6uVAa3m": "1:0:0,1:0:0,1:0:0"
  },
  {
    "SP29fLtH": "60",
    "j28VNcUW": "6000",
    "tA4T0GXB": "50010",
    "i5r7Vjkq": "6",
    "E0yfb8eK": "6",
    "g9EcMPR6": "0",
    "P6uVAa3m": "1:0:0,1:0:0,1:0:0"
  },
  {
    "SP29fLtH": "61",
    "j28VNcUW": "6000",
    "tA4T0GXB": "50020",
    "i5r7Vjkq": "11",
    "E0yfb8eK": "11",
    "g9EcMPR6": "1",
    "P6uVAa3m": "1:0:0,1:0:0,1:0:0"
  },
  {
    "SP29fLtH": "62",
    "j28VNcUW": "6000",
    "tA4T0GXB": "50030",
    "i5r7Vjkq": "10",
    "E0yfb8eK": "10",
    "g9EcMPR6": "0",
    "P6uVAa3m": "1:0:0,1:0:0,1:0:0"
  },
  {
    "SP29fLtH": "63",
    "j28VNcUW": "6001",
    "tA4T0GXB": "50100",
    "i5r7Vjkq": "11",
    "E0yfb8eK": "10",
    "g9EcMPR6": "0",
    "P6uVAa3m": "1:0:0,1:0:0,1:0:0"
  },
  {
    "SP29fLtH": "64",
    "j28VNcUW": "6002",
    "tA4T0GXB": "50200",
    "i5r7Vjkq": "6",
    "E0yfb8eK": "5",
    "g9EcMPR6": "0",
    "P6uVAa3m": "1:0:0,1:0:0,1:0:0"
  },
  {
    "SP29fLtH": "65",
    "j28VNcUW": "6002",
    "tA4T0GXB": "50300",
    "i5r7Vjkq": "10",
    "E0yfb8eK": "11",
    "g9EcMPR6": "0",
    "P6uVAa3m": "1:0:0,1:0:0,1:0:0"
  },
  {
    "SP29fLtH": "66",
    "j28VNcUW": "6003",
    "tA4T0GXB": "50400",
    "i5r7Vjkq": "4",
    "E0yfb8eK": "6",
    "g9EcMPR6": "0",
    "P6uVAa3m": "1:0:0,1:0:0,1:0:0"
  },
  {
    "SP29fLtH": "67",
    "j28VNcUW": "6003",
    "tA4T0GXB": "50500",
    "i5r7Vjkq": "8",
    "E0yfb8eK": "11",
    "g9EcMPR6": "0",
    "P6uVAa3m": "3:66:50,3:66:50,3:66:50"
  },
  {
    "SP29fLtH": "68",
    "j28VNcUW": "6004",
    "tA4T0GXB": "50600",
    "i5r7Vjkq": "7",
    "E0yfb8eK": "3",
    "g9EcMPR6": "0",
    "P6uVAa3m": "1:0:0,1:0:0,1:0:0"
  },
  {
    "SP29fLtH": "69",
    "j28VNcUW": "6004",
    "tA4T0GXB": "50700",
    "i5r7Vjkq": "8",
    "E0yfb8eK": "8",
    "g9EcMPR6": "1",
    "P6uVAa3m": "3:68:0,3:68:0,3:68:0"
  },
  {
    "SP29fLtH": "70",
    "j28VNcUW": "6005",
    "tA4T0GXB": "50800",
    "i5r7Vjkq": "10",
    "E0yfb8eK": "10",
    "g9EcMPR6": "1",
    "P6uVAa3m": "1:0:0,1:0:0,1:0:0"
  },
  {
    "SP29fLtH": "71",
    "j28VNcUW": "6006",
    "tA4T0GXB": "50900",
    "i5r7Vjkq": "6",
    "E0yfb8eK": "5",
    "g9EcMPR6": "0",
    "P6uVAa3m": "1:0:0,1:0:0,1:0:0"
  },
  {
    "SP29fLtH": "72",
    "j28VNcUW": "6006",
    "tA4T0GXB": "51000",
    "i5r7Vjkq": "10",
    "E0yfb8eK": "10",
    "g9EcMPR6": "0",
    "P6uVAa3m": "1:0:0,1:0:0,1:0:0"
  },
  {
    "SP29fLtH": "73",
    "j28VNcUW": "6007",
    "tA4T0GXB": "51100",
    "i5r7Vjkq": "5",
    "E0yfb8eK": "7",
    "g9EcMPR6": "0",
    "P6uVAa3m": "1:0:0,1:0:0,1:0:0"
  },
  {
    "SP29fLtH": "74",
    "j28VNcUW": "6008",
    "tA4T0GXB": "51200",
    "i5r7Vjkq": "5",
    "E0yfb8eK": "8",
    "g9EcMPR6": "0",
    "P6uVAa3m": "1:0:0,1:0:0,1:0:0"
  },
  {
    "SP29fLtH": "75",
    "j28VNcUW": "6009",
    "tA4T0GXB": "51300",
    "i5r7Vjkq": "5",
    "E0yfb8eK": "4",
    "g9EcMPR6": "1",
    "P6uVAa3m": "1:0:0,1:0:0,1:0:0"
  },
  {
    "SP29fLtH": "76",
    "j28VNcUW": "6009",
    "tA4T0GXB": "51400",
    "i5r7Vjkq": "9",
    "E0yfb8eK": "11",
    "g9EcMPR6": "0",
    "P6uVAa3m": "1:0:0,1:0:0,1:0:0"
  },
  {
    "SP29fLtH": "77",
    "j28VNcUW": "6009",
    "tA4T0GXB": "51500",
    "i5r7Vjkq": "10",
    "E0yfb8eK": "10",
    "g9EcMPR6": "0",
    "P6uVAa3m": "1:0:0,1:0:0,1:0:0"
  },
  {
    "SP29fLtH": "78",
    "j28VNcUW": "6010",
    "tA4T0GXB": "51600",
    "i5r7Vjkq": "4",
    "E0yfb8eK": "4",
    "g9EcMPR6": "1",
    "P6uVAa3m": "1:0:0,1:0:0,1:0:0"
  },
  {
    "SP29fLtH": "79",
    "j28VNcUW": "7000",
    "tA4T0GXB": "51700",
    "i5r7Vjkq": "8",
    "E0yfb8eK": "8",
    "g9EcMPR6": "1",
    "P6uVAa3m": "1:0:0,1:0:0,1:0:0"
  },
  {
    "SP29fLtH": "80",
    "j28VNcUW": "7001",
    "tA4T0GXB": "51800",
    "i5r7Vjkq": "3",
    "E0yfb8eK": "9",
    "g9EcMPR6": "0",
    "P6uVAa3m": "1:0:0,1:0:0,1:0:0"
  },
  {
    "SP29fLtH": "81",
    "j28VNcUW": "2011",
    "tA4T0GXB": "11100",
    "i5r7Vjkq": "3",
    "E0yfb8eK": "3",
    "g9EcMPR6": "1",
    "P6uVAa3m": "1:0:0,1:0:0,1:0:0"
  },
  {
    "SP29fLtH": "82",
    "j28VNcUW": "4015",
    "tA4T0GXB": "32300",
    "i5r7Vjkq": "5",
    "E0yfb8eK": "5",
    "g9EcMPR6": "1",
    "P6uVAa3m": "1:0:0,1:0:0,1:0:0"
  },
  {
    "SP29fLtH": "83",
    "j28VNcUW": "6020",
    "tA4T0GXB": "51900",
    "i5r7Vjkq": "11",
    "E0yfb8eK": "11",
    "g9EcMPR6": "1",
    "P6uVAa3m": "1:0:0,1:0:0,1:0:0"
  },
  {
    "SP29fLtH": "84",
    "j28VNcUW": "7002",
    "tA4T0GXB": "52000",
    "i5r7Vjkq": "7",
    "E0yfb8eK": "7",
    "g9EcMPR6": "1",
    "P6uVAa3m": "1:0:0,1:0:0,1:0:0"
  },
  {
    "SP29fLtH": "85",
    "j28VNcUW": "7003",
    "tA4T0GXB": "53000",
    "i5r7Vjkq": "10",
    "E0yfb8eK": "10",
    "g9EcMPR6": "1",
    "P6uVAa3m": "1:0:0,1:0:0,1:0:0"
  },
  {
    "SP29fLtH": "86",
    "j28VNcUW": "7004",
    "tA4T0GXB": "54000",
    "i5r7Vjkq": "5",
    "E0yfb8eK": "5",
    "g9EcMPR6": "0",
    "P6uVAa3m": "1:0:0,1:0:0,1:0:0"
  },
  {
    "SP29fLtH": "87",
    "j28VNcUW": "7005",
    "tA4T0GXB": "55000",
    "i5r7Vjkq": "9",
    "E0yfb8eK": "9",
    "g9EcMPR6": "1",
    "P6uVAa3m": "1:0:0,1:0:0,1:0:0"
  },
  {
    "SP29fLtH": "88",
    "j28VNcUW": "7006",
    "tA4T0GXB": "56000",
    "i5r7Vjkq": "4",
    "E0yfb8eK": "4",
    "g9EcMPR6": "0",
    "P6uVAa3m": "1:0:0,1:0:0,1:0:0"
  },
  {
    "SP29fLtH": "89",
    "j28VNcUW": "7007",
    "tA4T0GXB": "57000",
    "i5r7Vjkq": "8",
    "E0yfb8eK": "8",
    "g9EcMPR6": "0",
    "P6uVAa3m": "1:0:0,1:0:0,1:0:0"
  },
  {
    "SP29fLtH": "90",
    "j28VNcUW": "6011",
    "tA4T0GXB": "58000",
    "i5r7Vjkq": "11",
    "E0yfb8eK": "11",
    "g9EcMPR6": "0",
    "P6uVAa3m": "1:0:0,1:0:0,1:0:0"
  },
  {
    "SP29fLtH": "91",
    "j28VNcUW": "6011",
    "tA4T0GXB": "58100",
    "i5r7Vjkq": "5",
    "E0yfb8eK": "5",
    "g9EcMPR6": "1",
    "P6uVAa3m": "1:0:0,1:0:0,1:0:0"
  },
  {
    "SP29fLtH": "92",
    "j28VNcUW": "6011",
    "tA4T0GXB": "58200",
    "i5r7Vjkq": "7",
    "E0yfb8eK": "7",
    "g9EcMPR6": "1",
    "P6uVAa3m": "3:91:0,3:91:0,3:91:0"
  },
  {
    "SP29fLtH": "93",
    "j28VNcUW": "6011",
    "tA4T0GXB": "58300",
    "i5r7Vjkq": "8",
    "E0yfb8eK": "8",
    "g9EcMPR6": "1",
    "P6uVAa3m": "1:0:0,1:0:0,1:0:0"
  },
  {
    "SP29fLtH": "94",
    "j28VNcUW": "7008",
    "tA4T0GXB": "58400",
    "i5r7Vjkq": "8",
    "E0yfb8eK": "8",
    "g9EcMPR6": "1",
    "P6uVAa3m": "1:0:0,1:0:0,1:0:0"
  },
  {
    "SP29fLtH": "95",
    "j28VNcUW": "7008",
    "tA4T0GXB": "58500",
    "i5r7Vjkq": "7",
    "E0yfb8eK": "7",
    "g9EcMPR6": "1",
    "P6uVAa3m": "1:0:0,1:0:0,1:0:0"
  },
  {
    "SP29fLtH": "96",
    "j28VNcUW": "7008",
    "tA4T0GXB": "58600",
    "i5r7Vjkq": "9",
    "E0yfb8eK": "9",
    "g9EcMPR6": "1",
    "P6uVAa3m": "1:0:0,1:0:0,1:0:0"
  },
  {
    "SP29fLtH": "97",
    "j28VNcUW": "7009",
    "tA4T0GXB": "58700",
    "i5r7Vjkq": "3",
    "E0yfb8eK": "9",
    "g9EcMPR6": "0",
    "P6uVAa3m": "1:0:0,1:0:0,1:0:0"
  },
  {
    "SP29fLtH": "98",
    "j28VNcUW": "7009",
    "tA4T0GXB": "58800",
    "i5r7Vjkq": "5",
    "E0yfb8eK": "5",
    "g9EcMPR6": "0",
    "P6uVAa3m": "1:0:0,1:0:0,1:0:0"
  },
  {
    "SP29fLtH": "99",
    "j28VNcUW": "7010",
    "tA4T0GXB": "58900",
    "i5r7Vjkq": "10",
    "E0yfb8eK": "10",
    "g9EcMPR6": "1",
    "P6uVAa3m": "1:0:0,1:0:0,1:0:0"
  },
  {
    "SP29fLtH": "100",
    "j28VNcUW": "7010",
    "tA4T0GXB": "59000",
    "i5r7Vjkq": "4",
    "E0yfb8eK": "4",
    "g9EcMPR6": "0",
    "P6uVAa3m": "1:0:0,1:0:0,1:0:0"
  },
  {
    "SP29fLtH": "101",
    "j28VNcUW": "7010",
    "tA4T0GXB": "59100",
    "i5r7Vjkq": "8",
    "E0yfb8eK": "8",
    "g9EcMPR6": "0",
    "P6uVAa3m": "1:0:0,1:0:0,1:0:0"
  },
  {
    "SP29fLtH": "800",
    "j28VNcUW": "80000",
    "tA4T0GXB": "800000",
    "i5r7Vjkq": "2",
    "E0yfb8eK": "4",
    "g9EcMPR6": "1",
    "P6uVAa3m": "1:0:0,1:0:0,1:0:0"
  },
  {
    "SP29fLtH": "801",
    "j28VNcUW": "80001",
    "tA4T0GXB": "800001",
    "i5r7Vjkq": "4",
    "E0yfb8eK": "4",
    "g9EcMPR6": "1",
    "P6uVAa3m": "1:0:0,1:0:0,1:0:0"
  },
  {
    "SP29fLtH": "802",
    "j28VNcUW": "80002",
    "tA4T0GXB": "800002",
    "i5r7Vjkq": "6",
    "E0yfb8eK": "5",
    "g9EcMPR6": "1",
    "P6uVAa3m": "1:0:0,1:0:0,1:0:0"
  },
  {
    "SP29fLtH": "803",
    "j28VNcUW": "80003",
    "tA4T0GXB": "800003",
    "i5r7Vjkq": "3",
    "E0yfb8eK": "3",
    "g9EcMPR6": "0",
    "P6uVAa3m": "1:0:0,1:0:0,1:0:0"
  },
  {
    "SP29fLtH": "804",
    "j28VNcUW": "80003",
    "tA4T0GXB": "800004",
    "i5r7Vjkq": "5",
    "E0yfb8eK": "5",
    "g9EcMPR6": "0",
    "P6uVAa3m": "3:803:0,3:803:0,3:803:0"
  },
  {
    "SP29fLtH": "805",
    "j28VNcUW": "80003",
    "tA4T0GXB": "800005",
    "i5r7Vjkq": "6",
    "E0yfb8eK": "6",
    "g9EcMPR6": "0",
    "P6uVAa3m": "3:804:0,3:804:0,3:804:0"
  },
  {
    "SP29fLtH": "806",
    "j28VNcUW": "80004",
    "tA4T0GXB": "800010",
    "i5r7Vjkq": "8",
    "E0yfb8eK": "9",
    "g9EcMPR6": "1",
    "P6uVAa3m": "1:0:0,1:0:0,1:0:0"
  },
  {
    "SP29fLtH": "807",
    "j28VNcUW": "80005",
    "tA4T0GXB": "800006",
    "i5r7Vjkq": "5",
    "E0yfb8eK": "2",
    "g9EcMPR6": "0",
    "P6uVAa3m": "1:0:0,1:0:0,1:0:0"
  },
  {
    "SP29fLtH": "808",
    "j28VNcUW": "80005",
    "tA4T0GXB": "800007",
    "i5r7Vjkq": "6",
    "E0yfb8eK": "8",
    "g9EcMPR6": "0",
    "P6uVAa3m": "3:807:50,3:807:50,3:807:50"
  },
  {
    "SP29fLtH": "809",
    "j28VNcUW": "80005",
    "tA4T0GXB": "800008",
    "i5r7Vjkq": "9",
    "E0yfb8eK": "8",
    "g9EcMPR6": "0",
    "P6uVAa3m": "3:808:50,3:808:50,3:808:50"
  },
  {
    "SP29fLtH": "810",
    "j28VNcUW": "80005",
    "tA4T0GXB": "800009",
    "i5r7Vjkq": "7",
    "E0yfb8eK": "8",
    "g9EcMPR6": "0",
    "P6uVAa3m": "3:809:50,3:809:50,3:809:50"
  },
  {
    "SP29fLtH": "811",
    "j28VNcUW": "80006",
    "tA4T0GXB": "800012",
    "i5r7Vjkq": "9",
    "E0yfb8eK": "10",
    "g9EcMPR6": "0",
    "P6uVAa3m": "1:0:0,1:0:0,1:0:0"
  },
  {
    "SP29fLtH": "812",
    "j28VNcUW": "80006",
    "tA4T0GXB": "800011",
    "i5r7Vjkq": "6",
    "E0yfb8eK": "7",
    "g9EcMPR6": "0",
    "P6uVAa3m": "3:811:0,3:811:0,3:811:0"
  },
  {
    "SP29fLtH": "813",
    "j28VNcUW": "80007",
    "tA4T0GXB": "800013",
    "i5r7Vjkq": "4",
    "E0yfb8eK": "10",
    "g9EcMPR6": "0",
    "P6uVAa3m": "1:0:0,1:0:0,1:0:0"
  },
  {
    "SP29fLtH": "814",
    "j28VNcUW": "80007",
    "tA4T0GXB": "800014",
    "i5r7Vjkq": "8",
    "E0yfb8eK": "11",
    "g9EcMPR6": "0",
    "P6uVAa3m": "3:813:0,3:813:0,3:813:0"
  },
  {
    "SP29fLtH": "815",
    "j28VNcUW": "80100",
    "tA4T0GXB": "800100",
    "i5r7Vjkq": "2",
    "E0yfb8eK": "2",
    "g9EcMPR6": "1",
    "P6uVAa3m": "1:0:0,1:0:0,1:0:0"
  },
  {
    "SP29fLtH": "816",
    "j28VNcUW": "80100",
    "tA4T0GXB": "800101",
    "i5r7Vjkq": "7",
    "E0yfb8eK": "7",
    "g9EcMPR6": "1",
    "P6uVAa3m": "1:0:0,1:0:0,1:0:0"
  },
  {
    "SP29fLtH": "817",
    "j28VNcUW": "80101",
    "tA4T0GXB": "800102",
    "i5r7Vjkq": "4",
    "E0yfb8eK": "4",
    "g9EcMPR6": "1",
    "P6uVAa3m": "1:0:0,1:0:0,1:0:0"
  },
  {
    "SP29fLtH": "818",
    "j28VNcUW": "80101",
    "tA4T0GXB": "800103",
    "i5r7Vjkq": "9",
    "E0yfb8eK": "9",
    "g9EcMPR6": "1",
    "P6uVAa3m": "3:817:0,3:817:0,3:817:0"
  },
  {
    "SP29fLtH": "819",
    "j28VNcUW": "80101",
    "tA4T0GXB": "800104",
    "i5r7Vjkq": "10",
    "E0yfb8eK": "10",
    "g9EcMPR6": "1",
    "P6uVAa3m": "3:818:0,3:818:0,3:818:0"
  },
  {
    "SP29fLtH": "820",
    "j28VNcUW": "80103",
    "tA4T0GXB": "800106",
    "i5r7Vjkq": "8",
    "E0yfb8eK": "8",
    "g9EcMPR6": "1",
    "P6uVAa3m": "1:0:0,1:0:0,1:0:0"
  },
  {
    "SP29fLtH": "821",
    "j28VNcUW": "80103",
    "tA4T0GXB": "800107",
    "i5r7Vjkq": "10",
    "E0yfb8eK": "10",
    "g9EcMPR6": "1",
    "P6uVAa3m": "1:0:0,1:0:0,1:0:0"
  },
  {
    "SP29fLtH": "822",
    "j28VNcUW": "80104",
    "tA4T0GXB": "800108",
    "i5r7Vjkq": "12",
    "E0yfb8eK": "12",
    "g9EcMPR6": "1",
    "P6uVAa3m": "1:0:0,1:0:0,1:0:0"
  },
  {
    "SP29fLtH": "823",
    "j28VNcUW": "80105",
    "tA4T0GXB": "800109",
    "i5r7Vjkq": "4",
    "E0yfb8eK": "4",
    "g9EcMPR6": "0",
    "P6uVAa3m": "1:0:0,1:0:0,1:0:0"
  },
  {
    "SP29fLtH": "824",
    "j28VNcUW": "80105",
    "tA4T0GXB": "800110",
    "i5r7Vjkq": "6",
    "E0yfb8eK": "6",
    "g9EcMPR6": "0",
    "P6uVAa3m": "3:823:0,3:823:0,3:823:0"
  },
  {
    "SP29fLtH": "825",
    "j28VNcUW": "80106",
    "tA4T0GXB": "800111",
    "i5r7Vjkq": "10",
    "E0yfb8eK": "10",
    "g9EcMPR6": "0",
    "P6uVAa3m": "1:0:0,1:0:0,1:0:0"
  },
  {
    "SP29fLtH": "826",
    "j28VNcUW": "80106",
    "tA4T0GXB": "800112",
    "i5r7Vjkq": "3",
    "E0yfb8eK": "3",
    "g9EcMPR6": "0",
    "P6uVAa3m": "3:825:0,3:825:0,3:825:0"
  },
  {
    "SP29fLtH": "827",
    "j28VNcUW": "80106",
    "tA4T0GXB": "800113",
    "i5r7Vjkq": "8",
    "E0yfb8eK": "8",
    "g9EcMPR6": "0",
    "P6uVAa3m": "3:826:0,3:826:0,3:826:0"
  },
  {
    "SP29fLtH": "828",
    "j28VNcUW": "80107",
    "tA4T0GXB": "800114",
    "i5r7Vjkq": "8",
    "E0yfb8eK": "8",
    "g9EcMPR6": "0",
    "P6uVAa3m": "1:0:0,1:0:0,1:0:0"
  },
  {
    "SP29fLtH": "829",
    "j28VNcUW": "80107",
    "tA4T0GXB": "800115",
    "i5r7Vjkq": "4",
    "E0yfb8eK": "4",
    "g9EcMPR6": "0",
    "P6uVAa3m": "3:828:0,3:828:0,3:828:0"
  },
  {
    "SP29fLtH": "830",
    "j28VNcUW": "80107",
    "tA4T0GXB": "800116",
    "i5r7Vjkq": "10",
    "E0yfb8eK": "10",
    "g9EcMPR6": "0",
    "P6uVAa3m": "3:829:0,3:829:0,3:829:0"
  },
  {
    "SP29fLtH": "831",
    "j28VNcUW": "80108",
    "tA4T0GXB": "800117",
    "i5r7Vjkq": "9",
    "E0yfb8eK": "9",
    "g9EcMPR6": "0",
    "P6uVAa3m": "1:0:0,1:0:0,1:0:0"
  },
  {
    "SP29fLtH": "832",
    "j28VNcUW": "80110",
    "tA4T0GXB": "800119",
    "i5r7Vjkq": "3",
    "E0yfb8eK": "3",
    "g9EcMPR6": "0",
    "P6uVAa3m": "1:0:0,1:0:0,1:0:0"
  },
  {
    "SP29fLtH": "833",
    "j28VNcUW": "80110",
    "tA4T0GXB": "800120",
    "i5r7Vjkq": "8",
    "E0yfb8eK": "8",
    "g9EcMPR6": "0",
    "P6uVAa3m": "3:832:0,3:832:0,3:832:0"
  },
  {
    "SP29fLtH": "834",
    "j28VNcUW": "80200",
    "tA4T0GXB": "800200",
    "i5r7Vjkq": "3",
    "E0yfb8eK": "3",
    "g9EcMPR6": "1",
    "P6uVAa3m": "1:0:0,1:0:0,1:0:0"
  },
  {
    "SP29fLtH": "835",
    "j28VNcUW": "80201",
    "tA4T0GXB": "800201",
    "i5r7Vjkq": "8",
    "E0yfb8eK": "8",
    "g9EcMPR6": "1",
    "P6uVAa3m": "1:0:0,1:0:0,1:0:0"
  },
  {
    "SP29fLtH": "836",
    "j28VNcUW": "80201",
    "tA4T0GXB": "800202",
    "i5r7Vjkq": "5",
    "E0yfb8eK": "5",
    "g9EcMPR6": "1",
    "P6uVAa3m": "1:0:0,1:0:0,1:0:0"
  },
  {
    "SP29fLtH": "837",
    "j28VNcUW": "80202",
    "tA4T0GXB": "800203",
    "i5r7Vjkq": "4",
    "E0yfb8eK": "4",
    "g9EcMPR6": "1",
    "P6uVAa3m": "1:0:0,1:0:0,1:0:0"
  },
  {
    "SP29fLtH": "838",
    "j28VNcUW": "80202",
    "tA4T0GXB": "800204",
    "i5r7Vjkq": "2",
    "E0yfb8eK": "2",
    "g9EcMPR6": "1",
    "P6uVAa3m": "3:837:0,3:837:0,3:837:0"
  },
  {
    "SP29fLtH": "839",
    "j28VNcUW": "80202",
    "tA4T0GXB": "800205",
    "i5r7Vjkq": "10",
    "E0yfb8eK": "10",
    "g9EcMPR6": "1",
    "P6uVAa3m": "3:838:0,3:838:0,3:838:0"
  },
  {
    "SP29fLtH": "840",
    "j28VNcUW": "80203",
    "tA4T0GXB": "800206",
    "i5r7Vjkq": "6",
    "E0yfb8eK": "7",
    "g9EcMPR6": "1",
    "P6uVAa3m": "1:0:0,1:0:0,1:0:0"
  },
  {
    "SP29fLtH": "841",
    "j28VNcUW": "80204",
    "tA4T0GXB": "800207",
    "i5r7Vjkq": "11",
    "E0yfb8eK": "10",
    "g9EcMPR6": "1",
    "P6uVAa3m": "1:0:0,1:0:0,1:0:0"
  },
  {
    "SP29fLtH": "842",
    "j28VNcUW": "80204",
    "tA4T0GXB": "800208",
    "i5r7Vjkq": "5",
    "E0yfb8eK": "5",
    "g9EcMPR6": "0",
    "P6uVAa3m": "3:841:0,3:841:0,3:841:0"
  },
  {
    "SP29fLtH": "843",
    "j28VNcUW": "80205",
    "tA4T0GXB": "800209",
    "i5r7Vjkq": "10",
    "E0yfb8eK": "8",
    "g9EcMPR6": "0",
    "P6uVAa3m": "1:0:0,1:0:0,1:0:0"
  },
  {
    "SP29fLtH": "844",
    "j28VNcUW": "80205",
    "tA4T0GXB": "800210",
    "i5r7Vjkq": "1",
    "E0yfb8eK": "4",
    "g9EcMPR6": "0",
    "P6uVAa3m": "3:843:0,3:843:0,3:843:0"
  },
  {
    "SP29fLtH": "845",
    "j28VNcUW": "80206",
    "tA4T0GXB": "800211",
    "i5r7Vjkq": "9",
    "E0yfb8eK": "7",
    "g9EcMPR6": "0",
    "P6uVAa3m": "1:0:0,1:0:0,1:0:0"
  },
  {
    "SP29fLtH": "846",
    "j28VNcUW": "80206",
    "tA4T0GXB": "800212",
    "i5r7Vjkq": "11",
    "E0yfb8eK": "12",
    "g9EcMPR6": "0",
    "P6uVAa3m": "3:845:0,3:845:0,3:845:0"
  },
  {
    "SP29fLtH": "847",
    "j28VNcUW": "80206",
    "tA4T0GXB": "800213",
    "i5r7Vjkq": "7",
    "E0yfb8eK": "5",
    "g9EcMPR6": "0",
    "P6uVAa3m": "3:846:0,3:846:0,3:846:0"
  },
  {
    "SP29fLtH": "848",
    "j28VNcUW": "80207",
    "tA4T0GXB": "800214",
    "i5r7Vjkq": "8",
    "E0yfb8eK": "3",
    "g9EcMPR6": "0",
    "P6uVAa3m": "1:0:0,1:0:0,1:0:0"
  },
  {
    "SP29fLtH": "849",
    "j28VNcUW": "80207",
    "tA4T0GXB": "800215",
    "i5r7Vjkq": "12",
    "E0yfb8eK": "10",
    "g9EcMPR6": "0",
    "P6uVAa3m": "3:848:0,3:848:0,3:848:0"
  },
  {
    "SP29fLtH": "850",
    "j28VNcUW": "80207",
    "tA4T0GXB": "800216",
    "i5r7Vjkq": "5",
    "E0yfb8eK": "5",
    "g9EcMPR6": "0",
    "P6uVAa3m": "3:849:0,3:849:0,3:849:0"
  },
  {
    "SP29fLtH": "851",
    "j28VNcUW": "80300",
    "tA4T0GXB": "800300",
    "i5r7Vjkq": "5",
    "E0yfb8eK": "5",
    "g9EcMPR6": "1",
    "P6uVAa3m": "1:0:0,1:0:0,1:0:0"
  },
  {
    "SP29fLtH": "852",
    "j28VNcUW": "80301",
    "tA4T0GXB": "800301",
    "i5r7Vjkq": "4",
    "E0yfb8eK": "4",
    "g9EcMPR6": "1",
    "P6uVAa3m": "1:0:0,1:0:0,1:0:0"
  },
  {
    "SP29fLtH": "853",
    "j28VNcUW": "80301",
    "tA4T0GXB": "800302",
    "i5r7Vjkq": "7",
    "E0yfb8eK": "7",
    "g9EcMPR6": "1",
    "P6uVAa3m": "3:852:0,3:852:0,3:852:0"
  },
  {
    "SP29fLtH": "854",
    "j28VNcUW": "80302",
    "tA4T0GXB": "800303",
    "i5r7Vjkq": "5",
    "E0yfb8eK": "8",
    "g9EcMPR6": "1",
    "P6uVAa3m": "1:0:0,1:0:0,1:0:0"
  },
  {
    "SP29fLtH": "855",
    "j28VNcUW": "80302",
    "tA4T0GXB": "800304",
    "i5r7Vjkq": "11",
    "E0yfb8eK": "4",
    "g9EcMPR6": "1",
    "P6uVAa3m": "3:854:0,3:854:0,3:854:0"
  },
  {
    "SP29fLtH": "856",
    "j28VNcUW": "80303",
    "tA4T0GXB": "800305",
    "i5r7Vjkq": "6",
    "E0yfb8eK": "8",
    "g9EcMPR6": "1",
    "P6uVAa3m": "1:0:0,1:0:0,1:0:0"
  },
  {
    "SP29fLtH": "857",
    "j28VNcUW": "80303",
    "tA4T0GXB": "800306",
    "i5r7Vjkq": "11",
    "E0yfb8eK": "4",
    "g9EcMPR6": "1",
    "P6uVAa3m": "3:856:0,3:856:0,3:856:0"
  },
  {
    "SP29fLtH": "858",
    "j28VNcUW": "80303",
    "tA4T0GXB": "800307",
    "i5r7Vjkq": "2",
    "E0yfb8eK": "9",
    "g9EcMPR6": "1",
    "P6uVAa3m": "3:857:0,3:857:0,3:857:0"
  },
  {
    "SP29fLtH": "859",
    "j28VNcUW": "80304",
    "tA4T0GXB": "800308",
    "i5r7Vjkq": "3",
    "E0yfb8eK": "6",
    "g9EcMPR6": "0",
    "P6uVAa3m": "1:0:0,1:0:0,1:0:0"
  },
  {
    "SP29fLtH": "860",
    "j28VNcUW": "80304",
    "tA4T0GXB": "800309",
    "i5r7Vjkq": "10",
    "E0yfb8eK": "12",
    "g9EcMPR6": "0",
    "P6uVAa3m": "3:859:0,3:859:0,3:859:0"
  },
  {
    "SP29fLtH": "861",
    "j28VNcUW": "80304",
    "tA4T0GXB": "800310",
    "i5r7Vjkq": "8",
    "E0yfb8eK": "2",
    "g9EcMPR6": "0",
    "P6uVAa3m": "3:860:0,3:860:0,3:860:0"
  },
  {
    "SP29fLtH": "862",
    "j28VNcUW": "80305",
    "tA4T0GXB": "800311",
    "i5r7Vjkq": "5",
    "E0yfb8eK": "11",
    "g9EcMPR6": "0",
    "P6uVAa3m": "1:0:0,1:0:0,1:0:0"
  },
  {
    "SP29fLtH": "863",
    "j28VNcUW": "80305",
    "tA4T0GXB": "800312",
    "i5r7Vjkq": "9",
    "E0yfb8eK": "12",
    "g9EcMPR6": "0",
    "P6uVAa3m": "3:862:0,3:862:0,3:862:0"
  },
  {
    "SP29fLtH": "864",
    "j28VNcUW": "80306",
    "tA4T0GXB": "800313",
    "i5r7Vjkq": "4",
    "E0yfb8eK": "8",
    "g9EcMPR6": "0",
    "P6uVAa3m": "1:0:0,1:0:0,1:0:0"
  },
  {
    "SP29fLtH": "865",
    "j28VNcUW": "80306",
    "tA4T0GXB": "800314",
    "i5r7Vjkq": "7",
    "E0yfb8eK": "12",
    "g9EcMPR6": "0",
    "P6uVAa3m": "3:864:0,3:864:0,3:864:0"
  },
  {
    "SP29fLtH": "866",
    "j28VNcUW": "80306",
    "tA4T0GXB": "800315",
    "i5r7Vjkq": "10",
    "E0yfb8eK": "6",
    "g9EcMPR6": "0",
    "P6uVAa3m": "3:865:0,3:865:0,3:865:0"
  },
  {
    "SP29fLtH": "867",
    "j28VNcUW": "80400",
    "tA4T0GXB": "800400",
    "i5r7Vjkq": "3",
    "E0yfb8eK": "9",
    "g9EcMPR6": "1",
    "P6uVAa3m": "1:0:0,1:0:0,1:0:0"
  },
  {
    "SP29fLtH": "868",
    "j28VNcUW": "80400",
    "tA4T0GXB": "800401",
    "i5r7Vjkq": "8",
    "E0yfb8eK": "11",
    "g9EcMPR6": "1",
    "P6uVAa3m": "3:867:0,3:867:0,3:867:0"
  },
  {
    "SP29fLtH": "869",
    "j28VNcUW": "80401",
    "tA4T0GXB": "800402",
    "i5r7Vjkq": "10",
    "E0yfb8eK": "7",
    "g9EcMPR6": "1",
    "P6uVAa3m": "1:0:0,1:0:0,1:0:0"
  },
  {
    "SP29fLtH": "870",
    "j28VNcUW": "80401",
    "tA4T0GXB": "800403",
    "i5r7Vjkq": "5",
    "E0yfb8eK": "8",
    "g9EcMPR6": "1",
    "P6uVAa3m": "3:869:0,3:869:0,3:869:0"
  },
  {
    "SP29fLtH": "871",
    "j28VNcUW": "80402",
    "tA4T0GXB": "800404",
    "i5r7Vjkq": "2",
    "E0yfb8eK": "5",
    "g9EcMPR6": "0",
    "P6uVAa3m": "1:0:0,1:0:0,1:0:0"
  },
  {
    "SP29fLtH": "872",
    "j28VNcUW": "80402",
    "tA4T0GXB": "800405",
    "i5r7Vjkq": "6",
    "E0yfb8eK": "12",
    "g9EcMPR6": "0",
    "P6uVAa3m": "3:871:0,3:871:0,3:871:0"
  },
  {
    "SP29fLtH": "873",
    "j28VNcUW": "80402",
    "tA4T0GXB": "800406",
    "i5r7Vjkq": "5",
    "E0yfb8eK": "10",
    "g9EcMPR6": "0",
    "P6uVAa3m": "3:872:0,3:872:0,3:872:0"
  },
  {
    "SP29fLtH": "874",
    "j28VNcUW": "80403",
    "tA4T0GXB": "800407",
    "i5r7Vjkq": "8",
    "E0yfb8eK": "6",
    "g9EcMPR6": "0",
    "P6uVAa3m": "1:0:0,1:0:0,1:0:0"
  },
  {
    "SP29fLtH": "875",
    "j28VNcUW": "80403",
    "tA4T0GXB": "800408",
    "i5r7Vjkq": "9",
    "E0yfb8eK": "4",
    "g9EcMPR6": "0",
    "P6uVAa3m": "3:874:0,3:874:0,3:874:0"
  },
  {
    "SP29fLtH": "876",
    "j28VNcUW": "80404",
    "tA4T0GXB": "800409",
    "i5r7Vjkq": "12",
    "E0yfb8eK": "5",
    "g9EcMPR6": "0",
    "P6uVAa3m": "1:0:0,1:0:0,1:0:0"
  },
  {
    "SP29fLtH": "877",
    "j28VNcUW": "80404",
    "tA4T0GXB": "800410",
    "i5r7Vjkq": "3",
    "E0yfb8eK": "11",
    "g9EcMPR6": "0",
    "P6uVAa3m": "3:876:0,3:876:0,3:876:0"
  },
  {
    "SP29fLtH": "878",
    "j28VNcUW": "80405",
    "tA4T0GXB": "800411",
    "i5r7Vjkq": "4",
    "E0yfb8eK": "7",
    "g9EcMPR6": "0",
    "P6uVAa3m": "1:0:0,1:0:0,1:0:0"
  },
  {
    "SP29fLtH": "879",
    "j28VNcUW": "80405",
    "tA4T0GXB": "800412",
    "i5r7Vjkq": "11",
    "E0yfb8eK": "2",
    "g9EcMPR6": "0",
    "P6uVAa3m": "3:878:0,3:878:0,3:878:0"
  },
  {
    "SP29fLtH": "880",
    "j28VNcUW": "80406",
    "tA4T0GXB": "800413",
    "i5r7Vjkq": "6",
    "E0yfb8eK": "12",
    "g9EcMPR6": "0",
    "P6uVAa3m": "1:0:0,1:0:0,1:0:0"
  },
  {
    "SP29fLtH": "881",
    "j28VNcUW": "80500",
    "tA4T0GXB": "800500",
    "i5r7Vjkq": "4",
    "E0yfb8eK": "6",
    "g9EcMPR6": "1",
    "P6uVAa3m": "1:0:0,1:0:0,1:0:0"
  },
  {
    "SP29fLtH": "882",
    "j28VNcUW": "80500",
    "tA4T0GXB": "800501",
    "i5r7Vjkq": "2",
    "E0yfb8eK": "9",
    "g9EcMPR6": "1",
    "P6uVAa3m": "3:881:0,3:881:0,3:881:0"
  },
  {
    "SP29fLtH": "883",
    "j28VNcUW": "80501",
    "tA4T0GXB": "800502",
    "i5r7Vjkq": "3",
    "E0yfb8eK": "5",
    "g9EcMPR6": "1",
    "P6uVAa3m": "1:0:0,1:0:0,1:0:0"
  },
  {
    "SP29fLtH": "884",
    "j28VNcUW": "80501",
    "tA4T0GXB": "800112",
    "i5r7Vjkq": "8",
    "E0yfb8eK": "11",
    "g9EcMPR6": "1",
    "P6uVAa3m": "3:883:0,3:883:0,3:883:0"
  },
  {
    "SP29fLtH": "885",
    "j28VNcUW": "80501",
    "tA4T0GXB": "800504",
    "i5r7Vjkq": "14",
    "E0yfb8eK": "15",
    "g9EcMPR6": "1",
    "P6uVAa3m": "3:884:0,1:0:0,1:0:0"
  },
  {
    "SP29fLtH": "886",
    "j28VNcUW": "80502",
    "tA4T0GXB": "800505",
    "i5r7Vjkq": "10",
    "E0yfb8eK": "15",
    "g9EcMPR6": "0",
    "P6uVAa3m": "1:0:0,1:0:0,1:0:0"
  },
  {
    "SP29fLtH": "887",
    "j28VNcUW": "80502",
    "tA4T0GXB": "800506",
    "i5r7Vjkq": "14",
    "E0yfb8eK": "6",
    "g9EcMPR6": "0",
    "P6uVAa3m": "3:886:0,3:886:0,3:886:0"
  },
  {
    "SP29fLtH": "888",
    "j28VNcUW": "80502",
    "tA4T0GXB": "800507",
    "i5r7Vjkq": "7",
    "E0yfb8eK": "12",
    "g9EcMPR6": "0",
    "P6uVAa3m": "3:887:0,1:0:0,1:0:0"
  },
  {
    "SP29fLtH": "889",
    "j28VNcUW": "80503",
    "tA4T0GXB": "800508",
    "i5r7Vjkq": "3",
    "E0yfb8eK": "13",
    "g9EcMPR6": "0",
    "P6uVAa3m": "1:0:0,1:0:0,1:0:0"
  },
  {
    "SP29fLtH": "890",
    "j28VNcUW": "80503",
    "tA4T0GXB": "800509",
    "i5r7Vjkq": "5",
    "E0yfb8eK": "7",
    "g9EcMPR6": "0",
    "P6uVAa3m": "3:889:0,3:889:0,3:889:0"
  },
  {
    "SP29fLtH": "891",
    "j28VNcUW": "80503",
    "tA4T0GXB": "800510",
    "i5r7Vjkq": "15",
    "E0yfb8eK": "13",
    "g9EcMPR6": "0",
    "P6uVAa3m": "3:890:0,1:0:0,1:0:0"
  },
  {
    "SP29fLtH": "892",
    "j28VNcUW": "80504",
    "tA4T0GXB": "800511",
    "i5r7Vjkq": "5",
    "E0yfb8eK": "8",
    "g9EcMPR6": "0",
    "P6uVAa3m": "1:0:0,1:0:0,1:0:0"
  },
  {
    "SP29fLtH": "893",
    "j28VNcUW": "80504",
    "tA4T0GXB": "800512",
    "i5r7Vjkq": "9",
    "E0yfb8eK": "14",
    "g9EcMPR6": "0",
    "P6uVAa3m": "3:892:0,1:0:0,1:0:0"
  },
  {
    "SP29fLtH": "894",
    "j28VNcUW": "80505",
    "tA4T0GXB": "800513",
    "i5r7Vjkq": "13",
    "E0yfb8eK": "5",
    "g9EcMPR6": "0",
    "P6uVAa3m": "1:0:0,1:0:0,1:0:0"
  },
  {
    "SP29fLtH": "895",
    "j28VNcUW": "80505",
    "tA4T0GXB": "800514",
    "i5r7Vjkq": "12",
    "E0yfb8eK": "7",
    "g9EcMPR6": "0",
    "P6uVAa3m": "1:0:0,1:0:0,1:0:0"
  },
  {
    "SP29fLtH": "87000",
    "j28VNcUW": "87000",
    "tA4T0GXB": "87000",
    "i5r7Vjkq": "3",
    "E0yfb8eK": "3",
    "g9EcMPR6": "1",
    "P6uVAa3m": "1:0:0,1:0:0,1:0:0"
  },
  {
    "SP29fLtH": "87001",
    "j28VNcUW": "87000",
    "tA4T0GXB": "87001",
    "i5r7Vjkq": "4",
    "E0yfb8eK": "4",
    "g9EcMPR6": "1",
    "P6uVAa3m": "3:87000:0,3:87000:0,3:87000:0"
  },
  {
    "SP29fLtH": "87002",
    "j28VNcUW": "87100",
    "tA4T0GXB": "87002",
    "i5r7Vjkq": "2",
    "E0yfb8eK": "2",
    "g9EcMPR6": "1",
    "P6uVAa3m": "1:0:0,1:0:0,1:0:0"
  },
  {
    "SP29fLtH": "87003",
    "j28VNcUW": "87100",
    "tA4T0GXB": "87003",
    "i5r7Vjkq": "4",
    "E0yfb8eK": "4",
    "g9EcMPR6": "1",
    "P6uVAa3m": "1:0:0,1:0:0,1:0:0"
  },
  {
    "SP29fLtH": "87004",
    "j28VNcUW": "87100",
    "tA4T0GXB": "87004",
    "i5r7Vjkq": "4",
    "E0yfb8eK": "4",
    "g9EcMPR6": "0",
    "P6uVAa3m": "2:6000:0,2:6000:0,2:6000:0"
  },
  {
    "SP29fLtH": "87005",
    "j28VNcUW": "87100",
    "tA4T0GXB": "87005",
    "i5r7Vjkq": "4",
    "E0yfb8eK": "4",
    "g9EcMPR6": "0",
    "P6uVAa3m": "2:6000:0,2:6000:0,2:6000:0"
  },
  {
    "SP29fLtH": "87006",
    "j28VNcUW": "87100",
    "tA4T0GXB": "87006",
    "i5r7Vjkq": "3",
    "E0yfb8eK": "3",
    "g9EcMPR6": "0",
    "P6uVAa3m": "2:6000:0,2:6000:0,2:6000:0"
  },
  {
    "SP29fLtH": "87007",
    "j28VNcUW": "87101",
    "tA4T0GXB": "87007",
    "i5r7Vjkq": "2",
    "E0yfb8eK": "2",
    "g9EcMPR6": "1",
    "P6uVAa3m": "1:0:0,1:0:0,1:0:0"
  },
  {
    "SP29fLtH": "87008",
    "j28VNcUW": "87101",
    "tA4T0GXB": "87008",
    "i5r7Vjkq": "4",
    "E0yfb8eK": "4",
    "g9EcMPR6": "1",
    "P6uVAa3m": "1:0:0,1:0:0,1:0:0"
  },
  {
    "SP29fLtH": "87009",
    "j28VNcUW": "87101",
    "tA4T0GXB": "87009",
    "i5r7Vjkq": "4",
    "E0yfb8eK": "4",
    "g9EcMPR6": "0",
    "P6uVAa3m": "2:6000:0,2:6000:0,2:6000:0"
  },
  {
    "SP29fLtH": "87010",
    "j28VNcUW": "87101",
    "tA4T0GXB": "87010",
    "i5r7Vjkq": "4",
    "E0yfb8eK": "4",
    "g9EcMPR6": "0",
    "P6uVAa3m": "2:6000:0,2:6000:0,2:6000:0"
  },
  {
    "SP29fLtH": "87011",
    "j28VNcUW": "87101",
    "tA4T0GXB": "87011",
    "i5r7Vjkq": "3",
    "E0yfb8eK": "3",
    "g9EcMPR6": "0",
    "P6uVAa3m": "2:6000:0,2:6000:0,2:6000:0"
  },
  {
    "SP29fLtH": "87012",
    "j28VNcUW": "87001",
    "tA4T0GXB": "87012",
    "i5r7Vjkq": "3",
    "E0yfb8eK": "3",
    "g9EcMPR6": "1",
    "P6uVAa3m": "1:0:0,1:0:0,1:0:0"
  },
  {
    "SP29fLtH": "87013",
    "j28VNcUW": "87001",
    "tA4T0GXB": "87013",
    "i5r7Vjkq": "4",
    "E0yfb8eK": "4",
    "g9EcMPR6": "1",
    "P6uVAa3m": "3:87012:0,3:87012:0,3:87012:0"
  },
  {
    "SP29fLtH": "87014",
    "j28VNcUW": "87002",
    "tA4T0GXB": "87014",
    "i5r7Vjkq": "3",
    "E0yfb8eK": "3",
    "g9EcMPR6": "1",
    "P6uVAa3m": "1:0:0,1:0:0,1:0:0"
  },
  {
    "SP29fLtH": "87015",
    "j28VNcUW": "87002",
    "tA4T0GXB": "87015",
    "i5r7Vjkq": "4",
    "E0yfb8eK": "4",
    "g9EcMPR6": "1",
    "P6uVAa3m": "3:87014:0,3:87014:0,3:87014:0"
  },
  {
    "SP29fLtH": "87016",
    "j28VNcUW": "87003",
    "tA4T0GXB": "87016",
    "i5r7Vjkq": "3",
    "E0yfb8eK": "3",
    "g9EcMPR6": "1",
    "P6uVAa3m": "1:0:0,1:0:0,1:0:0"
  },
  {
    "SP29fLtH": "87017",
    "j28VNcUW": "87003",
    "tA4T0GXB": "87017",
    "i5r7Vjkq": "4",
    "E0yfb8eK": "4",
    "g9EcMPR6": "1",
    "P6uVAa3m": "3:87016:0,3:87016:0,3:87016:0"
  },
  {
    "SP29fLtH": "87018",
    "j28VNcUW": "87004",
    "tA4T0GXB": "87018",
    "i5r7Vjkq": "3",
    "E0yfb8eK": "3",
    "g9EcMPR6": "1",
    "P6uVAa3m": "1:0:0,1:0:0,1:0:0"
  },
  {
    "SP29fLtH": "87019",
    "j28VNcUW": "87004",
    "tA4T0GXB": "87019",
    "i5r7Vjkq": "6",
    "E0yfb8eK": "6",
    "g9EcMPR6": "1",
    "P6uVAa3m": "3:87018:0,3:87018:0,3:87018:0"
  },
  {
    "SP29fLtH": "87020",
    "j28VNcUW": "87005",
    "tA4T0GXB": "87020",
    "i5r7Vjkq": "6",
    "E0yfb8eK": "6",
    "g9EcMPR6": "1",
    "P6uVAa3m": "1:0:0,1:0:0,1:0:0"
  },
  {
    "SP29fLtH": "87021",
    "j28VNcUW": "87005",
    "tA4T0GXB": "87021",
    "i5r7Vjkq": "5",
    "E0yfb8eK": "5",
    "g9EcMPR6": "1",
    "P6uVAa3m": "3:87020:0,3:87020:0,3:87020:0"
  },
  {
    "SP29fLtH": "87042",
    "j28VNcUW": "87106",
    "tA4T0GXB": "87042",
    "i5r7Vjkq": "3",
    "E0yfb8eK": "3",
    "g9EcMPR6": "1",
    "P6uVAa3m": "1:0:0,1:0:0,1:0:0"
  },
  {
    "SP29fLtH": "87043",
    "j28VNcUW": "87106",
    "tA4T0GXB": "87043",
    "i5r7Vjkq": "4",
    "E0yfb8eK": "4",
    "g9EcMPR6": "1",
    "P6uVAa3m": "1:0:0,1:0:0,1:0:0"
  },
  {
    "SP29fLtH": "87044",
    "j28VNcUW": "87102",
    "tA4T0GXB": "87044",
    "i5r7Vjkq": "4",
    "E0yfb8eK": "4",
    "g9EcMPR6": "1",
    "P6uVAa3m": "1:0:0,1:0:0,1:0:0"
  },
  {
    "SP29fLtH": "87045",
    "j28VNcUW": "87103",
    "tA4T0GXB": "87049",
    "i5r7Vjkq": "4",
    "E0yfb8eK": "4",
    "g9EcMPR6": "1",
    "P6uVAa3m": "1:0:0,1:0:0,1:0:0"
  },
  {
    "SP29fLtH": "87046",
    "j28VNcUW": "87103",
    "tA4T0GXB": "87050",
    "i5r7Vjkq": "3",
    "E0yfb8eK": "3",
    "g9EcMPR6": "1",
    "P6uVAa3m": "1:0:0,1:0:0,1:0:0"
  },
  {
    "SP29fLtH": "87047",
    "j28VNcUW": "87104",
    "tA4T0GXB": "87049",
    "i5r7Vjkq": "4",
    "E0yfb8eK": "4",
    "g9EcMPR6": "1",
    "P6uVAa3m": "1:0:0,1:0:0,1:0:0"
  },
  {
    "SP29fLtH": "87048",
    "j28VNcUW": "87104",
    "tA4T0GXB": "87051",
    "i5r7Vjkq": "2",
    "E0yfb8eK": "2",
    "g9EcMPR6": "1",
    "P6uVAa3m": "1:0:0,1:0:0,1:0:0"
  },
  {
    "SP29fLtH": "87049",
    "j28VNcUW": "87104",
    "tA4T0GXB": "87052",
    "i5r7Vjkq": "3",
    "E0yfb8eK": "3",
    "g9EcMPR6": "1",
    "P6uVAa3m": "1:0:0,1:0:0,1:0:0"
  },
  {
    "SP29fLtH": "87050",
    "j28VNcUW": "87107",
    "tA4T0GXB": "87054",
    "i5r7Vjkq": "3",
    "E0yfb8eK": "3",
    "g9EcMPR6": "1",
    "P6uVAa3m": "1:0:0,1:0:0,1:0:0"
  },
  {
    "SP29fLtH": "87051",
    "j28VNcUW": "87108",
    "tA4T0GXB": "87059",
    "i5r7Vjkq": "3",
    "E0yfb8eK": "3",
    "g9EcMPR6": "1",
    "P6uVAa3m": "1:0:0,1:0:0,1:0:0"
  },
  {
    "SP29fLtH": "87052",
    "j28VNcUW": "87108",
    "tA4T0GXB": "87060",
    "i5r7Vjkq": "2",
    "E0yfb8eK": "2",
    "g9EcMPR6": "1",
    "P6uVAa3m": "1:0:0,1:0:0,1:0:0"
  },
  {
    "SP29fLtH": "87053",
    "j28VNcUW": "87109",
    "tA4T0GXB": "87059",
    "i5r7Vjkq": "3",
    "E0yfb8eK": "3",
    "g9EcMPR6": "1",
    "P6uVAa3m": "1:0:0,1:0:0,1:0:0"
  },
  {
    "SP29fLtH": "87054",
    "j28VNcUW": "87109",
    "tA4T0GXB": "87061",
    "i5r7Vjkq": "2",
    "E0yfb8eK": "2",
    "g9EcMPR6": "1",
    "P6uVAa3m": "1:0:0,1:0:0,1:0:0"
  },
  {
    "SP29fLtH": "87055",
    "j28VNcUW": "87109",
    "tA4T0GXB": "87062",
    "i5r7Vjkq": "4",
    "E0yfb8eK": "4",
    "g9EcMPR6": "1",
    "P6uVAa3m": "1:0:0,1:0:0,1:0:0"
  },
  {
    "SP29fLtH": "87056",
    "j28VNcUW": "87110",
    "tA4T0GXB": "87064",
    "i5r7Vjkq": "4",
    "E0yfb8eK": "4",
    "g9EcMPR6": "1",
    "P6uVAa3m": "1:0:0,1:0:0,1:0:0"
  },
  {
    "SP29fLtH": "87057",
    "j28VNcUW": "87111",
    "tA4T0GXB": "87069",
    "i5r7Vjkq": "4",
    "E0yfb8eK": "4",
    "g9EcMPR6": "1",
    "P6uVAa3m": "1:0:0,1:0:0,1:0:0"
  },
  {
    "SP29fLtH": "87058",
    "j28VNcUW": "87111",
    "tA4T0GXB": "87070",
    "i5r7Vjkq": "6",
    "E0yfb8eK": "6",
    "g9EcMPR6": "1",
    "P6uVAa3m": "1:0:0,1:0:0,1:0:0"
  },
  {
    "SP29fLtH": "87059",
    "j28VNcUW": "87112",
    "tA4T0GXB": "87069",
    "i5r7Vjkq": "4",
    "E0yfb8eK": "4",
    "g9EcMPR6": "1",
    "P6uVAa3m": "1:0:0,1:0:0,1:0:0"
  },
  {
    "SP29fLtH": "87060",
    "j28VNcUW": "87112",
    "tA4T0GXB": "87071",
    "i5r7Vjkq": "6",
    "E0yfb8eK": "6",
    "g9EcMPR6": "1",
    "P6uVAa3m": "1:0:0,1:0:0,1:0:0"
  },
  {
    "SP29fLtH": "87061",
    "j28VNcUW": "87112",
    "tA4T0GXB": "87072",
    "i5r7Vjkq": "3",
    "E0yfb8eK": "3",
    "g9EcMPR6": "1",
    "P6uVAa3m": "1:0:0,1:0:0,1:0:0"
  },
  {
    "SP29fLtH": "87062",
    "j28VNcUW": "87113",
    "tA4T0GXB": "87074",
    "i5r7Vjkq": "6",
    "E0yfb8eK": "6",
    "g9EcMPR6": "1",
    "P6uVAa3m": "1:0:0,1:0:0,1:0:0"
  },
  {
    "SP29fLtH": "87063",
    "j28VNcUW": "87114",
    "tA4T0GXB": "87079",
    "i5r7Vjkq": "6",
    "E0yfb8eK": "6",
    "g9EcMPR6": "1",
    "P6uVAa3m": "1:0:0,1:0:0,1:0:0"
  },
  {
    "SP29fLtH": "87064",
    "j28VNcUW": "87114",
    "tA4T0GXB": "87080",
    "i5r7Vjkq": "3",
    "E0yfb8eK": "3",
    "g9EcMPR6": "1",
    "P6uVAa3m": "1:0:0,1:0:0,1:0:0"
  },
  {
    "SP29fLtH": "87065",
    "j28VNcUW": "87115",
    "tA4T0GXB": "87079",
    "i5r7Vjkq": "6",
    "E0yfb8eK": "6",
    "g9EcMPR6": "1",
    "P6uVAa3m": "1:0:0,1:0:0,1:0:0"
  },
  {
    "SP29fLtH": "87066",
    "j28VNcUW": "87115",
    "tA4T0GXB": "87081",
    "i5r7Vjkq": "5",
    "E0yfb8eK": "5",
    "g9EcMPR6": "1",
    "P6uVAa3m": "1:0:0,1:0:0,1:0:0"
  },
  {
    "SP29fLtH": "87067",
    "j28VNcUW": "87115",
    "tA4T0GXB": "87082",
    "i5r7Vjkq": "3",
    "E0yfb8eK": "3",
    "g9EcMPR6": "1",
    "P6uVAa3m": "1:0:0,1:0:0,1:0:0"
  },
  {
    "SP29fLtH": "87068",
    "j28VNcUW": "87116",
    "tA4T0GXB": "87084",
    "i5r7Vjkq": "5",
    "E0yfb8eK": "5",
    "g9EcMPR6": "1",
    "P6uVAa3m": "1:0:0,1:0:0,1:0:0"
  },
  {
    "SP29fLtH": "87069",
    "j28VNcUW": "87117",
    "tA4T0GXB": "87089",
    "i5r7Vjkq": "5",
    "E0yfb8eK": "5",
    "g9EcMPR6": "1",
    "P6uVAa3m": "1:0:0,1:0:0,1:0:0"
  },
  {
    "SP29fLtH": "87070",
    "j28VNcUW": "87117",
    "tA4T0GXB": "87090",
    "i5r7Vjkq": "2",
    "E0yfb8eK": "2",
    "g9EcMPR6": "1",
    "P6uVAa3m": "1:0:0,1:0:0,1:0:0"
  },
  {
    "SP29fLtH": "87071",
    "j28VNcUW": "87118",
    "tA4T0GXB": "87089",
    "i5r7Vjkq": "5",
    "E0yfb8eK": "5",
    "g9EcMPR6": "1",
    "P6uVAa3m": "1:0:0,1:0:0,1:0:0"
  },
  {
    "SP29fLtH": "87072",
    "j28VNcUW": "87118",
    "tA4T0GXB": "87091",
    "i5r7Vjkq": "2",
    "E0yfb8eK": "2",
    "g9EcMPR6": "1",
    "P6uVAa3m": "1:0:0,1:0:0,1:0:0"
  },
  {
    "SP29fLtH": "87073",
    "j28VNcUW": "87118",
    "tA4T0GXB": "87092",
    "i5r7Vjkq": "6",
    "E0yfb8eK": "6",
    "g9EcMPR6": "1",
    "P6uVAa3m": "1:0:0,1:0:0,1:0:0"
  },
  {
    "SP29fLtH": "87074",
    "j28VNcUW": "87119",
    "tA4T0GXB": "87094",
    "i5r7Vjkq": "5",
    "E0yfb8eK": "5",
    "g9EcMPR6": "1",
    "P6uVAa3m": "3:87075:0,3:87076:0,3:87075:0"
  },
  {
    "SP29fLtH": "87075",
    "j28VNcUW": "87119",
    "tA4T0GXB": "87095",
    "i5r7Vjkq": "3",
    "E0yfb8eK": "3",
    "g9EcMPR6": "1",
    "P6uVAa3m": "1:0:0,1:0:0,1:0:0"
  },
  {
    "SP29fLtH": "87076",
    "j28VNcUW": "87119",
    "tA4T0GXB": "87096",
    "i5r7Vjkq": "4",
    "E0yfb8eK": "4",
    "g9EcMPR6": "1",
    "P6uVAa3m": "1:0:0,1:0:0,1:0:0"
  },
  {
    "SP29fLtH": "87077",
    "j28VNcUW": "87120",
    "tA4T0GXB": "87002",
    "i5r7Vjkq": "2",
    "E0yfb8eK": "2",
    "g9EcMPR6": "1",
    "P6uVAa3m": "1:0:0,1:0:0,1:0:0"
  },
  {
    "SP29fLtH": "87078",
    "j28VNcUW": "87121",
    "tA4T0GXB": "87007",
    "i5r7Vjkq": "2",
    "E0yfb8eK": "2",
    "g9EcMPR6": "1",
    "P6uVAa3m": "1:0:0,1:0:0,1:0:0"
  },
  {
    "SP29fLtH": "87079",
    "j28VNcUW": "87121",
    "tA4T0GXB": "87008",
    "i5r7Vjkq": "3",
    "E0yfb8eK": "3",
    "g9EcMPR6": "1",
    "P6uVAa3m": "1:0:0,1:0:0,1:0:0"
  },
  {
    "SP29fLtH": "87080",
    "j28VNcUW": "87122",
    "tA4T0GXB": "87007",
    "i5r7Vjkq": "2",
    "E0yfb8eK": "2",
    "g9EcMPR6": "1",
    "P6uVAa3m": "1:0:0,1:0:0,1:0:0"
  },
  {
    "SP29fLtH": "87081",
    "j28VNcUW": "87122",
    "tA4T0GXB": "87009",
    "i5r7Vjkq": "3",
    "E0yfb8eK": "3",
    "g9EcMPR6": "1",
    "P6uVAa3m": "1:0:0,1:0:0,1:0:0"
  },
  {
    "SP29fLtH": "87082",
    "j28VNcUW": "87122",
    "tA4T0GXB": "87010",
    "i5r7Vjkq": "4",
    "E0yfb8eK": "4",
    "g9EcMPR6": "1",
    "P6uVAa3m": "1:0:0,1:0:0,1:0:0"
  }
]